xof 0302txt 0064
template Header {
 <3D82AB43-62DA-11cf-AB39-0020AF71E433>
 WORD major;
 WORD minor;
 DWORD flags;
}

template Vector {
 <3D82AB5E-62DA-11cf-AB39-0020AF71E433>
 FLOAT x;
 FLOAT y;
 FLOAT z;
}

template Coords2d {
 <F6F23F44-7686-11cf-8F52-0040333594A3>
 FLOAT u;
 FLOAT v;
}

template Matrix4x4 {
 <F6F23F45-7686-11cf-8F52-0040333594A3>
 array FLOAT matrix[16];
}

template ColorRGBA {
 <35FF44E0-6C7C-11cf-8F52-0040333594A3>
 FLOAT red;
 FLOAT green;
 FLOAT blue;
 FLOAT alpha;
}

template ColorRGB {
 <D3E16E81-7835-11cf-8F52-0040333594A3>
 FLOAT red;
 FLOAT green;
 FLOAT blue;
}

template IndexedColor {
 <1630B820-7842-11cf-8F52-0040333594A3>
 DWORD index;
 ColorRGBA indexColor;
}

template Boolean {
 <4885AE61-78E8-11cf-8F52-0040333594A3>
 WORD truefalse;
}

template Boolean2d {
 <4885AE63-78E8-11cf-8F52-0040333594A3>
 Boolean u;
 Boolean v;
}

template MaterialWrap {
 <4885AE60-78E8-11cf-8F52-0040333594A3>
 Boolean u;
 Boolean v;
}

template TextureFilename {
 <A42790E1-7810-11cf-8F52-0040333594A3>
 STRING filename;
}

template Material {
 <3D82AB4D-62DA-11cf-AB39-0020AF71E433>
 ColorRGBA faceColor;
 FLOAT power;
 ColorRGB specularColor;
 ColorRGB emissiveColor;
 [...]
}

template MeshFace {
 <3D82AB5F-62DA-11cf-AB39-0020AF71E433>
 DWORD nFaceVertexIndices;
 array DWORD faceVertexIndices[nFaceVertexIndices];
}

template MeshFaceWraps {
 <4885AE62-78E8-11cf-8F52-0040333594A3>
 DWORD nFaceWrapValues;
 Boolean2d faceWrapValues;
}

template MeshTextureCoords {
 <F6F23F40-7686-11cf-8F52-0040333594A3>
 DWORD nTextureCoords;
 array Coords2d textureCoords[nTextureCoords];
}

template MeshMaterialList {
 <F6F23F42-7686-11cf-8F52-0040333594A3>
 DWORD nMaterials;
 DWORD nFaceIndexes;
 array DWORD faceIndexes[nFaceIndexes];
 [Material]
}

template MeshNormals {
 <F6F23F43-7686-11cf-8F52-0040333594A3>
 DWORD nNormals;
 array Vector normals[nNormals];
 DWORD nFaceNormals;
 array MeshFace faceNormals[nFaceNormals];
}

template MeshVertexColors {
 <1630B821-7842-11cf-8F52-0040333594A3>
 DWORD nVertexColors;
 array IndexedColor vertexColors[nVertexColors];
}

template Mesh {
 <3D82AB44-62DA-11cf-AB39-0020AF71E433>
 DWORD nVertices;
 array Vector vertices[nVertices];
 DWORD nFaces;
 array MeshFace faces[nFaces];
 [...]
}

Header{
1;
0;
1;
}

Mesh {
 233;
 0.82377;-4.76855;-3.48074;,
 0.49734;-7.17639;-3.09679;,
 -0.43045;-7.11096;-3.11396;,
 -0.43045;-4.52365;-3.59443;,
 0.65387;-3.10012;-3.70518;,
 -0.43045;-3.20276;-3.74294;,
 -0.43045;-1.57811;-3.70311;,
 0.47194;-1.49498;-3.65079;,
 0.10316;-13.43378;3.49400;,
 -0.04762;-12.76129;3.38997;,
 -0.01938;-12.72077;2.03704;,
 0.21186;-13.37984;1.71291;,
 -0.11212;-12.56017;3.39491;,
 -0.18038;-12.40469;1.90570;,
 0.28967;-12.92543;5.00521;,
 0.10548;-12.37603;4.97664;,
 -0.43045;-0.50159;6.91079;,
 -0.43045;-4.14867;7.72911;,
 1.61209;-4.47469;8.26907;,
 1.25705;-0.60068;6.81677;,
 -0.43045;-6.89721;7.79743;,
 0.13154;-7.22749;8.03089;,
 1.03088;-8.15122;8.56788;,
 2.02856;-6.92040;8.87252;,
 2.71662;-2.52361;7.33700;,
 2.51192;-0.64942;6.56999;,
 2.97101;-5.09746;8.44294;,
 2.33328;-9.24494;8.75148;,
 3.63150;-8.41879;8.91442;,
 1.02200;-9.92786;8.07451;,
 2.60268;-10.38123;8.33955;,
 4.08627;-10.20728;8.43134;,
 7.85322;-11.29360;-1.26181;,
 7.17921;-9.13707;-1.42752;,
 8.39635;-8.98754;0.45334;,
 9.05862;-11.20776;0.62845;,
 3.85522;-1.20301;-2.45951;,
 4.14146;-3.12000;-2.64268;,
 2.86451;-3.19706;-3.24525;,
 2.57142;-1.32099;-3.19011;,
 5.61473;-5.98324;-2.34895;,
 4.35226;-6.81400;-3.16589;,
 6.60344;-8.01291;-1.82253;,
 5.37413;-8.39171;-2.81221;,
 7.55970;-7.61460;-0.37786;,
 3.86535;-0.63218;6.08198;,
 3.83403;-2.33039;6.88332;,
 5.16895;-2.20767;5.97068;,
 4.95271;-0.69335;5.37103;,
 4.18051;-4.54568;7.82597;,
 5.53429;-3.97354;6.54599;,
 5.28417;-11.29901;8.21430;,
 5.18727;-9.92094;8.22676;,
 4.22684;-11.51842;8.43677;,
 4.77040;-7.41397;8.48383;,
 6.12511;-6.40606;7.02715;,
 6.34005;-9.52089;7.50260;,
 7.62237;-9.13677;6.03934;,
 7.29831;-6.61780;5.35718;,
 6.94336;-4.27290;4.51469;,
 6.48054;-2.34291;4.13960;,
 6.09379;-0.76728;3.69146;,
 6.99824;-2.76842;2.13318;,
 6.47794;-0.82361;2.08643;,
 7.59107;-4.68264;2.27673;,
 8.15091;-6.86451;3.40393;,
 8.51942;-8.76429;4.25839;,
 8.70583;-8.79009;2.45665;,
 8.18180;-7.32825;1.47748;,
 7.16500;-4.99644;0.03224;,
 6.52485;-2.95221;-0.03774;,
 6.10330;-0.93629;0.30227;,
 0.87143;-11.55339;-1.48002;,
 1.97304;-10.17590;-2.94263;,
 2.52519;-12.23001;-2.30078;,
 1.51627;-12.70903;-1.24405;,
 6.49377;-5.42877;-1.38400;,
 5.23496;-3.08937;-1.81767;,
 5.92106;-9.41142;-2.44799;,
 6.33471;-11.80340;-2.45981;,
 9.37915;-10.99391;2.52190;,
 9.17340;-11.16633;4.30512;,
 7.97189;-11.07792;6.46462;,
 6.60796;-11.11650;7.58157;,
 2.73986;-11.66356;8.31429;,
 1.55269;-12.06128;7.52658;,
 1.08681;-10.89265;7.46715;,
 0.35662;-11.77151;6.17231;,
 0.65739;-12.56745;6.37715;,
 0.05781;-11.35592;6.40060;,
 -0.05419;-12.08388;4.99316;,
 0.10548;-12.37603;4.97664;,
 -0.04741;-9.72908;7.37113;,
 -0.43045;-9.63206;7.29849;,
 -0.20650;-11.21465;6.34552;,
 -0.43045;-11.18391;6.28623;,
 -0.05419;-12.08388;4.99316;,
 -0.24214;-11.94412;4.92731;,
 -0.27637;-12.33346;3.00838;,
 -0.24214;-11.94412;4.92731;,
 -0.43045;-11.90307;4.79746;,
 0.28967;-12.92543;5.00521;,
 5.07318;-1.06733;-1.31741;,
 4.43453;-11.93823;-2.69663;,
 4.07961;-10.00652;-2.92473;,
 3.94577;-8.99298;-3.25485;,
 2.78705;-9.38741;-3.21739;,
 1.49505;-8.92155;-2.94404;,
 2.69138;-7.76666;-3.35590;,
 0.21347;-11.26288;-1.31642;,
 0.92246;-10.09844;-2.51395;,
 0.85665;-12.96615;-0.08519;,
 0.33557;-12.28613;0.11466;,
 -0.04703;-11.89302;0.04895;,
 -0.01062;-10.20988;-2.12064;,
 0.34064;-8.63087;-2.79206;,
 -0.99245;-7.22749;8.03089;,
 -0.81349;-9.72908;7.37113;,
 -0.65440;-11.21465;6.34552;,
 -7.61236;-1.60876;0.33777;,
 -7.54667;-1.65174;0.39454;,
 -7.37217;-1.68303;0.16896;,
 -7.43786;-1.64007;0.11218;,
 0.49734;-7.17639;-3.09679;,
 0.34064;-8.63087;-2.79206;,
 -0.43045;-8.49053;-2.76130;,
 -0.43045;-7.11096;-3.11396;,
 0.82377;-4.76855;-3.48074;,
 -0.43045;-4.52365;-3.59443;,
 0.65387;-3.10012;-3.70518;,
 -0.43045;-3.20276;-3.74294;,
 -0.43045;-1.57811;-3.70311;,
 0.47194;-1.49498;-3.65079;,
 -0.01062;-10.20988;-2.12064;,
 -0.43045;-10.24057;-2.01960;,
 -1.35824;-7.17639;-3.09679;,
 -1.20154;-8.63087;-2.79206;,
 -1.68467;-4.76855;-3.48074;,
 -1.51477;-3.10012;-3.70518;,
 -1.33284;-1.49498;-3.65079;,
 -0.43045;-0.50159;6.91079;,
 -2.11795;-0.60068;6.81677;,
 -2.47299;-4.47469;8.26907;,
 -0.43045;-4.14867;7.72911;,
 -0.43045;-6.89721;7.79743;,
 -0.99245;-7.22749;8.03089;,
 -2.88946;-6.92040;8.87252;,
 -1.89178;-8.15122;8.56788;,
 -3.37282;-0.64942;6.56999;,
 -3.57752;-2.52361;7.33700;,
 -3.83191;-5.09746;8.44294;,
 -4.49240;-8.41879;8.91442;,
 -3.19418;-9.24494;8.75148;,
 -1.88290;-9.92786;8.07451;,
 -4.71612;-1.20301;-2.45951;,
 -3.43232;-1.32099;-3.19011;,
 -3.72541;-3.19706;-3.24525;,
 -5.00236;-3.12000;-2.64268;,
 -5.21316;-6.81400;-3.16589;,
 -6.47563;-5.98324;-2.34895;,
 -6.23503;-8.39171;-2.81221;,
 -7.46434;-8.01291;-1.82253;,
 -8.04012;-9.13707;-1.42752;,
 -9.25725;-8.98754;0.45334;,
 -8.42060;-7.61460;-0.37786;,
 -4.72625;-0.63218;6.08198;,
 -5.81361;-0.69335;5.37103;,
 -6.02985;-2.20767;5.97068;,
 -4.69493;-2.33039;6.88332;,
 -6.39519;-3.97354;6.54599;,
 -5.04141;-4.54568;7.82597;,
 -6.04817;-9.92094;8.22676;,
 -4.94717;-10.20728;8.43134;,
 -5.63130;-7.41397;8.48383;,
 -6.98601;-6.40606;7.02715;,
 -7.20095;-9.52089;7.50260;,
 -8.15921;-6.61780;5.35718;,
 -8.48327;-9.13677;6.03934;,
 -7.80426;-4.27290;4.51469;,
 -7.34144;-2.34291;4.13960;,
 -6.95469;-0.76728;3.69146;,
 -7.33884;-0.82361;2.08643;,
 -7.85914;-2.76842;2.13318;,
 -8.45197;-4.68264;2.27673;,
 -9.01181;-6.86451;3.40393;,
 -9.38032;-8.76429;4.25839;,
 -9.04270;-7.32825;1.47748;,
 -9.56673;-8.79009;2.45665;,
 -8.02590;-4.99644;0.03224;,
 -7.38575;-2.95221;-0.03774;,
 -6.96420;-0.93629;0.30227;,
 -7.35468;-5.42877;-1.38400;,
 -6.09586;-3.08937;-1.81767;,
 -6.78196;-9.41142;-2.44799;,
 -3.46358;-10.38123;8.33955;,
 -1.94771;-10.89265;7.46715;,
 -0.91871;-11.35592;6.40060;,
 -1.21752;-11.77151;6.17231;,
 -0.81349;-9.72908;7.37113;,
 -0.43045;-9.63206;7.29849;,
 -0.65440;-11.21465;6.34552;,
 -0.43045;-11.18391;6.28623;,
 -5.93408;-1.06733;-1.31741;,
 -0.85028;-10.20988;-2.12064;,
 -4.80667;-8.99298;-3.25485;,
 -3.55228;-7.76666;-3.35590;,
 -2.35595;-8.92155;-2.94404;,
 -3.64795;-9.38741;-3.21739;,
 -2.83394;-10.17590;-2.94263;,
 -4.94051;-10.00652;-2.92473;,
 -1.78336;-10.09844;-2.51395;,
 -5.08774;-11.51842;8.43677;,
 -1.94771;-10.89265;7.46715;,
 -3.60076;-11.66356;8.31429;,
 -2.41359;-12.06128;7.52658;,
 -3.60076;-11.66356;8.31429;,
 -2.41359;-12.06128;7.52658;,
 -1.94771;-10.89265;7.46715;,
 -1.94771;-10.89265;7.46715;,
 -3.60076;-11.66356;8.31429;,
 -5.08774;-11.51842;8.43677;,
 -3.60076;-11.66356;8.31429;,
 -6.14507;-11.29901;8.21430;,
 -5.08774;-11.51842;8.43677;,
 -7.46886;-11.11650;7.58157;,
 -6.14507;-11.29901;8.21430;,
 -7.46886;-11.11650;7.58157;,
 -8.83279;-11.07792;6.46462;,
 -10.03430;-11.16633;4.30512;,
 -8.83279;-11.07792;6.46462;,
 -9.56673;-8.79009;2.45665;,
 -10.24005;-10.99391;2.52190;,
 -10.03430;-11.16633;4.30512;;
 
 166;
 4;0,1,2,3;,
 4;4,5,6,7;,
 4;8,9,10,11;,
 4;9,12,13,10;,
 4;9,8,14,15;,
 4;16,17,18,19;,
 4;20,21,18,17;,
 4;21,22,23,18;,
 4;19,18,24,25;,
 4;23,26,24,18;,
 4;23,27,28,26;,
 4;22,29,27,23;,
 4;28,27,30,31;,
 4;32,33,34,35;,
 4;36,37,38,39;,
 4;37,40,41,38;,
 4;40,42,43,41;,
 4;33,42,44,34;,
 4;45,46,47,48;,
 4;46,49,50,47;,
 4;51,52,31,53;,
 4;52,54,28,31;,
 4;49,54,55,50;,
 4;46,45,25,24;,
 4;49,46,24,26;,
 4;54,49,26,28;,
 4;54,52,56,55;,
 4;55,56,57,58;,
 4;50,55,58,59;,
 4;47,50,59,60;,
 4;61,48,47,60;,
 4;60,62,63,61;,
 4;59,64,62,60;,
 4;58,65,64,59;,
 4;57,66,65,58;,
 4;65,66,67,68;,
 4;64,65,68,69;,
 4;62,64,69,70;,
 4;70,71,63,62;,
 4;68,67,34,44;,
 4;72,73,74,75;,
 4;69,68,44,76;,
 4;70,69,76,77;,
 4;42,33,78,43;,
 4;42,40,76,44;,
 4;40,37,77,76;,
 4;33,32,79,78;,
 4;67,80,35,34;,
 4;66,81,80,67;,
 4;57,82,81,66;,
 4;56,83,82,57;,
 4;52,51,83,56;,
 4;30,84,53,31;,
 4;85,84,30,86;,
 4;29,86,30,27;,
 4;87,88,85,86;,
 4;89,87,86,29;,
 4;89,90,91,87;,
 4;21,92,29,22;,
 4;93,92,21,20;,
 4;92,94,89,29;,
 4;95,94,92,93;,
 4;12,96,97,98;,
 4;12,9,15,96;,
 4;99,90,89,94;,
 4;100,99,94,95;,
 4;91,101,88,87;,
 4;102,71,70,77;,
 4;37,36,102,77;,
 4;4,38,41,0;,
 4;5,4,0,3;,
 4;78,79,103,104;,
 4;105,106,107,108;,
 4;104,103,74,73;,
 4;73,106,105,104;,
 4;72,109,110,73;,
 4;73,110,107,106;,
 4;43,78,104,105;,
 4;41,43,105,108;,
 4;111,11,10,112;,
 4;112,10,13,113;,
 4;112,72,75,111;,
 4;109,72,112,113;,
 4;110,114,115,107;,
 4;115,1,108,107;,
 4;1,0,41,108;,
 4;38,4,7,39;,
 4;93,20,116,117;,
 4;95,93,117,118;,
 4;119,120,121,122;,
 4;123,124,125,126;,
 4;127,123,126,128;,
 4;129,130,131,132;,
 4;133,134,125,124;,
 4;130,129,127,128;,
 4;135,126,125,136;,
 4;137,128,126,135;,
 4;138,139,131,130;,
 4;140,141,142,143;,
 4;144,143,142,145;,
 4;145,142,146,147;,
 4;141,148,149,142;,
 4;146,142,149,150;,
 4;146,150,151,152;,
 4;147,146,152,153;,
 4;154,155,156,157;,
 4;157,156,158,159;,
 4;159,158,160,161;,
 4;162,163,164,161;,
 4;165,166,167,168;,
 4;168,167,169,170;,
 4;171,172,151,173;,
 4;170,169,174,173;,
 4;168,149,148,165;,
 4;170,150,149,168;,
 4;173,151,150,170;,
 4;173,174,175,171;,
 4;174,176,177,175;,
 4;169,178,176,174;,
 4;167,179,178,169;,
 4;180,179,167,166;,
 4;179,180,181,182;,
 4;178,179,182,183;,
 4;176,178,183,184;,
 4;177,176,184,185;,
 4;184,186,187,185;,
 4;183,188,186,184;,
 4;182,189,188,183;,
 4;189,182,181,190;,
 4;186,164,163,187;,
 4;188,191,164,186;,
 4;189,192,191,188;,
 4;161,160,193,162;,
 4;161,164,191,159;,
 4;159,191,192,157;,
 4;153,152,194,195;,
 4;196,153,195,197;,
 4;145,147,153,198;,
 4;199,144,145,198;,
 4;198,153,196,200;,
 4;201,199,198,200;,
 4;202,192,189,190;,
 4;157,192,202,154;,
 4;203,136,125,134;,
 4;130,128,137,138;,
 4;204,205,206,207;,
 4;208,209,204,207;,
 4;208,207,206,210;,
 4;160,204,209,193;,
 4;158,205,204,160;,
 4;210,206,136,203;,
 4;136,206,205,135;,
 4;135,205,158,137;,
 4;156,155,139,138;,
 4;156,138,137,158;,
 4;152,151,172,194;,
 4;211,212,213,214;,
 3;215,216,217;,
 3;218,194,219;,
 4;172,220,221,194;,
 4;171,222,223,172;,
 4;171,175,224,225;,
 4;226,175,177,227;,
 4;177,185,228,229;,
 4;185,230,231,232;,
 3;214,197,195;;
 
 MeshMaterialList {
  9;
  166;
  4,
  4,
  4,
  4,
  4,
  4,
  4,
  4,
  4,
  4,
  4,
  4,
  4,
  4,
  4,
  4,
  4,
  4,
  4,
  4,
  4,
  4,
  4,
  4,
  4,
  4,
  4,
  4,
  4,
  4,
  4,
  4,
  4,
  4,
  4,
  4,
  4,
  4,
  4,
  4,
  4,
  4,
  4,
  4,
  4,
  4,
  4,
  4,
  4,
  4,
  4,
  4,
  4,
  4,
  4,
  4,
  4,
  4,
  4,
  4,
  4,
  4,
  4,
  4,
  4,
  4,
  4,
  4,
  4,
  4,
  4,
  4,
  4,
  4,
  4,
  4,
  4,
  4,
  4,
  4,
  4,
  4,
  4,
  4,
  4,
  4,
  4,
  4,
  4,
  8,
  4,
  4,
  4,
  4,
  4,
  4,
  4,
  4,
  4,
  4,
  4,
  4,
  4,
  4,
  4,
  4,
  4,
  4,
  4,
  4,
  4,
  4,
  4,
  4,
  4,
  4,
  4,
  4,
  4,
  4,
  4,
  4,
  4,
  4,
  4,
  4,
  4,
  4,
  4,
  4,
  4,
  4,
  4,
  4,
  4,
  4,
  4,
  4,
  4,
  4,
  4,
  4,
  4,
  4,
  4,
  4,
  4,
  4,
  4,
  4,
  4,
  4,
  4,
  4,
  4,
  4,
  8,
  1,
  1,
  4,
  4,
  4,
  4,
  4,
  4,
  4;;
  Material {
   0.765600;0.659200;0.241600;1.000000;;
   5.000000;
   0.000000;0.000000;0.000000;;
   0.000000;0.000000;0.000000;;
  }
  Material {
   0.000000;0.000000;0.000000;1.000000;;
   5.000000;
   0.000000;0.000000;0.000000;;
   0.000000;0.000000;0.000000;;
  }
  Material {
   0.800000;0.800000;0.800000;1.000000;;
   5.000000;
   0.000000;0.000000;0.000000;;
   0.000000;0.000000;0.000000;;
  }
  Material {
   0.800000;0.000000;0.060000;1.000000;;
   5.000000;
   0.000000;0.000000;0.000000;;
   0.000000;0.000000;0.000000;;
  }
  Material {
   0.000000;0.690400;0.251200;1.000000;;
   5.000000;
   0.000000;0.000000;0.000000;;
   0.000000;0.000000;0.000000;;
  }
  Material {
   0.800000;0.768800;0.000000;1.000000;;
   5.000000;
   0.000000;0.000000;0.000000;;
   0.000000;0.000000;0.000000;;
  }
  Material {
   0.000000;0.000000;0.000000;1.000000;;
   5.000000;
   0.000000;0.000000;0.000000;;
   0.000000;0.000000;0.000000;;
  }
  Material {
   0.743200;0.263200;0.094400;1.000000;;
   5.000000;
   0.000000;0.000000;0.000000;;
   0.000000;0.000000;0.000000;;
  }
  Material {
   1.000000;1.000000;1.000000;1.000000;;
   0.000000;
   0.000000;0.000000;0.000000;;
   0.000000;0.000000;0.000000;;
  }
 }
 MeshNormals {
  209;
  -0.265005;-0.279921;-0.922722;,
  -0.054775;-0.136993;-0.989057;,
  -0.217123;-0.231033;-0.948410;,
  0.030259;-0.170421;-0.984907;,
  0.052433;-0.098571;-0.993748;,
  0.042687;-0.144811;-0.988538;,
  0.114409;-0.018580;-0.993260;,
  0.049346;-0.043555;-0.997832;,
  0.043326;0.032225;-0.998541;,
  0.125947;0.045696;-0.990984;,
  0.897262;0.245871;-0.366700;,
  0.959500;0.279670;-0.033823;,
  0.719531;0.164383;-0.674725;,
  0.409655;0.049933;-0.910873;,
  0.061878;-0.121719;-0.990634;,
  -0.316916;-0.329786;-0.889272;,
  -0.642996;-0.449147;-0.620342;,
  -0.964492;-0.256296;0.063771;,
  -0.943492;-0.323857;0.070280;,
  -0.896504;-0.412412;-0.161854;,
  -0.931811;-0.313811;-0.182346;,
  -0.877275;-0.466822;0.111651;,
  -0.850630;-0.506960;-0.139355;,
  -0.932917;-0.261353;0.247711;,
  -0.885554;-0.377395;0.270862;,
  -0.326219;-0.314384;-0.891484;,
  -0.459286;-0.630834;-0.625384;,
  -0.063068;0.276576;0.958920;,
  -0.180081;0.170877;0.968696;,
  -0.120022;0.240148;0.963288;,
  0.053049;0.328196;0.943119;,
  -0.103725;-0.118175;0.987561;,
  -0.422070;-0.048932;0.905242;,
  -0.437956;-0.075188;0.895847;,
  -0.167001;0.087740;0.982045;,
  0.191962;0.376923;0.906134;,
  0.233202;0.385925;0.892569;,
  0.150323;0.256032;0.954909;,
  -0.132025;-0.223406;0.965743;,
  0.156891;-0.035017;0.986995;,
  -0.426767;-0.378529;0.821332;,
  -0.214578;-0.229022;0.949476;,
  0.111271;-0.105814;0.988141;,
  0.721145;0.141383;-0.678204;,
  0.887832;0.241146;-0.391922;,
  0.539859;0.162168;-0.825987;,
  0.536902;0.174269;-0.825449;,
  0.316088;0.072975;-0.945919;,
  0.331999;0.092574;-0.938726;,
  0.596442;0.155921;-0.787367;,
  0.270113;0.031708;-0.962306;,
  0.689601;0.121527;-0.713920;,
  0.437798;-0.013649;-0.898970;,
  0.856108;0.204244;-0.474725;,
  0.407643;0.385171;0.827931;,
  0.403530;0.391441;0.827005;,
  0.663006;0.354944;0.659119;,
  0.658913;0.356642;0.662299;,
  0.419765;0.332385;0.844581;,
  0.685935;0.327231;0.649932;,
  0.330930;0.044885;0.942587;,
  0.398002;0.013338;0.917287;,
  0.060953;-0.000280;0.998141;,
  0.455328;0.124523;0.881573;,
  0.700851;0.222294;0.677786;,
  0.631775;0.142782;0.761889;,
  0.794362;0.237455;0.559110;,
  0.844849;0.274999;0.458918;,
  0.870926;0.304397;0.385786;,
  0.877545;0.305806;0.369321;,
  0.876342;0.308002;0.370350;,
  0.961161;0.275802;-0.010102;,
  0.964540;0.263766;-0.009505;,
  0.957516;0.286390;0.033828;,
  0.947259;0.283437;0.149542;,
  0.926136;0.274309;0.258896;,
  0.957332;0.278384;-0.077570;,
  0.947420;0.253004;-0.195921;,
  0.910627;0.255156;-0.325045;,
  0.883770;0.261580;-0.387977;,
  0.885669;0.241565;-0.396530;,
  -0.555986;-0.544372;-0.628124;,
  -0.260085;-0.335201;-0.905537;,
  0.778454;0.211833;-0.590878;,
  0.717903;0.233963;-0.655649;,
  0.451316;-0.016293;-0.892215;,
  -0.641409;-0.673193;-0.367975;,
  0.916641;0.267195;0.297282;,
  0.762922;0.230364;0.604055;,
  0.566707;0.142426;0.811515;,
  -0.290238;-0.066499;0.954641;,
  -0.635539;-0.157152;0.755906;,
  -0.514453;-0.345336;0.784909;,
  -0.738866;-0.417074;0.529270;,
  -0.844271;-0.237982;0.480178;,
  -0.568914;-0.594306;0.568452;,
  -0.756003;-0.585093;0.293473;,
  -0.437342;-0.352613;0.827282;,
  0.000000;-0.386804;0.922162;,
  -0.434412;-0.661443;0.611375;,
  -0.122879;-0.676038;0.726549;,
  -0.575984;-0.742262;0.342475;,
  -0.773464;-0.608088;0.178835;,
  -0.342949;-0.839243;0.421968;,
  0.715346;0.217253;-0.664140;,
  0.131390;-0.198699;-0.971213;,
  0.121518;-0.161129;-0.979424;,
  -0.128597;-0.184235;-0.974433;,
  -0.217889;-0.169025;-0.961226;,
  -0.028531;-0.083052;-0.996137;,
  -0.813182;-0.419364;-0.403570;,
  -0.736351;-0.552539;-0.390497;,
  0.349974;-0.197138;0.915781;,
  0.322355;-0.366151;0.872938;,
  0.284690;-0.523754;0.802891;,
  0.412681;0.889583;0.195797;,
  0.000000;-0.380821;-0.924649;,
  -0.146968;-0.376686;-0.914608;,
  -0.003479;-0.196613;-0.980475;,
  -0.092546;-0.301051;-0.949107;,
  0.000000;-0.302348;-0.953197;,
  0.000000;-0.196615;-0.980481;,
  0.000000;-0.144943;-0.989440;,
  0.000000;-0.043608;-0.999049;,
  0.000000;0.032255;-0.999480;,
  0.063068;0.276576;0.958920;,
  0.180080;0.170876;0.968696;,
  0.324191;-0.068729;0.943492;,
  0.206590;-0.329266;-0.921360;,
  0.050404;-0.158555;-0.986063;,
  0.155303;-0.266683;-0.951189;,
  -0.052433;-0.098571;-0.993748;,
  -0.114409;-0.018580;-0.993260;,
  -0.125947;0.045696;-0.990984;,
  0.289206;-0.200524;-0.936029;,
  -0.053049;0.328196;0.943119;,
  0.120022;0.240147;0.963288;,
  0.422069;-0.048932;0.905242;,
  0.167001;0.087740;0.982045;,
  0.437957;-0.075187;0.895846;,
  -0.233202;0.385925;0.892569;,
  -0.191962;0.376923;0.906135;,
  -0.150323;0.256032;0.954909;,
  -0.156891;-0.035017;0.986995;,
  0.132025;-0.223406;0.965743;,
  0.426768;-0.378529;0.821331;,
  -0.111271;-0.105814;0.988141;,
  0.210840;-0.217244;0.953075;,
  -0.877784;0.236265;-0.416743;,
  -0.722364;0.118360;-0.681308;,
  -0.539859;0.162168;-0.825987;,
  -0.331999;0.092574;-0.938726;,
  -0.316088;0.072975;-0.945919;,
  -0.536901;0.174269;-0.825450;,
  -0.270113;0.031708;-0.962306;,
  -0.596441;0.155920;-0.787367;,
  -0.437798;-0.013649;-0.898970;,
  -0.689600;0.121527;-0.713921;,
  -0.856108;0.204244;-0.474725;,
  -0.407643;0.385171;0.827931;,
  -0.658913;0.356642;0.662299;,
  -0.663006;0.354945;0.659119;,
  -0.403530;0.391441;0.827005;,
  -0.685935;0.327231;0.649932;,
  -0.419765;0.332385;0.844581;,
  -0.398003;0.013338;0.917287;,
  -0.455328;0.124522;0.881573;,
  -0.700851;0.222294;0.677786;,
  -0.631775;0.142782;0.761888;,
  -0.844849;0.274999;0.458918;,
  -0.794362;0.237455;0.559110;,
  -0.870926;0.304397;0.385786;,
  -0.877545;0.305806;0.369321;,
  -0.876342;0.308002;0.370350;,
  -0.964540;0.263766;-0.009505;,
  -0.961161;0.275802;-0.010102;,
  -0.957516;0.286390;0.033828;,
  -0.947259;0.283437;0.149542;,
  -0.926136;0.274309;0.258896;,
  -0.947420;0.253004;-0.195920;,
  -0.953331;0.276566;-0.121120;,
  -0.910627;0.255157;-0.325043;,
  -0.883770;0.261581;-0.387977;,
  -0.885669;0.241566;-0.396530;,
  0.131491;-0.230963;-0.964036;,
  -0.778454;0.211833;-0.590878;,
  -0.717903;0.233964;-0.655649;,
  -0.489789;-0.081938;-0.867982;,
  0.509821;-0.443826;0.736954;,
  0.617691;-0.426307;0.660848;,
  0.471565;-0.518852;0.713035;,
  0.437342;-0.352607;0.827285;,
  0.386779;-0.500384;0.774608;,
  -0.715346;0.217253;-0.664140;,
  -0.199292;-0.273307;-0.941056;,
  -0.121518;-0.161129;-0.979424;,
  0.028531;-0.083052;-0.996137;,
  0.217889;-0.169025;-0.961226;,
  0.128597;-0.184235;-0.974433;,
  -0.053319;0.265975;-0.962504;,
  0.508139;-0.159530;0.846372;,
  0.480145;-0.068591;0.874503;,
  0.070407;-0.015288;0.997401;,
  -0.191247;0.014733;0.981431;,
  -0.463355;0.074051;0.883073;,
  -0.658456;0.207884;0.723340;,
  -0.847822;0.246935;0.469277;,
  -0.953625;0.278177;0.114962;,
  0.749826;-0.268162;0.604856;;
  166;
  4;4,1,3,5;,
  4;6,7,8,9;,
  4;17,18,19,20;,
  4;18,21,22,19;,
  4;18,17,23,24;,
  4;27,28,29,30;,
  4;31,32,29,28;,
  4;32,33,34,29;,
  4;30,29,35,36;,
  4;34,37,35,29;,
  4;34,38,39,37;,
  4;33,40,38,34;,
  4;39,38,41,42;,
  4;12,43,44,10;,
  4;45,46,47,48;,
  4;46,49,50,47;,
  4;49,51,52,50;,
  4;43,51,53,44;,
  4;54,55,56,57;,
  4;55,58,59,56;,
  4;60,61,42,62;,
  4;61,63,39,42;,
  4;58,63,64,59;,
  4;55,54,36,35;,
  4;58,55,35,37;,
  4;63,58,37,39;,
  4;63,61,65,64;,
  4;64,65,66,67;,
  4;59,64,67,68;,
  4;56,59,68,69;,
  4;70,57,56,69;,
  4;69,71,72,70;,
  4;68,73,71,69;,
  4;67,74,73,68;,
  4;66,75,74,67;,
  4;74,75,76,77;,
  4;73,74,77,78;,
  4;71,73,78,79;,
  4;79,80,72,71;,
  4;77,76,44,53;,
  4;81,82,15,16;,
  4;78,77,53,83;,
  4;79,78,83,84;,
  4;51,43,85,52;,
  4;51,49,83,53;,
  4;49,46,84,83;,
  4;43,12,13,85;,
  4;76,11,10,44;,
  4;75,87,11,76;,
  4;66,88,87,75;,
  4;65,89,88,66;,
  4;61,60,89,65;,
  4;41,90,62,42;,
  4;91,90,41,92;,
  4;40,92,41,38;,
  4;93,94,91,92;,
  4;95,93,92,40;,
  4;95,96,24,93;,
  4;32,97,40,33;,
  4;98,97,32,31;,
  4;97,99,95,40;,
  4;100,99,97,98;,
  4;21,96,101,102;,
  4;21,18,24,96;,
  4;101,96,95,99;,
  4;103,101,99,100;,
  4;24,23,94,93;,
  4;104,80,79,84;,
  4;46,45,104,84;,
  4;6,47,50,4;,
  4;7,6,4,5;,
  4;85,13,14,105;,
  4;106,107,108,109;,
  4;105,14,15,82;,
  4;82,107,106,105;,
  4;81,26,25,82;,
  4;82,25,108,107;,
  4;52,85,105,106;,
  4;50,52,106,109;,
  4;110,20,19,111;,
  4;111,19,22,86;,
  4;111,81,16,110;,
  4;26,81,111,86;,
  4;25,0,2,108;,
  4;2,1,109,108;,
  4;1,4,50,109;,
  4;47,6,9,48;,
  4;98,31,112,113;,
  4;100,98,113,114;,
  4;115,115,115,115;,
  4;118,119,120,121;,
  4;5,118,121,122;,
  4;7,123,124,8;,
  4;117,116,120,119;,
  4;123,7,5,122;,
  4;129,121,120,130;,
  4;131,122,121,129;,
  4;132,133,124,123;,
  4;125,135,136,126;,
  4;127,126,136,137;,
  4;137,136,138,139;,
  4;135,140,141,136;,
  4;138,136,141,142;,
  4;138,142,143,144;,
  4;139,138,144,145;,
  4;150,151,152,153;,
  4;153,152,154,155;,
  4;155,154,156,157;,
  4;149,148,158,157;,
  4;159,160,161,162;,
  4;162,161,163,164;,
  4;165,146,143,166;,
  4;164,163,167,166;,
  4;162,141,140,159;,
  4;164,142,141,162;,
  4;166,143,142,164;,
  4;166,167,168,165;,
  4;167,169,170,168;,
  4;163,171,169,167;,
  4;161,172,171,163;,
  4;173,172,161,160;,
  4;172,173,174,175;,
  4;171,172,175,176;,
  4;169,171,176,177;,
  4;170,169,177,178;,
  4;177,179,180,178;,
  4;176,181,179,177;,
  4;175,182,181,176;,
  4;182,175,174,183;,
  4;179,158,148,180;,
  4;181,185,158,179;,
  4;182,186,185,181;,
  4;157,156,187,149;,
  4;157,158,185,155;,
  4;155,185,186,153;,
  4;145,144,147,188;,
  4;190,145,188,189;,
  4;137,139,145,191;,
  4;113,127,137,191;,
  4;191,145,190,192;,
  4;114,113,191,192;,
  4;193,186,182,183;,
  4;153,186,193,150;,
  4;128,130,120,116;,
  4;123,122,131,132;,
  4;195,196,197,198;,
  4;184,194,195,198;,
  4;184,198,197,134;,
  4;156,195,194,187;,
  4;154,196,195,156;,
  4;134,197,130,128;,
  4;130,197,196,129;,
  4;129,196,154,131;,
  4;152,151,133,132;,
  4;152,132,131,154;,
  4;144,143,146,147;,
  4;199,199,199,199;,
  3;200,200,200;,
  3;201,147,201;,
  4;146,202,202,147;,
  4;165,203,203,146;,
  4;165,168,204,204;,
  4;205,168,170,205;,
  4;170,178,206,206;,
  4;178,207,207,207;,
  3;208,189,188;;
 }
 MeshTextureCoords {
  233;
  0.066680;0.664740;,
  0.095810;0.650820;,
  0.091630;0.640610;,
  0.059410;0.651250;,
  0.045480;0.669760;,
  0.043100;0.656590;,
  0.023230;0.663330;,
  0.025960;0.674740;,
  0.198360;0.560760;,
  0.190130;0.559350;,
  0.182390;0.577900;,
  0.188880;0.583540;,
  0.187980;0.558480;,
  0.177620;0.578730;,
  0.204700;0.541330;,
  0.197200;0.538420;,
  0.022610;0.911050;,
  0.069120;0.927070;,
  0.080320;0.904810;,
  0.030810;0.890330;,
  0.103160;0.938540;,
  0.110080;0.933590;,
  0.125530;0.926160;,
  0.114270;0.910450;,
  0.058970;0.881910;,
  0.035880;0.874210;,
  0.092700;0.891740;,
  0.143020;0.915580;,
  0.135810;0.897790;,
  0.148240;0.935610;,
  0.158030;0.917680;,
  0.158500;0.897840;,
  0.161400;0.729370;,
  0.136800;0.729160;,
  0.139300;0.758870;,
  0.164510;0.759850;,
  0.036810;0.720520;,
  0.059020;0.713740;,
  0.055080;0.696300;,
  0.032650;0.701810;,
  0.096530;0.718600;,
  0.102220;0.697130;,
  0.122710;0.724740;,
  0.123550;0.703850;,
  0.121510;0.748060;,
  0.040010;0.855630;,
  0.059980;0.866200;,
  0.061800;0.845260;,
  0.043600;0.838830;,
  0.088380;0.874040;,
  0.083660;0.850030;,
  0.172020;0.885280;,
  0.155830;0.882600;,
  0.173890;0.899930;,
  0.125050;0.880150;,
  0.113820;0.853640;,
  0.151220;0.863810;,
  0.146090;0.837440;,
  0.116450;0.828200;,
  0.088220;0.818580;,
  0.065100;0.815890;,
  0.046010;0.812250;,
  0.069020;0.788490;,
  0.045900;0.790600;,
  0.091960;0.788080;,
  0.118600;0.800320;,
  0.141210;0.810470;,
  0.139630;0.786230;,
  0.121540;0.774280;,
  0.091910;0.757770;,
  0.067340;0.759240;,
  0.044160;0.766770;,
  0.156030;0.627050;,
  0.137700;0.654100;,
  0.164050;0.648900;,
  0.171510;0.628070;,
  0.093620;0.736650;,
  0.063120;0.730850;,
  0.136680;0.707400;,
  0.163790;0.701990;,
  0.164750;0.786050;,
  0.168650;0.810040;,
  0.169180;0.842530;,
  0.169860;0.865690;,
  0.173130;0.919590;,
  0.175740;0.938880;,
  0.160920;0.941880;,
  0.171740;0.961820;,
  0.181830;0.957930;,
  0.164620;0.961680;,
  0.178220;0.976910;,
  0.182500;0.975970;,
  0.141920;0.949020;,
  0.137370;0.952070;,
  0.161490;0.963750;,
  0.159370;0.965250;,
  0.192950;0.536410;,
  0.189510;0.536280;,
  0.182560;0.563270;,
  0.175700;0.979080;,
  0.174480;0.982000;,
  0.189970;0.974480;,
  0.040620;0.741930;,
  0.162140;0.676140;,
  0.139880;0.680760;,
  0.127080;0.683330;,
  0.129400;0.667930;,
  0.120810;0.654050;,
  0.109280;0.673410;,
  0.150330;0.621680;,
  0.134470;0.641700;,
  0.177570;0.609530;,
  0.169410;0.604250;,
  0.163330;0.602840;,
  0.133210;0.629500;,
  0.113750;0.642400;,
  0.110080;0.933590;,
  0.141920;0.949020;,
  0.161490;0.963750;,
  0.770990;0.417060;,
  0.769460;0.417080;,
  0.769430;0.412540;,
  0.770960;0.412530;,
  0.095810;0.650820;,
  0.113750;0.642400;,
  0.108810;0.634570;,
  0.091630;0.640610;,
  0.066680;0.664740;,
  0.059410;0.651250;,
  0.045480;0.669760;,
  0.043100;0.656590;,
  0.023230;0.663330;,
  0.025960;0.674740;,
  0.133210;0.629500;,
  0.131470;0.624800;,
  0.095810;0.650820;,
  0.113750;0.642400;,
  0.066680;0.664740;,
  0.045480;0.669760;,
  0.025960;0.674740;,
  0.022610;0.911050;,
  0.030810;0.890330;,
  0.080320;0.904810;,
  0.069120;0.927070;,
  0.103160;0.938540;,
  0.110080;0.933590;,
  0.114270;0.910450;,
  0.125530;0.926160;,
  0.035880;0.874210;,
  0.058970;0.881910;,
  0.092700;0.891740;,
  0.135810;0.897790;,
  0.143020;0.915580;,
  0.148240;0.935610;,
  0.036810;0.720520;,
  0.032650;0.701810;,
  0.055080;0.696300;,
  0.059020;0.713740;,
  0.102220;0.697130;,
  0.096530;0.718600;,
  0.123550;0.703850;,
  0.122710;0.724740;,
  0.136800;0.729160;,
  0.139300;0.758870;,
  0.121510;0.748060;,
  0.040010;0.855630;,
  0.043600;0.838830;,
  0.061800;0.845260;,
  0.059980;0.866200;,
  0.083660;0.850030;,
  0.088380;0.874040;,
  0.155830;0.882600;,
  0.158500;0.897840;,
  0.125050;0.880150;,
  0.113820;0.853640;,
  0.151220;0.863810;,
  0.116450;0.828200;,
  0.146090;0.837440;,
  0.088220;0.818580;,
  0.065100;0.815890;,
  0.046010;0.812250;,
  0.045900;0.790600;,
  0.069020;0.788490;,
  0.091960;0.788080;,
  0.118600;0.800320;,
  0.141210;0.810470;,
  0.121540;0.774280;,
  0.139630;0.786230;,
  0.091910;0.757770;,
  0.067340;0.759240;,
  0.044160;0.766770;,
  0.093620;0.736650;,
  0.063120;0.730850;,
  0.136680;0.707400;,
  0.158030;0.917680;,
  0.160920;0.941880;,
  0.164620;0.961680;,
  0.171740;0.961820;,
  0.141920;0.949020;,
  0.137370;0.952070;,
  0.161490;0.963750;,
  0.159370;0.965250;,
  0.040620;0.741930;,
  0.133210;0.629500;,
  0.127080;0.683330;,
  0.109280;0.673410;,
  0.120810;0.654050;,
  0.129400;0.667930;,
  0.137700;0.654100;,
  0.139880;0.680760;,
  0.134470;0.641700;,
  0.000000;0.000000;,
  0.000000;0.000000;,
  0.000000;0.000000;,
  0.000000;0.000000;,
  0.000000;0.000000;,
  0.000000;0.000000;,
  0.000000;0.000000;,
  0.000000;0.000000;,
  0.000000;0.000000;,
  0.000000;0.000000;,
  0.000000;0.000000;,
  0.000000;0.000000;,
  0.000000;0.000000;,
  0.000000;0.000000;,
  0.000000;0.000000;,
  0.000000;0.000000;,
  0.000000;0.000000;,
  0.000000;0.000000;,
  0.000000;0.000000;,
  0.000000;0.000000;,
  0.000000;0.000000;,
  0.000000;0.000000;;
 }
}
