xof 0302txt 0064
template Header {
 <3D82AB43-62DA-11cf-AB39-0020AF71E433>
 WORD major;
 WORD minor;
 DWORD flags;
}

template Vector {
 <3D82AB5E-62DA-11cf-AB39-0020AF71E433>
 FLOAT x;
 FLOAT y;
 FLOAT z;
}

template Coords2d {
 <F6F23F44-7686-11cf-8F52-0040333594A3>
 FLOAT u;
 FLOAT v;
}

template Matrix4x4 {
 <F6F23F45-7686-11cf-8F52-0040333594A3>
 array FLOAT matrix[16];
}

template ColorRGBA {
 <35FF44E0-6C7C-11cf-8F52-0040333594A3>
 FLOAT red;
 FLOAT green;
 FLOAT blue;
 FLOAT alpha;
}

template ColorRGB {
 <D3E16E81-7835-11cf-8F52-0040333594A3>
 FLOAT red;
 FLOAT green;
 FLOAT blue;
}

template IndexedColor {
 <1630B820-7842-11cf-8F52-0040333594A3>
 DWORD index;
 ColorRGBA indexColor;
}

template Boolean {
 <4885AE61-78E8-11cf-8F52-0040333594A3>
 WORD truefalse;
}

template Boolean2d {
 <4885AE63-78E8-11cf-8F52-0040333594A3>
 Boolean u;
 Boolean v;
}

template MaterialWrap {
 <4885AE60-78E8-11cf-8F52-0040333594A3>
 Boolean u;
 Boolean v;
}

template TextureFilename {
 <A42790E1-7810-11cf-8F52-0040333594A3>
 STRING filename;
}

template Material {
 <3D82AB4D-62DA-11cf-AB39-0020AF71E433>
 ColorRGBA faceColor;
 FLOAT power;
 ColorRGB specularColor;
 ColorRGB emissiveColor;
 [...]
}

template MeshFace {
 <3D82AB5F-62DA-11cf-AB39-0020AF71E433>
 DWORD nFaceVertexIndices;
 array DWORD faceVertexIndices[nFaceVertexIndices];
}

template MeshFaceWraps {
 <4885AE62-78E8-11cf-8F52-0040333594A3>
 DWORD nFaceWrapValues;
 Boolean2d faceWrapValues;
}

template MeshTextureCoords {
 <F6F23F40-7686-11cf-8F52-0040333594A3>
 DWORD nTextureCoords;
 array Coords2d textureCoords[nTextureCoords];
}

template MeshMaterialList {
 <F6F23F42-7686-11cf-8F52-0040333594A3>
 DWORD nMaterials;
 DWORD nFaceIndexes;
 array DWORD faceIndexes[nFaceIndexes];
 [Material]
}

template MeshNormals {
 <F6F23F43-7686-11cf-8F52-0040333594A3>
 DWORD nNormals;
 array Vector normals[nNormals];
 DWORD nFaceNormals;
 array MeshFace faceNormals[nFaceNormals];
}

template MeshVertexColors {
 <1630B821-7842-11cf-8F52-0040333594A3>
 DWORD nVertexColors;
 array IndexedColor vertexColors[nVertexColors];
}

template Mesh {
 <3D82AB44-62DA-11cf-AB39-0020AF71E433>
 DWORD nVertices;
 array Vector vertices[nVertices];
 DWORD nFaces;
 array MeshFace faces[nFaces];
 [...]
}

Header{
1;
0;
1;
}

Mesh {
 113;
 0.00000;56.04608;-29.04644;,
 21.03640;56.04608;-20.33284;,
 21.03640;0.74608;-20.33284;,
 0.00000;0.74608;-29.04644;,
 29.75000;56.04608;0.70356;,
 29.75000;0.74608;0.70356;,
 21.03640;56.04608;21.73996;,
 21.03640;0.74608;21.73996;,
 0.00000;56.04608;30.45356;,
 0.00000;0.74608;30.45356;,
 -21.03640;56.04608;21.73996;,
 -21.03640;0.74608;21.73996;,
 -29.75000;56.04608;0.70356;,
 -29.75000;0.74608;0.70356;,
 -21.03640;56.04608;-20.33284;,
 -21.03640;0.74608;-20.33284;,
 0.00000;56.04608;-29.04644;,
 0.00000;0.74608;-29.04644;,
 0.00000;56.04608;0.70356;,
 0.00000;56.04608;0.70356;,
 0.00000;56.04608;0.70356;,
 0.00000;56.04608;0.70356;,
 0.00000;56.04608;0.70356;,
 0.00000;56.04608;0.70356;,
 0.00000;56.04608;0.70356;,
 0.00000;56.04608;0.70356;,
 0.00000;0.74608;0.70356;,
 0.00000;0.74608;0.70356;,
 0.00000;0.74608;0.70356;,
 0.00000;0.74608;0.70356;,
 0.00000;0.74608;0.70356;,
 0.00000;0.74608;0.70356;,
 0.00000;0.74608;0.70356;,
 0.00000;0.74608;0.70356;,
 0.00000;178.90658;-0.11726;,
 16.17637;174.35609;-16.29363;,
 0.00000;174.35609;-22.99410;,
 0.00000;178.90658;-0.11726;,
 22.87684;174.35609;-0.11726;,
 0.00000;178.90658;-0.11726;,
 16.17637;174.35609;16.05904;,
 0.00000;178.90658;-0.11726;,
 0.00000;174.35609;22.75951;,
 0.00000;178.90658;-0.11726;,
 -16.17637;174.35609;16.05904;,
 0.00000;178.90658;-0.11726;,
 -22.87684;174.35609;-0.11726;,
 0.00000;178.90658;-0.11726;,
 -16.17637;174.35609;-16.29363;,
 0.00000;178.90658;-0.11726;,
 0.00000;174.35609;-22.99410;,
 29.89000;148.38938;-30.00726;,
 0.00000;148.38938;-42.38816;,
 42.27083;148.38938;-0.11726;,
 29.89000;148.38938;29.77274;,
 0.00000;148.38938;42.15357;,
 -29.89000;148.38938;29.77274;,
 -42.27083;148.38938;-0.11726;,
 -29.89000;148.38938;-30.00726;,
 0.00000;148.38938;-42.38816;,
 39.05314;120.05702;-39.17047;,
 0.00000;120.05702;-55.34677;,
 55.22951;120.05702;-0.11726;,
 39.05314;120.05702;38.93588;,
 0.00000;120.05702;55.11225;,
 -39.05314;120.05702;38.93588;,
 -55.22951;120.05702;-0.11726;,
 -39.05314;120.05702;-39.17047;,
 0.00000;120.05702;-55.34677;,
 42.27083;84.10362;-42.38816;,
 0.00000;84.10362;-59.89726;,
 59.78000;84.10362;-0.11726;,
 42.27083;84.10362;42.15357;,
 0.00000;84.10362;59.66274;,
 -42.27083;84.10362;42.15357;,
 -59.78000;84.10362;-0.11726;,
 -42.27083;84.10362;-42.38809;,
 0.00000;84.10362;-59.89726;,
 39.05314;61.97557;-39.17047;,
 0.00000;61.22685;-55.34677;,
 55.22951;61.97557;-0.11726;,
 39.05314;61.97557;38.93588;,
 0.00000;61.97557;55.11225;,
 -39.05314;61.97557;38.93588;,
 -55.22951;61.97557;-0.11726;,
 -39.05314;61.22685;-39.17047;,
 0.00000;61.22685;-55.34677;,
 29.89000;42.58151;-30.00726;,
 0.00000;42.58151;-42.38816;,
 42.27083;42.58151;-0.11726;,
 29.89000;42.58151;29.77274;,
 0.00000;42.58151;42.15357;,
 -29.89000;42.58151;29.77274;,
 -42.27083;42.58151;-0.11726;,
 -29.89000;42.58151;-30.00726;,
 0.00000;42.58151;-42.38816;,
 16.17637;29.62283;-16.29363;,
 0.00000;29.62283;-22.99410;,
 22.87684;29.62283;-0.11726;,
 16.17637;29.62283;16.05904;,
 0.00000;29.62283;22.75951;,
 -16.17637;29.62283;16.05904;,
 -22.87684;29.62283;-0.11726;,
 -16.17637;29.62283;-16.29363;,
 0.00000;29.62283;-22.99410;,
 0.00000;25.07241;-0.11726;,
 0.00000;25.07241;-0.11726;,
 0.00000;25.07241;-0.11726;,
 0.00000;25.07241;-0.11726;,
 0.00000;25.07241;-0.11726;,
 0.00000;25.07241;-0.11726;,
 0.00000;25.07241;-0.11726;,
 0.00000;25.07241;-0.11726;;
 
 88;
 4;0,1,2,3;,
 4;1,4,5,2;,
 4;4,6,7,5;,
 4;6,8,9,7;,
 4;8,10,11,9;,
 4;10,12,13,11;,
 4;12,14,15,13;,
 4;14,16,17,15;,
 3;18,1,0;,
 3;19,4,1;,
 3;20,6,4;,
 3;21,8,6;,
 3;22,10,8;,
 3;23,12,10;,
 3;24,14,12;,
 3;25,16,14;,
 3;26,3,2;,
 3;27,2,5;,
 3;28,5,7;,
 3;29,7,9;,
 3;30,9,11;,
 3;31,11,13;,
 3;32,13,15;,
 3;33,15,17;,
 3;34,35,36;,
 3;37,38,35;,
 3;39,40,38;,
 3;41,42,40;,
 3;43,44,42;,
 3;45,46,44;,
 3;47,48,46;,
 3;49,50,48;,
 4;36,35,51,52;,
 4;35,38,53,51;,
 4;38,40,54,53;,
 4;40,42,55,54;,
 4;42,44,56,55;,
 4;44,46,57,56;,
 4;46,48,58,57;,
 4;48,50,59,58;,
 4;52,51,60,61;,
 4;51,53,62,60;,
 4;53,54,63,62;,
 4;54,55,64,63;,
 4;55,56,65,64;,
 4;56,57,66,65;,
 4;57,58,67,66;,
 4;58,59,68,67;,
 4;61,60,69,70;,
 4;60,62,71,69;,
 4;62,63,72,71;,
 4;63,64,73,72;,
 4;64,65,74,73;,
 4;65,66,75,74;,
 4;66,67,76,75;,
 4;67,68,77,76;,
 4;70,69,78,79;,
 4;69,71,80,78;,
 4;71,72,81,80;,
 4;72,73,82,81;,
 4;73,74,83,82;,
 4;74,75,84,83;,
 4;75,76,85,84;,
 4;76,77,86,85;,
 4;79,78,87,88;,
 4;78,80,89,87;,
 4;80,81,90,89;,
 4;81,82,91,90;,
 4;82,83,92,91;,
 4;83,84,93,92;,
 4;84,85,94,93;,
 4;85,86,95,94;,
 4;88,87,96,97;,
 4;87,89,98,96;,
 4;89,90,99,98;,
 4;90,91,100,99;,
 4;91,92,101,100;,
 4;92,93,102,101;,
 4;93,94,103,102;,
 4;94,95,104,103;,
 3;97,96,105;,
 3;96,98,106;,
 3;98,99,107;,
 3;99,100,108;,
 3;100,101,109;,
 3;101,102,110;,
 3;102,103,111;,
 3;103,104,112;;
 
 MeshMaterialList {
  7;
  88;
  0,
  0,
  0,
  0,
  0,
  0,
  0,
  0,
  4,
  4,
  4,
  4,
  4,
  4,
  4,
  4,
  0,
  0,
  0,
  0,
  0,
  0,
  0,
  0,
  4,
  4,
  4,
  4,
  4,
  4,
  4,
  4,
  4,
  4,
  4,
  4,
  4,
  4,
  4,
  4,
  4,
  4,
  4,
  4,
  4,
  4,
  4,
  4,
  4,
  4,
  4,
  4,
  4,
  4,
  4,
  4,
  4,
  4,
  4,
  4,
  4,
  4,
  4,
  4,
  4,
  4,
  4,
  4,
  4,
  4,
  4,
  4,
  4,
  4,
  4,
  4,
  4,
  4,
  4,
  4,
  6,
  6,
  6,
  6,
  6,
  6,
  6,
  6;;
  Material {
   0.408000;0.235200;0.135200;1.000000;;
   5.000000;
   0.000000;0.000000;0.000000;;
   0.000000;0.000000;0.000000;;
  }
  Material {
   0.718400;0.000000;0.031200;1.000000;;
   5.000000;
   0.000000;0.000000;0.000000;;
   0.000000;0.000000;0.000000;;
  }
  Material {
   0.800000;0.759200;0.112800;1.000000;;
   5.000000;
   0.000000;0.000000;0.000000;;
   0.000000;0.000000;0.000000;;
  }
  Material {
   0.778400;0.367200;0.009600;1.000000;;
   5.000000;
   0.000000;0.000000;0.000000;;
   0.000000;0.000000;0.000000;;
  }
  Material {
   0.300800;0.800000;0.097600;1.000000;;
   5.000000;
   0.000000;0.000000;0.000000;;
   0.000000;0.000000;0.000000;;
  }
  Material {
   0.392000;0.176000;0.000000;1.000000;;
   5.000000;
   0.000000;0.000000;0.000000;;
   0.000000;0.000000;0.000000;;
  }
  Material {
   1.000000;1.000000;1.000000;1.000000;;
   0.000000;
   0.000000;0.000000;0.000000;;
   0.000000;0.000000;0.000000;;
  }
 }
 MeshNormals {
  68;
  0.000000;1.000000;0.000000;,
  0.000000;0.000000;-1.000000;,
  0.707107;0.000000;-0.707107;,
  1.000000;0.000000;0.000000;,
  0.707107;0.000000;0.707107;,
  0.000000;0.000000;1.000000;,
  -0.707107;0.000000;0.707107;,
  -1.000000;0.000000;0.000000;,
  -0.707107;0.000000;-0.707107;,
  0.000000;-1.000000;-0.000000;,
  0.000000;1.000000;0.000000;,
  0.000000;0.850730;-0.525603;,
  0.371658;0.850730;-0.371657;,
  0.525603;0.850730;0.000000;,
  0.371657;0.850730;0.371657;,
  0.000000;0.850730;0.525603;,
  -0.371657;0.850730;0.371657;,
  -0.525603;0.850730;0.000000;,
  -0.371658;0.850730;-0.371657;,
  0.000000;0.510692;-0.859763;,
  0.607945;0.510692;-0.607944;,
  0.859764;0.510692;0.000000;,
  0.607944;0.510693;0.607945;,
  0.000000;0.510693;0.859763;,
  -0.607944;0.510693;0.607945;,
  -0.859764;0.510692;0.000000;,
  -0.607945;0.510692;-0.607944;,
  -0.000000;0.274747;-0.961516;,
  0.679895;0.274748;-0.679895;,
  0.961516;0.274748;0.000000;,
  0.679895;0.274747;0.679895;,
  0.000000;0.274748;0.961516;,
  -0.679895;0.274747;0.679895;,
  -0.961516;0.274748;0.000000;,
  -0.679895;0.274747;-0.679895;,
  0.000349;-0.036138;-0.999347;,
  0.706845;-0.037750;-0.706360;,
  0.999255;-0.038601;0.000000;,
  0.706580;-0.038601;0.706580;,
  0.000000;-0.038601;0.999255;,
  -0.706580;-0.038601;0.706580;,
  -0.999287;-0.037750;0.000344;,
  -0.706892;-0.036138;-0.706398;,
  0.001963;-0.392228;-0.919866;,
  0.652900;-0.388899;-0.649984;,
  0.921876;-0.387485;0.000000;,
  0.651865;-0.387485;0.651865;,
  0.000000;-0.387485;0.921876;,
  -0.651865;-0.387485;0.651865;,
  -0.921278;-0.388899;0.002062;,
  -0.651832;-0.392228;-0.649055;,
  0.001570;-0.714331;-0.699806;,
  0.498603;-0.710738;-0.496232;,
  0.704977;-0.709230;0.000000;,
  0.498494;-0.709230;0.498494;,
  0.000000;-0.709230;0.704977;,
  -0.498494;-0.709230;0.498494;,
  -0.703454;-0.710738;0.001676;,
  -0.495948;-0.714331;-0.493727;,
  0.000000;-0.924736;-0.380610;,
  0.269132;-0.924736;-0.269132;,
  0.380610;-0.924736;0.000000;,
  0.269132;-0.924736;0.269132;,
  0.000000;-0.924736;0.380610;,
  -0.269132;-0.924736;0.269132;,
  -0.380610;-0.924736;0.000000;,
  -0.269132;-0.924736;-0.269132;,
  0.000000;-1.000000;0.000000;;
  88;
  4;1,2,2,1;,
  4;2,3,3,2;,
  4;3,4,4,3;,
  4;4,5,5,4;,
  4;5,6,6,5;,
  4;6,7,7,6;,
  4;7,8,8,7;,
  4;8,1,1,8;,
  3;0,0,0;,
  3;0,0,0;,
  3;0,0,0;,
  3;0,0,0;,
  3;0,0,0;,
  3;0,0,0;,
  3;0,0,0;,
  3;0,0,0;,
  3;9,9,9;,
  3;9,9,9;,
  3;9,9,9;,
  3;9,9,9;,
  3;9,9,9;,
  3;9,9,9;,
  3;9,9,9;,
  3;9,9,9;,
  3;10,12,11;,
  3;10,13,12;,
  3;10,14,13;,
  3;10,15,14;,
  3;10,16,15;,
  3;10,17,16;,
  3;10,18,17;,
  3;10,11,18;,
  4;11,12,20,19;,
  4;12,13,21,20;,
  4;13,14,22,21;,
  4;14,15,23,22;,
  4;15,16,24,23;,
  4;16,17,25,24;,
  4;17,18,26,25;,
  4;18,11,19,26;,
  4;19,20,28,27;,
  4;20,21,29,28;,
  4;21,22,30,29;,
  4;22,23,31,30;,
  4;23,24,32,31;,
  4;24,25,33,32;,
  4;25,26,34,33;,
  4;26,19,27,34;,
  4;27,28,36,35;,
  4;28,29,37,36;,
  4;29,30,38,37;,
  4;30,31,39,38;,
  4;31,32,40,39;,
  4;32,33,41,40;,
  4;33,34,42,41;,
  4;34,27,35,42;,
  4;35,36,44,43;,
  4;36,37,45,44;,
  4;37,38,46,45;,
  4;38,39,47,46;,
  4;39,40,48,47;,
  4;40,41,49,48;,
  4;41,42,50,49;,
  4;42,35,43,50;,
  4;43,44,52,51;,
  4;44,45,53,52;,
  4;45,46,54,53;,
  4;46,47,55,54;,
  4;47,48,56,55;,
  4;48,49,57,56;,
  4;49,50,58,57;,
  4;50,43,51,58;,
  4;51,52,60,59;,
  4;52,53,61,60;,
  4;53,54,62,61;,
  4;54,55,63,62;,
  4;55,56,64,63;,
  4;56,57,65,64;,
  4;57,58,66,65;,
  4;58,51,59,66;,
  3;59,60,67;,
  3;60,61,67;,
  3;61,62,67;,
  3;62,63,67;,
  3;63,64,67;,
  3;64,65,67;,
  3;65,66,67;,
  3;66,59,67;;
 }
 MeshTextureCoords {
  113;
  0.000000;0.000000;,
  0.125000;0.000000;,
  0.125000;1.000000;,
  0.000000;1.000000;,
  0.250000;0.000000;,
  0.250000;1.000000;,
  0.375000;0.000000;,
  0.375000;1.000000;,
  0.500000;0.000000;,
  0.500000;1.000000;,
  0.625000;0.000000;,
  0.625000;1.000000;,
  0.750000;0.000000;,
  0.750000;1.000000;,
  0.875000;0.000000;,
  0.875000;1.000000;,
  1.000000;0.000000;,
  1.000000;1.000000;,
  0.062500;0.000000;,
  0.187500;0.000000;,
  0.312500;0.000000;,
  0.437500;0.000000;,
  0.562500;0.000000;,
  0.687500;0.000000;,
  0.812500;0.000000;,
  0.937500;0.000000;,
  0.062500;1.000000;,
  0.187500;1.000000;,
  0.312500;1.000000;,
  0.437500;1.000000;,
  0.562500;1.000000;,
  0.687500;1.000000;,
  0.812500;1.000000;,
  0.937500;1.000000;,
  0.062500;0.000000;,
  0.125000;0.125000;,
  0.000000;0.125000;,
  0.187500;0.000000;,
  0.250000;0.125000;,
  0.312500;0.000000;,
  0.375000;0.125000;,
  0.437500;0.000000;,
  0.500000;0.125000;,
  0.562500;0.000000;,
  0.625000;0.125000;,
  0.687500;0.000000;,
  0.750000;0.125000;,
  0.812500;0.000000;,
  0.875000;0.125000;,
  0.937500;0.000000;,
  1.000000;0.125000;,
  0.125000;0.250000;,
  0.000000;0.250000;,
  0.250000;0.250000;,
  0.375000;0.250000;,
  0.500000;0.250000;,
  0.625000;0.250000;,
  0.750000;0.250000;,
  0.875000;0.250000;,
  1.000000;0.250000;,
  0.125000;0.375000;,
  0.000000;0.375000;,
  0.250000;0.375000;,
  0.375000;0.375000;,
  0.500000;0.375000;,
  0.625000;0.375000;,
  0.750000;0.375000;,
  0.875000;0.375000;,
  1.000000;0.375000;,
  0.125000;0.500000;,
  0.000000;0.500000;,
  0.250000;0.500000;,
  0.375000;0.500000;,
  0.500000;0.500000;,
  0.625000;0.500000;,
  0.750000;0.500000;,
  0.875000;0.500000;,
  1.000000;0.500000;,
  0.125000;0.625000;,
  0.000000;0.625000;,
  0.250000;0.625000;,
  0.375000;0.625000;,
  0.500000;0.625000;,
  0.625000;0.625000;,
  0.750000;0.625000;,
  0.875000;0.625000;,
  1.000000;0.625000;,
  0.125000;0.750000;,
  0.000000;0.750000;,
  0.250000;0.750000;,
  0.375000;0.750000;,
  0.500000;0.750000;,
  0.625000;0.750000;,
  0.750000;0.750000;,
  0.875000;0.750000;,
  1.000000;0.750000;,
  0.125000;0.875000;,
  0.000000;0.875000;,
  0.250000;0.875000;,
  0.375000;0.875000;,
  0.500000;0.875000;,
  0.625000;0.875000;,
  0.750000;0.875000;,
  0.875000;0.875000;,
  1.000000;0.875000;,
  0.062500;1.000000;,
  0.187500;1.000000;,
  0.312500;1.000000;,
  0.437500;1.000000;,
  0.562500;1.000000;,
  0.687500;1.000000;,
  0.812500;1.000000;,
  0.937500;1.000000;;
 }
}
