xof 0302txt 0064
template Header {
 <3D82AB43-62DA-11cf-AB39-0020AF71E433>
 WORD major;
 WORD minor;
 DWORD flags;
}

template Vector {
 <3D82AB5E-62DA-11cf-AB39-0020AF71E433>
 FLOAT x;
 FLOAT y;
 FLOAT z;
}

template Coords2d {
 <F6F23F44-7686-11cf-8F52-0040333594A3>
 FLOAT u;
 FLOAT v;
}

template Matrix4x4 {
 <F6F23F45-7686-11cf-8F52-0040333594A3>
 array FLOAT matrix[16];
}

template ColorRGBA {
 <35FF44E0-6C7C-11cf-8F52-0040333594A3>
 FLOAT red;
 FLOAT green;
 FLOAT blue;
 FLOAT alpha;
}

template ColorRGB {
 <D3E16E81-7835-11cf-8F52-0040333594A3>
 FLOAT red;
 FLOAT green;
 FLOAT blue;
}

template IndexedColor {
 <1630B820-7842-11cf-8F52-0040333594A3>
 DWORD index;
 ColorRGBA indexColor;
}

template Boolean {
 <4885AE61-78E8-11cf-8F52-0040333594A3>
 WORD truefalse;
}

template Boolean2d {
 <4885AE63-78E8-11cf-8F52-0040333594A3>
 Boolean u;
 Boolean v;
}

template MaterialWrap {
 <4885AE60-78E8-11cf-8F52-0040333594A3>
 Boolean u;
 Boolean v;
}

template TextureFilename {
 <A42790E1-7810-11cf-8F52-0040333594A3>
 STRING filename;
}

template Material {
 <3D82AB4D-62DA-11cf-AB39-0020AF71E433>
 ColorRGBA faceColor;
 FLOAT power;
 ColorRGB specularColor;
 ColorRGB emissiveColor;
 [...]
}

template MeshFace {
 <3D82AB5F-62DA-11cf-AB39-0020AF71E433>
 DWORD nFaceVertexIndices;
 array DWORD faceVertexIndices[nFaceVertexIndices];
}

template MeshFaceWraps {
 <4885AE62-78E8-11cf-8F52-0040333594A3>
 DWORD nFaceWrapValues;
 Boolean2d faceWrapValues;
}

template MeshTextureCoords {
 <F6F23F40-7686-11cf-8F52-0040333594A3>
 DWORD nTextureCoords;
 array Coords2d textureCoords[nTextureCoords];
}

template MeshMaterialList {
 <F6F23F42-7686-11cf-8F52-0040333594A3>
 DWORD nMaterials;
 DWORD nFaceIndexes;
 array DWORD faceIndexes[nFaceIndexes];
 [Material]
}

template MeshNormals {
 <F6F23F43-7686-11cf-8F52-0040333594A3>
 DWORD nNormals;
 array Vector normals[nNormals];
 DWORD nFaceNormals;
 array MeshFace faceNormals[nFaceNormals];
}

template MeshVertexColors {
 <1630B821-7842-11cf-8F52-0040333594A3>
 DWORD nVertexColors;
 array IndexedColor vertexColors[nVertexColors];
}

template Mesh {
 <3D82AB44-62DA-11cf-AB39-0020AF71E433>
 DWORD nVertices;
 array Vector vertices[nVertices];
 DWORD nFaces;
 array MeshFace faces[nFaces];
 [...]
}

Header{
1;
0;
1;
}

Mesh {
 509;
 0.00000;0.00000;-27.33033;,
 0.24066;0.41305;-31.89007;,
 0.24066;-0.47551;-27.33033;,
 0.00000;0.82611;-27.33033;,
 0.00000;0.41305;-30.55677;,
 0.24066;0.11815;-26.30967;,
 0.24066;-0.47551;-27.33033;,
 0.48131;-0.00001;-27.33033;,
 0.48132;0.27596;-26.30967;,
 0.48132;0.82611;-27.33033;,
 0.24066;1.30161;-27.33033;,
 0.00000;0.00000;-27.33033;,
 0.00000;0.27595;-26.30967;,
 0.48131;0.41305;-30.55677;,
 0.48131;0.41305;-26.30967;,
 0.46752;0.26692;-25.78525;,
 0.44627;0.21093;-25.78525;,
 0.42047;0.23604;-25.76158;,
 0.48132;0.30638;-25.78446;,
 0.48236;0.30593;-25.78525;,
 0.48132;0.30321;-25.78525;,
 0.48132;0.82611;-27.33033;,
 0.48131;0.55015;-26.30967;,
 0.40026;0.22280;-25.75608;,
 0.36696;0.17814;-25.75608;,
 0.35783;0.19497;-25.71900;,
 0.24066;0.70798;-26.30967;,
 0.24066;1.30161;-27.33033;,
 0.30195;0.15832;-25.71653;,
 0.30706;0.13721;-25.75608;,
 0.25187;0.12550;-25.75608;,
 0.22945;0.12550;-25.75608;,
 0.17426;0.13721;-25.75608;,
 0.17937;0.15832;-25.71653;,
 0.48132;0.51928;-25.78525;,
 0.48236;0.51657;-25.78525;,
 0.48131;0.51611;-25.78446;,
 0.12349;0.19497;-25.71900;,
 0.11436;0.17814;-25.75608;,
 0.08106;0.22279;-25.75606;,
 0.42271;0.58861;-25.76361;,
 0.44627;0.61155;-25.78525;,
 0.46570;0.56039;-25.78525;,
 0.00000;0.55015;-26.30967;,
 0.00000;0.27595;-26.30967;,
 0.00000;0.41305;-26.30967;,
 0.06086;0.23605;-25.76158;,
 0.03505;0.21093;-25.78525;,
 0.01379;0.26692;-25.78525;,
 0.35930;0.63019;-25.72491;,
 0.36696;0.64435;-25.75608;,
 0.39497;0.60678;-25.75606;,
 0.00000;0.30321;-25.78525;,
 -0.00104;0.30594;-25.78525;,
 0.00000;0.30638;-25.78446;,
 0.43232;0.22452;-24.60627;,
 0.44627;0.21093;-24.59347;,
 0.47236;0.27962;-24.59347;,
 0.36420;0.18327;-24.63393;,
 0.36696;0.17815;-24.62267;,
 0.37289;0.18609;-24.62267;,
 0.26003;0.69526;-25.75606;,
 0.30706;0.68529;-25.75608;,
 0.30268;0.66731;-25.72237;,
 -0.00104;0.51657;-25.78525;,
 0.00000;0.51611;-25.78446;,
 -0.01348;0.41125;-25.78525;,
 0.00000;0.41306;-25.77541;,
 0.00000;0.41125;-25.77522;,
 0.53404;0.41125;-24.62267;,
 0.52135;0.51884;-24.62267;,
 0.52135;0.41125;-24.61319;,
 0.17863;0.66731;-25.72237;,
 0.17426;0.68530;-25.75606;,
 0.22129;0.69526;-25.75606;,
 0.00000;0.51928;-25.78525;,
 0.08635;0.60678;-25.75608;,
 0.11436;0.64435;-25.75608;,
 0.12203;0.63020;-25.72491;,
 0.01562;0.56039;-25.78525;,
 0.03505;0.61155;-25.78525;,
 0.05862;0.58861;-25.76361;,
 0.51984;0.53152;-24.62267;,
 0.51968;0.53282;-24.62267;,
 0.51909;0.53257;-24.62217;,
 0.10843;0.18608;-24.62267;,
 0.11436;0.17814;-24.62267;,
 0.11713;0.18326;-24.63393;,
 0.41311;0.09295;-25.75608;,
 0.47801;0.17999;-25.75608;,
 0.50667;0.15207;-25.67143;,
 0.43394;0.05451;-25.67143;,
 0.00896;0.27962;-24.59347;,
 0.03505;0.21094;-24.59347;,
 0.04900;0.22452;-24.60627;,
 0.33132;0.03707;-25.75608;,
 0.34229;-0.00811;-25.67143;,
 0.52942;0.12990;-25.53965;,
 0.45046;0.02401;-25.53965;,
 0.35095;-0.04397;-25.53965;,
 0.39005;0.13553;-25.78525;,
 0.31920;0.08714;-25.78525;,
 0.54400;0.11568;-25.37349;,
 0.46108;0.00443;-25.37349;,
 0.35651;-0.06699;-25.37349;,
 0.51968;0.28965;-25.75606;,
 0.55339;0.27498;-25.67143;,
 0.39210;0.68417;-24.59347;,
 0.39005;0.68695;-24.59347;,
 0.38908;0.68518;-24.59468;,
 0.24066;0.01781;-25.75608;,
 0.24066;-0.02969;-25.67143;,
 0.58012;0.26334;-25.53965;,
 0.24066;-0.06740;-25.53965;,
 0.24066;0.07046;-25.78525;,
 0.59729;0.25587;-25.37349;,
 0.24066;-0.09161;-25.37349;,
 0.54905;0.11078;-25.18935;,
 0.46471;-0.00233;-25.18935;,
 0.35845;-0.07492;-25.18935;,
 0.53404;0.41126;-25.75608;,
 0.56949;0.41125;-25.67143;,
 0.14999;0.03707;-25.75606;,
 0.13903;-0.00811;-25.67143;,
 -0.04003;0.51884;-24.62267;,
 -0.05272;0.41125;-24.62267;,
 -0.04003;0.41125;-24.61319;,
 0.49479;0.41125;-25.78525;,
 0.59756;0.41125;-25.53965;,
 0.16212;0.08714;-25.78525;,
 0.60320;0.25328;-25.18935;,
 0.13038;-0.04397;-25.53965;,
 0.24066;-0.09993;-25.18935;,
 0.48132;0.41125;-25.77522;,
 -0.03837;0.53282;-24.62267;,
 -0.03853;0.53152;-24.62267;,
 -0.03777;0.53257;-24.62217;,
 0.54400;0.11568;-25.00521;,
 0.46108;0.00442;-25.00521;,
 0.35651;-0.06700;-25.00521;,
 0.61563;0.41125;-25.37349;,
 0.12480;-0.06699;-25.37349;,
 0.09224;0.68518;-24.59468;,
 0.09128;0.68695;-24.59347;,
 0.08920;0.68417;-24.59347;,
 0.59729;0.25587;-25.00521;,
 0.24066;-0.09161;-25.00521;,
 0.51968;0.53282;-25.75606;,
 0.55339;0.54750;-25.67143;,
 0.62185;0.41125;-25.18935;,
 0.09128;0.13553;-25.78525;,
 0.06820;0.09294;-25.75608;,
 0.04738;0.05452;-25.67143;,
 0.12288;-0.07492;-25.18935;,
 0.58013;0.55917;-25.53965;,
 0.52942;0.12991;-24.83913;,
 0.45046;0.02401;-24.83913;,
 0.35095;-0.04397;-24.83913;,
 0.03086;0.02401;-25.53965;,
 0.59729;0.56663;-25.37349;,
 0.58012;0.26334;-24.83913;,
 0.24066;-0.06740;-24.83913;,
 0.02025;0.00443;-25.37349;,
 0.61563;0.41125;-25.00521;,
 0.12480;-0.06699;-25.00521;,
 0.00330;0.17998;-25.75608;,
 0.50667;0.15207;-24.70731;,
 0.43394;0.05452;-24.70731;,
 0.34229;-0.00811;-24.70731;,
 0.47801;0.64250;-25.75608;,
 0.50668;0.67041;-25.67143;,
 0.60320;0.56921;-25.18935;,
 -0.02537;0.15207;-25.67143;,
 0.01661;-0.00233;-25.18935;,
 0.52942;0.69257;-25.53965;,
 0.55339;0.27498;-24.70731;,
 0.59756;0.41125;-24.83913;,
 0.24066;-0.02970;-24.70731;,
 -0.04811;0.12990;-25.53965;,
 0.13038;-0.04397;-24.83913;,
 0.47801;0.17999;-24.62267;,
 0.41311;0.09295;-24.62267;,
 0.59729;0.56663;-25.00521;,
 0.33132;0.03707;-24.62267;,
 0.54401;0.70681;-25.37349;,
 0.02025;0.00442;-25.00521;,
 0.39005;0.68694;-25.78525;,
 0.41311;0.72955;-25.75606;,
 -0.06269;0.11569;-25.37349;,
 0.51968;0.28965;-24.62267;,
 0.56949;0.41125;-24.70731;,
 0.24066;0.01781;-24.62267;,
 0.43394;0.76798;-25.67143;,
 0.13903;-0.00811;-24.70731;,
 -0.03837;0.28965;-25.75606;,
 -0.07207;0.27498;-25.67143;,
 0.39005;0.13552;-24.59347;,
 0.31920;0.08714;-24.59347;,
 0.54905;0.71170;-25.18935;,
 0.58013;0.55917;-24.83913;,
 -0.06772;0.11078;-25.18935;,
 0.03086;0.02400;-24.83913;,
 0.45046;0.79848;-25.53965;,
 0.30268;0.66731;-25.72237;,
 0.30706;0.68529;-25.75608;,
 0.31920;0.73536;-25.78525;,
 -0.09882;0.26334;-25.53965;,
 0.24066;0.07046;-24.59347;,
 0.14999;0.03706;-24.62267;,
 0.30706;0.13721;-24.62267;,
 0.33132;0.78543;-25.75606;,
 -0.05272;0.41125;-25.75608;,
 0.30089;0.16270;-24.67039;,
 0.54401;0.70681;-25.00521;,
 0.55339;0.54751;-24.70731;,
 0.24066;0.12311;-24.62267;,
 0.46108;0.81805;-25.37349;,
 -0.06269;0.11569;-25.00521;,
 0.04738;0.05452;-24.70728;,
 0.34229;0.83062;-25.67143;,
 -0.11598;0.25588;-25.37349;,
 0.24066;0.14311;-24.65830;,
 0.16212;0.08714;-24.59347;,
 -0.08817;0.41125;-25.67143;,
 0.17426;0.13721;-24.62267;,
 0.31920;0.73536;-25.78525;,
 0.24066;0.75205;-25.78525;,
 0.24066;0.80469;-25.75608;,
 0.33132;0.78543;-25.75606;,
 0.52942;0.69258;-24.83913;,
 -0.03837;0.53282;-25.75608;,
 0.06820;0.09294;-24.62267;,
 0.18043;0.16270;-24.67039;,
 0.35095;0.86646;-25.53965;,
 0.46471;0.82480;-25.18935;,
 -0.04811;0.12991;-24.83913;,
 -0.11625;0.41125;-25.53965;,
 -0.12186;0.25328;-25.18935;,
 0.09128;0.13552;-24.59347;,
 0.09128;0.68694;-25.78525;,
 0.16212;0.73535;-25.78525;,
 0.24066;0.85219;-25.67143;,
 0.34229;0.83062;-25.67143;,
 -0.07207;0.54750;-25.67143;,
 0.14999;0.78543;-25.75606;,
 0.50668;0.67041;-24.70728;,
 -0.02537;0.15207;-24.70731;,
 0.35652;0.88950;-25.37349;,
 0.46108;0.81805;-25.00521;,
 -0.13432;0.41125;-25.37349;,
 -0.11598;0.25589;-25.00521;,
 0.06821;0.72955;-25.75606;,
 0.00331;0.64250;-25.75608;,
 0.47801;0.64250;-24.62267;,
 0.24066;0.88990;-25.53965;,
 0.35095;0.86646;-25.53965;,
 0.00330;0.17998;-24.62267;,
 0.13904;0.83062;-25.67143;,
 -0.09882;0.55917;-25.53965;,
 -0.02538;0.67042;-25.67143;,
 0.45530;0.62038;-24.60179;,
 0.45046;0.79848;-24.83913;,
 0.35844;0.89741;-25.18935;,
 -0.09882;0.26334;-24.83913;,
 0.04738;0.76798;-25.67143;,
 -0.14055;0.41125;-25.18935;,
 0.24066;0.11815;-25.75884;,
 0.24066;0.91408;-25.37349;,
 0.35652;0.88950;-25.37349;,
 0.43394;0.76799;-24.70731;,
 0.13037;0.86647;-25.53965;,
 -0.11598;0.56663;-25.37349;,
 -0.04810;0.69257;-25.53965;,
 -0.07207;0.27498;-24.70731;,
 0.35652;0.88950;-25.00521;,
 0.41311;0.72955;-24.62267;,
 -0.13432;0.41125;-25.00521;,
 -0.03837;0.28965;-24.62267;,
 0.03085;0.79848;-25.53965;,
 0.24066;0.92243;-25.18935;,
 0.35844;0.89741;-25.18935;,
 -0.12186;0.56921;-25.18935;,
 0.35095;0.86646;-24.83913;,
 0.12481;0.88950;-25.37349;,
 -0.06269;0.70681;-25.37349;,
 -0.11625;0.41125;-24.83913;,
 0.48131;0.41306;-25.77541;,
 0.34229;0.83063;-24.70731;,
 0.02025;0.81806;-25.37349;,
 -0.08817;0.41125;-24.70731;,
 0.31920;0.73536;-24.59347;,
 0.31303;0.70989;-24.60835;,
 0.24066;0.91408;-25.00521;,
 0.35652;0.88950;-25.00521;,
 0.33132;0.78543;-24.62267;,
 -0.11598;0.56663;-25.00521;,
 0.12288;0.89741;-25.18935;,
 -0.06772;0.71172;-25.18935;,
 0.24066;0.88990;-24.83913;,
 0.35095;0.86646;-24.83913;,
 -0.09882;0.55917;-24.83913;,
 0.01661;0.82480;-25.18935;,
 0.31303;0.70989;-24.60835;,
 0.31920;0.73536;-24.59347;,
 0.24066;0.75205;-24.59347;,
 0.24066;0.73341;-24.60381;,
 0.12481;0.88950;-25.00521;,
 0.24066;0.85219;-24.70731;,
 0.34229;0.83063;-24.70731;,
 -0.06269;0.70681;-25.00521;,
 0.33132;0.78543;-24.62267;,
 0.24066;0.80469;-24.62267;,
 -0.07207;0.54750;-24.70731;,
 0.16212;0.73535;-24.59347;,
 0.16830;0.70989;-24.60835;,
 0.02025;0.81805;-25.00521;,
 0.13037;0.86647;-24.83913;,
 -0.04810;0.69257;-24.83913;,
 0.14999;0.78543;-24.62267;,
 0.02602;0.62039;-24.60179;,
 0.00331;0.64250;-24.62267;,
 0.13904;0.83063;-24.70731;,
 -0.02538;0.67042;-24.70731;,
 0.03085;0.79848;-24.83913;,
 0.06821;0.72955;-24.62267;,
 0.04738;0.76799;-24.70731;,
 0.48929;0.30293;-24.59889;,
 0.52135;0.34705;-24.61883;,
 0.24066;0.70798;-25.76084;,
 0.48131;0.55014;-25.77738;,
 0.48132;0.51928;-25.78525;,
 0.48131;0.51611;-25.78446;,
 0.48131;0.41306;-25.77541;,
 -0.00797;0.30293;-24.59889;,
 -0.04003;0.34705;-24.61883;,
 0.48132;0.27596;-25.77831;,
 0.48132;0.41125;-25.77522;,
 0.48132;0.30638;-25.78446;,
 0.48132;0.30321;-25.78525;,
 0.48132;0.27596;-25.77831;,
 0.41413;0.19949;-24.60602;,
 0.00000;0.55014;-25.77738;,
 0.00000;0.51928;-25.78525;,
 0.00000;0.51611;-25.78446;,
 0.00000;0.41306;-25.77541;,
 0.06718;0.19949;-24.60602;,
 0.48131;0.55014;-25.77738;,
 0.41414;0.67702;-24.60239;,
 0.00000;0.27595;-25.77831;,
 0.00000;0.41125;-25.77522;,
 0.00000;0.30638;-25.78446;,
 0.00000;0.30321;-25.78525;,
 0.00000;0.27595;-25.77831;,
 0.06718;0.67702;-24.60239;,
 0.52135;0.52946;-24.62563;,
 0.00000;0.55014;-25.77738;,
 -0.04003;0.52948;-24.62563;,
 0.46752;0.26692;-25.78525;,
 0.42047;0.23604;-25.76158;,
 0.40026;0.22280;-25.75608;,
 0.35783;0.19497;-25.71900;,
 0.30195;0.15832;-25.71653;,
 0.25187;0.12550;-25.75608;,
 0.24066;0.11815;-25.75884;,
 0.22945;0.12550;-25.75608;,
 0.17937;0.15832;-25.71653;,
 0.12349;0.19497;-25.71900;,
 0.08106;0.22279;-25.75606;,
 0.06086;0.23605;-25.76158;,
 0.01379;0.26692;-25.78525;,
 0.00000;0.27595;-25.77831;,
 0.24066;0.70798;-25.76084;,
 0.26003;0.69526;-25.75606;,
 0.30268;0.66731;-25.72237;,
 0.35930;0.63019;-25.72491;,
 0.39497;0.60678;-25.75606;,
 0.42271;0.58861;-25.76361;,
 0.46570;0.56039;-25.78525;,
 0.01562;0.56039;-25.78525;,
 0.05862;0.58861;-25.76361;,
 0.08635;0.60678;-25.75608;,
 0.12203;0.63020;-25.72491;,
 0.17863;0.66731;-25.72237;,
 0.22129;0.69526;-25.75606;,
 -0.00355;0.29684;26.36628;,
 -0.32584;-0.02545;28.25800;,
 -0.32584;-0.02545;31.46541;,
 -0.00355;0.29684;29.71484;,
 0.41413;0.19949;32.23637;,
 0.52135;0.34705;32.23637;,
 0.24066;0.43827;32.23637;,
 0.24066;0.14311;32.23640;,
 0.52135;0.52946;32.23637;,
 0.06718;0.19949;32.23637;,
 0.41414;0.67702;32.23637;,
 -0.04003;0.34705;32.23637;,
 0.24066;0.73341;32.23637;,
 -0.04003;0.52948;32.23637;,
 0.06718;0.67702;32.23637;,
 0.52135;0.52946;32.23637;,
 0.52135;0.34705;32.23637;,
 0.52135;0.52946;-24.62563;,
 0.52135;0.51884;-24.62267;,
 0.52135;0.41125;-24.61319;,
 0.52135;0.34705;-24.61883;,
 -0.04003;0.52948;32.23637;,
 -0.04003;0.52948;-24.62563;,
 -0.04003;0.34705;32.23637;,
 -0.04003;0.51884;-24.62267;,
 -0.04003;0.41125;-24.61319;,
 -0.04003;0.34705;-24.61883;,
 0.48486;0.29684;26.36628;,
 0.80716;-0.02545;28.25800;,
 0.74548;-0.08712;28.25800;,
 0.43296;0.22540;26.42364;,
 0.04836;0.22541;26.42359;,
 -0.26415;-0.08710;28.25800;,
 -0.32584;-0.02545;28.25800;,
 -0.00355;0.29684;26.36628;,
 0.48486;0.29684;29.71484;,
 0.80716;-0.02545;31.46543;,
 0.80716;-0.02545;28.25800;,
 0.48486;0.29684;26.36628;,
 0.74548;-0.08712;31.46541;,
 0.43296;0.22540;29.76792;,
 0.74548;-0.08712;31.46541;,
 0.74548;-0.08712;28.25800;,
 0.04836;0.22541;29.76792;,
 -0.26415;-0.08711;31.46541;,
 0.80716;-0.02545;31.46543;,
 0.48486;0.29684;29.71484;,
 0.28426;1.13566;28.00675;,
 0.19705;1.13565;28.00675;,
 0.19705;1.23989;28.45385;,
 0.28427;1.23989;28.45385;,
 -0.26415;-0.08710;28.25800;,
 -0.26415;-0.08711;31.46541;,
 0.19705;1.25840;28.66426;,
 0.28427;1.25841;28.66426;,
 -0.00355;0.29684;29.71484;,
 -0.32584;-0.02545;31.46541;,
 0.19705;1.25840;31.87170;,
 0.28427;1.25840;31.87170;,
 0.28427;1.25841;28.66426;,
 0.41413;0.19949;-24.60602;,
 0.41413;0.19949;32.23637;,
 0.37289;0.18609;-24.62267;,
 0.24066;0.14311;32.23640;,
 0.36420;0.18327;-24.63393;,
 0.30089;0.16270;-24.67039;,
 0.24066;0.14311;-24.65830;,
 0.18043;0.16270;-24.67039;,
 0.06718;0.19949;32.23637;,
 0.11713;0.18326;-24.63393;,
 0.10843;0.18608;-24.62267;,
 0.06718;0.19949;-24.60602;,
 0.41414;0.67702;-24.60239;,
 0.41414;0.67702;32.23637;,
 0.45530;0.62038;-24.60179;,
 0.51909;0.53257;-24.62217;,
 0.51984;0.53152;-24.62267;,
 -0.03853;0.53152;-24.62267;,
 -0.03777;0.53257;-24.62217;,
 0.02602;0.62039;-24.60179;,
 0.06718;0.67702;-24.60239;,
 0.06718;0.67702;32.23637;,
 0.19705;0.71924;26.40730;,
 0.28427;0.71924;26.40730;,
 0.24066;0.73341;26.46164;,
 0.28427;1.25840;31.87170;,
 0.28427;0.71923;29.63371;,
 0.19705;0.71923;29.63371;,
 0.24066;0.73341;29.69254;,
 0.48486;0.29684;26.36628;,
 0.43296;0.22540;26.42364;,
 0.47236;0.27962;-24.59347;,
 0.43232;0.22452;-24.60627;,
 0.43296;0.22540;29.76792;,
 0.28427;1.23989;28.45385;,
 0.28427;0.71923;29.63371;,
 0.28426;1.13566;28.00675;,
 0.28427;0.71924;26.40730;,
 0.48486;0.29684;29.71484;,
 0.48929;0.30293;-24.59889;,
 0.04900;0.22452;-24.60627;,
 0.00896;0.27962;-24.59347;,
 -0.00355;0.29684;29.71484;,
 0.04836;0.22541;29.76792;,
 0.04836;0.22541;26.42359;,
 -0.00355;0.29684;26.36628;,
 0.24066;0.73341;32.23637;,
 0.41414;0.67702;32.23637;,
 0.24066;0.73341;29.69254;,
 0.28427;0.71923;29.63371;,
 0.24066;0.73341;26.46164;,
 0.28427;0.71924;26.40730;,
 0.24066;0.73341;-24.60381;,
 0.31303;0.70989;-24.60835;,
 0.38908;0.68518;-24.59468;,
 0.39210;0.68417;-24.59347;,
 0.41414;0.67702;-24.60239;,
 0.19705;0.71923;29.63371;,
 0.08920;0.68417;-24.59347;,
 0.09224;0.68518;-24.59468;,
 0.16830;0.70989;-24.60835;,
 0.19705;0.71924;26.40730;,
 -0.00797;0.30293;-24.59889;,
 0.48131;-0.00001;-27.33033;,
 0.48131;0.41305;-30.55677;;
 
 493;
 3;0,1,2;,
 3;3,1,4;,
 4;5,6,7,8;,
 3;9,1,10;,
 4;11,6,5,12;,
 3;10,1,3;,
 4;13,14,8,7;,
 3;15,16,17;,
 3;18,19,20;,
 4;21,22,14,13;,
 3;23,24,25;,
 4;26,22,21,27;,
 3;28,29,30;,
 3;31,32,33;,
 3;34,35,36;,
 3;37,38,39;,
 3;40,41,42;,
 4;3,43,26,27;,
 4;0,44,45,4;,
 3;46,47,48;,
 3;49,50,51;,
 3;52,53,54;,
 3;55,56,57;,
 3;58,59,60;,
 3;61,62,63;,
 3;64,65,66;,
 3;65,67,66;,
 3;67,68,66;,
 3;69,70,71;,
 3;72,73,74;,
 3;65,64,75;,
 3;76,77,78;,
 3;79,80,81;,
 3;82,83,84;,
 3;85,86,87;,
 4;4,45,43,3;,
 4;88,89,90,91;,
 3;92,93,94;,
 4;95,88,91,96;,
 4;91,90,97,98;,
 4;96,91,98,99;,
 4;100,16,89,88;,
 4;101,100,88,95;,
 4;98,97,102,103;,
 4;99,98,103,104;,
 4;89,105,106,90;,
 3;107,108,109;,
 4;110,95,96,111;,
 4;90,106,112,97;,
 4;111,96,99,113;,
 4;114,101,95,110;,
 4;97,112,115,102;,
 4;29,24,100,101;,
 4;113,99,104,116;,
 4;103,102,117,118;,
 4;104,103,118,119;,
 4;105,120,121,106;,
 4;122,110,111,123;,
 3;124,125,126;,
 4;19,127,120,105;,
 4;106,121,128,112;,
 4;25,24,29,28;,
 4;129,114,110,122;,
 4;102,115,130,117;,
 4;123,111,113,131;,
 4;116,104,119,132;,
 4;133,127,19,18;,
 3;134,135,136;,
 4;118,117,137,138;,
 4;119,118,138,139;,
 4;112,128,140,115;,
 4;131,113,116,141;,
 3;142,143,144;,
 4;117,130,145,137;,
 4;132,119,139,146;,
 4;120,147,148,121;,
 4;127,35,147,120;,
 4;115,140,149,130;,
 4;150,129,122,151;,
 4;151,122,123,152;,
 4;141,116,132,153;,
 4;121,148,154,128;,
 4;138,137,155,156;,
 4;139,138,156,157;,
 4;38,32,129,150;,
 4;152,123,131,158;,
 4;33,32,38,37;,
 4;128,154,159,140;,
 4;137,145,160,155;,
 4;146,139,157,161;,
 4;158,131,141,162;,
 4;130,149,163,145;,
 4;153,132,146,164;,
 4;47,150,151,165;,
 4;156,155,166,167;,
 4;157,156,167,168;,
 4;147,169,170,148;,
 4;140,159,171,149;,
 4;165,151,152,172;,
 4;162,141,153,173;,
 4;148,170,174,154;,
 4;155,160,175,166;,
 4;145,163,176,160;,
 4;161,157,168,177;,
 4;172,152,158,178;,
 4;164,146,161,179;,
 4;167,166,180,181;,
 4;149,171,182,163;,
 4;168,167,181,183;,
 4;154,174,184,159;,
 4;173,153,164,185;,
 4;41,186,187,169;,
 4;178,158,162,188;,
 4;166,175,189,180;,
 4;160,176,190,175;,
 4;177,168,183,191;,
 4;169,187,192,170;,
 4;179,161,177,193;,
 4;194,165,172,195;,
 4;181,180,56,196;,
 4;183,181,196,197;,
 4;159,184,198,171;,
 4;163,182,199,176;,
 4;188,162,173,200;,
 4;185,164,179,201;,
 4;170,192,202,174;,
 4;203,204,50,49;,
 4;50,204,205,186;,
 4;195,172,178,206;,
 4;191,183,197,207;,
 4;175,190,69,189;,
 4;54,53,66,68;,
 4;193,177,191,208;,
 4;197,196,59,209;,
 4;186,205,210,187;,
 4;66,53,194,211;,
 4;212,209,59,58;,
 4;171,198,213,182;,
 4;176,199,214,190;,
 4;207,197,209,215;,
 4;174,202,216,184;,
 4;200,173,185,217;,
 4;201,179,193,218;,
 4;187,210,219,192;,
 4;206,178,188,220;,
 4;221,215,209,212;,
 4;208,191,207,222;,
 4;211,194,195,223;,
 4;222,207,215,224;,
 4;225,226,227,228;,
 4;182,213,229,199;,
 4;64,66,211,230;,
 4;218,193,208,231;,
 4;232,224,215,221;,
 4;192,219,233,202;,
 4;184,216,234,198;,
 4;217,185,201,235;,
 4;223,195,206,236;,
 4;220,188,200,237;,
 4;78,77,73,72;,
 4;231,208,222,238;,
 4;73,77,239,240;,
 4;228,227,241,242;,
 4;230,211,223,243;,
 4;226,240,244,227;,
 4;199,229,245,214;,
 4;238,222,224,86;,
 4;87,86,224,232;,
 4;235,201,218,246;,
 4;202,233,247,216;,
 4;198,234,248,213;,
 4;236,206,220,249;,
 4;237,200,217,250;,
 4;240,239,251,244;,
 4;239,80,252,251;,
 4;214,245,253,83;,
 3;17,16,23;,
 3;23,16,24;,
 3;16,100,24;,
 4;242,241,254,255;,
 4;246,218,231,256;,
 4;227,244,257,241;,
 4;243,223,236,258;,
 4;252,230,243,259;,
 4;84,83,253,260;,
 4;213,248,261,229;,
 4;256,231,238,93;,
 4;216,247,262,234;,
 4;250,217,235,263;,
 4;244,251,264,257;,
 4;249,220,237,265;,
 4;251,252,259,264;,
 3;30,29,266;,
 3;29,101,266;,
 3;101,114,266;,
 4;255,254,267,268;,
 4;229,261,269,245;,
 4;241,257,270,254;,
 4;258,236,249,271;,
 4;259,243,258,272;,
 4;263,235,246,273;,
 4;234,262,274,248;,
 4;245,269,275,253;,
 4;265,237,250,276;,
 4;273,246,256,277;,
 4;257,264,278,270;,
 4;264,259,272,278;,
 3;32,31,129;,
 3;31,266,129;,
 3;266,114,129;,
 4;268,267,279,280;,
 4;271,249,265,281;,
 4;248,274,282,261;,
 4;254,270,283,267;,
 4;272,258,271,284;,
 4;276,250,263,285;,
 3;35,127,36;,
 3;36,127,286;,
 3;127,133,286;,
 4;261,282,287,269;,
 4;270,278,288,283;,
 4;278,272,284,288;,
 4;285,263,273,289;,
 4;109,108,290,291;,
 4;280,279,292,293;,
 4;269,287,294,275;,
 4;275,294,290,108;,
 4;281,265,276,295;,
 4;289,273,277,125;,
 4;267,283,296,279;,
 4;284,271,281,297;,
 4;293,292,298,299;,
 4;295,276,285,300;,
 4;283,288,301,296;,
 4;288,284,297,301;,
 4;302,303,304,305;,
 4;279,296,306,292;,
 4;299,298,307,308;,
 4;297,281,295,309;,
 4;310,311,304,303;,
 4;300,285,289,312;,
 4;308,307,311,310;,
 4;305,304,313,314;,
 4;296,301,315,306;,
 4;301,297,309,315;,
 4;292,306,316,298;,
 4;309,295,300,317;,
 4;311,318,313,304;,
 3;46,39,47;,
 3;39,38,47;,
 3;38,150,47;,
 4;314,313,143,142;,
 4;319,320,134,136;,
 4;298,316,321,307;,
 4;317,300,312,322;,
 4;307,321,318,311;,
 4;322,312,134,320;,
 4;306,315,323,316;,
 4;315,309,317,323;,
 4;318,324,143,313;,
 4;316,323,325,321;,
 4;323,317,322,325;,
 4;321,325,324,318;,
 4;325,322,320,324;,
 3;186,41,50;,
 3;50,41,51;,
 3;41,40,51;,
 3;326,57,189;,
 3;189,57,180;,
 3;57,56,180;,
 3;69,71,327;,
 3;69,327,189;,
 3;327,326,189;,
 3;225,62,226;,
 3;226,62,328;,
 3;62,61,328;,
 3;226,328,240;,
 3;240,328,73;,
 3;328,74,73;,
 3;239,77,80;,
 3;77,76,80;,
 3;76,81,80;,
 3;22,329,14;,
 3;329,330,14;,
 3;330,331,14;,
 3;331,332,14;,
 3;333,277,92;,
 3;277,256,92;,
 3;256,93,92;,
 3;126,125,334;,
 3;125,277,334;,
 3;277,333,334;,
 3;19,105,20;,
 3;20,105,335;,
 3;105,89,335;,
 3;335,89,15;,
 3;89,16,15;,
 3;14,332,8;,
 3;332,336,8;,
 3;336,337,8;,
 3;337,338,8;,
 3;338,339,8;,
 3;55,340,56;,
 3;56,340,196;,
 3;340,60,196;,
 3;60,59,196;,
 3;43,45,341;,
 3;341,45,342;,
 3;342,45,343;,
 3;45,344,343;,
 3;94,93,345;,
 3;93,238,345;,
 3;345,238,85;,
 3;238,86,85;,
 3;169,147,41;,
 3;41,147,42;,
 3;42,147,346;,
 3;346,147,34;,
 3;147,35,34;,
 3;275,108,347;,
 3;108,107,347;,
 3;275,347,253;,
 3;347,260,253;,
 3;53,52,194;,
 3;52,348,194;,
 3;194,348,165;,
 3;348,48,165;,
 3;48,47,165;,
 3;344,45,349;,
 3;45,44,349;,
 3;349,44,350;,
 3;350,44,351;,
 3;44,352,351;,
 3;324,320,353;,
 3;320,319,353;,
 3;324,353,143;,
 3;353,144,143;,
 3;214,83,354;,
 3;83,82,354;,
 3;214,354,190;,
 3;354,70,190;,
 3;70,69,190;,
 3;252,80,230;,
 3;80,79,230;,
 3;79,355,230;,
 3;355,75,230;,
 3;75,64,230;,
 3;312,289,356;,
 3;356,289,124;,
 3;289,125,124;,
 3;312,356,134;,
 3;356,135,134;,
 3;8,339,5;,
 3;339,357,5;,
 3;357,358,5;,
 3;358,359,5;,
 3;359,360,5;,
 3;360,361,5;,
 3;361,362,5;,
 3;362,363,5;,
 3;5,363,12;,
 3;363,364,12;,
 3;364,365,12;,
 3;365,366,12;,
 3;366,367,12;,
 3;367,368,12;,
 3;368,369,12;,
 3;369,370,12;,
 3;26,371,22;,
 3;371,372,22;,
 3;372,373,22;,
 3;373,374,22;,
 3;374,375,22;,
 3;375,376,22;,
 3;376,377,22;,
 3;377,329,22;,
 3;43,341,26;,
 3;341,378,26;,
 3;378,379,26;,
 3;379,380,26;,
 3;380,381,26;,
 3;381,382,26;,
 3;382,383,26;,
 3;383,371,26;,
 4;384,385,386,387;,
 3;388,389,390;,
 3;391,388,390;,
 3;389,392,390;,
 3;393,391,390;,
 3;392,394,390;,
 3;395,393,390;,
 3;394,396,390;,
 3;397,395,390;,
 3;396,398,390;,
 3;398,397,390;,
 3;399,400,401;,
 3;401,400,402;,
 3;402,400,403;,
 3;400,404,403;,
 3;405,406,407;,
 3;406,408,407;,
 3;408,409,407;,
 3;409,410,407;,
 4;411,412,413,414;,
 4;415,416,417,418;,
 4;419,420,421,422;,
 4;414,413,423,424;,
 4;420,425,426,421;,
 4;427,428,416,415;,
 4;424,423,429,430;,
 4;431,432,433,434;,
 4;386,385,435,436;,
 4;434,433,437,438;,
 4;439,440,428,427;,
 4;437,441,442,443;,
 3;444,445,446;,
 3;445,447,446;,
 3;446,447,448;,
 3;448,447,449;,
 3;447,450,449;,
 3;450,447,451;,
 3;447,452,451;,
 3;451,452,453;,
 3;453,452,454;,
 3;452,455,454;,
 3;456,457,458;,
 3;457,399,458;,
 3;458,399,459;,
 3;459,399,460;,
 3;399,401,460;,
 3;406,405,461;,
 3;461,405,462;,
 3;462,405,463;,
 3;463,405,464;,
 3;405,465,464;,
 3;432,431,466;,
 3;431,467,468;,
 3;468,466,431;,
 3;469,441,470;,
 3;441,471,472;,
 3;472,470,441;,
 3;473,474,475;,
 3;475,474,476;,
 3;476,474,444;,
 3;474,477,444;,
 3;477,445,444;,
 3;443,442,478;,
 3;442,479,478;,
 3;478,479,480;,
 3;479,481,480;,
 3;441,437,471;,
 3;437,433,471;,
 3;433,432,471;,
 3;432,466,471;,
 3;400,445,482;,
 3;445,477,482;,
 3;400,482,404;,
 3;404,482,483;,
 3;483,482,473;,
 3;473,475,483;,
 3;455,452,484;,
 3;484,452,485;,
 3;452,486,487;,
 3;487,488,452;,
 3;452,488,485;,
 3;488,489,485;,
 3;490,491,492;,
 3;492,491,493;,
 3;494,495,496;,
 3;496,495,497;,
 3;493,491,495;,
 3;495,491,497;,
 3;497,491,498;,
 3;498,491,499;,
 3;491,500,499;,
 3;465,490,501;,
 3;490,492,501;,
 3;465,501,464;,
 3;464,501,502;,
 3;502,501,503;,
 3;503,501,504;,
 3;504,501,505;,
 3;504,505,496;,
 3;505,494,496;,
 3;452,407,486;,
 3;486,407,489;,
 3;489,407,485;,
 3;485,407,506;,
 3;407,410,506;,
 3;507,2,1;,
 3;4,1,0;,
 3;508,1,9;,
 3;507,1,508;;
 
 MeshMaterialList {
  1;
  493;
  0,
  0,
  0,
  0,
  0,
  0,
  0,
  0,
  0,
  0,
  0,
  0,
  0,
  0,
  0,
  0,
  0,
  0,
  0,
  0,
  0,
  0,
  0,
  0,
  0,
  0,
  0,
  0,
  0,
  0,
  0,
  0,
  0,
  0,
  0,
  0,
  0,
  0,
  0,
  0,
  0,
  0,
  0,
  0,
  0,
  0,
  0,
  0,
  0,
  0,
  0,
  0,
  0,
  0,
  0,
  0,
  0,
  0,
  0,
  0,
  0,
  0,
  0,
  0,
  0,
  0,
  0,
  0,
  0,
  0,
  0,
  0,
  0,
  0,
  0,
  0,
  0,
  0,
  0,
  0,
  0,
  0,
  0,
  0,
  0,
  0,
  0,
  0,
  0,
  0,
  0,
  0,
  0,
  0,
  0,
  0,
  0,
  0,
  0,
  0,
  0,
  0,
  0,
  0,
  0,
  0,
  0,
  0,
  0,
  0,
  0,
  0,
  0,
  0,
  0,
  0,
  0,
  0,
  0,
  0,
  0,
  0,
  0,
  0,
  0,
  0,
  0,
  0,
  0,
  0,
  0,
  0,
  0,
  0,
  0,
  0,
  0,
  0,
  0,
  0,
  0,
  0,
  0,
  0,
  0,
  0,
  0,
  0,
  0,
  0,
  0,
  0,
  0,
  0,
  0,
  0,
  0,
  0,
  0,
  0,
  0,
  0,
  0,
  0,
  0,
  0,
  0,
  0,
  0,
  0,
  0,
  0,
  0,
  0,
  0,
  0,
  0,
  0,
  0,
  0,
  0,
  0,
  0,
  0,
  0,
  0,
  0,
  0,
  0,
  0,
  0,
  0,
  0,
  0,
  0,
  0,
  0,
  0,
  0,
  0,
  0,
  0,
  0,
  0,
  0,
  0,
  0,
  0,
  0,
  0,
  0,
  0,
  0,
  0,
  0,
  0,
  0,
  0,
  0,
  0,
  0,
  0,
  0,
  0,
  0,
  0,
  0,
  0,
  0,
  0,
  0,
  0,
  0,
  0,
  0,
  0,
  0,
  0,
  0,
  0,
  0,
  0,
  0,
  0,
  0,
  0,
  0,
  0,
  0,
  0,
  0,
  0,
  0,
  0,
  0,
  0,
  0,
  0,
  0,
  0,
  0,
  0,
  0,
  0,
  0,
  0,
  0,
  0,
  0,
  0,
  0,
  0,
  0,
  0,
  0,
  0,
  0,
  0,
  0,
  0,
  0,
  0,
  0,
  0,
  0,
  0,
  0,
  0,
  0,
  0,
  0,
  0,
  0,
  0,
  0,
  0,
  0,
  0,
  0,
  0,
  0,
  0,
  0,
  0,
  0,
  0,
  0,
  0,
  0,
  0,
  0,
  0,
  0,
  0,
  0,
  0,
  0,
  0,
  0,
  0,
  0,
  0,
  0,
  0,
  0,
  0,
  0,
  0,
  0,
  0,
  0,
  0,
  0,
  0,
  0,
  0,
  0,
  0,
  0,
  0,
  0,
  0,
  0,
  0,
  0,
  0,
  0,
  0,
  0,
  0,
  0,
  0,
  0,
  0,
  0,
  0,
  0,
  0,
  0,
  0,
  0,
  0,
  0,
  0,
  0,
  0,
  0,
  0,
  0,
  0,
  0,
  0,
  0,
  0,
  0,
  0,
  0,
  0,
  0,
  0,
  0,
  0,
  0,
  0,
  0,
  0,
  0,
  0,
  0,
  0,
  0,
  0,
  0,
  0,
  0,
  0,
  0,
  0,
  0,
  0,
  0,
  0,
  0,
  0,
  0,
  0,
  0,
  0,
  0,
  0,
  0,
  0,
  0,
  0,
  0,
  0,
  0,
  0,
  0,
  0,
  0,
  0,
  0,
  0,
  0,
  0,
  0,
  0,
  0,
  0,
  0,
  0,
  0,
  0,
  0,
  0,
  0,
  0,
  0,
  0,
  0,
  0,
  0,
  0,
  0,
  0,
  0,
  0,
  0,
  0,
  0,
  0,
  0,
  0,
  0,
  0,
  0,
  0,
  0,
  0,
  0,
  0,
  0,
  0,
  0,
  0,
  0,
  0,
  0,
  0,
  0,
  0,
  0,
  0,
  0,
  0,
  0,
  0,
  0,
  0,
  0,
  0,
  0,
  0,
  0,
  0,
  0,
  0,
  0,
  0,
  0,
  0,
  0;;
  Material {
   1.000000;1.000000;1.000000;1.000000;;
   0.000000;
   0.000000;0.000000;0.000000;;
   0.000000;0.000000;0.000000;;
  }
 }
 MeshNormals {
  466;
  -0.857843;-0.513709;0.014438;,
  -0.939497;-0.323915;-0.111469;,
  -0.823905;-0.560975;0.080548;,
  -0.857848;0.513700;0.014434;,
  -0.953094;0.300225;-0.038436;,
  0.857855;-0.513690;0.014434;,
  0.571151;-0.820386;0.027434;,
  0.857855;0.513689;0.014435;,
  0.823916;0.560959;0.080542;,
  0.979436;-0.199067;0.032838;,
  0.953094;0.300224;-0.038441;,
  1.000000;-0.000367;0.000070;,
  -0.809138;-0.587291;0.019622;,
  -0.544431;0.206629;-0.812957;,
  -0.469553;0.300068;-0.830349;,
  -0.495394;0.269210;-0.825900;,
  -0.560656;0.136533;-0.816715;,
  -0.530515;0.202840;-0.823049;,
  0.695759;0.717875;0.023993;,
  -0.555676;0.414201;-0.720875;,
  -0.502081;0.493304;-0.710328;,
  -0.620804;0.645020;-0.445591;,
  0.645507;0.753532;0.124545;,
  -0.347085;0.808009;-0.476081;,
  -0.247311;0.625241;-0.740210;,
  -0.147825;0.696711;-0.701955;,
  0.133225;0.628536;-0.766286;,
  0.282988;0.656569;-0.699167;,
  0.347085;0.808009;-0.476081;,
  -0.526169;-0.201920;-0.826060;,
  -0.552613;-0.135311;-0.822381;,
  -0.566916;-0.113725;-0.815888;,
  0.620713;0.645098;-0.445604;,
  0.502062;0.493443;-0.710245;,
  0.555875;0.414087;-0.720788;,
  -0.495642;-0.269752;-0.825574;,
  -0.469724;-0.300477;-0.830104;,
  -0.544872;-0.206937;-0.812583;,
  -0.908613;0.412049;0.068107;,
  -1.000000;0.000000;0.000000;,
  0.495605;0.268720;-0.825933;,
  0.469697;0.299968;-0.830303;,
  0.544234;0.206652;-0.813083;,
  -0.620822;-0.645064;-0.445504;,
  -0.502146;-0.493429;-0.710195;,
  -0.555711;-0.414655;-0.720588;,
  0.531907;0.202632;-0.822201;,
  0.561360;0.136455;-0.816244;,
  -0.495387;0.269301;0.825875;,
  -0.478302;0.289928;0.828957;,
  -0.544416;0.206781;0.812929;,
  -0.620589;0.645258;0.445546;,
  -0.513707;0.532603;0.672636;,
  -0.555657;0.414730;0.720586;,
  -0.147989;-0.696799;-0.701834;,
  -0.223255;-0.602953;-0.765902;,
  -0.347135;-0.808029;-0.476010;,
  0.592953;-0.005697;-0.805217;,
  0.590264;-0.037636;-0.806332;,
  0.594471;-0.075671;-0.800549;,
  0.569047;-0.114257;-0.814328;,
  0.555833;-0.136114;-0.820074;,
  0.753508;-0.014692;0.657274;,
  0.940953;0.060712;0.333050;,
  0.894267;0.000057;0.447534;,
  0.346991;-0.807951;-0.476248;,
  0.247275;-0.625180;-0.740274;,
  0.147487;-0.696417;-0.702319;,
  0.529104;-0.203051;-0.823905;,
  0.555632;-0.414508;-0.720733;,
  0.502209;-0.493312;-0.710232;,
  0.620911;-0.644942;-0.445554;,
  0.544761;-0.206894;-0.812669;,
  0.469605;-0.300401;-0.830199;,
  0.495457;-0.269812;-0.825666;,
  0.869919;0.374869;0.320490;,
  0.803079;0.175068;0.569574;,
  0.794351;0.412610;0.445824;,
  0.555573;0.414712;0.720661;,
  0.513631;0.532540;0.672744;,
  0.620452;0.645144;0.445901;,
  0.513867;-0.532367;-0.672700;,
  0.632863;-0.314339;-0.707584;,
  0.830244;-0.455003;-0.321976;,
  0.649760;-0.675872;-0.347863;,
  0.544469;0.206832;0.812880;,
  0.478460;0.289994;0.828843;,
  0.495507;0.269306;0.825801;,
  0.283041;-0.656565;-0.699149;,
  0.365688;-0.852432;-0.373674;,
  0.863675;-0.473781;-0.172039;,
  0.680278;-0.708588;-0.187417;,
  0.385450;-0.900099;-0.203101;,
  0.369228;-0.380646;-0.847809;,
  0.054725;0.015615;-0.998379;,
  0.874076;-0.479628;-0.077124;,
  0.689925;-0.718963;-0.084239;,
  0.391788;-0.915491;-0.091536;,
  0.692180;-0.194756;-0.694951;,
  0.925143;-0.226496;-0.304646;,
  -0.445648;-0.328623;0.832710;,
  -0.370751;-0.380014;0.847428;,
  -0.000035;-0.703996;-0.710204;,
  -0.000011;-0.922906;-0.385027;,
  0.958464;-0.234798;-0.161915;,
  -0.000002;-0.977674;-0.210130;,
  -0.000029;-0.000151;-1.000000;,
  0.968707;-0.237379;-0.072508;,
  -0.000000;-0.995496;-0.094804;,
  0.876672;-0.481088;-0.000004;,
  0.692351;-0.721561;-0.000016;,
  0.393366;-0.919382;-0.000018;,
  0.787195;0.000012;-0.616704;,
  0.954346;0.000000;-0.298703;,
  -0.283049;-0.656599;-0.699114;,
  -0.365695;-0.852433;-0.373665;,
  -0.940942;0.060679;0.333085;,
  -0.753450;-0.014666;0.657341;,
  -0.894267;0.000057;0.447533;,
  0.596567;0.000008;-0.802563;,
  0.987364;-0.000017;-0.158471;,
  -0.020128;0.122764;-0.992232;,
  0.971255;-0.238042;-0.000000;,
  -0.385459;-0.900094;-0.203108;,
  -0.000010;-1.000000;-0.000007;,
  -0.593064;-0.007358;-0.805122;,
  -0.802179;0.174540;0.571003;,
  -0.868534;0.376987;0.321760;,
  -0.792061;0.414166;0.448448;,
  0.874080;-0.479615;0.077160;,
  0.689935;-0.718949;0.084275;,
  0.391768;-0.915496;0.091570;,
  0.997480;-0.000008;-0.070944;,
  -0.391798;-0.915486;-0.091536;,
  0.369779;-0.381935;0.846988;,
  0.443712;-0.331987;0.832409;,
  0.968705;-0.237381;0.072537;,
  -0.000021;-0.995493;0.094838;,
  0.656532;0.198561;-0.727694;,
  0.925135;0.226491;-0.304674;,
  1.000000;0.000002;0.000000;,
  -0.369120;-0.380630;-0.847863;,
  -0.513813;-0.532409;-0.672708;,
  -0.649728;-0.675923;-0.347825;,
  -0.393379;-0.919376;-0.000006;,
  0.958459;0.234808;-0.161930;,
  0.863677;-0.473776;0.172042;,
  0.680289;-0.708571;0.187440;,
  0.385457;-0.900093;0.203113;,
  -0.680252;-0.708615;-0.187410;,
  0.968707;0.237384;-0.072490;,
  0.958464;-0.234804;0.161907;,
  -0.000013;-0.977677;0.210114;,
  -0.689920;-0.718968;-0.084227;,
  0.997479;-0.000008;0.070969;,
  -0.391775;-0.915494;0.091564;,
  -0.632839;-0.314319;-0.707615;,
  0.830241;-0.455020;0.321958;,
  0.649771;-0.675868;0.347851;,
  0.365726;-0.852417;0.373671;,
  0.671252;0.366617;-0.644214;,
  0.830244;0.454995;-0.321985;,
  0.971255;0.238040;0.000000;,
  -0.830237;-0.455024;-0.321963;,
  -0.692351;-0.721561;-0.000010;,
  0.863664;0.473798;-0.172046;,
  0.925150;-0.226503;0.304623;,
  0.987366;-0.000018;0.158459;,
  0.000010;-0.922913;0.385008;,
  -0.863655;-0.473821;-0.172027;,
  -0.385441;-0.900104;0.203097;,
  0.649011;-0.335630;0.682743;,
  0.514000;-0.532504;0.672490;,
  0.968706;0.237381;0.072514;,
  0.283124;-0.656718;0.698973;,
  0.874061;0.479657;-0.077113;,
  -0.689917;-0.718969;0.084254;,
  0.369282;0.380719;-0.847752;,
  0.513886;0.532377;-0.672678;,
  -0.874070;-0.479647;-0.077073;,
  0.701417;-0.171072;0.691917;,
  0.943919;0.036249;0.328180;,
  0.000024;-0.704135;0.710066;,
  0.649790;0.675845;-0.347859;,
  -0.365692;-0.852446;0.373637;,
  -0.692195;-0.194602;-0.694979;,
  -0.925149;-0.226451;-0.304662;,
  0.369573;-0.381010;0.847495;,
  0.110493;-0.161759;0.980625;,
  0.876654;0.481121;0.000000;,
  0.958464;0.234800;0.161913;,
  -0.876679;-0.481075;-0.000001;,
  -0.680253;-0.708613;0.187412;,
  0.680319;0.708551;-0.187407;,
  -0.110331;-0.161436;-0.980696;,
  -0.958465;-0.234781;-0.161931;,
  0.000012;0.000004;1.000000;,
  -0.283087;-0.656717;0.698988;,
  -0.283114;0.656633;0.699056;,
  0.283116;0.656568;-0.699116;,
  -0.787190;-0.000019;-0.616710;,
  -0.347180;0.807864;0.476258;,
  0.874058;0.479659;0.077134;,
  0.924645;0.204509;0.321259;,
  -0.000000;0.704100;0.710101;,
  0.689963;0.718928;-0.084220;,
  -0.874080;-0.479624;0.077104;,
  -0.649741;-0.675909;0.347828;,
  0.365718;0.852412;-0.373691;,
  -0.968705;-0.237404;-0.072448;,
  -0.000000;0.871979;0.489543;,
  -0.000009;-0.000020;1.000000;,
  -0.954344;-0.000000;-0.298709;,
  0.283095;0.656614;0.699081;,
  -0.023352;-0.109962;-0.993661;,
  -0.000005;0.704003;-0.710197;,
  0.863666;0.473802;0.172025;,
  -0.656372;0.198507;-0.727854;,
  -0.513953;-0.532482;0.672544;,
  0.347146;0.807826;0.476348;,
  0.385465;0.900098;-0.203077;,
  0.692380;0.721533;0.000000;,
  -0.863671;-0.473796;0.172017;,
  -0.987358;-0.000001;-0.158504;,
  -0.971244;-0.238088;0.000003;,
  -0.369468;-0.380899;0.847590;,
  0.369240;-0.380575;-0.847835;,
  0.023505;-0.110852;-0.993559;,
  0.000008;0.922901;-0.385038;,
  -0.925147;0.226459;-0.304664;,
  -0.283119;0.656557;-0.699125;,
  0.830243;0.454992;0.321992;,
  -0.830246;-0.455011;0.321957;,
  0.391795;0.915489;-0.091521;,
  0.689958;0.718931;0.084245;,
  -0.997483;-0.000002;-0.070910;,
  -0.968704;-0.237403;0.072475;,
  -0.513844;0.532371;-0.672715;,
  -0.671183;0.366657;-0.644264;,
  0.631412;0.362865;0.685309;,
  0.000017;0.977683;-0.210083;,
  -0.648951;-0.335589;0.682820;,
  -0.365708;0.852413;-0.373698;,
  -0.958458;0.234811;-0.161934;,
  -0.830230;0.455008;-0.322001;,
  0.771748;0.519062;0.367395;,
  0.680315;0.708563;0.187377;,
  0.393394;0.919370;0.000000;,
  -0.958466;-0.234786;0.161921;,
  -0.649756;0.675868;-0.347879;,
  -1.000000;-0.000001;0.000001;,
  -0.020645;0.484659;-0.874459;,
  0.000006;0.995497;-0.094791;,
  0.649793;0.675849;0.347846;,
  -0.385441;0.900107;-0.203084;,
  -0.968700;0.237425;-0.072456;,
  -0.863663;0.473811;-0.172017;,
  -0.925155;-0.226456;0.304641;,
  0.391794;0.915486;0.091555;,
  0.502424;0.493316;0.710077;,
  -0.997481;-0.000004;0.070936;,
  -0.701336;-0.171003;0.692016;,
  -0.680309;0.708565;-0.187393;,
  -0.000004;1.000000;0.000000;,
  -0.971243;0.238090;0.000000;,
  0.385457;0.900109;0.203045;,
  -0.391777;0.915499;-0.091504;,
  -0.874058;0.479667;-0.077089;,
  -0.987359;-0.000002;0.158502;,
  -0.594538;-0.077296;-0.800343;,
  0.365692;0.852436;0.373661;,
  -0.689954;0.718939;-0.084206;,
  -0.943904;0.036237;0.328226;,
  -0.110623;-0.161958;0.980577;,
  -0.198588;-0.457771;0.866607;,
  0.000006;0.995494;0.094826;,
  0.283104;0.656681;0.699016;,
  -0.968698;0.237425;0.072483;,
  -0.393390;0.919372;0.000006;,
  -0.876652;0.481125;0.000004;,
  0.000017;0.977689;0.210059;,
  -0.958458;0.234811;0.161934;,
  -0.692363;0.721550;0.000010;,
  0.000012;-0.000226;1.000000;,
  0.000028;-0.485421;0.874281;,
  -0.391791;0.915489;0.091536;,
  0.000009;0.922912;0.385011;,
  -0.874051;0.479675;0.077117;,
  -0.000004;0.704128;0.710073;,
  -0.924733;0.204175;0.321218;,
  0.000145;-0.000386;1.000000;,
  0.198670;-0.458083;0.866424;,
  -0.689957;0.718933;0.084234;,
  -0.385441;0.900114;0.203051;,
  -0.863666;0.473812;0.172000;,
  -0.283106;0.656665;0.699030;,
  -0.741155;0.486381;0.462734;,
  -0.630938;0.362721;0.685821;,
  -0.365680;0.852434;0.373677;,
  -0.830243;0.454992;0.321992;,
  -0.680320;0.708564;0.187355;,
  -0.502381;0.493317;0.710107;,
  -0.649777;0.675861;0.347853;,
  0.807934;-0.462413;0.365263;,
  0.846811;-0.266475;0.460328;,
  0.020456;-0.484797;-0.874388;,
  0.871214;0.299172;-0.389208;,
  -0.785804;-0.413997;0.459476;,
  -0.818469;-0.181761;0.545042;,
  0.744322;-0.457645;-0.486360;,
  -0.443303;0.330335;0.833283;,
  -0.845454;0.421139;-0.328404;,
  0.443442;0.330427;0.833173;,
  0.550109;0.543569;0.633966;,
  -0.746038;-0.341657;-0.571574;,
  -0.587864;0.645152;0.488051;,
  0.961192;0.153818;0.229018;,
  -0.961275;0.153757;0.228713;,
  -0.707107;0.707107;0.000000;,
  0.000057;0.000041;1.000000;,
  0.000000;0.000000;1.000000;,
  0.000000;0.000017;1.000000;,
  0.000000;0.000083;1.000000;,
  -0.000057;0.000041;1.000000;,
  0.784428;-0.617407;-0.059001;,
  0.702122;-0.702222;-0.117942;,
  0.789700;-0.611679;-0.047148;,
  -0.784565;-0.617233;-0.059000;,
  -0.702001;-0.702342;-0.117938;,
  0.707096;0.707118;0.000000;,
  -0.707107;-0.707107;0.000000;,
  0.707109;-0.707104;-0.000001;,
  -0.000051;0.969338;-0.245732;,
  -0.000084;0.970892;-0.239516;,
  -0.000057;0.987480;-0.157747;,
  -0.000057;0.999037;-0.043871;,
  -0.000057;1.000000;0.000002;,
  -0.190250;0.976342;-0.102768;,
  0.250572;0.966751;-0.051043;,
  -0.000009;0.991490;-0.130183;,
  -0.000092;-0.972185;0.234213;,
  0.000175;-0.972184;0.234217;,
  -0.000005;-0.972185;0.234213;,
  -0.575399;0.811252;-0.103859;,
  0.823912;-0.560964;0.080549;,
  0.939498;0.323910;-0.111468;,
  -0.645447;-0.753582;0.124550;,
  -0.823914;0.560963;0.080542;,
  -0.571323;0.820269;0.027383;,
  0.495755;-0.269569;-0.825566;,
  -0.369028;0.380443;-0.847987;,
  -0.292001;0.427434;-0.855591;,
  0.571345;-0.139628;-0.808745;,
  -0.589445;-0.038351;-0.806898;,
  0.571271;0.139990;-0.808735;,
  0.292030;0.427446;-0.855575;,
  0.369050;0.380484;-0.847959;,
  -0.495594;-0.269545;-0.825671;,
  0.512521;0.248873;-0.821818;,
  0.496145;-0.269862;0.825236;,
  -0.369121;-0.380490;-0.847925;,
  -0.292246;0.427785;0.855332;,
  -0.406742;0.355979;0.841332;,
  0.292257;0.427705;-0.855368;,
  -0.596496;-0.000033;-0.802616;,
  -0.571400;-0.139279;-0.808767;,
  -0.571058;0.139896;-0.808902;,
  0.406828;0.356088;0.841245;,
  -0.369236;0.380680;-0.847790;,
  -0.512363;0.248878;-0.821915;,
  -0.495987;-0.269794;0.825353;,
  0.292385;0.427937;0.855208;,
  0.395016;0.363144;0.843854;,
  -0.395302;0.364991;0.842922;,
  0.765999;-0.449599;0.459462;,
  0.878951;0.117611;-0.462182;,
  0.999999;-0.001507;0.000296;,
  0.999998;0.001822;-0.000455;,
  -0.796373;-0.499050;0.341672;,
  0.878842;-0.118085;-0.462269;,
  0.544673;-0.206919;-0.812721;,
  0.999996;0.002697;-0.000683;,
  1.000000;0.000000;0.000000;,
  -0.878727;0.118297;-0.462434;,
  0.544823;0.206510;-0.812725;,
  0.443807;0.327266;0.834226;,
  -0.878854;-0.117868;-0.462301;,
  -0.544665;-0.206899;-0.812732;,
  -0.444895;0.332872;0.831424;,
  -0.544513;0.206388;-0.812963;,
  0.548248;-0.836316;0.000083;,
  0.548332;-0.836261;-0.000016;,
  0.548226;-0.836330;0.000045;,
  0.548432;-0.836195;-0.000039;,
  0.548280;-0.836295;-0.000017;,
  0.548222;-0.836333;0.000003;,
  0.548315;-0.836272;-0.000000;,
  -0.548325;-0.836265;-0.000005;,
  -0.548249;-0.836315;-0.000050;,
  -0.548308;-0.836277;-0.000036;,
  -0.548370;-0.836236;-0.000000;,
  -0.548542;-0.836123;0.000030;,
  -0.548600;-0.836085;0.000051;,
  -0.548121;-0.836399;0.000011;,
  0.548643;0.836057;0.000138;,
  0.548523;0.836135;0.000082;,
  0.548228;0.836329;-0.000092;,
  0.548496;0.836153;-0.000006;,
  0.548314;0.836273;-0.000030;,
  0.548338;0.836257;-0.000055;,
  0.548820;0.835941;0.000013;,
  -0.548660;0.836045;-0.000150;,
  -0.548361;0.836242;-0.000003;,
  -0.548384;0.836227;0.000009;,
  -0.548491;0.836157;-0.000053;,
  -0.548157;0.836376;0.000023;,
  -0.548459;0.836178;0.000023;,
  -0.548911;0.835881;0.000000;,
  0.874739;0.484594;-0.000000;,
  0.978795;-0.204842;-0.000000;,
  -0.863733;0.503951;-0.000000;,
  -0.939291;-0.343121;-0.000000;,
  -0.784446;-0.617385;-0.058999;,
  0.707050;-0.707164;-0.000000;,
  -0.684269;0.684317;0.251965;,
  -0.706906;-0.707307;-0.000001;,
  0.684140;0.684447;0.251962;,
  0.709842;-0.704361;-0.000000;,
  0.639002;-0.769205;0.000000;,
  0.308929;-0.951085;-0.000000;,
  0.107620;-0.994192;-0.000000;,
  0.308837;-0.951115;-0.000001;,
  0.309156;-0.951011;-0.000000;,
  0.000000;-1.000000;-0.000000;,
  -0.309101;-0.951029;-0.000000;,
  -0.639019;-0.769191;-0.000000;,
  -0.308630;-0.951182;0.000000;,
  -0.308753;-0.951142;0.000000;,
  -0.587904;-0.808930;0.000000;,
  0.435599;0.900141;-0.000001;,
  -0.497297;0.867580;-0.000001;,
  0.000000;-0.972184;0.234217;,
  -0.000003;-0.972185;0.234214;,
  0.808955;-0.587870;-0.000000;,
  0.808973;-0.587846;0.000001;,
  1.000000;-0.000011;-0.000005;,
  1.000000;-0.000003;-0.000005;,
  1.000000;-0.000005;-0.000007;,
  1.000000;0.000024;0.000000;,
  0.808924;-0.587914;0.000000;,
  -0.809032;-0.587765;-0.000000;,
  -0.808991;-0.587821;-0.000002;,
  -0.809070;-0.587713;-0.000003;,
  -0.107752;0.994178;-0.000001;,
  0.107720;0.994181;-0.000002;,
  0.309130;0.951020;-0.000002;,
  -0.000010;1.000000;-0.000000;,
  0.309089;0.951033;0.000000;,
  0.313094;0.949722;-0.000002;,
  0.312877;0.949794;-0.000002;,
  -0.310650;0.950524;0.000002;,
  -0.312060;0.950063;0.000006;,
  -0.312132;0.950039;0.000007;,
  -0.310700;0.950508;0.000001;,
  -0.575390;-0.811258;-0.103858;,
  0.575415;-0.811240;-0.103858;;
  493;
  3;0,1,2;,
  3;3,343,4;,
  4;6,344,5,9;,
  3;7,345,8;,
  4;0,2,346,12;,
  3;347,1,3;,
  4;10,11,9,5;,
  3;13,14,15;,
  3;16,16,17;,
  4;7,18,11,10;,
  3;19,20,21;,
  4;22,18,7,8;,
  3;23,24,25;,
  3;26,27,28;,
  3;29,30,31;,
  3;32,33,34;,
  3;35,36,37;,
  4;3,38,348,347;,
  4;0,12,39,4;,
  3;40,41,42;,
  3;43,44,45;,
  3;46,47,47;,
  3;48,49,50;,
  3;51,52,53;,
  3;54,55,56;,
  3;61,60,58;,
  3;60,59,58;,
  3;59,57,58;,
  3;62,63,64;,
  3;65,66,67;,
  3;60,61,68;,
  3;69,70,71;,
  3;72,73,74;,
  3;75,76,77;,
  3;78,79,80;,
  4;4,39,38,3;,
  4;81,82,83,84;,
  3;85,86,87;,
  4;88,81,84,89;,
  4;84,83,90,91;,
  4;89,84,91,92;,
  4;93,349,82,81;,
  4;94,93,81,88;,
  4;91,90,95,96;,
  4;92,91,96,97;,
  4;82,98,99,83;,
  3;100,101,101;,
  4;102,88,89,103;,
  4;83,99,104,90;,
  4;103,89,92,105;,
  4;106,94,88,102;,
  4;90,104,107,95;,
  4;24,20,350,351;,
  4;105,92,97,108;,
  4;96,95,109,110;,
  4;97,96,110,111;,
  4;98,112,113,99;,
  4;114,102,103,115;,
  3;116,117,118;,
  4;352,119,112,98;,
  4;99,113,120,104;,
  4;21,20,24,23;,
  4;121,106,102,114;,
  4;95,107,122,109;,
  4;115,103,105,123;,
  4;108,97,111,124;,
  4;125,353,16,16;,
  3;126,127,128;,
  4;110,109,129,130;,
  4;111,110,130,131;,
  4;104,120,132,107;,
  4;123,105,108,133;,
  3;134,134,135;,
  4;109,122,136,129;,
  4;124,111,131,137;,
  4;112,138,139,113;,
  4;119,354,138,112;,
  4;107,132,140,122;,
  4;141,121,114,142;,
  4;142,114,115,143;,
  4;133,108,124,144;,
  4;113,139,145,120;,
  4;130,129,146,147;,
  4;131,130,147,148;,
  4;33,27,355,356;,
  4;143,115,123,149;,
  4;28,27,33,32;,
  4;120,145,150,132;,
  4;129,136,151,146;,
  4;137,131,148,152;,
  4;149,123,133,153;,
  4;122,140,154,136;,
  4;144,124,137,155;,
  4;357,141,142,156;,
  4;147,146,157,158;,
  4;148,147,158,159;,
  4;138,160,161,139;,
  4;132,150,162,140;,
  4;156,142,143,163;,
  4;153,133,144,164;,
  4;139,161,165,145;,
  4;146,151,166,157;,
  4;136,154,167,151;,
  4;152,148,159,168;,
  4;163,143,149,169;,
  4;155,137,152,170;,
  4;158,157,171,172;,
  4;140,162,173,154;,
  4;159,158,172,174;,
  4;145,165,175,150;,
  4;164,144,155,176;,
  4;358,177,178,160;,
  4;169,149,153,179;,
  4;157,166,180,171;,
  4;151,167,181,166;,
  4;168,159,174,182;,
  4;160,178,183,161;,
  4;170,152,168,184;,
  4;185,156,163,186;,
  4;172,171,359,187;,
  4;174,172,187,188;,
  4;150,175,189,162;,
  4;154,173,190,167;,
  4;179,153,164,191;,
  4;176,155,170,192;,
  4;161,183,193,165;,
  4;56,55,44,43;,
  4;44,55,194,360;,
  4;186,163,169,195;,
  4;182,174,188,196;,
  4;166,181,62,180;,
  4;47,47,58,57;,
  4;184,168,182,197;,
  4;361,362,52,198;,
  4;177,363,199,178;,
  4;364,365,185,200;,
  4;201,198,52,51;,
  4;162,189,202,173;,
  4;167,190,203,181;,
  4;196,188,198,204;,
  4;165,193,205,175;,
  4;191,164,176,206;,
  4;192,170,184,207;,
  4;178,199,208,183;,
  4;195,169,179,209;,
  4;210,204,198,201;,
  4;197,182,196,211;,
  4;200,185,186,212;,
  4;211,196,204,213;,
  4;194,214,215,199;,
  4;173,202,216,190;,
  4;366,364,200,217;,
  4;207,184,197,218;,
  4;219,213,204,210;,
  4;183,208,220,193;,
  4;175,205,221,189;,
  4;206,176,192,222;,
  4;212,186,195,223;,
  4;209,179,191,224;,
  4;71,70,66,65;,
  4;218,197,211,225;,
  4;66,70,226,227;,
  4;199,215,228,208;,
  4;217,200,212,229;,
  4;214,227,230,215;,
  4;190,216,231,203;,
  4;367,211,213,79;,
  4;80,79,213,219;,
  4;222,192,207,232;,
  4;193,220,233,205;,
  4;189,221,234,202;,
  4;223,195,209,235;,
  4;224,191,206,236;,
  4;227,368,237,230;,
  4;368,369,238,237;,
  4;203,231,239,76;,
  3;15,14,19;,
  3;19,14,20;,
  3;14,350,20;,
  4;208,228,240,220;,
  4;232,207,218,241;,
  4;215,230,242,228;,
  4;229,212,223,243;,
  4;238,217,229,244;,
  4;77,76,239,245;,
  4;202,234,246,216;,
  4;241,218,225,370;,
  4;205,233,247,221;,
  4;236,206,222,248;,
  4;230,237,249,242;,
  4;235,209,224,250;,
  4;237,238,244,249;,
  3;25,24,251;,
  3;24,94,251;,
  3;94,106,251;,
  4;220,240,252,233;,
  4;216,246,253,231;,
  4;228,242,254,240;,
  4;243,223,235,255;,
  4;244,229,243,256;,
  4;248,222,232,257;,
  4;221,247,258,234;,
  4;231,253,259,239;,
  4;250,224,236,260;,
  4;257,232,241,261;,
  4;242,249,262,254;,
  4;249,244,256,262;,
  3;27,26,121;,
  3;26,251,121;,
  3;251,106,121;,
  4;233,252,263,247;,
  4;255,235,250,264;,
  4;234,258,265,246;,
  4;240,254,266,252;,
  4;256,243,255,267;,
  4;260,236,248,268;,
  3;30,353,31;,
  3;31,353,269;,
  3;353,125,269;,
  4;246,265,270,253;,
  4;254,262,271,266;,
  4;262,256,267,271;,
  4;268,248,257,272;,
  4;101,101,273,274;,
  4;247,263,275,258;,
  4;253,270,276,259;,
  4;259,276,371,372;,
  4;264,250,260,277;,
  4;272,257,261,117;,
  4;252,266,278,263;,
  4;267,255,264,279;,
  4;258,275,280,265;,
  4;277,260,268,281;,
  4;266,271,282,278;,
  4;271,267,279,282;,
  4;274,273,283,284;,
  4;263,278,285,275;,
  4;265,280,286,270;,
  4;279,264,277,287;,
  4;276,288,283,273;,
  4;281,268,272,289;,
  4;270,286,288,276;,
  4;284,283,290,291;,
  4;278,282,292,285;,
  4;282,279,287,292;,
  4;275,285,293,280;,
  4;287,277,281,294;,
  4;288,295,290,283;,
  3;40,34,41;,
  3;34,33,41;,
  3;33,356,41;,
  4;291,290,134,134;,
  4;296,297,126,128;,
  4;280,293,298,286;,
  4;294,281,289,299;,
  4;286,298,295,288;,
  4;299,289,126,297;,
  4;285,292,300,293;,
  4;292,287,294,300;,
  4;295,301,373,290;,
  4;293,300,302,298;,
  4;300,294,299,302;,
  4;298,302,301,295;,
  4;302,299,297,301;,
  3;360,36,44;,
  3;44,36,45;,
  3;36,35,45;,
  3;303,374,180;,
  3;180,374,171;,
  3;374,359,171;,
  3;62,64,304;,
  3;62,304,180;,
  3;304,303,180;,
  3;194,55,214;,
  3;214,55,305;,
  3;55,54,305;,
  3;214,305,227;,
  3;227,305,66;,
  3;305,67,66;,
  3;226,70,73;,
  3;70,69,73;,
  3;69,74,73;,
  3;18,306,11;,
  3;306,375,11;,
  3;375,376,11;,
  3;376,377,11;,
  3;307,261,378;,
  3;261,241,378;,
  3;241,370,378;,
  3;118,117,308;,
  3;117,261,308;,
  3;261,307,308;,
  3;352,98,379;,
  3;379,98,309;,
  3;98,82,309;,
  3;309,82,380;,
  3;82,349,380;,
  3;11,377,9;,
  3;377,381,9;,
  3;381,382,9;,
  3;382,379,9;,
  3;379,309,9;,
  3;48,310,49;,
  3;49,310,362;,
  3;310,53,362;,
  3;53,52,362;,
  3;38,39,311;,
  3;311,39,383;,
  3;383,39,39;,
  3;39,39,39;,
  3;87,86,312;,
  3;86,367,312;,
  3;312,367,78;,
  3;367,79,78;,
  3;160,138,358;,
  3;358,138,384;,
  3;384,138,306;,
  3;306,138,375;,
  3;138,354,375;,
  3;259,372,313;,
  3;372,385,313;,
  3;259,313,239;,
  3;313,245,239;,
  3;365,386,185;,
  3;386,314,185;,
  3;185,314,156;,
  3;314,387,156;,
  3;387,357,156;,
  3;39,39,39;,
  3;39,12,39;,
  3;39,12,39;,
  3;39,12,386;,
  3;12,314,386;,
  3;301,297,315;,
  3;297,296,315;,
  3;301,315,373;,
  3;315,388,373;,
  3;203,76,316;,
  3;76,75,316;,
  3;203,316,181;,
  3;316,63,181;,
  3;63,62,181;,
  3;238,369,217;,
  3;369,389,217;,
  3;389,311,217;,
  3;311,383,217;,
  3;383,366,217;,
  3;289,272,317;,
  3;317,272,116;,
  3;272,117,116;,
  3;289,317,126;,
  3;317,127,126;,
  3;9,309,6;,
  3;309,390,6;,
  3;390,391,6;,
  3;391,392,6;,
  3;392,393,6;,
  3;393,394,6;,
  3;394,395,6;,
  3;395,396,6;,
  3;346,397,12;,
  3;397,398,12;,
  3;398,399,12;,
  3;399,400,12;,
  3;400,401,12;,
  3;401,402,12;,
  3;402,403,12;,
  3;403,314,12;,
  3;22,404,18;,
  3;404,405,18;,
  3;405,406,18;,
  3;406,407,18;,
  3;407,408,18;,
  3;408,409,18;,
  3;409,410,18;,
  3;410,306,18;,
  3;38,311,348;,
  3;311,411,348;,
  3;411,412,348;,
  3;412,413,348;,
  3;413,414,348;,
  3;414,415,348;,
  3;415,416,348;,
  3;416,417,348;,
  4;318,318,318,318;,
  3;319,320,321;,
  3;322,319,321;,
  3;320,320,321;,
  3;323,322,321;,
  3;320,320,321;,
  3;320,323,321;,
  3;320,320,321;,
  3;320,320,321;,
  3;320,320,321;,
  3;320,320,321;,
  3;418,419,316;,
  3;316,419,63;,
  3;63,419,64;,
  3;419,304,64;,
  3;420,317,421;,
  3;317,116,421;,
  3;116,118,421;,
  3;118,308,421;,
  4;324,325,325,326;,
  4;327,328,328,422;,
  4;329,329,329,329;,
  4;330,330,330,330;,
  4;423,423,325,325;,
  4;331,331,331,331;,
  4;424,424,424,424;,
  4;332,333,334,334;,
  4;425,328,328,425;,
  4;334,334,335,335;,
  4;426,426,426,426;,
  4;335,336,336,335;,
  3;427,428,429;,
  3;428,430,429;,
  3;429,430,431;,
  3;431,430,432;,
  3;430,433,432;,
  3;433,430,434;,
  3;430,435,434;,
  3;434,435,436;,
  3;436,435,437;,
  3;435,438,437;,
  3;313,439,245;,
  3;439,418,245;,
  3;245,418,77;,
  3;77,418,75;,
  3;418,316,75;,
  3;317,420,127;,
  3;127,420,128;,
  3;128,420,296;,
  3;296,420,315;,
  3;420,440,315;,
  3;333,332,337;,
  3;332,338,339;,
  3;339,337,332;,
  3;441,442,340;,
  3;442,341,342;,
  3;342,340,442;,
  3;324,326,374;,
  3;374,326,443;,
  3;443,326,427;,
  3;326,444,427;,
  3;444,428,427;,
  3;382,382,445;,
  3;382,446,445;,
  3;445,446,447;,
  3;446,448,447;,
  3;39,39,39;,
  3;39,39,39;,
  3;39,39,39;,
  3;39,39,39;,
  3;419,428,449;,
  3;428,444,449;,
  3;419,449,304;,
  3;304,449,303;,
  3;303,449,324;,
  3;324,374,303;,
  3;438,435,450;,
  3;450,435,378;,
  3;435,451,452;,
  3;452,327,435;,
  3;435,327,378;,
  3;327,422,378;,
  3;453,439,454;,
  3;454,439,455;,
  3;339,338,456;,
  3;456,338,457;,
  3;455,439,338;,
  3;338,439,457;,
  3;457,439,458;,
  3;458,439,459;,
  3;439,313,459;,
  3;440,453,460;,
  3;453,454,460;,
  3;440,460,315;,
  3;315,460,461;,
  3;461,460,462;,
  3;462,460,463;,
  3;463,460,337;,
  3;463,337,456;,
  3;337,339,456;,
  3;435,421,451;,
  3;451,421,422;,
  3;422,421,378;,
  3;378,421,307;,
  3;421,308,307;,
  3;5,344,345;,
  3;464,1,0;,
  3;10,345,7;,
  3;5,465,465;;
 }
 MeshTextureCoords {
  509;
  0.375000;0.000000;,
  0.250000;0.125000;,
  0.250000;0.000000;,
  0.375000;0.250000;,
  0.375000;0.125000;,
  0.500000;0.875000;,
  0.375000;0.875000;,
  0.375000;0.750000;,
  0.500000;0.750000;,
  0.125000;0.250000;,
  0.250000;0.250000;,
  0.375000;1.000000;,
  0.500000;1.000000;,
  0.375000;0.625000;,
  0.500000;0.625000;,
  0.270540;0.750000;,
  0.300000;0.750000;,
  0.300000;0.790580;,
  0.250000;0.751380;,
  0.250000;0.750000;,
  0.251430;0.750000;,
  0.375000;0.500000;,
  0.500000;0.500000;,
  0.314970;0.800000;,
  0.350000;0.800000;,
  0.350000;0.821910;,
  0.500000;0.375000;,
  0.375000;0.375000;,
  0.400000;0.823370;,
  0.400000;0.800000;,
  0.441550;0.800000;,
  0.458450;0.800000;,
  0.500000;0.800000;,
  0.500000;0.823370;,
  0.148570;0.750000;,
  0.150000;0.750000;,
  0.150000;0.751380;,
  0.550000;0.821910;,
  0.550000;0.800000;,
  0.585030;0.800000;,
  0.100000;0.787080;,
  0.100000;0.750000;,
  0.126920;0.750000;,
  0.500000;0.250000;,
  0.500000;0.000000;,
  0.500000;0.125000;,
  0.600000;0.790580;,
  0.600000;0.750000;,
  0.629460;0.750000;,
  0.050000;0.818430;,
  0.050000;0.800000;,
  0.079470;0.800000;,
  0.648570;0.750000;,
  0.650000;0.750000;,
  0.650000;0.751380;,
  0.300000;0.228060;,
  0.300000;0.250000;,
  0.263840;0.250000;,
  0.350000;0.193330;,
  0.350000;0.200000;,
  0.343760;0.200000;,
  0.964600;0.800000;,
  1.000000;0.800000;,
  1.000000;0.819900;,
  0.750000;0.750000;,
  0.750000;0.751380;,
  0.700000;0.750000;,
  0.700920;0.766880;,
  0.700000;0.767150;,
  0.200000;0.300000;,
  0.155750;0.300000;,
  0.200000;0.283820;,
  0.900000;0.819900;,
  0.900000;0.800000;,
  0.935400;0.800000;,
  0.751430;0.750000;,
  0.820530;0.800000;,
  0.850000;0.800000;,
  0.850000;0.818430;,
  0.773080;0.750000;,
  0.800000;0.750000;,
  0.800000;0.787080;,
  0.150540;0.300000;,
  0.150000;0.300000;,
  0.150000;0.299190;,
  0.556240;0.200000;,
  0.550000;0.200000;,
  0.550000;0.193330;,
  0.350000;0.700000;,
  0.300000;0.700000;,
  0.300000;0.650000;,
  0.350000;0.650000;,
  0.636160;0.250000;,
  0.600000;0.250000;,
  0.600000;0.228060;,
  0.400000;0.700000;,
  0.400000;0.650000;,
  0.300000;0.600000;,
  0.350000;0.600000;,
  0.400000;0.600000;,
  0.350000;0.750000;,
  0.400000;0.750000;,
  0.300000;0.550000;,
  0.350000;0.550000;,
  0.400000;0.550000;,
  0.250000;0.700000;,
  0.250000;0.650000;,
  0.051830;0.250000;,
  0.050000;0.250000;,
  0.050000;0.247910;,
  0.450000;0.700000;,
  0.450000;0.650000;,
  0.250000;0.600000;,
  0.450000;0.600000;,
  0.450000;0.750000;,
  0.250000;0.550000;,
  0.450000;0.550000;,
  0.300000;0.500000;,
  0.350000;0.500000;,
  0.400000;0.500000;,
  0.200000;0.700000;,
  0.200000;0.650000;,
  0.500000;0.700000;,
  0.500000;0.650000;,
  0.744250;0.300000;,
  0.700000;0.300000;,
  0.700000;0.283820;,
  0.200000;0.750000;,
  0.200000;0.600000;,
  0.500000;0.750000;,
  0.250000;0.500000;,
  0.500000;0.600000;,
  0.450000;0.500000;,
  0.200000;0.767150;,
  0.750000;0.300000;,
  0.749460;0.300000;,
  0.750000;0.299190;,
  0.300000;0.450000;,
  0.350000;0.450000;,
  0.400000;0.450000;,
  0.200000;0.550000;,
  0.500000;0.550000;,
  0.850000;0.247910;,
  0.850000;0.250000;,
  0.848170;0.250000;,
  0.250000;0.450000;,
  0.450000;0.450000;,
  0.150000;0.700000;,
  0.150000;0.650000;,
  0.200000;0.500000;,
  0.550000;0.750000;,
  0.550000;0.700000;,
  0.550000;0.650000;,
  0.500000;0.500000;,
  0.150000;0.600000;,
  0.300000;0.400000;,
  0.350000;0.400000;,
  0.400000;0.400000;,
  0.550000;0.600000;,
  0.150000;0.550000;,
  0.250000;0.400000;,
  0.450000;0.400000;,
  0.550000;0.550000;,
  0.200000;0.450000;,
  0.500000;0.450000;,
  0.600000;0.700000;,
  0.300000;0.350000;,
  0.350000;0.350000;,
  0.400000;0.350000;,
  0.100000;0.700000;,
  0.100000;0.650000;,
  0.150000;0.500000;,
  0.600000;0.650000;,
  0.550000;0.500000;,
  0.100000;0.600000;,
  0.250000;0.350000;,
  0.200000;0.400000;,
  0.450000;0.350000;,
  0.600000;0.600000;,
  0.500000;0.400000;,
  0.300000;0.300000;,
  0.350000;0.300000;,
  0.150000;0.450000;,
  0.400000;0.300000;,
  0.100000;0.550000;,
  0.550000;0.450000;,
  0.050000;0.750000;,
  0.050000;0.700000;,
  0.600000;0.550000;,
  0.250000;0.300000;,
  0.200000;0.350000;,
  0.450000;0.300000;,
  0.050000;0.650000;,
  0.500000;0.350000;,
  0.650000;0.700000;,
  0.650000;0.650000;,
  0.350000;0.250000;,
  0.400000;0.250000;,
  0.100000;0.500000;,
  0.150000;0.400000;,
  0.600000;0.500000;,
  0.550000;0.400000;,
  0.050000;0.600000;,
  0.000000;0.819900;,
  0.000000;0.800000;,
  0.000000;0.750000;,
  0.650000;0.600000;,
  0.450000;0.250000;,
  0.500000;0.300000;,
  0.400000;0.200000;,
  0.000000;0.700000;,
  0.700000;0.700000;,
  0.400000;0.171800;,
  0.100000;0.450000;,
  0.150000;0.350000;,
  0.450000;0.200000;,
  0.050000;0.550000;,
  0.600000;0.450000;,
  0.550000;0.350000;,
  0.000000;0.650000;,
  0.650000;0.550000;,
  0.450000;0.178930;,
  0.500000;0.250000;,
  0.700000;0.650000;,
  0.500000;0.200000;,
  1.000000;0.750000;,
  0.950000;0.750000;,
  0.950000;0.700000;,
  1.000000;0.700000;,
  0.100000;0.400000;,
  0.750000;0.700000;,
  0.550000;0.300000;,
  0.500000;0.171800;,
  0.000000;0.600000;,
  0.050000;0.500000;,
  0.600000;0.400000;,
  0.700000;0.600000;,
  0.650000;0.500000;,
  0.550000;0.250000;,
  0.850000;0.750000;,
  0.900000;0.750000;,
  0.950000;0.650000;,
  1.000000;0.650000;,
  0.750000;0.650000;,
  0.900000;0.700000;,
  0.100000;0.350000;,
  0.600000;0.350000;,
  0.000000;0.550000;,
  0.050000;0.450000;,
  0.700000;0.550000;,
  0.650000;0.450000;,
  0.850000;0.700000;,
  0.800000;0.700000;,
  0.100000;0.300000;,
  0.950000;0.600000;,
  1.000000;0.600000;,
  0.600000;0.300000;,
  0.900000;0.650000;,
  0.750000;0.600000;,
  0.800000;0.650000;,
  0.100000;0.264230;,
  0.050000;0.400000;,
  0.000000;0.500000;,
  0.650000;0.400000;,
  0.850000;0.650000;,
  0.700000;0.500000;,
  0.450000;0.795280;,
  0.950000;0.550000;,
  1.000000;0.550000;,
  0.050000;0.350000;,
  0.900000;0.600000;,
  0.750000;0.550000;,
  0.800000;0.600000;,
  0.650000;0.350000;,
  0.000000;0.450000;,
  0.050000;0.300000;,
  0.700000;0.450000;,
  0.650000;0.300000;,
  0.850000;0.600000;,
  0.950000;0.500000;,
  1.000000;0.500000;,
  0.750000;0.500000;,
  0.000000;0.400000;,
  0.900000;0.550000;,
  0.800000;0.550000;,
  0.700000;0.400000;,
  0.199080;0.766880;,
  0.000000;0.350000;,
  0.850000;0.550000;,
  0.700000;0.350000;,
  0.000000;0.250000;,
  0.000000;0.224570;,
  0.950000;0.450000;,
  1.000000;0.450000;,
  0.000000;0.300000;,
  0.750000;0.450000;,
  0.900000;0.500000;,
  0.800000;0.500000;,
  0.950000;0.400000;,
  1.000000;0.400000;,
  0.750000;0.400000;,
  0.850000;0.500000;,
  1.000000;0.224570;,
  1.000000;0.250000;,
  0.950000;0.250000;,
  0.950000;0.232300;,
  0.900000;0.450000;,
  0.950000;0.350000;,
  1.000000;0.350000;,
  0.800000;0.450000;,
  1.000000;0.300000;,
  0.950000;0.300000;,
  0.750000;0.350000;,
  0.900000;0.250000;,
  0.900000;0.224570;,
  0.850000;0.450000;,
  0.900000;0.400000;,
  0.800000;0.400000;,
  0.900000;0.300000;,
  0.800000;0.264240;,
  0.800000;0.300000;,
  0.900000;0.350000;,
  0.800000;0.350000;,
  0.850000;0.400000;,
  0.850000;0.300000;,
  0.850000;0.350000;,
  0.250000;0.259270;,
  0.226890;0.293470;,
  0.950000;0.791840;,
  0.565190;0.500000;,
  0.564230;0.528160;,
  0.564330;0.531050;,
  0.565440;0.625000;,
  0.650000;0.259270;,
  0.673110;0.293470;,
  0.263280;0.738100;,
  0.565460;0.626650;,
  0.564330;0.722260;,
  0.564230;0.725150;,
  0.565080;0.750000;,
  0.317800;0.228490;,
  0.565190;0.250000;,
  0.564230;0.221840;,
  0.564330;0.218950;,
  0.565440;0.125000;,
  0.582200;0.228490;,
  0.135200;0.736520;,
  0.064280;0.265230;,
  0.636720;0.738100;,
  0.565460;0.123350;,
  0.564330;0.027740;,
  0.564230;0.024850;,
  0.565080;0.000000;,
  0.835720;0.265230;,
  0.151560;0.301770;,
  0.764800;0.736520;,
  0.748440;0.301770;,
  0.564230;0.757170;,
  0.567130;0.781600;,
  0.567800;0.792100;,
  0.572350;0.814140;,
  0.572650;0.843170;,
  0.567800;0.869170;,
  0.567470;0.875000;,
  0.567800;0.880830;,
  0.572650;0.906830;,
  0.572350;0.935860;,
  0.567800;0.957900;,
  0.567130;0.968400;,
  0.564230;0.992830;,
  0.565080;1.000000;,
  0.567220;0.375000;,
  0.567800;0.385070;,
  0.571930;0.407220;,
  0.571620;0.436610;,
  0.567800;0.455150;,
  0.566880;0.469550;,
  0.564230;0.491880;,
  0.564230;0.258120;,
  0.566880;0.280450;,
  0.567800;0.294850;,
  0.571620;0.313390;,
  0.571930;0.342780;,
  0.567800;0.364930;,
  0.625000;0.560300;,
  0.625000;0.750000;,
  0.375000;0.750000;,
  0.375000;0.630790;,
  0.373590;0.064410;,
  0.451720;0.007650;,
  0.500000;0.150000;,
  0.343750;0.156250;,
  0.548280;0.007650;,
  0.373590;0.248090;,
  0.626410;0.064410;,
  0.451720;0.304850;,
  0.656250;0.156250;,
  0.548280;0.304850;,
  0.626410;0.248090;,
  0.400000;0.312500;,
  0.425000;0.312500;,
  0.400000;0.683550;,
  0.401460;0.683530;,
  0.416200;0.683470;,
  0.425000;0.683500;,
  0.550000;0.312500;,
  0.550000;0.683550;,
  0.525000;0.312500;,
  0.548540;0.683530;,
  0.533800;0.683470;,
  0.525000;0.683500;,
  0.875000;0.189700;,
  0.875000;0.000000;,
  0.625000;0.000000;,
  0.625000;0.183950;,
  0.625000;0.183950;,
  0.625000;0.000000;,
  0.875000;0.000000;,
  0.875000;0.189700;,
  0.375000;0.630790;,
  0.375000;0.750000;,
  0.625000;0.750000;,
  0.625000;0.560300;,
  0.375000;0.000000;,
  0.375000;0.115600;,
  0.375000;1.000000;,
  0.625000;1.000000;,
  0.375000;0.115600;,
  0.375000;0.000000;,
  0.125000;0.000000;,
  0.125000;0.119210;,
  0.125000;0.125000;,
  0.375000;0.125000;,
  0.375000;0.187500;,
  0.125000;0.187500;,
  0.625000;1.000000;,
  0.375000;1.000000;,
  0.375000;0.250000;,
  0.125000;0.250000;,
  0.125000;0.119210;,
  0.125000;0.000000;,
  0.625000;0.250000;,
  0.625000;0.500000;,
  0.375000;0.500000;,
  0.450000;0.683420;,
  0.450000;0.312500;,
  0.455940;0.683530;,
  0.475000;0.312500;,
  0.457200;0.683600;,
  0.466320;0.683840;,
  0.475000;0.683760;,
  0.483680;0.683840;,
  0.500000;0.312500;,
  0.492800;0.683600;,
  0.494060;0.683530;,
  0.500000;0.683420;,
  0.375000;0.683400;,
  0.375000;0.312500;,
  0.384600;0.683390;,
  0.399480;0.683530;,
  0.399650;0.683530;,
  0.550350;0.683530;,
  0.550530;0.683530;,
  0.565400;0.683390;,
  0.575000;0.683400;,
  0.575000;0.312500;,
  0.375000;0.016080;,
  0.125000;0.016080;,
  0.250000;0.019790;,
  0.875000;0.250000;,
  0.875000;0.025590;,
  0.625000;0.025590;,
  0.750000;0.031490;,
  0.433510;0.350810;,
  0.445610;0.350430;,
  0.436420;0.683340;,
  0.445760;0.683420;,
  0.445610;0.328610;,
  0.375000;0.562500;,
  0.625000;0.724410;,
  0.375000;0.625000;,
  0.375000;0.733920;,
  0.433510;0.328950;,
  0.432480;0.683380;,
  0.504240;0.683420;,
  0.513580;0.683340;,
  0.516490;0.328950;,
  0.504390;0.328610;,
  0.504390;0.350430;,
  0.516490;0.350810;,
  0.600000;0.312500;,
  0.625000;0.312500;,
  0.600000;0.329100;,
  0.606280;0.329480;,
  0.600000;0.350180;,
  0.606280;0.350540;,
  0.600000;0.683410;,
  0.610430;0.683440;,
  0.621390;0.683350;,
  0.621820;0.683340;,
  0.625000;0.683400;,
  0.593720;0.329480;,
  0.578180;0.683340;,
  0.578610;0.683350;,
  0.589570;0.683440;,
  0.593720;0.350540;,
  0.517520;0.683380;,
  0.125000;0.000000;,
  0.125000;0.125000;;
 }
}
