xof 0302txt 0064
template Header {
 <3D82AB43-62DA-11cf-AB39-0020AF71E433>
 WORD major;
 WORD minor;
 DWORD flags;
}

template Vector {
 <3D82AB5E-62DA-11cf-AB39-0020AF71E433>
 FLOAT x;
 FLOAT y;
 FLOAT z;
}

template Coords2d {
 <F6F23F44-7686-11cf-8F52-0040333594A3>
 FLOAT u;
 FLOAT v;
}

template Matrix4x4 {
 <F6F23F45-7686-11cf-8F52-0040333594A3>
 array FLOAT matrix[16];
}

template ColorRGBA {
 <35FF44E0-6C7C-11cf-8F52-0040333594A3>
 FLOAT red;
 FLOAT green;
 FLOAT blue;
 FLOAT alpha;
}

template ColorRGB {
 <D3E16E81-7835-11cf-8F52-0040333594A3>
 FLOAT red;
 FLOAT green;
 FLOAT blue;
}

template IndexedColor {
 <1630B820-7842-11cf-8F52-0040333594A3>
 DWORD index;
 ColorRGBA indexColor;
}

template Boolean {
 <4885AE61-78E8-11cf-8F52-0040333594A3>
 WORD truefalse;
}

template Boolean2d {
 <4885AE63-78E8-11cf-8F52-0040333594A3>
 Boolean u;
 Boolean v;
}

template MaterialWrap {
 <4885AE60-78E8-11cf-8F52-0040333594A3>
 Boolean u;
 Boolean v;
}

template TextureFilename {
 <A42790E1-7810-11cf-8F52-0040333594A3>
 STRING filename;
}

template Material {
 <3D82AB4D-62DA-11cf-AB39-0020AF71E433>
 ColorRGBA faceColor;
 FLOAT power;
 ColorRGB specularColor;
 ColorRGB emissiveColor;
 [...]
}

template MeshFace {
 <3D82AB5F-62DA-11cf-AB39-0020AF71E433>
 DWORD nFaceVertexIndices;
 array DWORD faceVertexIndices[nFaceVertexIndices];
}

template MeshFaceWraps {
 <4885AE62-78E8-11cf-8F52-0040333594A3>
 DWORD nFaceWrapValues;
 Boolean2d faceWrapValues;
}

template MeshTextureCoords {
 <F6F23F40-7686-11cf-8F52-0040333594A3>
 DWORD nTextureCoords;
 array Coords2d textureCoords[nTextureCoords];
}

template MeshMaterialList {
 <F6F23F42-7686-11cf-8F52-0040333594A3>
 DWORD nMaterials;
 DWORD nFaceIndexes;
 array DWORD faceIndexes[nFaceIndexes];
 [Material]
}

template MeshNormals {
 <F6F23F43-7686-11cf-8F52-0040333594A3>
 DWORD nNormals;
 array Vector normals[nNormals];
 DWORD nFaceNormals;
 array MeshFace faceNormals[nFaceNormals];
}

template MeshVertexColors {
 <1630B821-7842-11cf-8F52-0040333594A3>
 DWORD nVertexColors;
 array IndexedColor vertexColors[nVertexColors];
}

template Mesh {
 <3D82AB44-62DA-11cf-AB39-0020AF71E433>
 DWORD nVertices;
 array Vector vertices[nVertices];
 DWORD nFaces;
 array MeshFace faces[nFaces];
 [...]
}

Header{
1;
0;
1;
}

Mesh {
 270;
 2.65450;69.47139;-0.55761;,
 0.08342;83.43185;-0.53654;,
 0.08342;83.43185;-0.50995;,
 2.65450;69.47138;-0.48889;,
 -0.03629;83.43185;-0.53654;,
 -0.07618;83.43185;-0.53654;,
 -0.07618;83.43185;-0.50995;,
 -0.03629;83.43185;-0.50995;,
 -2.64727;18.38651;-0.55760;,
 -1.56035;17.35797;-0.55760;,
 -1.56035;17.35797;-0.48889;,
 -2.64727;18.38651;-0.48889;,
 0.78560;17.35797;-1.08203;,
 1.56757;17.35797;-0.55760;,
 1.56757;17.35797;-0.48889;,
 0.78560;17.35797;0.03553;,
 -1.32183;69.47139;0.03553;,
 -2.64727;69.47139;-0.48889;,
 1.32905;69.47139;-1.08204;,
 0.04351;83.43185;-0.53654;,
 2.65450;18.38651;-0.55760;,
 2.65450;27.78065;-0.55759;,
 2.65450;27.78065;-0.48889;,
 2.65450;18.38651;-0.48889;,
 2.65450;38.20333;-0.55759;,
 2.65450;38.20333;-0.48888;,
 2.65450;48.62601;-0.55759;,
 2.65450;48.62601;-0.48888;,
 2.65450;59.04869;-0.55759;,
 2.65450;59.04869;-0.48888;,
 -2.64727;69.47138;-0.55761;,
 -2.64727;59.04869;-0.55759;,
 -2.64727;59.04869;-0.48888;,
 -2.64727;48.62601;-0.55759;,
 -2.64727;48.62601;-0.48888;,
 -2.64727;38.20333;-0.55759;,
 -2.64727;38.20333;-0.48888;,
 -2.64727;27.78065;-0.55759;,
 -2.64727;27.78065;-0.48889;,
 -1.32183;18.38651;0.03553;,
 -1.32183;27.78065;0.03553;,
 -1.32183;38.20333;0.03553;,
 -1.32183;48.62601;0.03553;,
 -1.32183;59.04869;0.03553;,
 1.32905;18.38651;-1.08203;,
 1.32905;27.78065;-1.08202;,
 1.32905;38.20333;-1.08202;,
 1.32905;48.62601;-1.08202;,
 1.32905;59.04869;-1.08202;,
 0.04351;83.43185;-0.50995;,
 0.00361;83.43185;-0.53654;,
 0.00361;83.43185;-0.50995;,
 -0.77837;17.35797;-1.08203;,
 -0.77837;17.35797;0.03553;,
 0.00361;17.35797;-0.53264;,
 0.00361;17.35797;-0.50855;,
 1.32905;69.47138;0.03553;,
 0.00361;69.47139;-0.50857;,
 -1.32183;69.47138;-1.08204;,
 0.00361;69.47139;-0.53265;,
 1.32905;27.78065;0.03553;,
 1.32905;18.38651;0.03553;,
 0.00361;27.78065;-0.50857;,
 0.00361;18.38651;-0.50858;,
 1.32905;38.20333;0.03553;,
 0.00361;38.20333;-0.50857;,
 1.32905;48.62601;0.03553;,
 0.00361;48.62601;-0.50857;,
 1.32905;59.04869;0.03553;,
 0.00361;59.04869;-0.50857;,
 -1.32183;27.78065;-1.08202;,
 -1.32183;18.38651;-1.08203;,
 0.00361;27.78065;-0.53266;,
 0.00361;18.38651;-0.53266;,
 -1.32183;38.20333;-1.08202;,
 0.00361;38.20333;-0.53266;,
 -1.32183;48.62601;-1.08202;,
 0.00361;48.62601;-0.53265;,
 -1.32183;59.04869;-1.08202;,
 0.00361;59.04869;-0.53265;,
 8.25043;16.86126;-0.52324;,
 8.25043;16.86126;-0.44575;,
 8.25043;16.81959;-0.44575;,
 8.25043;16.81959;-0.52324;,
 -6.18151;15.75171;0.00004;,
 -8.24321;16.83281;-0.44159;,
 -8.24321;16.79299;-0.44159;,
 -6.18151;15.59248;0.00004;,
 -8.24321;16.83281;-0.52324;,
 -8.24321;16.83281;-0.60491;,
 -8.24321;16.79299;-0.60491;,
 -8.24321;16.79299;-0.52324;,
 6.18873;15.75171;-1.04340;,
 8.25043;16.86126;-0.60075;,
 8.25043;16.81959;-0.60075;,
 6.18873;15.59110;-1.04340;,
 -6.18151;15.59248;-0.52324;,
 6.18873;15.91232;-0.52324;,
 6.18873;15.91232;-0.00309;,
 8.25043;16.90293;-0.44575;,
 8.25043;16.90293;-0.52324;,
 8.25043;16.90293;-0.60075;,
 2.06531;15.75171;0.88221;,
 0.00361;15.75171;1.32487;,
 0.00361;15.23428;1.32487;,
 2.06531;15.35322;0.88221;,
 2.06531;16.15018;0.88221;,
 0.00361;16.26912;1.32487;,
 -6.18151;15.91092;0.00004;,
 -8.24321;16.87263;-0.44159;,
 -8.24321;16.87263;-0.52324;,
 -8.24321;16.87263;-0.60491;,
 -2.05809;15.75171;-1.92974;,
 0.00361;15.75171;-2.37135;,
 0.00361;15.23428;-2.37135;,
 -2.05809;15.35368;-1.92974;,
 -2.05809;16.14973;-1.92974;,
 0.00361;16.26912;-2.37135;,
 6.18873;15.91232;-1.04340;,
 -6.18151;15.59248;-1.04652;,
 2.06531;15.35322;-1.92871;,
 2.06531;15.35322;-0.52324;,
 0.00361;15.23428;-0.52324;,
 -2.05809;16.14973;-0.52324;,
 0.00361;16.26912;-0.52324;,
 -2.05809;16.14973;0.88325;,
 2.06531;15.75171;-1.92871;,
 4.12702;14.91224;-1.48605;,
 4.12702;14.63268;-1.48605;,
 2.06531;16.15018;-0.52324;,
 4.12702;15.19178;0.43956;,
 4.12702;15.19178;-0.52324;,
 6.18873;15.75171;-0.00309;,
 6.18873;15.59109;-0.00309;,
 4.12702;14.91224;0.43956;,
 4.12702;14.63268;0.43956;,
 2.06531;16.15018;-1.92871;,
 4.12702;15.19178;-1.48605;,
 6.18873;15.59109;-0.52324;,
 4.12702;14.63268;-0.52324;,
 -2.05809;15.75171;0.88325;,
 -2.05809;15.35368;0.88325;,
 -4.11979;14.91224;0.44165;,
 -4.11979;14.63361;0.44165;,
 -2.05809;15.35368;-0.52324;,
 -4.11979;14.63361;-0.52324;,
 -4.11979;15.19085;0.44165;,
 -6.18151;15.75171;-1.04652;,
 -4.11979;14.91224;-1.48812;,
 -4.11979;14.63361;-1.48812;,
 -6.18151;15.91092;-1.04652;,
 -4.11979;15.19085;-1.48812;,
 -6.18151;15.91092;-0.52324;,
 -4.11979;15.19085;-0.52324;,
 4.80586;18.32776;-0.52324;,
 4.80586;18.32776;-0.45780;,
 4.80586;18.29257;-0.45780;,
 4.80586;18.29257;-0.52324;,
 -3.59807;17.39056;-0.08125;,
 -4.79861;18.30373;-0.45428;,
 -4.79861;18.27009;-0.45428;,
 -3.59807;17.25606;-0.08125;,
 -4.79861;18.30373;-0.52324;,
 -4.79861;18.30373;-0.59223;,
 -4.79861;18.27009;-0.59223;,
 -4.79861;18.27009;-0.52324;,
 3.60529;17.39057;-0.96261;,
 4.80586;18.32776;-0.58871;,
 4.80586;18.29257;-0.58871;,
 3.60529;17.25490;-0.96261;,
 -3.59807;17.25606;-0.52324;,
 3.60529;17.52623;-0.52324;,
 3.60529;17.52623;-0.08389;,
 4.80586;18.36297;-0.45780;,
 4.80586;18.36297;-0.52324;,
 4.80586;18.36297;-0.58871;,
 1.20418;17.39056;0.66389;,
 0.00361;17.39056;1.03779;,
 0.00361;16.95351;1.03779;,
 1.20418;17.05398;0.66389;,
 1.20418;17.72714;0.66389;,
 0.00361;17.82761;1.03779;,
 -3.59807;17.52505;-0.08125;,
 -4.79861;18.33737;-0.45428;,
 -4.79861;18.33737;-0.52324;,
 -4.79861;18.33737;-0.59223;,
 -1.19694;17.39057;-1.71128;,
 0.00361;17.39057;-2.08429;,
 0.00361;16.95351;-2.08429;,
 -1.19694;17.05437;-1.71128;,
 -1.19694;17.72677;-1.71128;,
 0.00361;17.82761;-2.08429;,
 3.60529;17.52623;-0.96261;,
 -3.59807;17.25606;-0.96524;,
 1.20418;17.05398;-1.71039;,
 1.20418;17.05398;-0.52324;,
 0.00361;16.95351;-0.52324;,
 -1.19694;17.72675;-0.52324;,
 0.00361;17.82761;-0.52324;,
 -1.19694;17.72675;0.66477;,
 1.20418;17.39057;-1.71039;,
 2.40474;16.68148;-1.33650;,
 2.40474;16.44537;-1.33650;,
 1.20418;17.72714;-0.52324;,
 2.40474;16.91761;0.29001;,
 2.40474;16.91761;-0.52324;,
 3.60529;17.39056;-0.08389;,
 3.60529;17.25490;-0.08389;,
 2.40474;16.68148;0.29001;,
 2.40474;16.44537;0.29001;,
 1.20418;17.72714;-1.71038;,
 2.40474;16.91761;-1.33650;,
 3.60529;17.25490;-0.52324;,
 2.40474;16.44537;-0.52324;,
 -1.19694;17.39056;0.66477;,
 -1.19694;17.05437;0.66477;,
 -2.39750;16.68148;0.29177;,
 -2.39750;16.44615;0.29177;,
 -1.19694;17.05437;-0.52324;,
 -2.39750;16.44615;-0.52324;,
 -2.39750;16.91683;0.29177;,
 -3.59807;17.39057;-0.96524;,
 -2.39750;16.68148;-1.33825;,
 -2.39750;16.44615;-1.33825;,
 -3.59807;17.52505;-0.96524;,
 -2.39750;16.91683;-1.33825;,
 -3.59807;17.52505;-0.52324;,
 -2.39750;16.91683;-0.52324;,
 -0.06693;17.06212;-1.68843;,
 0.60113;17.06212;-1.47136;,
 0.60113;0.01243;-1.47136;,
 -0.06693;0.01243;-1.68843;,
 1.01401;17.06212;-0.90308;,
 1.01401;0.01243;-0.90308;,
 1.01401;17.06212;-0.20063;,
 1.01401;0.01243;-0.20063;,
 0.60113;17.06212;0.36765;,
 0.60113;0.01243;0.36765;,
 -0.06693;17.06212;0.58472;,
 -0.06693;0.01243;0.58472;,
 -0.73498;17.06212;0.36765;,
 -0.73498;0.01243;0.36765;,
 -1.14789;17.06212;-0.20063;,
 -1.14789;0.01243;-0.20063;,
 -1.14788;17.06212;-0.90308;,
 -1.14788;0.01243;-0.90308;,
 -0.73498;17.06212;-1.47136;,
 -0.73498;0.01243;-1.47136;,
 -0.06693;17.06212;-1.68843;,
 -0.06693;0.01243;-1.68843;,
 -0.06693;17.06212;-0.55186;,
 -0.06693;17.06212;-0.55186;,
 -0.06693;17.06212;-0.55186;,
 -0.06693;17.06212;-0.55186;,
 -0.06693;17.06212;-0.55186;,
 -0.06693;17.06212;-0.55186;,
 -0.06693;17.06212;-0.55186;,
 -0.06693;17.06212;-0.55186;,
 -0.06693;17.06212;-0.55186;,
 -0.06693;17.06212;-0.55186;,
 -0.06693;0.01243;-0.55186;,
 -0.06693;0.01243;-0.55186;,
 -0.06693;0.01243;-0.55186;,
 -0.06693;0.01243;-0.55186;,
 -0.06693;0.01243;-0.55186;,
 -0.06693;0.01243;-0.55186;,
 -0.06693;0.01243;-0.55186;,
 -0.06693;0.01243;-0.55186;,
 -0.06693;0.01243;-0.55186;,
 -0.06693;0.01243;-0.55186;;
 
 252;
 4;0,1,2,3;,
 4;4,5,6,7;,
 4;8,9,10,11;,
 4;12,13,14,15;,
 4;16,7,6,17;,
 4;1,0,18,19;,
 4;20,21,22,23;,
 4;21,24,25,22;,
 4;24,26,27,25;,
 4;26,28,29,27;,
 4;28,0,3,29;,
 4;5,30,17,6;,
 4;30,31,32,17;,
 4;31,33,34,32;,
 4;33,35,36,34;,
 4;35,37,38,36;,
 4;39,40,38,11;,
 4;40,41,36,38;,
 4;41,42,34,36;,
 4;42,43,32,34;,
 4;43,16,17,32;,
 4;44,45,21,20;,
 4;45,46,24,21;,
 4;46,47,26,24;,
 4;47,48,28,26;,
 4;0,28,48,18;,
 4;1,19,49,2;,
 4;19,50,51,49;,
 4;50,4,7,51;,
 4;9,52,53,10;,
 4;52,54,55,53;,
 4;54,12,15,55;,
 4;3,2,49,56;,
 4;56,49,51,57;,
 4;57,51,7,16;,
 4;30,5,4,58;,
 4;58,4,50,59;,
 4;59,50,19,18;,
 4;23,22,60,61;,
 4;61,60,62,63;,
 4;63,62,40,39;,
 4;22,25,64,60;,
 4;60,64,65,62;,
 4;62,65,41,40;,
 4;25,27,66,64;,
 4;64,66,67,65;,
 4;65,67,42,41;,
 4;27,29,68,66;,
 4;66,68,69,67;,
 4;67,69,43,42;,
 4;29,3,56,68;,
 4;68,56,57,69;,
 4;69,57,16,43;,
 4;8,37,70,71;,
 4;71,70,72,73;,
 4;73,72,45,44;,
 4;37,35,74,70;,
 4;70,74,75,72;,
 4;72,75,46,45;,
 4;35,33,76,74;,
 4;74,76,77,75;,
 4;75,77,47,46;,
 4;33,31,78,76;,
 4;76,78,79,77;,
 4;77,79,48,47;,
 4;31,30,58,78;,
 4;78,58,59,79;,
 4;79,59,18,48;,
 4;37,8,11,38;,
 4;13,20,23,14;,
 4;53,39,11,10;,
 4;12,44,20,13;,
 4;14,23,61,15;,
 4;15,61,63,55;,
 4;55,63,39,53;,
 4;9,8,71,52;,
 4;52,71,73,54;,
 4;54,73,44,12;,
 4;80,81,82,83;,
 4;84,85,86,87;,
 4;88,89,90,91;,
 4;92,93,94,95;,
 4;96,87,86,91;,
 4;97,98,99,100;,
 4;93,80,83,94;,
 4;80,93,101,100;,
 4;81,80,100,99;,
 4;102,103,104,105;,
 4;106,107,103,102;,
 4;108,109,85,84;,
 4;85,88,91,86;,
 4;109,110,88,85;,
 4;110,111,89,88;,
 4;112,113,114,115;,
 4;116,117,113,112;,
 4;118,101,93,92;,
 4;119,96,91,90;,
 4;120,121,122,114;,
 4;121,105,104,122;,
 4;118,97,100,101;,
 4;116,123,124,117;,
 4;123,125,107,124;,
 4;113,126,120,114;,
 4;126,127,128,120;,
 4;127,92,95,128;,
 4;124,107,106,129;,
 4;129,106,130,131;,
 4;131,130,98,97;,
 4;81,132,133,82;,
 4;132,134,135,133;,
 4;134,102,105,135;,
 4;99,98,132,81;,
 4;98,130,134,132;,
 4;130,106,102,134;,
 4;117,136,126,113;,
 4;136,137,127,126;,
 4;137,118,92,127;,
 4;94,83,138,95;,
 4;95,138,139,128;,
 4;128,139,121,120;,
 4;83,82,133,138;,
 4;138,133,135,139;,
 4;139,135,105,121;,
 4;117,124,129,136;,
 4;136,129,131,137;,
 4;137,131,97,118;,
 4;103,140,141,104;,
 4;140,142,143,141;,
 4;142,84,87,143;,
 4;122,104,141,144;,
 4;144,141,143,145;,
 4;145,143,87,96;,
 4;107,125,140,103;,
 4;125,146,142,140;,
 4;146,108,84,142;,
 4;89,147,119,90;,
 4;147,148,149,119;,
 4;148,112,115,149;,
 4;111,150,147,89;,
 4;150,151,148,147;,
 4;151,116,112,148;,
 4;114,122,144,115;,
 4;115,144,145,149;,
 4;149,145,96,119;,
 4;111,110,152,150;,
 4;150,152,153,151;,
 4;151,153,123,116;,
 4;110,109,108,152;,
 4;152,108,146,153;,
 4;153,146,125,123;,
 4;154,155,156,157;,
 4;158,159,160,161;,
 4;162,163,164,165;,
 4;166,167,168,169;,
 4;170,161,160,165;,
 4;171,172,173,174;,
 4;167,154,157,168;,
 4;175,174,154,167;,
 4;174,173,155,154;,
 4;176,177,178,179;,
 4;180,181,177,176;,
 4;182,183,159,158;,
 4;159,162,165,160;,
 4;183,184,162,159;,
 4;184,185,163,162;,
 4;186,187,188,189;,
 4;190,191,187,186;,
 4;192,175,167,166;,
 4;193,170,165,164;,
 4;194,195,196,188;,
 4;195,179,178,196;,
 4;192,171,174,175;,
 4;190,197,198,191;,
 4;197,199,181,198;,
 4;187,200,194,188;,
 4;200,201,202,194;,
 4;201,166,169,202;,
 4;198,181,180,203;,
 4;203,180,204,205;,
 4;205,204,172,171;,
 4;155,206,207,156;,
 4;206,208,209,207;,
 4;208,176,179,209;,
 4;173,172,206,155;,
 4;172,204,208,206;,
 4;204,180,176,208;,
 4;191,210,200,187;,
 4;210,211,201,200;,
 4;211,192,166,201;,
 4;168,157,212,169;,
 4;169,212,213,202;,
 4;202,213,195,194;,
 4;157,156,207,212;,
 4;212,207,209,213;,
 4;213,209,179,195;,
 4;191,198,203,210;,
 4;210,203,205,211;,
 4;211,205,171,192;,
 4;177,214,215,178;,
 4;214,216,217,215;,
 4;216,158,161,217;,
 4;196,178,215,218;,
 4;218,215,217,219;,
 4;219,217,161,170;,
 4;181,199,214,177;,
 4;199,220,216,214;,
 4;220,182,158,216;,
 4;163,221,193,164;,
 4;221,222,223,193;,
 4;222,186,189,223;,
 4;185,224,221,163;,
 4;224,225,222,221;,
 4;225,190,186,222;,
 4;188,196,218,189;,
 4;189,218,219,223;,
 4;223,219,170,193;,
 4;185,184,226,224;,
 4;224,226,227,225;,
 4;225,227,197,190;,
 4;184,183,182,226;,
 4;226,182,220,227;,
 4;227,220,199,197;,
 4;228,229,230,231;,
 4;229,232,233,230;,
 4;232,234,235,233;,
 4;234,236,237,235;,
 4;236,238,239,237;,
 4;238,240,241,239;,
 4;240,242,243,241;,
 4;242,244,245,243;,
 4;244,246,247,245;,
 4;246,248,249,247;,
 3;250,229,228;,
 3;251,232,229;,
 3;252,234,232;,
 3;253,236,234;,
 3;254,238,236;,
 3;255,240,238;,
 3;256,242,240;,
 3;257,244,242;,
 3;258,246,244;,
 3;259,248,246;,
 3;260,231,230;,
 3;261,230,233;,
 3;262,233,235;,
 3;263,235,237;,
 3;264,237,239;,
 3;265,239,241;,
 3;266,241,243;,
 3;267,243,245;,
 3;268,245,247;,
 3;269,247,249;;
 
 MeshMaterialList {
  15;
  252;
  9,
  9,
  9,
  9,
  9,
  9,
  9,
  9,
  9,
  9,
  9,
  9,
  9,
  9,
  9,
  9,
  9,
  9,
  9,
  9,
  9,
  9,
  9,
  9,
  9,
  9,
  9,
  9,
  9,
  9,
  9,
  9,
  9,
  9,
  9,
  9,
  9,
  9,
  9,
  9,
  9,
  9,
  9,
  9,
  9,
  9,
  9,
  9,
  9,
  9,
  9,
  9,
  9,
  9,
  9,
  9,
  9,
  9,
  9,
  9,
  9,
  9,
  9,
  9,
  9,
  9,
  9,
  9,
  9,
  9,
  9,
  9,
  9,
  9,
  9,
  9,
  9,
  9,
  13,
  13,
  13,
  13,
  13,
  13,
  13,
  13,
  13,
  13,
  13,
  13,
  13,
  13,
  13,
  13,
  13,
  13,
  13,
  13,
  13,
  13,
  13,
  13,
  13,
  13,
  13,
  13,
  13,
  13,
  13,
  13,
  13,
  13,
  13,
  13,
  13,
  13,
  13,
  13,
  13,
  13,
  13,
  13,
  13,
  13,
  13,
  13,
  13,
  13,
  13,
  13,
  13,
  13,
  13,
  13,
  13,
  13,
  13,
  13,
  13,
  13,
  13,
  13,
  13,
  13,
  13,
  13,
  13,
  13,
  13,
  13,
  13,
  13,
  13,
  13,
  13,
  13,
  13,
  13,
  13,
  13,
  13,
  13,
  13,
  13,
  13,
  13,
  13,
  13,
  13,
  13,
  13,
  13,
  13,
  13,
  13,
  13,
  13,
  13,
  13,
  13,
  13,
  13,
  13,
  13,
  13,
  13,
  13,
  13,
  13,
  13,
  13,
  13,
  13,
  13,
  13,
  13,
  13,
  13,
  13,
  13,
  13,
  13,
  13,
  13,
  13,
  13,
  13,
  13,
  13,
  13,
  13,
  13,
  13,
  13,
  13,
  13,
  13,
  13,
  13,
  13,
  13,
  13,
  0,
  0,
  0,
  0,
  0,
  0,
  0,
  0,
  0,
  0,
  0,
  0,
  0,
  0,
  0,
  0,
  0,
  0,
  0,
  0,
  0,
  0,
  0,
  0,
  0,
  0,
  0,
  0,
  0,
  0;;
  Material {
   0.765600;0.659200;0.241600;1.000000;;
   5.000000;
   0.000000;0.000000;0.000000;;
   0.000000;0.000000;0.000000;;
  }
  Material {
   0.000000;0.000000;0.000000;1.000000;;
   5.000000;
   0.000000;0.000000;0.000000;;
   0.000000;0.000000;0.000000;;
  }
  Material {
   0.800000;0.800000;0.800000;1.000000;;
   5.000000;
   0.000000;0.000000;0.000000;;
   0.000000;0.000000;0.000000;;
  }
  Material {
   0.800000;0.000000;0.060000;1.000000;;
   5.000000;
   0.000000;0.000000;0.000000;;
   0.000000;0.000000;0.000000;;
  }
  Material {
   0.000000;0.690400;0.251200;1.000000;;
   5.000000;
   0.000000;0.000000;0.000000;;
   0.000000;0.000000;0.000000;;
  }
  Material {
   0.800000;0.768800;0.000000;1.000000;;
   5.000000;
   0.000000;0.000000;0.000000;;
   0.000000;0.000000;0.000000;;
  }
  Material {
   0.000000;0.000000;0.000000;1.000000;;
   5.000000;
   0.000000;0.000000;0.000000;;
   0.000000;0.000000;0.000000;;
  }
  Material {
   0.743200;0.263200;0.094400;1.000000;;
   5.000000;
   0.000000;0.000000;0.000000;;
   0.000000;0.000000;0.000000;;
  }
  Material {
   0.409600;0.409600;0.409600;1.000000;;
   5.000000;
   0.000000;0.000000;0.000000;;
   0.000000;0.000000;0.000000;;
  }
  Material {
   0.409600;0.409600;0.409600;1.000000;;
   5.000000;
   0.000000;0.000000;0.000000;;
   0.000000;0.000000;0.000000;;
  }
  Material {
   0.640000;0.640000;0.640000;1.000000;;
   5.000000;
   0.000000;0.000000;0.000000;;
   0.000000;0.000000;0.000000;;
  }
  Material {
   0.409600;0.409600;0.409600;1.000000;;
   5.000000;
   0.000000;0.000000;0.000000;;
   0.000000;0.000000;0.000000;;
  }
  Material {
   0.380000;0.765000;1.000000;1.000000;;
   10.000000;
   0.200000;0.200000;0.200000;;
   0.076000;0.153000;0.200000;;
  }
  Material {
   0.000000;0.000000;0.000000;1.000000;;
   5.000000;
   0.000000;0.000000;0.000000;;
   0.000000;0.000000;0.000000;;
  }
  Material {
   0.000000;0.016000;0.800000;1.000000;;
   5.000000;
   0.000000;0.000000;0.000000;;
   0.000000;0.000000;0.000000;;
  }
 }
 MeshNormals {
  249;
  0.995857;0.090938;0.000008;,
  0.983460;0.181123;0.000016;,
  0.000000;1.000000;0.000000;,
  -0.845715;-0.417431;-0.332441;,
  -0.369903;-0.929070;0.000000;,
  -0.845715;-0.417430;0.332443;,
  0.000000;-1.000000;-0.000000;,
  0.369900;-0.929071;-0.000000;,
  0.004860;0.014577;0.999882;,
  -0.278709;0.027631;0.959978;,
  -0.006123;0.014487;-0.999876;,
  -0.004268;0.028170;-0.999594;,
  0.845715;-0.417432;-0.332440;,
  1.000000;0.000000;0.000000;,
  0.845714;-0.417431;0.332443;,
  -0.995857;0.090938;-0.000008;,
  -1.000000;0.000000;0.000000;,
  0.013283;-0.062939;0.997929;,
  0.006388;-0.000000;0.999980;,
  0.006389;-0.000000;0.999980;,
  0.006390;0.000000;0.999980;,
  0.006389;0.000000;0.999980;,
  -0.015137;-0.062778;-0.997913;,
  -0.008081;0.000000;-0.999967;,
  -0.008081;0.000000;-0.999967;,
  -0.008082;0.000000;-0.999967;,
  -0.008085;-0.000001;-0.999967;,
  -0.004861;0.014577;0.999882;,
  0.000000;0.000341;1.000000;,
  0.006122;0.014487;-0.999876;,
  0.000000;0.000149;-1.000000;,
  -0.006389;-0.000000;0.999980;,
  -0.013283;-0.062939;0.997929;,
  0.000000;-0.000000;1.000000;,
  0.000001;0.055214;0.998475;,
  -0.006390;-0.000000;0.999980;,
  0.000000;0.000000;1.000000;,
  -0.006391;0.000000;0.999979;,
  -0.006390;0.000000;0.999980;,
  0.008079;0.000000;-0.999967;,
  0.015137;-0.062777;-0.997913;,
  0.000000;0.000000;-1.000000;,
  0.000001;0.055749;-0.998445;,
  0.008080;0.000000;-0.999967;,
  0.000000;0.000000;-1.000000;,
  0.008081;0.000000;-0.999967;,
  0.000000;0.000000;-1.000000;,
  0.008083;-0.000001;-0.999967;,
  0.000000;-0.000000;-1.000000;,
  0.869449;-0.494023;-0.000000;,
  0.869449;-0.494023;-0.000003;,
  -0.209450;0.000000;0.977819;,
  -0.209455;0.000000;0.977818;,
  -0.209455;0.000000;0.977818;,
  -0.209450;0.000000;0.977820;,
  0.209917;0.000000;-0.977719;,
  0.209918;0.000000;-0.977719;,
  -0.462942;-0.886389;0.000000;,
  -0.382097;0.924122;0.000000;,
  -0.433084;0.901354;0.000000;,
  0.209919;0.000000;0.977719;,
  0.000241;0.000000;1.000000;,
  0.000241;0.000000;1.000000;,
  0.209920;0.000000;0.977719;,
  0.209920;0.000000;0.977719;,
  -0.209455;0.000000;0.977818;,
  -0.209448;0.000000;-0.977820;,
  0.000239;0.000000;-1.000000;,
  0.000239;0.000000;-1.000000;,
  -0.462942;-0.886389;0.000000;,
  -0.138846;-0.990314;0.000000;,
  -0.000111;-1.000000;0.000000;,
  -0.244097;0.969751;0.000000;,
  -0.000109;1.000000;0.000000;,
  0.209917;0.000000;-0.977719;,
  0.209919;0.000000;-0.977719;,
  0.209919;0.000000;-0.977719;,
  0.243898;0.969801;0.000000;,
  0.049441;0.998777;0.000000;,
  0.049441;0.998777;0.000000;,
  0.209919;0.000000;0.977719;,
  0.209919;0.000000;0.977719;,
  0.209917;0.000000;0.977719;,
  0.209919;0.000000;-0.977719;,
  0.467323;-0.884086;-0.000005;,
  0.049444;-0.998777;-0.000003;,
  -0.209446;0.000000;0.977820;,
  -0.209443;0.000000;0.977821;,
  -0.209443;0.000000;0.977821;,
  0.138635;-0.990344;-0.000000;,
  -0.049635;-0.998767;0.000000;,
  -0.209443;0.000000;-0.977821;,
  -0.209445;0.000000;-0.977820;,
  -0.209445;0.000000;-0.977820;,
  0.376705;0.926333;0.000000;,
  -0.049640;0.998767;0.000000;,
  0.909372;-0.415984;-0.000000;,
  0.909372;-0.415984;-0.000000;,
  -0.296718;0.000000;0.954965;,
  -0.296725;0.000000;0.954963;,
  -0.296725;0.000000;0.954963;,
  -0.906992;-0.421147;0.000000;,
  -0.906992;-0.421147;0.000000;,
  0.297347;0.000000;-0.954769;,
  0.297349;0.000000;-0.954769;,
  0.297349;0.000000;-0.954769;,
  0.297347;0.000000;-0.954769;,
  -0.603136;-0.797638;0.000000;,
  -0.513222;0.858256;0.000000;,
  -0.571783;0.820405;0.000000;,
  -0.571783;0.820405;0.000000;,
  0.297343;0.000000;0.954771;,
  0.000332;0.000000;1.000000;,
  0.000332;0.000000;1.000000;,
  0.000332;0.000000;1.000000;,
  -0.296714;0.000000;-0.954966;,
  0.000337;0.000004;-1.000000;,
  0.000336;0.000000;-1.000000;,
  -0.296714;0.000000;-0.954966;,
  -0.296714;0.000000;-0.954966;,
  0.000338;0.000008;-1.000000;,
  -0.191653;-0.981463;0.000000;,
  -0.191653;-0.981463;0.000000;,
  -0.000162;-1.000000;0.000000;,
  -0.332213;0.943204;0.000004;,
  -0.000159;1.000000;0.000002;,
  -0.332215;0.943204;0.000000;,
  0.297349;0.000007;-0.954769;,
  0.297346;0.000004;-0.954770;,
  0.297345;0.000000;-0.954770;,
  0.331957;0.943295;0.000000;,
  0.559070;0.829120;0.000000;,
  0.297355;0.000000;0.954767;,
  0.297345;0.000000;0.954770;,
  0.297351;0.000014;-0.954768;,
  0.297348;0.000007;-0.954769;,
  0.607577;-0.794260;-0.000000;,
  0.559073;-0.829118;-0.000000;,
  -0.296707;0.000000;0.954969;,
  -0.296707;0.000000;0.954969;,
  -0.296705;0.000000;0.954969;,
  -0.296705;0.000000;0.954969;,
  0.191367;-0.981519;-0.000000;,
  0.451927;-0.892055;-0.000000;,
  -0.296707;0.000000;-0.954969;,
  -0.296712;0.000000;-0.954967;,
  0.507167;0.861848;0.000000;,
  0.451924;0.892057;0.000000;,
  -0.000000;0.000000;-1.000000;,
  0.587786;0.000000;-0.809017;,
  0.951056;0.000000;-0.309017;,
  0.951056;0.000000;0.309017;,
  0.587785;0.000000;0.809017;,
  -0.000002;0.000000;1.000000;,
  -0.587778;0.000000;0.809022;,
  -0.951054;0.000000;0.309023;,
  -0.951053;0.000000;-0.309028;,
  -0.587780;0.000000;-0.809021;,
  0.003416;0.028351;0.999592;,
  -0.186831;0.054995;0.980851;,
  0.186833;0.054997;-0.980851;,
  0.278713;0.027630;-0.959977;,
  -0.983460;0.181123;-0.000016;,
  -0.367905;-0.000000;0.929863;,
  -0.367907;0.000000;0.929863;,
  -0.367902;-0.000000;0.929865;,
  -0.367901;0.000000;0.929865;,
  -0.367902;0.000000;0.929865;,
  0.367911;0.000000;-0.929861;,
  0.367911;0.000001;-0.929861;,
  0.367911;0.000000;-0.929861;,
  0.367911;-0.000001;-0.929861;,
  0.278707;0.027631;0.959979;,
  0.186830;0.054995;0.980852;,
  -0.003417;0.028351;0.999592;,
  0.000000;0.000663;1.000000;,
  -0.278715;0.027631;-0.959976;,
  -0.186834;0.054997;-0.980851;,
  0.004267;0.028170;-0.999594;,
  0.000000;0.000290;-1.000000;,
  0.367905;0.000000;0.929864;,
  0.367903;-0.000000;0.929864;,
  0.367900;-0.000000;0.929865;,
  0.367898;0.000000;0.929866;,
  0.367900;0.000000;0.929865;,
  -0.367913;0.000001;-0.929860;,
  -0.367913;0.000000;-0.929860;,
  -0.367913;0.000000;-0.929860;,
  -0.367913;0.000000;-0.929860;,
  -0.367913;-0.000001;-0.929860;,
  -0.441263;-0.324294;0.836732;,
  0.441270;-0.324297;-0.836727;,
  0.441264;-0.324293;0.836732;,
  -0.476864;0.099448;0.873333;,
  0.000001;0.113142;0.993579;,
  0.476866;0.099450;0.873332;,
  -0.441269;-0.324298;-0.836727;,
  0.480318;0.100233;-0.871349;,
  0.000001;0.114278;-0.993449;,
  -0.480315;0.100231;-0.871350;,
  -0.462942;-0.886389;0.000000;,
  -0.503199;-0.864171;0.000000;,
  0.869449;-0.494023;-0.000005;,
  -0.503199;-0.864171;0.000000;,
  -0.000111;-1.000000;0.000000;,
  -0.000109;1.000000;0.000000;,
  -0.000109;1.000000;0.000000;,
  0.209917;0.000000;-0.977719;,
  0.243898;0.969801;0.000000;,
  0.209922;0.000000;0.977718;,
  0.209922;0.000000;0.977718;,
  0.209917;0.000000;0.977719;,
  0.467324;-0.884086;-0.000009;,
  0.049445;-0.998777;-0.000005;,
  0.467322;-0.884087;-0.000000;,
  0.049443;-0.998777;-0.000000;,
  -0.209446;0.000000;-0.977820;,
  0.422735;0.906253;0.000000;,
  0.376705;0.926333;0.000000;,
  0.422735;0.906253;0.000000;,
  -0.603136;-0.797638;0.000000;,
  -0.906992;-0.421147;0.000000;,
  -0.000162;-1.000000;0.000000;,
  -0.571783;0.820405;0.000000;,
  -0.332212;0.943205;0.000008;,
  -0.000156;1.000000;0.000004;,
  -0.000162;1.000000;0.000000;,
  0.297346;0.000000;-0.954770;,
  0.331957;0.943295;0.000000;,
  -0.452166;0.891934;0.000000;,
  -0.452166;0.891934;0.000000;,
  0.297356;0.000000;0.954767;,
  0.297356;0.000000;0.954767;,
  -0.452157;-0.891938;0.000000;,
  0.559070;0.829120;0.000000;,
  -0.452166;0.891934;0.000000;,
  0.191367;-0.981519;-0.000000;,
  -0.559247;-0.829001;0.000000;,
  -0.559247;-0.829001;0.000000;,
  -0.296710;0.000000;-0.954968;,
  -0.559247;-0.829001;0.000000;,
  0.560399;0.828223;0.000000;,
  0.560399;0.828223;0.000000;,
  0.507167;0.861848;0.000000;,
  0.451924;0.892056;0.000000;,
  -0.559260;0.828992;0.000007;,
  -0.559258;0.828994;0.000003;,
  0.560399;0.828223;0.000000;,
  -0.559255;0.828995;0.000000;;
  252;
  4;0,1,1,0;,
  4;2,2,2,2;,
  4;3,4,4,5;,
  4;6,7,7,6;,
  4;8,158,159,9;,
  4;160,161,10,11;,
  4;12,13,13,14;,
  4;13,13,13,13;,
  4;13,13,13,13;,
  4;13,13,13,13;,
  4;13,0,0,13;,
  4;162,15,15,162;,
  4;15,16,16,15;,
  4;16,16,16,16;,
  4;16,16,16,16;,
  4;16,16,16,16;,
  4;17,18,163,164;,
  4;18,19,165,163;,
  4;19,20,166,165;,
  4;20,21,167,166;,
  4;21,8,9,167;,
  4;22,23,168,169;,
  4;23,24,170,168;,
  4;24,25,170,170;,
  4;25,26,171,170;,
  4;161,171,26,10;,
  4;2,2,2,2;,
  4;2,2,2,2;,
  4;2,2,2,2;,
  4;4,6,6,4;,
  4;6,6,6,6;,
  4;6,6,6,6;,
  4;172,173,174,27;,
  4;27,174,175,28;,
  4;28,175,158,8;,
  4;176,177,178,29;,
  4;29,178,179,30;,
  4;30,179,11,10;,
  4;180,181,31,32;,
  4;32,31,33,34;,
  4;34,33,18,17;,
  4;181,182,35,31;,
  4;31,35,36,33;,
  4;33,36,19,18;,
  4;182,183,37,35;,
  4;35,37,36,36;,
  4;36,36,20,19;,
  4;183,184,38,37;,
  4;37,38,36,36;,
  4;36,36,21,20;,
  4;184,172,27,38;,
  4;38,27,28,36;,
  4;36,28,8,21;,
  4;185,186,39,40;,
  4;40,39,41,42;,
  4;42,41,23,22;,
  4;186,187,43,39;,
  4;39,43,44,41;,
  4;41,44,24,23;,
  4;187,188,45,43;,
  4;43,45,46,44;,
  4;44,46,25,24;,
  4;188,189,47,45;,
  4;45,47,48,46;,
  4;46,48,26,25;,
  4;189,176,29,47;,
  4;47,29,30,48;,
  4;48,30,10,26;,
  4;16,3,5,16;,
  4;7,12,14,7;,
  4;190,17,5,190;,
  4;191,22,12,191;,
  4;192,14,32,192;,
  4;193,32,34,194;,
  4;194,34,17,195;,
  4;196,3,40,196;,
  4;197,40,42,198;,
  4;198,42,22,199;,
  4;13,13,49,50;,
  4;51,52,53,54;,
  4;16,16,16,16;,
  4;55,56,56,55;,
  4;57,200,201,201;,
  4;58,58,59,59;,
  4;13,13,50,202;,
  4;13,13,13,13;,
  4;13,13,13,13;,
  4;60,61,62,63;,
  4;64,61,61,60;,
  4;51,65,52,51;,
  4;16,16,16,16;,
  4;16,16,16,16;,
  4;16,16,16,16;,
  4;66,67,67,66;,
  4;66,68,67,66;,
  4;55,56,56,55;,
  4;69,57,201,203;,
  4;70,70,71,204;,
  4;70,70,71,71;,
  4;58,58,59,59;,
  4;72,72,73,205;,
  4;72,72,206,73;,
  4;67,74,207,67;,
  4;74,75,76,207;,
  4;75,55,55,76;,
  4;73,206,208,77;,
  4;77,208,78,79;,
  4;79,78,58,58;,
  4;209,80,81,210;,
  4;80,82,82,81;,
  4;82,60,63,82;,
  4;209,81,80,209;,
  4;81,211,82,80;,
  4;211,64,60,82;,
  4;68,55,74,67;,
  4;55,83,75,74;,
  4;83,55,55,75;,
  4;202,50,84,212;,
  4;212,84,85,213;,
  4;213,85,70,70;,
  4;50,49,214,84;,
  4;84,214,215,85;,
  4;85,215,70,70;,
  4;205,73,77,208;,
  4;208,77,79,79;,
  4;79,79,58,58;,
  4;61,86,86,62;,
  4;86,87,88,86;,
  4;87,51,54,88;,
  4;71,71,89,89;,
  4;89,89,90,90;,
  4;90,90,200,57;,
  4;61,86,86,61;,
  4;86,87,87,86;,
  4;87,51,51,87;,
  4;216,91,91,216;,
  4;91,92,93,91;,
  4;92,66,66,93;,
  4;216,91,91,216;,
  4;91,92,92,91;,
  4;92,66,66,92;,
  4;204,71,89,89;,
  4;89,89,90,90;,
  4;90,90,57,69;,
  4;217,217,94,218;,
  4;218,94,95,95;,
  4;95,95,72,72;,
  4;217,219,218,94;,
  4;94,218,95,95;,
  4;95,95,72,72;,
  4;13,13,96,97;,
  4;98,99,100,98;,
  4;16,16,101,102;,
  4;103,104,105,106;,
  4;107,220,221,102;,
  4;108,108,109,110;,
  4;13,13,97,97;,
  4;13,13,13,13;,
  4;13,13,13,13;,
  4;111,112,113,111;,
  4;111,114,112,111;,
  4;98,100,99,98;,
  4;16,16,102,221;,
  4;16,16,16,16;,
  4;16,16,16,16;,
  4;115,116,117,118;,
  4;119,120,116,115;,
  4;106,105,104,103;,
  4;107,107,102,101;,
  4;121,122,123,123;,
  4;122,121,222,123;,
  4;108,108,110,223;,
  4;224,124,125,225;,
  4;124,126,226,125;,
  4;116,127,227,117;,
  4;127,128,129,227;,
  4;128,103,106,129;,
  4;125,226,228,130;,
  4;130,228,131,131;,
  4;229,230,108,108;,
  4;231,132,132,232;,
  4;132,133,133,132;,
  4;133,111,111,133;,
  4;232,132,132,231;,
  4;132,133,133,132;,
  4;133,111,111,133;,
  4;120,134,127,116;,
  4;134,135,128,127;,
  4;135,106,103,128;,
  4;97,97,136,136;,
  4;136,136,137,137;,
  4;233,233,122,121;,
  4;97,96,136,136;,
  4;136,136,137,137;,
  4;233,233,121,122;,
  4;225,125,130,130;,
  4;130,130,131,234;,
  4;235,229,108,108;,
  4;112,138,139,113;,
  4;138,140,141,139;,
  4;140,98,98,141;,
  4;123,222,236,142;,
  4;142,236,143,143;,
  4;237,238,220,107;,
  4;114,138,138,112;,
  4;138,140,140,138;,
  4;140,98,98,140;,
  4;239,144,144,239;,
  4;144,145,145,144;,
  4;145,115,118,145;,
  4;239,144,144,239;,
  4;144,145,145,144;,
  4;145,119,115,145;,
  4;123,123,142,236;,
  4;236,142,143,143;,
  4;240,237,107,107;,
  4;241,242,146,243;,
  4;243,146,147,244;,
  4;245,246,124,224;,
  4;242,247,146,146;,
  4;146,146,244,147;,
  4;246,248,126,124;,
  4;148,149,149,148;,
  4;149,150,150,149;,
  4;150,151,151,150;,
  4;151,152,152,151;,
  4;152,153,153,152;,
  4;153,154,154,153;,
  4;154,155,155,154;,
  4;155,156,156,155;,
  4;156,157,157,156;,
  4;157,148,148,157;,
  3;2,2,2;,
  3;2,2,2;,
  3;2,2,2;,
  3;2,2,2;,
  3;2,2,2;,
  3;2,2,2;,
  3;2,2,2;,
  3;2,2,2;,
  3;2,2,2;,
  3;2,2,2;,
  3;6,6,6;,
  3;6,6,6;,
  3;6,6,6;,
  3;6,6,6;,
  3;6,6,6;,
  3;6,6,6;,
  3;6,6,6;,
  3;6,6,6;,
  3;6,6,6;,
  3;6,6,6;;
 }
 MeshTextureCoords {
  270;
  0.000000;0.000000;,
  0.000000;0.000000;,
  0.000000;0.000000;,
  0.000000;0.000000;,
  0.000000;0.000000;,
  0.000000;0.000000;,
  0.000000;0.000000;,
  0.000000;0.000000;,
  0.000000;0.000000;,
  0.000000;0.000000;,
  0.000000;0.000000;,
  0.000000;0.000000;,
  0.000000;0.000000;,
  0.000000;0.000000;,
  0.000000;0.000000;,
  0.000000;0.000000;,
  0.000000;0.000000;,
  0.000000;0.000000;,
  0.000000;0.000000;,
  0.000000;0.000000;,
  0.000000;0.000000;,
  0.000000;0.000000;,
  0.000000;0.000000;,
  0.000000;0.000000;,
  0.000000;0.000000;,
  0.000000;0.000000;,
  0.000000;0.000000;,
  0.000000;0.000000;,
  0.000000;0.000000;,
  0.000000;0.000000;,
  0.000000;0.000000;,
  0.000000;0.000000;,
  0.000000;0.000000;,
  0.000000;0.000000;,
  0.000000;0.000000;,
  0.000000;0.000000;,
  0.000000;0.000000;,
  0.000000;0.000000;,
  0.000000;0.000000;,
  0.000000;0.000000;,
  0.000000;0.000000;,
  0.000000;0.000000;,
  0.000000;0.000000;,
  0.000000;0.000000;,
  0.000000;0.000000;,
  0.000000;0.000000;,
  0.000000;0.000000;,
  0.000000;0.000000;,
  0.000000;0.000000;,
  0.000000;0.000000;,
  0.000000;0.000000;,
  0.000000;0.000000;,
  0.000000;0.000000;,
  0.000000;0.000000;,
  0.000000;0.000000;,
  0.000000;0.000000;,
  0.000000;0.000000;,
  0.000000;0.000000;,
  0.000000;0.000000;,
  0.000000;0.000000;,
  0.000000;0.000000;,
  0.000000;0.000000;,
  0.000000;0.000000;,
  0.000000;0.000000;,
  0.000000;0.000000;,
  0.000000;0.000000;,
  0.000000;0.000000;,
  0.000000;0.000000;,
  0.000000;0.000000;,
  0.000000;0.000000;,
  0.000000;0.000000;,
  0.000000;0.000000;,
  0.000000;0.000000;,
  0.000000;0.000000;,
  0.000000;0.000000;,
  0.000000;0.000000;,
  0.000000;0.000000;,
  0.000000;0.000000;,
  0.000000;0.000000;,
  0.000000;0.000000;,
  0.000000;0.000000;,
  0.000000;0.000000;,
  0.000000;0.000000;,
  0.000000;0.000000;,
  0.000000;0.000000;,
  0.000000;0.000000;,
  0.000000;0.000000;,
  0.000000;0.000000;,
  0.000000;0.000000;,
  0.000000;0.000000;,
  0.000000;0.000000;,
  0.000000;0.000000;,
  0.000000;0.000000;,
  0.000000;0.000000;,
  0.000000;0.000000;,
  0.000000;0.000000;,
  0.000000;0.000000;,
  0.000000;0.000000;,
  0.000000;0.000000;,
  0.000000;0.000000;,
  0.000000;0.000000;,
  0.000000;0.000000;,
  0.000000;0.000000;,
  0.000000;0.000000;,
  0.000000;0.000000;,
  0.000000;0.000000;,
  0.000000;0.000000;,
  0.000000;0.000000;,
  0.000000;0.000000;,
  0.000000;0.000000;,
  0.000000;0.000000;,
  0.000000;0.000000;,
  0.000000;0.000000;,
  0.000000;0.000000;,
  0.000000;0.000000;,
  0.000000;0.000000;,
  0.000000;0.000000;,
  0.000000;0.000000;,
  0.000000;0.000000;,
  0.000000;0.000000;,
  0.000000;0.000000;,
  0.000000;0.000000;,
  0.000000;0.000000;,
  0.000000;0.000000;,
  0.000000;0.000000;,
  0.000000;0.000000;,
  0.000000;0.000000;,
  0.000000;0.000000;,
  0.000000;0.000000;,
  0.000000;0.000000;,
  0.000000;0.000000;,
  0.000000;0.000000;,
  0.000000;0.000000;,
  0.000000;0.000000;,
  0.000000;0.000000;,
  0.000000;0.000000;,
  0.000000;0.000000;,
  0.000000;0.000000;,
  0.000000;0.000000;,
  0.000000;0.000000;,
  0.000000;0.000000;,
  0.000000;0.000000;,
  0.000000;0.000000;,
  0.000000;0.000000;,
  0.000000;0.000000;,
  0.000000;0.000000;,
  0.000000;0.000000;,
  0.000000;0.000000;,
  0.000000;0.000000;,
  0.000000;0.000000;,
  0.000000;0.000000;,
  0.000000;0.000000;,
  0.000000;0.000000;,
  0.000000;0.000000;,
  0.000000;0.000000;,
  0.000000;0.000000;,
  0.000000;0.000000;,
  0.000000;0.000000;,
  0.000000;0.000000;,
  0.000000;0.000000;,
  0.000000;0.000000;,
  0.000000;0.000000;,
  0.000000;0.000000;,
  0.000000;0.000000;,
  0.000000;0.000000;,
  0.000000;0.000000;,
  0.000000;0.000000;,
  0.000000;0.000000;,
  0.000000;0.000000;,
  0.000000;0.000000;,
  0.000000;0.000000;,
  0.000000;0.000000;,
  0.000000;0.000000;,
  0.000000;0.000000;,
  0.000000;0.000000;,
  0.000000;0.000000;,
  0.000000;0.000000;,
  0.000000;0.000000;,
  0.000000;0.000000;,
  0.000000;0.000000;,
  0.000000;0.000000;,
  0.000000;0.000000;,
  0.000000;0.000000;,
  0.000000;0.000000;,
  0.000000;0.000000;,
  0.000000;0.000000;,
  0.000000;0.000000;,
  0.000000;0.000000;,
  0.000000;0.000000;,
  0.000000;0.000000;,
  0.000000;0.000000;,
  0.000000;0.000000;,
  0.000000;0.000000;,
  0.000000;0.000000;,
  0.000000;0.000000;,
  0.000000;0.000000;,
  0.000000;0.000000;,
  0.000000;0.000000;,
  0.000000;0.000000;,
  0.000000;0.000000;,
  0.000000;0.000000;,
  0.000000;0.000000;,
  0.000000;0.000000;,
  0.000000;0.000000;,
  0.000000;0.000000;,
  0.000000;0.000000;,
  0.000000;0.000000;,
  0.000000;0.000000;,
  0.000000;0.000000;,
  0.000000;0.000000;,
  0.000000;0.000000;,
  0.000000;0.000000;,
  0.000000;0.000000;,
  0.000000;0.000000;,
  0.000000;0.000000;,
  0.000000;0.000000;,
  0.000000;0.000000;,
  0.000000;0.000000;,
  0.000000;0.000000;,
  0.000000;0.000000;,
  0.000000;0.000000;,
  0.000000;0.000000;,
  0.000000;0.000000;,
  0.000000;0.000000;,
  0.000000;0.000000;,
  0.000000;0.000000;,
  0.000000;0.000000;,
  0.000000;0.000000;,
  0.000000;0.000000;,
  0.100000;0.000000;,
  0.100000;1.000000;,
  0.000000;1.000000;,
  0.200000;0.000000;,
  0.200000;1.000000;,
  0.300000;0.000000;,
  0.300000;1.000000;,
  0.400000;0.000000;,
  0.400000;1.000000;,
  0.500000;0.000000;,
  0.500000;1.000000;,
  0.600000;0.000000;,
  0.600000;1.000000;,
  0.700000;0.000000;,
  0.700000;1.000000;,
  0.800000;0.000000;,
  0.800000;1.000000;,
  0.900000;0.000000;,
  0.900000;1.000000;,
  1.000000;0.000000;,
  1.000000;1.000000;,
  0.050000;0.000000;,
  0.150000;0.000000;,
  0.250000;0.000000;,
  0.350000;0.000000;,
  0.450000;0.000000;,
  0.550000;0.000000;,
  0.650000;0.000000;,
  0.750000;0.000000;,
  0.850000;0.000000;,
  0.950000;0.000000;,
  0.050000;1.000000;,
  0.150000;1.000000;,
  0.250000;1.000000;,
  0.350000;1.000000;,
  0.450000;1.000000;,
  0.550000;1.000000;,
  0.650000;1.000000;,
  0.750000;1.000000;,
  0.850000;1.000000;,
  0.950000;1.000000;;
 }
}
