xof 0302txt 0064
template Header {
 <3D82AB43-62DA-11cf-AB39-0020AF71E433>
 WORD major;
 WORD minor;
 DWORD flags;
}

template Vector {
 <3D82AB5E-62DA-11cf-AB39-0020AF71E433>
 FLOAT x;
 FLOAT y;
 FLOAT z;
}

template Coords2d {
 <F6F23F44-7686-11cf-8F52-0040333594A3>
 FLOAT u;
 FLOAT v;
}

template Matrix4x4 {
 <F6F23F45-7686-11cf-8F52-0040333594A3>
 array FLOAT matrix[16];
}

template ColorRGBA {
 <35FF44E0-6C7C-11cf-8F52-0040333594A3>
 FLOAT red;
 FLOAT green;
 FLOAT blue;
 FLOAT alpha;
}

template ColorRGB {
 <D3E16E81-7835-11cf-8F52-0040333594A3>
 FLOAT red;
 FLOAT green;
 FLOAT blue;
}

template IndexedColor {
 <1630B820-7842-11cf-8F52-0040333594A3>
 DWORD index;
 ColorRGBA indexColor;
}

template Boolean {
 <4885AE61-78E8-11cf-8F52-0040333594A3>
 WORD truefalse;
}

template Boolean2d {
 <4885AE63-78E8-11cf-8F52-0040333594A3>
 Boolean u;
 Boolean v;
}

template MaterialWrap {
 <4885AE60-78E8-11cf-8F52-0040333594A3>
 Boolean u;
 Boolean v;
}

template TextureFilename {
 <A42790E1-7810-11cf-8F52-0040333594A3>
 STRING filename;
}

template Material {
 <3D82AB4D-62DA-11cf-AB39-0020AF71E433>
 ColorRGBA faceColor;
 FLOAT power;
 ColorRGB specularColor;
 ColorRGB emissiveColor;
 [...]
}

template MeshFace {
 <3D82AB5F-62DA-11cf-AB39-0020AF71E433>
 DWORD nFaceVertexIndices;
 array DWORD faceVertexIndices[nFaceVertexIndices];
}

template MeshFaceWraps {
 <4885AE62-78E8-11cf-8F52-0040333594A3>
 DWORD nFaceWrapValues;
 Boolean2d faceWrapValues;
}

template MeshTextureCoords {
 <F6F23F40-7686-11cf-8F52-0040333594A3>
 DWORD nTextureCoords;
 array Coords2d textureCoords[nTextureCoords];
}

template MeshMaterialList {
 <F6F23F42-7686-11cf-8F52-0040333594A3>
 DWORD nMaterials;
 DWORD nFaceIndexes;
 array DWORD faceIndexes[nFaceIndexes];
 [Material]
}

template MeshNormals {
 <F6F23F43-7686-11cf-8F52-0040333594A3>
 DWORD nNormals;
 array Vector normals[nNormals];
 DWORD nFaceNormals;
 array MeshFace faceNormals[nFaceNormals];
}

template MeshVertexColors {
 <1630B821-7842-11cf-8F52-0040333594A3>
 DWORD nVertexColors;
 array IndexedColor vertexColors[nVertexColors];
}

template Mesh {
 <3D82AB44-62DA-11cf-AB39-0020AF71E433>
 DWORD nVertices;
 array Vector vertices[nVertices];
 DWORD nFaces;
 array MeshFace faces[nFaces];
 [...]
}

Header{
1;
0;
1;
}

Mesh {
 505;
 7.40345;0.87160;-3.86359;,
 6.90092;2.84595;-2.58520;,
 7.87383;2.58062;-2.84618;,
 8.20886;1.25972;-3.78104;,
 9.16377;2.55831;-2.88814;,
 9.89729;1.53076;-3.69717;,
 7.60041;3.59138;-1.43023;,
 8.81574;3.19338;-2.19198;,
 12.21560;2.06739;-3.01812;,
 12.11269;1.53660;-3.57277;,
 9.67195;2.96359;-2.46670;,
 12.19194;2.58508;-2.45991;,
 6.13549;2.95163;-2.44532;,
 6.11748;3.61940;-1.36995;,
 6.11587;1.82681;-3.30353;,
 7.01869;0.41481;-3.93062;,
 6.21425;0.26257;-3.77783;,
 8.22246;0.29951;-3.84317;,
 10.29555;0.36846;-3.85646;,
 12.22143;0.29836;-3.74665;,
 7.02456;-0.73340;-3.94454;,
 6.26120;-0.48190;-3.78306;,
 8.33409;-0.91799;-3.80398;,
 10.46067;-1.22145;-3.74041;,
 12.34019;-1.06738;-3.66817;,
 7.41443;-1.50368;-3.77766;,
 6.31278;-1.49158;-3.56156;,
 8.45390;-2.29212;-3.47121;,
 10.58920;-2.59721;-3.21396;,
 12.48651;-2.41047;-3.12460;,
 5.37777;2.67974;-2.26910;,
 5.40805;3.34324;-1.27839;,
 5.35952;1.59072;-3.07997;,
 5.35663;0.73100;-3.37983;,
 5.38103;-0.42116;-3.45524;,
 5.35745;-1.42728;-3.21476;,
 6.55076;-2.81447;-2.80594;,
 5.39971;-2.70745;-2.39534;,
 9.11880;-3.10188;-2.63895;,
 12.51289;-2.87052;-2.46311;,
 6.18449;-3.61124;-1.81664;,
 5.37485;-3.35022;-1.55544;,
 5.94435;-4.10765;-0.47460;,
 5.30928;-3.77852;-0.30591;,
 12.53809;-3.33251;-1.80786;,
 9.12144;-3.61618;-1.98759;,
 6.07477;-4.07272;1.18601;,
 5.31864;-3.70965;1.23486;,
 9.22430;-4.17249;0.73614;,
 9.17841;-4.10531;-0.86038;,
 12.60077;-3.64400;-1.02923;,
 12.77602;-3.75439;0.00708;,
 12.77602;-3.75439;0.00708;,
 12.93300;-3.49581;1.15259;,
 9.78536;-3.71658;2.00241;,
 9.22430;-4.17249;0.73614;,
 10.57781;-3.12091;2.89609;,
 8.22667;-2.40867;3.74129;,
 7.59472;-2.86522;3.24922;,
 6.07477;-4.07272;1.18601;,
 6.05284;-3.56254;2.41801;,
 5.38425;-3.13887;2.47689;,
 5.31864;-3.70965;1.23486;,
 13.09355;-3.07554;2.11842;,
 5.98932;-2.65189;3.44595;,
 5.37531;-2.36866;3.27457;,
 7.68898;-1.35941;4.23931;,
 6.85023;-1.21799;4.17138;,
 6.01291;-1.01762;4.24316;,
 5.36966;-0.81149;3.98197;,
 8.13880;-0.31922;4.38944;,
 7.18997;0.15682;4.29889;,
 6.02261;0.42670;4.31469;,
 5.35735;0.53551;4.01678;,
 13.02417;-1.96354;2.94684;,
 10.85629;-2.02228;3.50034;,
 10.45718;-0.68678;3.98021;,
 12.66001;-0.69697;3.50692;,
 6.05995;1.79527;3.86877;,
 5.36066;1.75748;3.58452;,
 7.91901;1.49048;3.88854;,
 9.61364;0.40579;4.25098;,
 10.48106;0.39984;4.10921;,
 12.54338;0.47012;3.66103;,
 9.97022;1.41661;3.77851;,
 12.28358;1.41420;3.31793;,
 6.09828;2.88641;3.03857;,
 5.39046;2.72817;2.80227;,
 7.85081;2.94683;2.84504;,
 9.47787;2.19816;3.36070;,
 12.21062;1.81463;3.03845;,
 5.97463;3.76156;1.63572;,
 5.34601;3.54478;1.31669;,
 6.02656;3.93934;-0.13339;,
 7.19849;3.57360;2.07706;,
 7.01541;3.96178;0.30519;,
 5.36534;3.64167;-0.28573;,
 7.60041;3.59138;-1.43023;,
 7.76911;4.39292;-0.88103;,
 9.04901;4.07878;-1.90401;,
 8.81574;3.19338;-2.19198;,
 10.24958;3.72418;-2.24493;,
 9.67195;2.96359;-2.46670;,
 12.45040;3.53019;-2.16155;,
 12.19194;2.58508;-2.45991;,
 10.67333;4.30421;-1.59724;,
 12.46072;4.03171;-1.62941;,
 9.59478;4.39102;-1.55817;,
 8.39496;4.70645;-0.55548;,
 7.01541;3.96178;0.30519;,
 7.48327;4.55838;-0.00829;,
 8.00133;4.77280;0.47881;,
 7.19849;3.57360;2.07706;,
 7.55523;4.22887;1.94924;,
 7.85081;2.94683;2.84504;,
 8.19061;3.60369;2.83810;,
 8.13454;4.43978;1.89374;,
 8.98665;3.97804;2.64213;,
 9.47787;2.19816;3.36070;,
 9.68731;3.14324;3.26726;,
 9.79322;3.74133;2.84501;,
 12.22539;2.69415;2.93334;,
 12.21062;1.81463;3.03845;,
 12.19507;3.40585;2.59829;,
 14.57326;2.56398;2.25704;,
 14.44983;3.21083;1.92198;,
 14.51353;1.76225;2.27761;,
 14.62018;1.25585;2.60366;,
 14.51353;1.76225;2.27761;,
 14.80163;0.38129;2.95006;,
 16.85587;2.71792;1.10814;,
 16.53074;3.20026;0.91989;,
 16.88742;1.84086;1.15723;,
 16.88742;1.84086;1.15723;,
 17.14634;1.15524;1.64079;,
 17.09861;-0.09042;2.05938;,
 14.78169;-0.76142;2.78648;,
 16.79876;-1.01982;1.87745;,
 14.69142;-2.00898;2.26738;,
 14.76303;-2.82680;1.62011;,
 14.56659;-3.24532;0.57835;,
 16.67055;-1.59086;1.64951;,
 16.93573;-2.09699;1.30437;,
 16.89566;-2.57845;0.38312;,
 14.38339;-3.40013;-0.11381;,
 16.62155;-2.87139;-0.37033;,
 14.38339;-3.40013;-0.11381;,
 14.28704;-3.32070;-1.13484;,
 16.34571;-2.89219;-1.31591;,
 16.62155;-2.87139;-0.37033;,
 14.24526;-3.08931;-1.76079;,
 15.85314;-2.59852;-2.23605;,
 14.12712;-2.66420;-2.44330;,
 14.08174;-2.11376;-3.19264;,
 15.40281;-2.17751;-2.81116;,
 14.92615;-1.83258;-3.33221;,
 13.54873;-1.01664;-3.62081;,
 13.31442;0.03522;-3.75154;,
 14.51303;-0.93848;-3.60864;,
 16.53719;-0.76334;-3.75865;,
 17.14498;-1.28808;-3.37067;,
 17.24497;-1.95173;-2.85903;,
 13.49188;1.44039;-3.54874;,
 14.86525;1.29300;-3.56821;,
 14.53039;-0.04529;-3.71307;,
 15.76501;-0.42568;-3.68331;,
 15.68918;0.00574;-3.69557;,
 15.90621;0.84603;-3.73918;,
 16.99240;0.51450;-3.77892;,
 17.00991;0.21829;-3.82628;,
 17.11956;-0.17117;-3.83302;,
 18.15492;-1.13453;-3.47646;,
 18.30030;-1.84935;-2.92627;,
 18.07418;-0.46911;-3.68908;,
 18.08064;0.98411;-3.55750;,
 18.05365;0.42820;-3.72576;,
 18.13450;1.36458;-3.35968;,
 15.78428;2.02027;-2.80215;,
 16.78419;2.02244;-2.75239;,
 18.24450;1.81767;-3.04870;,
 13.96857;2.05226;-2.87217;,
 14.16974;2.43577;-2.31435;,
 15.95774;2.44846;-2.16237;,
 16.98742;2.46171;-1.99292;,
 17.84713;2.53165;-1.67673;,
 18.51198;2.44358;-1.89383;,
 14.16974;2.43577;-2.31435;,
 14.09165;3.28891;-2.18996;,
 14.17643;3.75231;-1.74288;,
 15.83424;3.27845;-2.07743;,
 15.95774;2.44846;-2.16237;,
 16.91384;3.16413;-1.92872;,
 16.98742;2.46171;-1.99292;,
 17.55768;3.30143;-1.58287;,
 17.84713;2.53165;-1.67673;,
 15.70938;3.62803;-1.69188;,
 16.82596;3.58479;-1.42082;,
 17.32234;3.54553;-1.16917;,
 18.07572;2.01415;0.39158;,
 17.96533;2.95123;0.16474;,
 18.23304;1.14512;1.17350;,
 18.07572;2.01415;0.39158;,
 17.82988;-0.41052;1.74728;,
 17.86201;-0.97003;1.56548;,
 17.57264;-1.68771;1.33625;,
 17.67511;-2.31887;0.33940;,
 19.15038;-1.45086;0.60940;,
 19.17578;-0.80822;0.96365;,
 19.12348;-0.14617;1.11291;,
 19.03799;0.83123;1.00904;,
 18.90595;1.92194;0.27107;,
 17.47260;3.31333;0.13542;,
 9.52364;4.44658;1.51586;,
 9.76214;4.68967;-0.42812;,
 11.75090;4.19017;1.32494;,
 14.14378;3.83569;0.81154;,
 11.51333;4.45239;-0.24710;,
 13.53806;4.19881;-0.41706;,
 15.66713;3.68190;0.34668;,
 15.31961;3.85903;-0.69224;,
 17.55819;3.47674;-0.51574;,
 17.95417;3.24737;-0.57755;,
 18.17214;2.50941;-0.58742;,
 18.17214;2.50941;-0.58742;,
 18.75976;2.39564;-0.56111;,
 18.98707;-2.08482;-0.06471;,
 17.59560;-2.65963;-0.72002;,
 18.73231;-2.46933;-1.13515;,
 17.59560;-2.65963;-0.72002;,
 17.40689;-2.61557;-1.65438;,
 18.47161;-2.29555;-2.17250;,
 18.73231;-2.46933;-1.13515;,
 18.51198;2.44358;-1.89383;,
 18.75976;2.39564;-0.56111;,
 19.03861;2.85505;-0.78216;,
 18.71449;2.79581;-2.10600;,
 18.90595;1.92194;0.27107;,
 19.27404;2.11623;0.57949;,
 18.41112;2.16087;-3.19581;,
 18.24450;1.81767;-3.04870;,
 19.03799;0.83123;1.00904;,
 19.39846;1.03397;1.27562;,
 18.13450;1.36458;-3.35968;,
 18.27012;1.55275;-3.67817;,
 18.08064;0.98411;-3.55750;,
 18.18051;1.12393;-3.85148;,
 18.05365;0.42820;-3.72576;,
 18.14114;0.65043;-3.99563;,
 18.07418;-0.46911;-3.68908;,
 18.19393;-0.28344;-4.10894;,
 18.15492;-1.13453;-3.47646;,
 18.31707;-1.36810;-3.79856;,
 18.30030;-1.84935;-2.92627;,
 18.45385;-2.08752;-3.23043;,
 18.47161;-2.29555;-2.17250;,
 18.66130;-2.62594;-2.36882;,
 18.73231;-2.46933;-1.13515;,
 18.94101;-2.82004;-1.22309;,
 18.98707;-2.08482;-0.06471;,
 18.73231;-2.46933;-1.13515;,
 18.94101;-2.82004;-1.22309;,
 19.28731;-2.44233;0.04195;,
 19.15038;-1.45086;0.60940;,
 19.43564;-1.81834;0.75237;,
 19.17578;-0.80822;0.96365;,
 19.52556;-1.03152;1.23482;,
 19.12348;-0.14617;1.11291;,
 19.47354;-0.09509;1.43263;,
 19.91802;-0.08392;1.43940;,
 19.83835;1.08925;1.27305;,
 19.94153;-1.01823;1.23464;,
 19.86941;-1.84059;0.76325;,
 19.65489;2.23333;0.51689;,
 19.40084;2.92890;-0.82637;,
 20.15945;2.21055;0.35454;,
 19.92488;2.87437;-0.92877;,
 19.04282;2.88118;-2.23983;,
 18.82847;2.27285;-3.36448;,
 18.69340;1.64929;-3.88490;,
 18.60078;1.18989;-4.11690;,
 18.57628;0.67440;-4.28047;,
 18.61361;-0.31365;-4.33715;,
 18.71725;-1.42007;-3.99156;,
 18.87148;-2.17305;-3.40339;,
 19.06602;-2.71973;-2.55499;,
 19.34645;-2.92892;-1.32852;,
 19.34645;-2.92892;-1.32852;,
 19.68430;-2.53223;-0.02550;,
 19.33174;0.63004;-4.24094;,
 19.31885;1.12834;-4.12297;,
 19.58439;1.00576;-3.80620;,
 19.56516;0.49639;-3.95400;,
 19.39002;1.57863;-3.88406;,
 19.64461;1.47442;-3.58245;,
 19.50197;2.16528;-3.40142;,
 19.79568;2.02800;-3.06284;,
 19.66878;2.84047;-2.24508;,
 19.98364;2.46973;-2.16857;,
 19.31074;-0.30806;-4.30540;,
 19.58665;-0.40732;-3.94925;,
 19.66398;-1.19014;-3.67295;,
 19.36009;-1.34811;-4.00643;,
 19.53148;-2.04905;-3.44298;,
 19.80680;-1.91130;-3.08346;,
 19.68807;-2.55292;-2.71210;,
 19.93015;-2.25958;-2.53637;,
 19.93934;-2.81763;-1.49877;,
 20.19865;-2.45820;-1.38285;,
 20.24138;-2.45401;-0.23573;,
 19.93934;-2.81763;-1.49877;,
 20.19865;-2.45820;-1.38285;,
 20.44453;-2.12966;-0.42402;,
 20.60848;-1.54764;0.21826;,
 20.45731;-1.70248;0.57396;,
 20.49564;-0.91591;1.01513;,
 20.64123;-0.67137;0.67312;,
 20.61028;0.16380;0.76323;,
 20.49903;-0.06053;1.16216;,
 20.42201;1.06340;0.99872;,
 20.56456;0.83963;0.65499;,
 20.44009;1.85917;0.14243;,
 20.23264;2.47390;-1.03286;,
 20.23264;2.47390;-1.03286;,
 21.36135;2.68561;-1.10720;,
 21.19256;2.75939;-1.97266;,
 19.98364;2.46973;-2.16857;,
 20.44009;1.85917;0.14243;,
 21.47478;2.07838;0.12707;,
 19.79568;2.02800;-3.06284;,
 20.64408;2.37754;-2.97891;,
 20.04414;1.44827;-3.76993;,
 19.64461;1.47442;-3.58245;,
 20.56456;0.83963;0.65499;,
 21.08456;0.99841;0.66873;,
 20.61028;0.16380;0.76323;,
 21.23021;0.03978;0.81871;,
 20.64123;-0.67137;0.67312;,
 21.11938;-0.76492;0.65524;,
 20.60848;-1.54764;0.21826;,
 21.01913;-1.63342;0.20751;,
 20.44453;-2.12966;-0.42402;,
 20.85948;-2.18226;-0.45312;,
 20.19865;-2.45820;-1.38285;,
 20.58773;-2.51216;-1.53232;,
 19.93015;-2.25958;-2.53637;,
 20.29592;-2.32753;-2.60746;,
 20.58773;-2.51216;-1.53232;,
 20.19865;-2.45820;-1.38285;,
 19.80680;-1.91130;-3.08346;,
 20.14784;-1.92523;-3.22882;,
 19.66398;-1.19014;-3.67295;,
 20.04656;-1.19288;-3.80692;,
 19.58665;-0.40732;-3.94925;,
 20.01358;-0.46954;-4.07421;,
 19.56516;0.49639;-3.95400;,
 20.17004;0.46308;-4.16282;,
 21.59459;1.23534;0.76170;,
 21.41003;1.50778;0.55796;,
 22.19227;2.09613;0.42978;,
 22.47091;2.68967;-0.25681;,
 22.74357;3.03109;-0.90062;,
 23.01780;2.81296;-0.10971;,
 23.25937;3.05029;-0.48844;,
 23.42723;3.31094;-1.11092;,
 22.55287;3.16081;-1.98882;,
 23.40247;3.40643;-1.64646;,
 23.24833;3.38815;-2.17729;,
 21.47171;2.65555;-3.10968;,
 22.46088;2.99194;-3.27416;,
 22.03189;2.75280;-3.48032;,
 22.96666;3.27489;-2.73614;,
 21.39202;2.38043;-3.67901;,
 20.68843;1.55679;-4.07103;,
 19.58439;1.00576;-3.80620;,
 23.32262;3.16678;-0.41379;,
 23.57821;3.42796;-1.06385;,
 23.51554;3.53215;-1.58151;,
 23.33087;3.53293;-2.20499;,
 23.07451;3.40518;-2.80387;,
 23.07824;2.90692;0.01000;,
 22.26624;2.22407;0.56686;,
 21.67444;1.32681;0.92960;,
 21.27715;0.09680;0.96734;,
 21.19087;-0.74927;0.82856;,
 21.14652;-1.80255;0.25945;,
 21.96495;-0.12261;0.88591;,
 22.36073;1.08878;1.01380;,
 21.86049;-1.06337;0.65618;,
 22.86156;1.92569;0.84304;,
 23.56264;2.65433;0.35438;,
 23.99460;3.04111;-0.16507;,
 24.27541;3.36698;-0.88076;,
 24.17681;3.53147;-1.66780;,
 23.99445;3.51983;-2.42752;,
 23.66652;3.33707;-3.16134;,
 22.60165;3.16967;-3.29086;,
 23.10175;3.02479;-3.73327;,
 22.14988;2.91735;-3.61088;,
 22.45655;2.64801;-4.06835;,
 21.34516;2.43217;-3.88782;,
 21.69454;1.95174;-4.31529;,
 20.71891;1.65629;-4.21074;,
 21.08931;0.99774;-4.40052;,
 20.21585;0.56297;-4.33052;,
 20.74615;0.07980;-4.34682;,
 20.05335;-0.36243;-4.26444;,
 20.74507;-0.81232;-4.17413;,
 20.10499;-1.25469;-3.97329;,
 20.84247;-1.51152;-3.84107;,
 20.97063;-2.16390;-3.23129;,
 20.21896;-1.99241;-3.39306;,
 20.32543;-2.42912;-2.68451;,
 21.09454;-2.51647;-2.59502;,
 21.30775;-2.66849;-1.79877;,
 20.62343;-2.67026;-1.61401;,
 21.73712;-1.94119;0.05992;,
 20.91304;-2.44048;-0.59634;,
 21.57377;-2.43808;-0.66324;,
 20.62343;-2.67026;-1.61401;,
 21.30775;-2.66849;-1.79877;,
 3.75151;2.16437;-1.73902;,
 3.77465;2.69189;-0.98117;,
 3.71365;1.28103;-2.46602;,
 3.71017;0.59289;-2.70386;,
 3.70665;-1.16287;-2.58179;,
 3.74420;-0.35356;-2.74431;,
 3.74643;-2.24208;-1.90729;,
 3.76065;-2.64208;-1.24836;,
 3.72762;-2.93730;-0.21402;,
 3.73027;-2.89307;1.07322;,
 3.78788;-2.45332;2.04070;,
 3.73027;-2.89307;1.07322;,
 3.77970;-1.89403;2.60863;,
 3.76562;-0.63518;3.20813;,
 3.73090;0.42732;3.28140;,
 3.71935;1.43741;2.95413;,
 3.76624;2.16678;2.32966;,
 3.73541;2.80485;1.10452;,
 3.73636;2.91229;-0.23676;,
 -0.09984;0.58743;-2.68215;,
 -0.09320;1.23583;-2.46430;,
 -0.02608;-0.37402;-2.66302;,
 -0.11516;-1.14801;-2.59607;,
 -0.06057;-2.32175;-1.90698;,
 0.05096;-2.36932;-1.32452;,
 0.07581;-2.51055;-0.25161;,
 0.06440;-2.50024;1.11654;,
 0.13330;-2.13512;1.95139;,
 0.06440;-2.50024;1.11654;,
 0.12266;-1.77267;2.28357;,
 0.08192;-0.55073;2.94416;,
 -0.02237;0.40529;3.14381;,
 -0.07408;1.44907;2.88929;,
 0.03637;1.99937;2.30569;,
 0.02099;2.55582;1.04765;,
 -0.01987;2.74303;-0.38489;,
 0.02798;2.58851;-0.94208;,
 0.00935;2.10170;-1.55508;,
 27.14401;0.46501;-3.54006;,
 27.14401;-0.35670;-3.36540;,
 18.67784;-0.35670;-3.36540;,
 18.67784;0.46503;-3.54006;,
 27.14401;-1.03634;-2.87162;,
 18.67784;-1.03634;-2.87162;,
 27.14401;-1.45636;-2.14410;,
 18.67784;-1.45636;-2.14410;,
 27.14401;-1.54418;-1.30863;,
 18.67784;-1.54415;-1.30863;,
 27.14401;-1.28457;-0.50968;,
 18.67784;-1.28457;-0.50968;,
 27.14401;-0.72247;0.11461;,
 18.67784;-0.72247;0.11461;,
 27.14401;0.04498;0.45630;,
 18.67784;0.04498;0.45630;,
 27.14401;0.88505;0.45630;,
 18.67784;0.88505;0.45630;,
 27.14401;1.65249;0.11461;,
 18.67784;1.65249;0.11461;,
 27.14401;2.21460;-0.50968;,
 18.67784;2.21460;-0.50968;,
 27.14401;2.47418;-1.30863;,
 18.67784;2.47421;-1.30863;,
 27.14401;2.38638;-2.14410;,
 18.67784;2.38638;-2.14410;,
 27.14401;1.96635;-2.87162;,
 18.67784;1.96635;-2.87162;,
 27.14401;1.28672;-3.36540;,
 18.67784;1.28672;-3.36540;,
 27.14401;0.46501;-3.54006;,
 18.67784;0.46503;-3.54006;,
 18.67784;0.46503;-1.51981;,
 18.67784;0.46503;-1.51981;,
 18.67784;0.46503;-1.51981;,
 18.67784;0.46503;-1.51981;,
 18.67784;0.46503;-1.51981;,
 18.67784;0.46503;-1.51981;,
 18.67784;0.46503;-1.51981;,
 18.67784;0.46503;-1.51981;,
 18.67784;0.46503;-1.51981;,
 18.67784;0.46503;-1.51981;,
 18.67784;0.46503;-1.51981;,
 18.67784;0.46503;-1.51981;,
 18.67784;0.46503;-1.51981;,
 18.67784;0.46503;-1.51981;,
 18.67784;0.46503;-1.51981;;
 
 405;
 4;0,1,2,3;,
 4;4,5,3,2;,
 4;1,6,7,2;,
 4;5,4,8,9;,
 4;8,4,10,11;,
 4;10,4,2,7;,
 4;6,1,12,13;,
 4;1,0,14,12;,
 4;15,16,14,0;,
 4;17,15,0,3;,
 4;18,17,3,5;,
 4;19,18,5,9;,
 4;20,21,16,15;,
 4;22,20,15,17;,
 4;23,22,17,18;,
 4;24,23,18,19;,
 4;21,20,25,26;,
 4;20,22,27,25;,
 4;22,23,28,27;,
 4;23,24,29,28;,
 4;13,12,30,31;,
 4;14,32,30,12;,
 4;16,33,32,14;,
 4;34,21,26,35;,
 4;21,34,33,16;,
 4;27,36,26,25;,
 4;36,37,35,26;,
 4;28,38,36,27;,
 4;29,39,38,28;,
 4;36,40,41,37;,
 4;40,42,43,41;,
 4;44,45,38,39;,
 4;42,46,47,43;,
 4;48,49,50,51;,
 4;52,53,54,55;,
 4;56,57,58,54;,
 4;59,60,61,62;,
 4;54,53,63,56;,
 4;60,64,65,61;,
 4;57,66,67,58;,
 4;64,68,69,65;,
 4;66,70,71,67;,
 4;68,72,73,69;,
 4;63,74,75,56;,
 4;75,66,57,56;,
 4;75,76,70,66;,
 4;76,75,74,77;,
 4;72,78,79,73;,
 4;80,71,70,81;,
 4;81,70,76,82;,
 4;82,76,77,83;,
 4;82,84,80,81;,
 4;84,82,83,85;,
 4;78,86,87,79;,
 4;88,80,84,89;,
 4;89,84,85,90;,
 4;86,91,92,87;,
 4;93,91,94,95;,
 4;13,31,96,93;,
 4;91,86,88,94;,
 4;95,6,13,93;,
 4;91,93,96,92;,
 4;86,78,80,88;,
 4;78,72,71,80;,
 4;72,68,67,71;,
 4;68,64,58,67;,
 4;64,60,54,58;,
 4;60,59,55,54;,
 4;46,42,49,48;,
 4;45,40,36,38;,
 4;40,45,49,42;,
 4;45,44,50,49;,
 4;97,98,99,100;,
 4;99,101,102,100;,
 4;101,103,104,102;,
 4;103,101,105,106;,
 4;105,101,99,107;,
 4;107,99,98,108;,
 4;109,110,98,97;,
 4;110,111,108,98;,
 4;110,109,112,113;,
 4;113,112,114,115;,
 4;113,116,111,110;,
 4;116,113,115,117;,
 4;115,114,118,119;,
 4;119,120,117,115;,
 4;121,119,118,122;,
 4;119,121,123,120;,
 4;123,121,124,125;,
 4;124,121,122,126;,
 4;85,127,128,90;,
 4;127,85,83,129;,
 4;125,124,130,131;,
 4;126,132,130,124;,
 4;133,128,127,134;,
 4;129,135,134,127;,
 4;77,136,129,83;,
 4;136,137,135,129;,
 4;136,77,74,138;,
 4;63,139,138,74;,
 4;53,140,139,63;,
 4;138,141,137,136;,
 4;141,138,139,142;,
 4;140,143,142,139;,
 4;52,144,140,53;,
 4;144,145,143,140;,
 4;146,51,50,147;,
 4;147,148,149,146;,
 4;44,150,147,50;,
 4;150,151,148,147;,
 4;150,44,39,152;,
 4;152,39,29,153;,
 4;151,150,152,154;,
 4;154,152,153,155;,
 4;153,29,24,156;,
 4;156,24,19,157;,
 4;155,153,156,158;,
 4;155,159,160,154;,
 4;160,161,151,154;,
 4;9,162,157,19;,
 4;162,163,164,157;,
 4;164,158,156,157;,
 4;158,165,159,155;,
 4;165,158,164,166;,
 4;166,164,163,167;,
 4;167,168,169,166;,
 4;169,170,165,166;,
 4;161,160,171,172;,
 4;171,160,159,173;,
 4;170,173,159,165;,
 4;168,174,175,169;,
 4;175,173,170,169;,
 4;174,168,167,176;,
 4;163,177,178,167;,
 4;178,179,176,167;,
 4;8,180,162,9;,
 4;180,177,163,162;,
 4;11,181,180,8;,
 4;181,182,177,180;,
 4;182,183,178,177;,
 4;183,184,179,178;,
 3;179,184,185;,
 4;186,104,103,187;,
 4;187,103,106,188;,
 4;187,189,190,186;,
 4;189,191,192,190;,
 4;191,193,194,192;,
 4;189,187,188,195;,
 4;195,196,191,189;,
 4;196,197,193,191;,
 4;130,132,198,199;,
 4;134,200,201,133;,
 4;200,134,135,202;,
 4;137,203,202,135;,
 3;203,137,204;,
 3;204,137,142;,
 3;137,141,142;,
 4;204,142,143,205;,
 4;204,206,207,203;,
 4;202,203,207,208;,
 4;200,202,208,209;,
 4;201,200,209,210;,
 4;199,211,131,130;,
 4;120,212,116,117;,
 4;212,213,111,116;,
 4;213,107,108,111;,
 4;212,120,123,214;,
 4;214,123,125,215;,
 4;213,212,214,216;,
 4;216,214,215,217;,
 4;215,125,131,218;,
 4;105,107,213,216;,
 4;106,105,216,217;,
 3;188,106,217;,
 4;195,188,217,219;,
 4;219,217,215,218;,
 4;196,195,219,218;,
 4;196,218,131,211;,
 4;197,196,211,220;,
 4;220,211,199,221;,
 4;221,199,198,222;,
 4;223,201,210,224;,
 4;221,193,197,220;,
 4;224,185,184,223;,
 4;193,221,222,194;,
 4;205,225,206,204;,
 4;145,226,205,143;,
 4;226,227,225,205;,
 4;228,149,148,229;,
 4;229,148,151,161;,
 4;229,161,172,230;,
 4;230,231,228,229;,
 4;232,233,234,235;,
 4;234,233,236,237;,
 4;235,238,239,232;,
 4;237,236,240,241;,
 4;242,239,238,243;,
 4;244,242,243,245;,
 4;246,244,245,247;,
 4;248,246,247,249;,
 4;250,248,249,251;,
 4;252,250,251,253;,
 4;254,252,253,255;,
 4;256,254,255,257;,
 4;258,259,260,261;,
 4;262,258,261,263;,
 4;264,262,263,265;,
 4;266,264,265,267;,
 4;241,240,266,267;,
 4;268,269,241,267;,
 4;270,268,267,265;,
 4;271,270,265,263;,
 4;269,272,237,241;,
 4;273,272,274,275;,
 4;273,276,235,234;,
 4;276,277,238,235;,
 4;277,278,243,238;,
 4;278,279,245,243;,
 4;279,280,247,245;,
 4;280,281,249,247;,
 4;281,282,251,249;,
 4;282,283,253,251;,
 4;283,284,255,253;,
 4;284,285,257,255;,
 4;286,287,261,260;,
 4;287,271,263,261;,
 4;288,289,290,291;,
 4;290,289,292,293;,
 4;293,292,294,295;,
 4;295,294,296,297;,
 4;298,288,291,299;,
 4;299,300,301,298;,
 4;302,301,300,303;,
 4;304,302,303,305;,
 4;306,304,305,307;,
 4;308,309,310,311;,
 4;311,312,313,308;,
 4;314,313,312,315;,
 4;315,316,317,314;,
 4;318,317,316,319;,
 4;274,318,319,320;,
 4;297,296,275,321;,
 4;321,275,274,320;,
 4;322,323,324,325;,
 4;323,322,326,327;,
 4;328,325,324,329;,
 4;329,330,331,328;,
 4;327,326,332,333;,
 4;333,332,334,335;,
 4;335,334,336,337;,
 4;337,336,338,339;,
 4;339,338,340,341;,
 4;342,343,341,340;,
 4;344,345,346,347;,
 4;348,349,345,344;,
 4;349,348,350,351;,
 4;352,353,351,350;,
 4;354,355,353,352;,
 4;333,335,356,357;,
 3;357,327,333;,
 4;327,357,356,358;,
 4;323,327,359,360;,
 4;359,327,358,361;,
 3;360,362,363;,
 4;324,323,360,364;,
 4;364,360,363,365;,
 3;364,365,366;,
 4;329,324,364,367;,
 4;367,364,368,369;,
 3;364,370,368;,
 3;370,364,366;,
 4;362,360,359,361;,
 4;329,367,369,371;,
 4;330,329,371,372;,
 3;330,355,331;,
 3;331,355,373;,
 3;355,354,373;,
 3;355,330,372;,
 4;272,273,234,237;,
 4;276,273,275,296;,
 4;277,276,296,294;,
 4;278,277,294,292;,
 4;279,278,292,289;,
 4;280,279,289,288;,
 4;281,280,288,298;,
 4;282,281,298,301;,
 4;283,282,301,302;,
 4;284,283,302,304;,
 4;285,284,304,306;,
 4;287,286,309,308;,
 4;271,287,308,313;,
 4;270,271,313,314;,
 4;268,270,314,317;,
 4;269,268,317,318;,
 4;272,269,318,274;,
 4;362,374,375,363;,
 4;375,376,365,363;,
 4;376,377,366,365;,
 4;377,378,370,366;,
 4;374,362,361,379;,
 4;379,361,358,380;,
 4;380,358,356,381;,
 4;381,356,335,382;,
 4;382,335,337,383;,
 4;383,337,339,384;,
 4;381,382,385,386;,
 4;383,387,385,382;,
 4;380,381,386,388;,
 4;379,380,388,389;,
 4;374,379,389,390;,
 4;375,374,390,391;,
 4;376,375,391,392;,
 4;377,376,392,393;,
 4;378,377,393,394;,
 4;378,395,368,370;,
 4;395,378,394,396;,
 4;395,397,369,368;,
 4;397,395,396,398;,
 4;371,369,397,399;,
 4;399,397,398,400;,
 4;372,371,399,401;,
 4;400,402,401,399;,
 4;355,372,401,403;,
 4;403,401,402,404;,
 4;353,355,403,405;,
 4;405,403,404,406;,
 4;351,353,405,407;,
 4;407,405,406,408;,
 4;408,409,410,407;,
 4;410,349,351,407;,
 4;345,349,410,411;,
 4;411,410,409,412;,
 4;412,413,414,411;,
 4;414,346,345,411;,
 4;384,415,387,383;,
 4;384,339,341,416;,
 4;415,384,416,417;,
 4;416,418,419,417;,
 4;418,416,341,343;,
 4;30,420,421,31;,
 4;32,422,420,30;,
 4;33,423,422,32;,
 4;35,424,425,34;,
 4;34,425,423,33;,
 4;37,426,424,35;,
 4;41,427,426,37;,
 4;43,428,427,41;,
 4;47,429,428,43;,
 4;61,430,431,62;,
 4;65,432,430,61;,
 4;69,433,432,65;,
 4;73,434,433,69;,
 4;79,435,434,73;,
 4;87,436,435,79;,
 4;92,437,436,87;,
 4;31,421,438,96;,
 4;96,438,437,92;,
 4;423,439,440,422;,
 4;425,441,439,423;,
 4;424,442,441,425;,
 4;426,443,442,424;,
 4;427,444,443,426;,
 4;428,445,444,427;,
 4;429,446,445,428;,
 4;430,447,448,431;,
 4;432,449,447,430;,
 4;433,450,449,432;,
 4;434,451,450,433;,
 4;435,452,451,434;,
 4;436,453,452,435;,
 4;437,454,453,436;,
 4;438,455,454,437;,
 4;421,456,455,438;,
 4;420,457,456,421;,
 4;422,440,457,420;,
 4;458,459,460,461;,
 4;459,462,463,460;,
 4;462,464,465,463;,
 4;464,466,467,465;,
 4;466,468,469,467;,
 4;468,470,471,469;,
 4;470,472,473,471;,
 4;472,474,475,473;,
 4;474,476,477,475;,
 4;476,478,479,477;,
 4;478,480,481,479;,
 4;480,482,483,481;,
 4;482,484,485,483;,
 4;484,486,487,485;,
 4;486,488,489,487;,
 3;490,461,460;,
 3;491,460,463;,
 3;492,463,465;,
 3;493,465,467;,
 3;494,467,469;,
 3;495,469,471;,
 3;496,471,473;,
 3;497,473,475;,
 3;498,475,477;,
 3;499,477,479;,
 3;500,479,481;,
 3;501,481,483;,
 3;502,483,485;,
 3;503,485,487;,
 3;504,487,489;;
 
 MeshMaterialList {
  8;
  405;
  1,
  1,
  1,
  1,
  1,
  1,
  1,
  1,
  1,
  1,
  1,
  1,
  1,
  1,
  1,
  1,
  1,
  1,
  1,
  1,
  1,
  1,
  1,
  1,
  1,
  1,
  1,
  1,
  1,
  1,
  1,
  1,
  1,
  1,
  1,
  1,
  1,
  1,
  1,
  1,
  1,
  1,
  1,
  1,
  1,
  1,
  1,
  1,
  1,
  1,
  1,
  1,
  1,
  1,
  1,
  1,
  1,
  1,
  1,
  1,
  1,
  1,
  1,
  1,
  1,
  1,
  1,
  1,
  1,
  1,
  1,
  1,
  1,
  1,
  1,
  1,
  1,
  1,
  1,
  1,
  1,
  1,
  1,
  1,
  1,
  1,
  1,
  1,
  1,
  1,
  1,
  1,
  1,
  1,
  1,
  1,
  1,
  1,
  1,
  1,
  1,
  1,
  1,
  1,
  1,
  1,
  1,
  1,
  1,
  1,
  1,
  1,
  1,
  1,
  1,
  1,
  1,
  1,
  1,
  1,
  1,
  1,
  1,
  1,
  1,
  1,
  1,
  1,
  1,
  1,
  1,
  1,
  1,
  1,
  1,
  1,
  1,
  1,
  1,
  1,
  1,
  1,
  1,
  1,
  1,
  1,
  1,
  1,
  1,
  1,
  1,
  1,
  1,
  1,
  1,
  1,
  1,
  1,
  1,
  1,
  1,
  1,
  1,
  1,
  1,
  1,
  1,
  1,
  1,
  1,
  1,
  1,
  1,
  1,
  1,
  1,
  1,
  1,
  1,
  1,
  1,
  1,
  1,
  1,
  1,
  1,
  1,
  1,
  1,
  1,
  1,
  1,
  2,
  2,
  2,
  2,
  2,
  2,
  2,
  2,
  2,
  2,
  2,
  2,
  2,
  2,
  2,
  2,
  2,
  2,
  2,
  2,
  2,
  2,
  2,
  2,
  2,
  2,
  2,
  2,
  2,
  2,
  2,
  2,
  2,
  2,
  2,
  2,
  2,
  2,
  2,
  2,
  2,
  2,
  2,
  2,
  2,
  2,
  2,
  2,
  2,
  2,
  2,
  1,
  1,
  1,
  1,
  1,
  1,
  1,
  1,
  1,
  1,
  1,
  1,
  1,
  1,
  1,
  1,
  1,
  1,
  1,
  1,
  1,
  1,
  1,
  1,
  1,
  1,
  1,
  1,
  1,
  1,
  1,
  1,
  1,
  1,
  1,
  2,
  2,
  2,
  2,
  2,
  2,
  2,
  2,
  2,
  2,
  2,
  2,
  2,
  2,
  2,
  2,
  2,
  1,
  1,
  1,
  1,
  1,
  1,
  1,
  1,
  1,
  1,
  1,
  1,
  1,
  1,
  1,
  1,
  1,
  1,
  1,
  1,
  1,
  1,
  1,
  1,
  1,
  1,
  1,
  1,
  1,
  1,
  1,
  1,
  1,
  1,
  1,
  1,
  1,
  1,
  1,
  1,
  1,
  1,
  1,
  1,
  1,
  1,
  1,
  1,
  1,
  1,
  1,
  1,
  1,
  1,
  1,
  1,
  1,
  1,
  1,
  1,
  1,
  1,
  1,
  1,
  1,
  1,
  1,
  1,
  1,
  1,
  1,
  1,
  1,
  1,
  1,
  1,
  1,
  1,
  1,
  1,
  0,
  0,
  0,
  0,
  0,
  0,
  0,
  0,
  0,
  0,
  0,
  0,
  0,
  0,
  0,
  0,
  0,
  0,
  0,
  0,
  0,
  0,
  0,
  0,
  0,
  0,
  0,
  0,
  0,
  0;;
  Material {
   0.765600;0.659200;0.241600;1.000000;;
   5.000000;
   0.000000;0.000000;0.000000;;
   0.000000;0.000000;0.000000;;
  }
  Material {
   0.000000;0.000000;0.000000;1.000000;;
   5.000000;
   0.000000;0.000000;0.000000;;
   0.000000;0.000000;0.000000;;
  }
  Material {
   0.800000;0.800000;0.800000;1.000000;;
   5.000000;
   0.000000;0.000000;0.000000;;
   0.000000;0.000000;0.000000;;
  }
  Material {
   0.800000;0.000000;0.060000;1.000000;;
   5.000000;
   0.000000;0.000000;0.000000;;
   0.000000;0.000000;0.000000;;
  }
  Material {
   0.000000;0.690400;0.251200;1.000000;;
   5.000000;
   0.000000;0.000000;0.000000;;
   0.000000;0.000000;0.000000;;
  }
  Material {
   0.800000;0.768800;0.000000;1.000000;;
   5.000000;
   0.000000;0.000000;0.000000;;
   0.000000;0.000000;0.000000;;
  }
  Material {
   0.000000;0.000000;0.000000;1.000000;;
   5.000000;
   0.000000;0.000000;0.000000;;
   0.000000;0.000000;0.000000;;
  }
  Material {
   0.743200;0.263200;0.094400;1.000000;;
   5.000000;
   0.000000;0.000000;0.000000;;
   0.000000;0.000000;0.000000;;
  }
 }
 MeshNormals {
  443;
  -0.069582;0.378292;-0.923067;,
  -0.019721;0.333817;-0.942432;,
  -0.050690;0.674613;-0.736429;,
  -0.037971;0.707025;-0.706168;,
  0.024489;0.679086;-0.733650;,
  0.023757;0.395437;-0.918186;,
  -0.161821;0.620870;-0.767030;,
  -0.269878;0.790177;-0.550261;,
  0.053658;0.444555;-0.894143;,
  0.073892;0.718656;-0.691428;,
  0.074166;0.512526;-0.855463;,
  -0.011372;0.535797;-0.844270;,
  -0.181376;0.901451;-0.393051;,
  -0.197910;0.716320;-0.669117;,
  -0.235419;0.437516;-0.867846;,
  -0.060868;0.089705;-0.994107;,
  -0.278077;0.149190;-0.948902;,
  0.046393;0.028569;-0.998515;,
  0.032196;0.034080;-0.998900;,
  0.037087;0.035875;-0.998668;,
  -0.060368;-0.116941;-0.991302;,
  -0.290102;-0.114226;-0.950154;,
  0.056168;-0.138346;-0.988790;,
  0.039627;-0.193316;-0.980336;,
  0.043503;-0.219170;-0.974716;,
  -0.270409;-0.381821;-0.883794;,
  -0.099159;-0.331916;-0.938083;,
  -0.016055;-0.449197;-0.893288;,
  0.043921;-0.577898;-0.814927;,
  0.084761;-0.616427;-0.782836;,
  -0.389758;0.833155;-0.392354;,
  -0.394550;0.676300;-0.622052;,
  -0.375087;0.436765;-0.817647;,
  -0.370330;0.163230;-0.914446;,
  -0.377374;-0.086186;-0.922042;,
  -0.364922;-0.359798;-0.858707;,
  -0.186949;-0.661407;-0.726355;,
  -0.370362;-0.627921;-0.684505;,
  0.029015;-0.786513;-0.616892;,
  0.106649;-0.813674;-0.571455;,
  -0.418594;-0.791816;-0.444754;,
  -0.226965;-0.832933;-0.504687;,
  -0.457480;-0.878463;-0.137893;,
  -0.244586;-0.953272;-0.177342;,
  0.116084;-0.869321;-0.480422;,
  0.029500;-0.863995;-0.502635;,
  -0.452821;-0.865368;0.214687;,
  -0.227394;-0.952940;0.200491;,
  0.065732;-0.989615;0.127830;,
  0.169635;-0.984092;0.052792;,
  0.140975;-0.960238;-0.240977;,
  0.042971;-0.974898;-0.218468;,
  0.067618;-0.887346;0.456120;,
  0.191474;-0.938012;0.288915;,
  0.143606;-0.695518;0.704011;,
  -0.046151;-0.652831;0.756096;,
  -0.017693;-0.604474;0.796429;,
  -0.443937;-0.742480;0.501641;,
  -0.217512;-0.831442;0.511265;,
  0.246597;-0.759234;0.602291;,
  -0.443991;-0.527154;0.724556;,
  -0.220519;-0.597347;0.771069;,
  -0.072958;-0.293270;0.953242;,
  -0.007144;-0.332039;0.943239;,
  -0.430312;-0.216114;0.876428;,
  -0.206714;-0.248814;0.946235;,
  -0.005315;0.102904;0.994677;,
  0.049890;-0.045563;0.997715;,
  -0.401788;0.129559;0.906521;,
  -0.174644;0.125824;0.976559;,
  0.190573;-0.385953;0.902619;,
  0.273803;-0.444182;0.853074;,
  0.185404;-0.197750;0.962559;,
  0.266112;-0.223058;0.937779;,
  -0.382708;0.451239;0.806175;,
  -0.149809;0.460498;0.874928;,
  0.057640;0.421588;0.904954;,
  0.091523;0.182982;0.978847;,
  0.170242;0.138701;0.975592;,
  0.256437;0.142783;0.955957;,
  0.124273;0.473179;0.872157;,
  0.229350;0.483539;0.844742;,
  -0.400195;0.697830;0.594034;,
  -0.182504;0.719127;0.670484;,
  -0.150538;0.528642;0.835390;,
  0.027300;0.349049;0.936707;,
  0.226312;0.333891;0.915041;,
  -0.418177;0.868387;0.266519;,
  -0.213519;0.918433;0.333001;,
  -0.185574;0.980110;-0.070332;,
  -0.285491;0.957628;0.037999;,
  -0.394312;0.792390;0.465443;,
  -0.397707;0.911240;-0.107101;,
  -0.193602;0.635151;-0.747731;,
  -0.460042;0.734777;-0.498462;,
  -0.000593;0.539192;-0.842183;,
  0.072784;0.496999;-0.864693;,
  0.113159;0.868496;-0.482606;,
  0.091798;0.877376;-0.470941;,
  -0.003923;0.914955;-0.403536;,
  -0.147495;0.944726;-0.292811;,
  -0.629452;0.775025;-0.055914;,
  -0.150538;0.988601;0.002558;,
  -0.534250;0.697880;0.477012;,
  -0.275759;0.478395;0.833724;,
  -0.100848;0.916346;0.387478;,
  -0.037727;0.753802;0.656017;,
  0.007623;0.335942;0.941852;,
  0.107690;0.736579;0.667723;,
  0.228139;0.278182;0.933042;,
  0.216145;0.700747;0.679879;,
  0.280749;0.705163;0.651095;,
  0.355059;0.268682;0.895401;,
  0.344891;0.326405;0.880062;,
  0.314359;0.480924;0.818468;,
  0.341692;0.106722;0.933733;,
  0.327750;0.767212;0.551331;,
  0.472100;0.337889;0.814219;,
  0.430214;0.373158;0.821991;,
  0.366540;0.464911;0.805919;,
  0.371704;0.025894;0.927990;,
  0.330064;-0.271580;0.904047;,
  0.301175;-0.355817;0.884697;,
  0.320774;-0.455645;0.830357;,
  0.307953;-0.743707;0.593350;,
  0.261611;-0.926225;0.271416;,
  0.325272;-0.438249;0.837936;,
  0.326776;-0.630813;0.703770;,
  0.318349;-0.889190;0.328626;,
  0.223095;-0.973585;0.048584;,
  0.251067;-0.964349;0.083643;,
  0.180072;-0.956172;-0.230888;,
  0.186838;-0.953762;-0.235434;,
  0.134294;-0.870713;-0.473101;,
  0.122228;-0.837353;-0.532822;,
  0.120429;-0.802710;-0.584083;,
  0.076087;-0.595709;-0.799588;,
  0.115090;-0.731138;-0.672452;,
  0.060267;-0.510558;-0.857729;,
  0.017251;-0.226040;-0.973965;,
  0.020735;0.014999;-0.999672;,
  -0.008544;-0.183952;-0.982898;,
  0.066784;-0.589702;-0.804855;,
  0.031875;-0.348490;-0.936770;,
  0.067469;-0.779991;-0.622143;,
  0.043224;0.446284;-0.893847;,
  -0.008554;-0.004155;-0.999955;,
  0.022422;0.398629;-0.916838;,
  -0.040622;-0.106510;-0.993482;,
  -0.065264;0.001154;-0.997867;,
  -0.020535;0.366693;-0.930115;,
  -0.001294;0.063844;-0.997959;,
  0.003188;0.233558;-0.972338;,
  0.000598;-0.046871;-0.998901;,
  0.024120;-0.751142;-0.659700;,
  0.024829;-0.509084;-0.860359;,
  0.047930;-0.173748;-0.983623;,
  0.090365;0.113845;-0.989380;,
  0.047609;0.319513;-0.946385;,
  -0.012879;0.518059;-0.855248;,
  0.035859;0.755064;-0.654670;,
  0.058759;0.756058;-0.651861;,
  -0.012245;0.808877;-0.587850;,
  0.059945;0.755628;-0.652252;,
  0.067737;0.522398;-0.850007;,
  0.087300;0.525175;-0.846505;,
  0.179192;0.562044;-0.807463;,
  0.350377;0.780942;-0.517074;,
  0.062841;0.966884;-0.247359;,
  0.071721;0.466101;-0.881820;,
  0.103025;0.867422;-0.486790;,
  0.124481;0.462115;-0.878040;,
  0.252442;0.517040;-0.817889;,
  0.577507;0.626085;-0.523930;,
  0.132693;0.899711;-0.415827;,
  0.153574;0.974307;-0.164743;,
  0.243880;0.955243;-0.167433;,
  0.696430;0.492552;0.521898;,
  0.517044;0.567890;0.640442;,
  0.355766;0.438613;0.825257;,
  0.389820;-0.009752;0.920839;,
  0.359666;-0.331490;0.872213;,
  0.340950;-0.580490;0.739448;,
  0.322595;-0.858217;0.399245;,
  0.439094;-0.326181;0.837139;,
  0.388446;-0.607041;0.693261;,
  0.410114;-0.004731;0.912022;,
  0.323409;0.419460;0.848210;,
  -0.267568;0.701327;0.660718;,
  0.305876;0.882424;0.357446;,
  0.125022;0.943508;0.306858;,
  0.088014;0.995958;-0.017947;,
  0.165244;0.937249;0.307017;,
  0.193161;0.933690;0.301516;,
  0.131227;0.990769;-0.034001;,
  0.144847;0.986589;-0.075237;,
  0.194367;0.961002;0.196713;,
  0.149606;0.987871;-0.041572;,
  0.353813;0.928539;0.112392;,
  0.800795;0.598938;-0.000716;,
  0.957038;0.277998;-0.082439;,
  -0.133905;0.930409;0.341187;,
  0.300197;-0.852313;0.428304;,
  0.237854;-0.967623;0.084444;,
  0.213128;-0.974600;0.068781;,
  0.144001;-0.946170;-0.289871;,
  0.102774;-0.939087;-0.327954;,
  -0.626909;0.776622;-0.061993;,
  -0.498878;0.812098;0.302684;,
  -0.420047;0.632015;0.651244;,
  -0.711322;0.616617;-0.337350;,
  -0.380309;0.289188;0.878485;,
  -0.751272;0.452107;-0.480821;,
  -0.790152;0.301141;-0.533830;,
  -0.799003;0.119456;-0.589342;,
  -0.767286;-0.129279;-0.628140;,
  -0.731698;-0.395143;-0.555409;,
  -0.698388;-0.607581;-0.378285;,
  -0.641601;-0.755295;-0.133707;,
  -0.554638;-0.808970;0.194792;,
  -0.467503;-0.716129;0.518266;,
  -0.412150;-0.538488;0.734957;,
  -0.373463;-0.334480;0.865245;,
  -0.356577;-0.062460;0.932176;,
  0.212690;-0.022526;0.976860;,
  0.180929;0.360184;0.915168;,
  0.201631;-0.353654;0.913386;,
  0.169454;-0.638669;0.750591;,
  0.081364;0.743852;0.663373;,
  -0.029887;0.972722;0.230042;,
  0.508555;0.855098;0.100894;,
  0.610051;0.642837;0.463247;,
  -0.114699;0.964030;-0.239772;,
  -0.178014;0.776450;-0.604513;,
  -0.220563;0.561363;-0.797636;,
  -0.252611;0.379220;-0.890157;,
  -0.253468;0.174854;-0.951410;,
  -0.236363;-0.123746;-0.963753;,
  -0.204588;-0.474463;-0.856171;,
  -0.160971;-0.747567;-0.644385;,
  -0.100816;-0.932750;-0.346142;,
  -0.012145;-0.998121;0.060061;,
  0.092780;-0.878533;0.468584;,
  0.462131;0.138633;-0.875908;,
  0.791538;0.085730;-0.605076;,
  0.788662;0.168172;-0.591381;,
  0.458307;0.292284;-0.839360;,
  0.539026;0.351184;-0.765585;,
  0.458881;0.434492;-0.775013;,
  0.762070;0.424219;-0.489170;,
  0.454868;0.641869;-0.617332;,
  0.755392;0.584799;-0.295624;,
  0.457542;0.832498;-0.312413;,
  0.451212;-0.096091;-0.887228;,
  0.777931;-0.062767;-0.625207;,
  0.456060;-0.364125;-0.812048;,
  0.780109;-0.207816;-0.590121;,
  0.485424;-0.583360;-0.651195;,
  0.798645;-0.338185;-0.497792;,
  0.519693;-0.744830;-0.418506;,
  0.812225;-0.456631;-0.363012;,
  0.562617;-0.822409;-0.084296;,
  0.829367;-0.536834;-0.154790;,
  0.623149;-0.737126;0.261403;,
  0.858720;-0.506801;0.075842;,
  0.697009;-0.509097;0.504975;,
  0.916172;-0.323855;0.236109;,
  0.738613;-0.239921;0.629991;,
  0.946786;-0.113015;0.301370;,
  0.747404;0.019176;0.664093;,
  0.947442;0.042109;0.317145;,
  0.708274;0.311639;0.633426;,
  0.920152;0.221027;0.323214;,
  0.858810;0.453015;0.239215;,
  0.796927;0.604017;-0.008374;,
  -0.265812;0.962033;-0.061940;,
  -0.239623;0.930238;0.277919;,
  -0.306940;0.701048;0.643676;,
  -0.332606;0.844255;-0.420245;,
  -0.395178;0.515765;-0.760145;,
  -0.284869;0.362262;0.887477;,
  -0.140630;0.087735;0.986167;,
  -0.336731;-0.308359;0.889678;,
  -0.465581;-0.509326;0.723755;,
  -0.494834;-0.697457;0.518357;,
  -0.128140;-0.986306;0.103832;,
  -0.656484;-0.740925;-0.141630;,
  -0.666031;-0.614091;-0.423431;,
  -0.694352;-0.403651;-0.595769;,
  -0.583632;-0.192549;-0.788859;,
  -0.320445;0.258537;-0.911303;,
  -0.403986;0.454347;0.793955;,
  -0.555721;0.410462;0.722977;,
  -0.600343;0.728652;0.329628;,
  -0.300123;0.912801;0.276985;,
  -0.302641;0.847026;0.436984;,
  -0.577541;0.800874;0.158267;,
  -0.540369;0.822276;0.178505;,
  -0.571921;0.806997;0.147183;,
  -0.329474;0.944039;-0.015408;,
  -0.559114;0.811946;0.167735;,
  -0.577019;0.806925;0.126178;,
  -0.341867;0.907916;-0.242519;,
  -0.512493;0.856506;0.061222;,
  -0.548126;0.826942;0.125400;,
  -0.570471;0.813383;0.113889;,
  -0.602640;0.793972;-0.080206;,
  -0.677598;0.530871;-0.508957;,
  -0.397447;0.890783;0.220324;,
  -0.583974;0.804447;0.108806;,
  -0.411852;0.895639;0.167956;,
  -0.453088;0.888947;0.066962;,
  -0.448514;0.893726;-0.009438;,
  -0.758621;0.630434;-0.164460;,
  -0.775969;0.622998;-0.098717;,
  -0.891010;0.437896;0.119788;,
  -0.943292;0.176836;0.280944;,
  -0.887777;-0.092382;0.450907;,
  -0.407597;-0.569862;0.713528;,
  -0.067878;0.164208;0.984088;,
  0.042522;-0.121707;0.991655;,
  0.085614;-0.372121;0.924227;,
  -0.112762;0.513865;0.850427;,
  -0.059313;0.751846;0.656665;,
  -0.007042;0.879402;0.476028;,
  0.015989;0.954574;0.297546;,
  0.019288;0.995350;0.094370;,
  -0.013600;0.993780;-0.110529;,
  -0.066157;0.952845;-0.296157;,
  -0.456686;0.888694;-0.040761;,
  -0.129366;0.881975;-0.453194;,
  -0.594466;0.700062;0.395630;,
  -0.204533;0.753587;-0.624718;,
  -0.687136;0.654117;0.316190;,
  -0.229692;0.520852;-0.822165;,
  -0.859646;0.484780;0.161238;,
  -0.164989;0.225332;-0.960210;,
  -0.955458;0.291177;-0.048132;,
  -0.078266;-0.024489;-0.996632;,
  -0.976503;0.004832;-0.215450;,
  -0.036711;-0.249975;-0.967556;,
  -0.937301;-0.233912;-0.258363;,
  -0.036544;-0.520298;-0.853202;,
  -0.051936;-0.771077;-0.634620;,
  -0.924225;-0.377696;0.056157;,
  -0.066295;-0.936075;-0.345498;,
  -0.013339;-0.999888;0.006782;,
  0.055068;-0.684537;0.726895;,
  -0.448082;-0.756400;0.476531;,
  0.039028;-0.917437;0.395963;,
  -0.223878;0.875639;-0.427944;,
  -0.220814;0.723025;-0.654580;,
  -0.210244;0.488036;-0.847124;,
  -0.203752;0.174311;-0.963380;,
  -0.204194;-0.070948;-0.976356;,
  -0.198450;-0.350315;-0.915367;,
  -0.209647;-0.726274;-0.654655;,
  -0.246179;-0.908209;-0.338454;,
  -0.286365;-0.951706;-0.110688;,
  -0.290034;-0.930643;0.223123;,
  -0.277343;-0.786008;0.552514;,
  -0.272641;-0.559239;0.782891;,
  -0.258901;-0.264995;0.928842;,
  -0.234356;0.096905;0.967309;,
  -0.219967;0.483195;0.847430;,
  -0.229345;0.772108;0.592663;,
  -0.244119;0.931727;0.268871;,
  -0.233897;0.966991;-0.101094;,
  -0.017310;0.513554;-0.857882;,
  -0.009522;0.168831;-0.985599;,
  -0.011073;-0.065534;-0.997789;,
  -0.001134;-0.336550;-0.941665;,
  -0.005317;-0.783434;-0.621452;,
  -0.053017;-0.964990;-0.256872;,
  -0.101204;-0.990620;-0.091813;,
  -0.103207;-0.969983;0.220183;,
  -0.088603;-0.814282;0.573668;,
  -0.084534;-0.579134;0.810838;,
  -0.069877;-0.300386;0.951255;,
  -0.040983;0.067601;0.996870;,
  -0.024786;0.496120;0.867900;,
  -0.039074;0.808206;0.587602;,
  -0.057810;0.960155;0.273422;,
  -0.045822;0.995090;-0.087734;,
  -0.034141;0.895536;-0.443677;,
  -0.032581;0.745066;-0.666194;,
  0.000000;0.000002;-1.000000;,
  -0.000000;-0.406732;-0.913547;,
  0.000000;-0.743147;-0.669128;,
  -0.000001;-0.951060;-0.309007;,
  -0.000002;-0.994521;0.104532;,
  -0.000001;-0.866028;0.499995;,
  0.000000;-0.587790;0.809014;,
  0.000000;-0.207911;0.978148;,
  0.000000;0.207914;0.978147;,
  0.000000;0.587788;0.809015;,
  0.000001;0.866026;0.499999;,
  0.000002;0.994522;0.104527;,
  0.000001;0.951056;-0.309017;,
  0.000000;0.743146;-0.669129;,
  0.000000;0.406738;-0.913545;,
  -1.000000;0.000000;0.000000;,
  -0.821449;0.440921;-0.361676;,
  0.162179;0.958699;0.233655;,
  -0.853844;0.515657;0.071056;,
  -0.804871;0.568297;0.170942;,
  -0.906774;0.407299;-0.108939;,
  -0.677248;0.194554;0.709567;,
  -0.928832;0.310369;-0.202344;,
  -0.953187;0.199916;-0.226866;,
  -0.961083;0.055477;-0.270631;,
  -0.940499;-0.116745;-0.319111;,
  -0.922615;-0.275654;-0.269807;,
  -0.903477;-0.404548;-0.141665;,
  -0.863647;-0.503694;0.020149;,
  -0.804364;-0.541038;0.245512;,
  -0.751996;-0.475380;0.456636;,
  -0.722983;-0.363177;0.587706;,
  -0.683746;-0.259463;0.682034;,
  -0.657623;-0.080105;0.749076;,
  -0.185630;0.942080;0.279332;,
  -0.236795;0.964498;-0.116930;,
  -0.144809;0.692760;0.706480;,
  -0.256932;0.827476;-0.499269;,
  -0.327867;0.516336;-0.791138;,
  -0.094614;0.303825;0.948018;,
  -0.061989;-0.002976;0.998072;,
  -0.060856;-0.308638;0.949231;,
  -0.079250;-0.607676;0.790221;,
  -0.075871;-0.860673;0.503474;,
  -0.223541;-0.925198;-0.306656;,
  -0.273317;-0.744294;-0.609364;,
  -0.306830;-0.492400;-0.814492;,
  -0.313045;-0.187670;-0.931012;,
  -0.307012;0.125703;-0.943368;,
  -0.217585;0.361083;-0.906794;,
  -0.826745;0.562501;0.009263;,
  -0.942502;0.051112;0.330269;,
  -0.016164;0.832627;0.553598;,
  -0.795968;0.542147;0.269279;,
  -0.977056;0.155966;-0.145040;,
  -0.920106;-0.360448;-0.153240;,
  -0.897191;-0.359205;0.256942;;
  405;
  4;0,3,2,1;,
  4;4,5,1,2;,
  4;3,7,6,2;,
  4;5,4,9,8;,
  4;9,4,11,10;,
  4;11,4,2,6;,
  4;7,3,13,12;,
  4;3,0,14,13;,
  4;15,16,14,0;,
  4;17,15,0,1;,
  4;18,17,1,5;,
  4;19,18,5,8;,
  4;20,21,16,15;,
  4;22,20,15,17;,
  4;23,22,17,18;,
  4;24,23,18,19;,
  4;21,20,26,25;,
  4;20,22,27,26;,
  4;22,23,28,27;,
  4;23,24,29,28;,
  4;12,13,31,30;,
  4;14,32,31,13;,
  4;16,33,32,14;,
  4;34,21,25,35;,
  4;21,34,33,16;,
  4;27,36,25,26;,
  4;36,37,35,25;,
  4;28,38,36,27;,
  4;29,39,38,28;,
  4;36,41,40,37;,
  4;41,43,42,40;,
  4;44,45,38,39;,
  4;43,47,46,42;,
  4;48,51,50,49;,
  4;49,53,52,48;,
  4;54,56,55,52;,
  4;47,58,57,46;,
  4;52,53,59,54;,
  4;58,61,60,57;,
  4;56,63,62,55;,
  4;61,65,64,60;,
  4;63,67,66,62;,
  4;65,69,68,64;,
  4;59,71,70,54;,
  4;70,63,56,54;,
  4;70,72,67,63;,
  4;72,70,71,73;,
  4;69,75,74,68;,
  4;76,66,67,77;,
  4;77,67,72,78;,
  4;78,72,73,79;,
  4;78,80,76,77;,
  4;80,78,79,81;,
  4;75,83,82,74;,
  4;84,76,80,85;,
  4;85,80,81,86;,
  4;83,88,87,82;,
  4;89,88,91,90;,
  4;12,30,92,89;,
  4;88,83,84,91;,
  4;90,7,12,89;,
  4;88,89,92,87;,
  4;83,75,76,84;,
  4;75,69,66,76;,
  4;69,65,62,66;,
  4;65,61,55,62;,
  4;61,58,52,55;,
  4;58,47,48,52;,
  4;47,43,51,48;,
  4;45,41,36,38;,
  4;41,45,51,43;,
  4;45,44,50,51;,
  4;7,94,93,6;,
  4;93,95,11,6;,
  4;95,96,10,11;,
  4;96,95,98,97;,
  4;98,95,93,99;,
  4;99,93,94,100;,
  4;402,101,94,7;,
  4;101,102,100,94;,
  4;101,90,91,103;,
  4;103,91,84,104;,
  4;103,105,102,101;,
  4;105,103,104,106;,
  4;104,84,85,107;,
  4;107,108,106,104;,
  4;109,107,85,86;,
  4;107,109,110,108;,
  4;110,109,112,111;,
  4;112,109,86,113;,
  4;81,114,113,86;,
  4;114,81,79,115;,
  4;111,112,117,116;,
  4;113,118,117,112;,
  4;118,113,114,119;,
  4;115,120,119,114;,
  4;73,121,115,79;,
  4;121,122,120,115;,
  4;121,73,71,123;,
  4;59,124,123,71;,
  4;53,125,124,59;,
  4;123,126,122,121;,
  4;126,123,124,127;,
  4;125,128,127,124;,
  4;49,129,125,53;,
  4;129,130,128,125;,
  4;129,49,50,131;,
  4;131,132,130,129;,
  4;44,133,131,50;,
  4;133,134,132,131;,
  4;133,44,39,135;,
  4;135,39,29,136;,
  4;134,133,135,137;,
  4;137,135,136,138;,
  4;136,29,24,139;,
  4;139,24,19,140;,
  4;138,136,139,141;,
  4;138,143,142,137;,
  4;142,144,134,137;,
  4;8,145,140,19;,
  4;145,147,146,140;,
  4;146,141,139,140;,
  4;141,148,143,138;,
  4;148,141,146,149;,
  4;149,146,147,150;,
  4;150,152,151,149;,
  4;151,153,148,149;,
  4;144,142,155,154;,
  4;155,142,143,156;,
  4;153,156,143,148;,
  4;152,158,157,151;,
  4;157,156,153,151;,
  4;158,152,150,159;,
  4;147,161,160,150;,
  4;160,162,159,150;,
  4;9,163,145,8;,
  4;163,161,147,145;,
  4;10,164,163,9;,
  4;164,165,161,163;,
  4;165,166,160,161;,
  4;166,167,162,160;,
  3;162,167,168;,
  4;164,10,96,169;,
  4;169,96,97,170;,
  4;169,171,165,164;,
  4;171,172,166,165;,
  4;172,173,167,166;,
  4;171,169,170,174;,
  4;174,175,172,171;,
  4;175,176,173,172;,
  4;117,118,178,177;,
  4;119,179,178,118;,
  4;179,119,120,180;,
  4;122,181,180,120;,
  3;181,122,182;,
  3;182,122,127;,
  3;122,126,127;,
  4;182,127,128,183;,
  4;182,185,184,181;,
  4;180,181,184,186;,
  4;179,180,186,187;,
  4;178,179,187,188;,
  4;177,189,116,117;,
  4;108,190,105,106;,
  4;190,191,102,105;,
  4;191,99,100,102;,
  4;190,108,110,192;,
  4;192,110,111,193;,
  4;191,190,192,194;,
  4;194,192,193,195;,
  4;193,111,116,196;,
  4;98,99,191,194;,
  4;97,98,194,195;,
  3;170,97,195;,
  4;174,170,195,197;,
  4;197,195,193,196;,
  4;175,174,197,196;,
  4;175,196,116,189;,
  4;176,175,189,198;,
  4;198,189,177,199;,
  4;199,177,178,200;,
  4;403,178,188,201;,
  4;199,173,176,198;,
  4;201,168,167,403;,
  4;173,199,200,167;,
  4;183,202,185,182;,
  4;130,203,183,128;,
  4;203,204,202,183;,
  4;203,130,132,205;,
  4;205,132,134,144;,
  4;205,144,154,206;,
  4;206,204,203,205;,
  4;404,405,208,207;,
  4;208,201,188,209;,
  4;207,210,406,404;,
  4;209,188,407,211;,
  4;408,406,210,212;,
  4;409,408,212,213;,
  4;410,409,213,214;,
  4;411,410,214,215;,
  4;412,411,215,216;,
  4;413,412,216,217;,
  4;414,413,217,218;,
  4;415,414,218,219;,
  4;416,415,219,220;,
  4;417,416,220,221;,
  4;418,417,221,222;,
  4;419,418,222,223;,
  4;211,407,419,223;,
  4;224,225,211,223;,
  4;226,224,223,222;,
  4;227,226,222,221;,
  4;225,228,209,211;,
  4;229,228,231,230;,
  4;229,232,207,208;,
  4;232,233,210,207;,
  4;233,234,212,210;,
  4;234,235,213,212;,
  4;235,236,214,213;,
  4;236,237,215,214;,
  4;237,238,216,215;,
  4;238,239,217,216;,
  4;239,240,218,217;,
  4;240,241,219,218;,
  4;241,242,220,219;,
  4;242,227,221,220;,
  4;243,246,245,244;,
  4;245,246,248,247;,
  4;247,248,250,249;,
  4;249,250,252,251;,
  4;253,243,244,254;,
  4;254,256,255,253;,
  4;257,255,256,258;,
  4;259,257,258,260;,
  4;261,259,260,262;,
  4;263,261,262,264;,
  4;264,266,265,263;,
  4;267,265,266,268;,
  4;268,270,269,267;,
  4;271,269,270,272;,
  4;231,271,272,273;,
  4;251,252,230,274;,
  4;274,230,231,273;,
  4;420,276,275,421;,
  4;276,420,422,277;,
  4;423,421,275,278;,
  4;278,279,424,423;,
  4;277,422,425,280;,
  4;280,425,426,281;,
  4;281,426,427,282;,
  4;282,427,428,283;,
  4;283,428,429,284;,
  4;285,285,284,429;,
  4;430,286,285,285;,
  4;431,287,286,430;,
  4;287,431,432,288;,
  4;433,289,288,432;,
  4;434,290,289,433;,
  4;280,281,292,291;,
  3;291,277,280;,
  4;277,291,292,293;,
  4;276,277,295,294;,
  4;295,277,293,296;,
  3;294,298,297;,
  4;275,276,294,299;,
  4;299,294,297,300;,
  3;299,300,301;,
  4;278,275,299,302;,
  4;302,299,304,303;,
  3;299,305,304;,
  3;305,299,301;,
  4;298,294,295,296;,
  4;278,302,303,306;,
  4;279,278,306,307;,
  3;279,290,424;,
  3;247,290,435;,
  3;290,434,435;,
  3;290,279,307;,
  4;228,229,208,209;,
  4;232,229,230,252;,
  4;233,232,252,250;,
  4;234,233,250,248;,
  4;235,234,248,246;,
  4;236,235,246,243;,
  4;237,236,243,253;,
  4;238,237,253,255;,
  4;239,238,255,257;,
  4;240,239,257,259;,
  4;241,240,259,261;,
  4;242,241,261,263;,
  4;227,242,263,265;,
  4;226,227,265,267;,
  4;224,226,267,269;,
  4;225,224,269,271;,
  4;228,225,271,231;,
  4;298,309,308,297;,
  4;308,310,300,297;,
  4;310,311,301,300;,
  4;311,312,305,301;,
  4;309,298,296,313;,
  4;313,296,293,314;,
  4;314,293,436,315;,
  4;315,292,316,316;,
  4;316,316,437,317;,
  4;317,282,283,318;,
  4;319,320,320,319;,
  4;321,321,320,320;,
  4;322,319,319,322;,
  4;323,322,322,323;,
  4;438,323,323,324;,
  4;308,309,324,325;,
  4;310,308,325,326;,
  4;311,310,326,327;,
  4;312,311,327,328;,
  4;312,329,304,305;,
  4;329,312,328,330;,
  4;329,331,303,304;,
  4;332,329,330,332;,
  4;306,303,331,333;,
  4;334,332,332,334;,
  4;439,306,333,335;,
  4;334,336,336,334;,
  4;337,307,335,337;,
  4;338,336,336,338;,
  4;440,337,337,339;,
  4;340,338,338,340;,
  4;288,289,339,341;,
  4;342,340,340,342;,
  4;342,343,343,342;,
  4;441,287,288,341;,
  4;286,287,441,344;,
  4;345,343,343,345;,
  4;345,346,346,345;,
  4;442,442,286,344;,
  4;318,347,321,321;,
  4;318,283,284,348;,
  4;347,318,348,349;,
  4;348,346,346,349;,
  4;442,348,284,442;,
  4;31,351,350,30;,
  4;32,352,351,31;,
  4;33,353,352,32;,
  4;35,355,354,34;,
  4;34,354,353,33;,
  4;37,356,355,35;,
  4;40,357,356,37;,
  4;42,358,357,40;,
  4;46,359,358,42;,
  4;57,360,359,46;,
  4;60,361,360,57;,
  4;64,362,361,60;,
  4;68,363,362,64;,
  4;74,364,363,68;,
  4;82,365,364,74;,
  4;87,366,365,82;,
  4;30,350,367,92;,
  4;92,367,366,87;,
  4;353,369,368,352;,
  4;354,370,369,353;,
  4;355,371,370,354;,
  4;356,372,371,355;,
  4;357,373,372,356;,
  4;358,374,373,357;,
  4;359,375,374,358;,
  4;360,376,375,359;,
  4;361,377,376,360;,
  4;362,378,377,361;,
  4;363,379,378,362;,
  4;364,380,379,363;,
  4;365,381,380,364;,
  4;366,382,381,365;,
  4;367,383,382,366;,
  4;350,384,383,367;,
  4;351,385,384,350;,
  4;352,368,385,351;,
  4;386,387,387,386;,
  4;387,388,388,387;,
  4;388,389,389,388;,
  4;389,390,390,389;,
  4;390,391,391,390;,
  4;391,392,392,391;,
  4;392,393,393,392;,
  4;393,394,394,393;,
  4;394,395,395,394;,
  4;395,396,396,395;,
  4;396,397,397,396;,
  4;397,398,398,397;,
  4;398,399,399,398;,
  4;399,400,400,399;,
  4;400,386,386,400;,
  3;401,401,401;,
  3;401,401,401;,
  3;401,401,401;,
  3;401,401,401;,
  3;401,401,401;,
  3;401,401,401;,
  3;401,401,401;,
  3;401,401,401;,
  3;401,401,401;,
  3;401,401,401;,
  3;401,401,401;,
  3;401,401,401;,
  3;401,401,401;,
  3;401,401,401;,
  3;401,401,401;;
 }
 MeshTextureCoords {
  505;
  0.646920;0.791890;,
  0.639330;0.817960;,
  0.652590;0.814130;,
  0.658020;0.796240;,
  0.668690;0.815740;,
  0.680550;0.800860;,
  0.649520;0.834910;,
  0.662770;0.827000;,
  0.708000;0.814030;,
  0.708780;0.804220;,
  0.672260;0.824080;,
  0.701550;0.823680;,
  0.629200;0.819190;,
  0.629310;0.832680;,
  0.628970;0.803760;,
  0.641670;0.786840;,
  0.629940;0.785670;,
  0.658390;0.785350;,
  0.686490;0.787260;,
  0.711750;0.788690;,
  0.641110;0.774240;,
  0.630200;0.777350;,
  0.659360;0.771480;,
  0.688830;0.768560;,
  0.713900;0.771530;,
  0.645580;0.765440;,
  0.629920;0.765470;,
  0.660000;0.755490;,
  0.690130;0.751560;,
  0.716010;0.753250;,
  0.618230;0.818270;,
  0.619030;0.832090;,
  0.617870;0.802530;,
  0.617610;0.792040;,
  0.617250;0.778470;,
  0.615970;0.766350;,
  0.631660;0.748090;,
  0.614960;0.748350;,
  0.669050;0.742520;,
  0.716310;0.743260;,
  0.626230;0.734700;,
  0.614150;0.735670;,
  0.623040;0.718890;,
  0.613260;0.719940;,
  0.715700;0.733220;,
  0.668580;0.733280;,
  0.623530;0.699190;,
  0.612410;0.701080;,
  0.665520;0.699180;,
  0.667760;0.719020;,
  0.714730;0.722620;,
  0.713120;0.709110;,
  0.714950;0.982100;,
  0.717130;0.967880;,
  0.674150;0.968490;,
  0.667810;0.983660;,
  0.684380;0.955340;,
  0.653580;0.945240;,
  0.645470;0.952010;,
  0.627540;0.977770;,
  0.625230;0.962770;,
  0.615380;0.957490;,
  0.616770;0.973900;,
  0.717710;0.955510;,
  0.623760;0.947540;,
  0.615030;0.945030;,
  0.646260;0.932860;,
  0.635000;0.931220;,
  0.624250;0.928260;,
  0.615150;0.925740;,
  0.650920;0.921630;,
  0.639020;0.916000;,
  0.624100;0.912610;,
  0.615080;0.910280;,
  0.715560;0.939690;,
  0.687540;0.941220;,
  0.681680;0.925940;,
  0.709680;0.924460;,
  0.624830;0.896830;,
  0.615540;0.895380;,
  0.647830;0.900830;,
  0.669570;0.914020;,
  0.680710;0.914060;,
  0.706570;0.911150;,
  0.673820;0.902250;,
  0.701360;0.899670;,
  0.626910;0.882310;,
  0.617220;0.881050;,
  0.650790;0.881330;,
  0.667590;0.891330;,
  0.696580;0.893710;,
  0.627580;0.864850;,
  0.618540;0.861770;,
  0.628700;0.846340;,
  0.644410;0.871080;,
  0.642870;0.852760;,
  0.619010;0.843810;,
  0.197690;0.033640;,
  0.204250;0.043000;,
  0.220080;0.030000;,
  0.214260;0.020430;,
  0.235510;0.024750;,
  0.226660;0.015160;,
  0.265080;0.027480;,
  0.262690;0.014810;,
  0.241360;0.035790;,
  0.263940;0.036710;,
  0.227650;0.035790;,
  0.212360;0.047810;,
  0.190460;0.057390;,
  0.200460;0.054320;,
  0.207080;0.059930;,
  0.190410;0.082010;,
  0.198610;0.078240;,
  0.197120;0.097800;,
  0.204060;0.092190;,
  0.206490;0.077410;,
  0.215280;0.088730;,
  0.217770;0.112950;,
  0.222250;0.101890;,
  0.224890;0.093230;,
  0.254990;0.104890;,
  0.254800;0.115910;,
  0.254760;0.094750;,
  0.285010;0.099560;,
  0.282620;0.090210;,
  0.287070;0.109390;,
  0.730440;0.897520;,
  0.724140;0.890610;,
  0.734720;0.908820;,
  0.314190;0.086350;,
  0.308430;0.080740;,
  0.319830;0.095530;,
  0.756450;0.884230;,
  0.762920;0.893850;,
  0.763200;0.911590;,
  0.736380;0.923100;,
  0.761640;0.924990;,
  0.737120;0.939830;,
  0.739370;0.952210;,
  0.738540;0.966330;,
  0.761380;0.933500;,
  0.765580;0.940930;,
  0.768530;0.953830;,
  0.736330;0.975730;,
  0.765790;0.964990;,
  0.735670;0.712500;,
  0.737360;0.725980;,
  0.764530;0.732120;,
  0.767250;0.719680;,
  0.738020;0.734980;,
  0.758650;0.744990;,
  0.737150;0.745760;,
  0.736450;0.758260;,
  0.753140;0.754770;,
  0.746850;0.762970;,
  0.729360;0.773350;,
  0.725790;0.786930;,
  0.741290;0.775630;,
  0.765880;0.779440;,
  0.773850;0.770400;,
  0.775520;0.758240;,
  0.726230;0.805800;,
  0.743410;0.806730;,
  0.741030;0.787900;,
  0.756400;0.783920;,
  0.755060;0.789970;,
  0.757050;0.802120;,
  0.770390;0.798080;,
  0.770900;0.793860;,
  0.772500;0.788330;,
  0.785820;0.773800;,
  0.788350;0.760910;,
  0.784120;0.783910;,
  0.783050;0.805950;,
  0.783210;0.797240;,
  0.783270;0.812430;,
  0.751990;0.822550;,
  0.764960;0.824890;,
  0.784440;0.820830;,
  0.728830;0.818420;,
  0.725940;0.827000;,
  0.749440;0.832070;,
  0.763620;0.836470;,
  0.775660;0.842990;,
  0.786360;0.841100;,
  0.290680;0.020430;,
  0.286400;0.030010;,
  0.285360;0.038260;,
  0.307710;0.037840;,
  0.314670;0.030070;,
  0.320550;0.043800;,
  0.327560;0.038790;,
  0.325890;0.051270;,
  0.335910;0.049990;,
  0.303810;0.043430;,
  0.315680;0.050540;,
  0.321070;0.055170;,
  0.335400;0.082570;,
  0.327490;0.074190;,
  0.776950;0.891970;,
  0.774560;0.877330;,
  0.772170;0.915030;,
  0.773940;0.923310;,
  0.772140;0.934380;,
  0.777850;0.949140;,
  0.791290;0.931090;,
  0.789420;0.920990;,
  0.787610;0.911580;,
  0.786590;0.897680;,
  0.786990;0.878360;,
  0.320250;0.071920;,
  0.224230;0.074470;,
  0.229410;0.050300;,
  0.251220;0.075000;,
  0.280120;0.072700;,
  0.250590;0.053990;,
  0.274690;0.054550;,
  0.298290;0.070110;,
  0.296330;0.055240;,
  0.322540;0.063910;,
  0.328100;0.064500;,
  0.336810;0.066430;,
  0.777860;0.860920;,
  0.787020;0.863120;,
  0.793390;0.943970;,
  0.780240;0.962570;,
  0.796990;0.959730;,
  0.780690;0.726290;,
  0.778340;0.738860;,
  0.791280;0.748550;,
  0.796230;0.734030;,
  0.667960;0.645070;,
  0.686150;0.645030;,
  0.682840;0.638650;,
  0.666920;0.639160;,
  0.698880;0.645500;,
  0.701120;0.639730;,
  0.651500;0.640510;,
  0.649930;0.645650;,
  0.716310;0.647240;,
  0.715850;0.640800;,
  0.641930;0.646750;,
  0.641760;0.641440;,
  0.635700;0.646920;,
  0.635940;0.642360;,
  0.627560;0.646730;,
  0.629810;0.642620;,
  0.615340;0.647080;,
  0.618350;0.641850;,
  0.605820;0.646840;,
  0.604690;0.641640;,
  0.593460;0.647370;,
  0.593730;0.641880;,
  0.581290;0.647870;,
  0.581230;0.642400;,
  0.566790;0.649280;,
  0.565960;0.643730;,
  0.763560;0.648120;,
  0.780190;0.649350;,
  0.782680;0.643810;,
  0.764350;0.641730;,
  0.750150;0.647510;,
  0.752520;0.641420;,
  0.739540;0.647370;,
  0.741030;0.640940;,
  0.729980;0.647350;,
  0.729390;0.641320;,
  0.729560;0.635930;,
  0.715880;0.635620;,
  0.740800;0.635820;,
  0.752110;0.636060;,
  0.700510;0.635030;,
  0.683080;0.634260;,
  0.700360;0.628840;,
  0.683460;0.627890;,
  0.666430;0.634830;,
  0.651430;0.634900;,
  0.641830;0.635560;,
  0.635700;0.636300;,
  0.629360;0.636320;,
  0.617930;0.636140;,
  0.604520;0.636330;,
  0.593520;0.636390;,
  0.581590;0.636880;,
  0.565360;0.637780;,
  0.783550;0.637660;,
  0.764900;0.636600;,
  0.628930;0.627080;,
  0.635400;0.627500;,
  0.635500;0.621470;,
  0.627690;0.621880;,
  0.641870;0.626960;,
  0.643270;0.621550;,
  0.651380;0.626690;,
  0.654280;0.621300;,
  0.667780;0.627490;,
  0.668390;0.621170;,
  0.617290;0.627840;,
  0.614960;0.622240;,
  0.603250;0.622590;,
  0.604150;0.628710;,
  0.593340;0.628460;,
  0.590310;0.623120;,
  0.582420;0.628910;,
  0.581090;0.623670;,
  0.565810;0.629010;,
  0.564620;0.622830;,
  0.765440;0.629100;,
  0.783430;0.628510;,
  0.779440;0.623290;,
  0.764910;0.623610;,
  0.752540;0.622730;,
  0.751430;0.628340;,
  0.740360;0.628430;,
  0.738700;0.622780;,
  0.726920;0.622710;,
  0.729790;0.628130;,
  0.715940;0.628020;,
  0.717530;0.622890;,
  0.702280;0.622990;,
  0.684350;0.621420;,
  0.917850;0.628030;,
  0.920040;0.613960;,
  0.908770;0.613690;,
  0.903810;0.628410;,
  0.933960;0.630680;,
  0.937270;0.617780;,
  0.891750;0.630240;,
  0.894470;0.619160;,
  0.880080;0.628310;,
  0.882870;0.633210;,
  0.946880;0.635780;,
  0.948770;0.629170;,
  0.953980;0.640000;,
  0.959910;0.634860;,
  0.961740;0.646290;,
  0.966630;0.642910;,
  0.969450;0.655300;,
  0.973870;0.652860;,
  0.973960;0.665000;,
  0.978700;0.662680;,
  0.977220;0.676990;,
  0.982070;0.676490;,
  0.840860;0.664910;,
  0.836890;0.662660;,
  0.829470;0.674370;,
  0.833530;0.677420;,
  0.845820;0.658810;,
  0.842780;0.655430;,
  0.853900;0.650680;,
  0.850800;0.646880;,
  0.861850;0.644230;,
  0.857990;0.640090;,
  0.871320;0.638480;,
  0.866840;0.631620;,
  0.950170;0.622050;,
  0.945300;0.622230;,
  0.943110;0.609770;,
  0.933390;0.602720;,
  0.925520;0.597040;,
  0.936180;0.596100;,
  0.931680;0.591730;,
  0.924310;0.587480;,
  0.911780;0.596510;,
  0.917740;0.586410;,
  0.911060;0.587190;,
  0.895090;0.608310;,
  0.895840;0.595210;,
  0.891910;0.600550;,
  0.903660;0.589490;,
  0.887010;0.608800;,
  0.877140;0.619680;,
  0.877090;0.635700;,
  0.932710;0.590170;,
  0.925090;0.585140;,
  0.918660;0.584390;,
  0.910880;0.585140;,
  0.903110;0.587300;,
  0.937740;0.594740;,
  0.944740;0.607720;,
  0.951630;0.619830;,
  0.960790;0.632970;,
  0.967640;0.640910;,
  0.976490;0.652420;,
  0.968920;0.628370;,
  0.959320;0.613980;,
  0.976920;0.638480;,
  0.952300;0.602570;,
  0.944580;0.590420;,
  0.938150;0.582980;,
  0.929380;0.577260;,
  0.919320;0.576250;,
  0.909530;0.576670;,
  0.899610;0.579440;,
  0.895930;0.592400;,
  0.890760;0.585630;,
  0.890700;0.597760;,
  0.884070;0.593650;,
  0.884420;0.607890;,
  0.875750;0.604600;,
  0.876110;0.617600;,
  0.866020;0.616220;,
  0.866200;0.629110;,
  0.857040;0.626590;,
  0.857870;0.637290;,
  0.847440;0.634800;,
  0.849370;0.645060;,
  0.839650;0.642140;,
  0.832020;0.651230;,
  0.841620;0.653370;,
  0.835820;0.661500;,
  0.826610;0.659110;,
  0.820650;0.667810;,
  0.828000;0.672860;,
  0.984400;0.650330;,
  0.981910;0.664570;,
  0.989090;0.661010;,
  0.984180;0.677410;,
  0.993090;0.675450;,
  0.596100;0.819810;,
  0.596630;0.832500;,
  0.595090;0.803910;,
  0.594580;0.793880;,
  0.592910;0.769340;,
  0.594230;0.780710;,
  0.591960;0.751410;,
  0.591140;0.740670;,
  0.589640;0.726100;,
  0.589680;0.709240;,
  0.592970;0.952860;,
  0.593890;0.966080;,
  0.592990;0.942330;,
  0.593790;0.923480;,
  0.593930;0.908760;,
  0.594450;0.893960;,
  0.595970;0.880700;,
  0.596850;0.861570;,
  0.596620;0.843070;,
  0.549010;0.800270;,
  0.549960;0.809670;,
  0.548860;0.787200;,
  0.546500;0.776750;,
  0.545180;0.758650;,
  0.545640;0.750560;,
  0.543780;0.736040;,
  0.540240;0.717760;,
  0.549630;0.942520;,
  0.546440;0.954220;,
  0.550510;0.936060;,
  0.552120;0.918150;,
  0.551850;0.905320;,
  0.551990;0.891350;,
  0.553940;0.880830;,
  0.554040;0.863190;,
  0.553120;0.844680;,
  0.553350;0.836670;,
  0.552440;0.826070;,
  0.000000;0.000000;,
  0.066670;0.000000;,
  0.066670;1.000000;,
  0.000000;1.000000;,
  0.133330;0.000000;,
  0.133330;1.000000;,
  0.200000;0.000000;,
  0.200000;1.000000;,
  0.266670;0.000000;,
  0.266670;1.000000;,
  0.333330;0.000000;,
  0.333330;1.000000;,
  0.400000;0.000000;,
  0.400000;1.000000;,
  0.466670;0.000000;,
  0.466670;1.000000;,
  0.533330;0.000000;,
  0.533330;1.000000;,
  0.600000;0.000000;,
  0.600000;1.000000;,
  0.666670;0.000000;,
  0.666670;1.000000;,
  0.733330;0.000000;,
  0.733330;1.000000;,
  0.800000;0.000000;,
  0.800000;1.000000;,
  0.866670;0.000000;,
  0.866670;1.000000;,
  0.933330;0.000000;,
  0.933330;1.000000;,
  1.000000;0.000000;,
  1.000000;1.000000;,
  0.033330;1.000000;,
  0.100000;1.000000;,
  0.166670;1.000000;,
  0.233330;1.000000;,
  0.300000;1.000000;,
  0.366670;1.000000;,
  0.433330;1.000000;,
  0.500000;1.000000;,
  0.566670;1.000000;,
  0.633330;1.000000;,
  0.700000;1.000000;,
  0.766670;1.000000;,
  0.833330;1.000000;,
  0.900000;1.000000;,
  0.966670;1.000000;;
 }
}
