#==============================================================================
#
# [MAPエディター] スクリプトファイル [data/LOAD/MAPPING/stage_2.txt]
# Author : KOKI NISHIYAMA
#
#==============================================================================

SCRIPT
	#==============================================================================
	# 3Dオブジェクト
	#==============================================================================
	# ----------[0]---------- #
    OBJECTSET
        MODELTYPE = 0
        POS = 0.000 0.000 0.000
        ROT = 0.000 0.0 0.000
    END_OBJECTSET
	#==============================================================================
	# 床
	#==============================================================================
    # ----------[0]---------- #
    FLOORSET
        TEXTYPE = 47
        POS = -0.000 0.000 -0.000
        ROT = 0.000 0.000 0.000
        BLOCK_DEPTH = 3
        BLOCK_WIDTH = 3
        SIZE = 1000.0 1000.0
    END_FLOORSET
END_SCRIPT