xof 0302txt 0064
template Header {
 <3D82AB43-62DA-11cf-AB39-0020AF71E433>
 WORD major;
 WORD minor;
 DWORD flags;
}

template Vector {
 <3D82AB5E-62DA-11cf-AB39-0020AF71E433>
 FLOAT x;
 FLOAT y;
 FLOAT z;
}

template Coords2d {
 <F6F23F44-7686-11cf-8F52-0040333594A3>
 FLOAT u;
 FLOAT v;
}

template Matrix4x4 {
 <F6F23F45-7686-11cf-8F52-0040333594A3>
 array FLOAT matrix[16];
}

template ColorRGBA {
 <35FF44E0-6C7C-11cf-8F52-0040333594A3>
 FLOAT red;
 FLOAT green;
 FLOAT blue;
 FLOAT alpha;
}

template ColorRGB {
 <D3E16E81-7835-11cf-8F52-0040333594A3>
 FLOAT red;
 FLOAT green;
 FLOAT blue;
}

template IndexedColor {
 <1630B820-7842-11cf-8F52-0040333594A3>
 DWORD index;
 ColorRGBA indexColor;
}

template Boolean {
 <4885AE61-78E8-11cf-8F52-0040333594A3>
 WORD truefalse;
}

template Boolean2d {
 <4885AE63-78E8-11cf-8F52-0040333594A3>
 Boolean u;
 Boolean v;
}

template MaterialWrap {
 <4885AE60-78E8-11cf-8F52-0040333594A3>
 Boolean u;
 Boolean v;
}

template TextureFilename {
 <A42790E1-7810-11cf-8F52-0040333594A3>
 STRING filename;
}

template Material {
 <3D82AB4D-62DA-11cf-AB39-0020AF71E433>
 ColorRGBA faceColor;
 FLOAT power;
 ColorRGB specularColor;
 ColorRGB emissiveColor;
 [...]
}

template MeshFace {
 <3D82AB5F-62DA-11cf-AB39-0020AF71E433>
 DWORD nFaceVertexIndices;
 array DWORD faceVertexIndices[nFaceVertexIndices];
}

template MeshFaceWraps {
 <4885AE62-78E8-11cf-8F52-0040333594A3>
 DWORD nFaceWrapValues;
 Boolean2d faceWrapValues;
}

template MeshTextureCoords {
 <F6F23F40-7686-11cf-8F52-0040333594A3>
 DWORD nTextureCoords;
 array Coords2d textureCoords[nTextureCoords];
}

template MeshMaterialList {
 <F6F23F42-7686-11cf-8F52-0040333594A3>
 DWORD nMaterials;
 DWORD nFaceIndexes;
 array DWORD faceIndexes[nFaceIndexes];
 [Material]
}

template MeshNormals {
 <F6F23F43-7686-11cf-8F52-0040333594A3>
 DWORD nNormals;
 array Vector normals[nNormals];
 DWORD nFaceNormals;
 array MeshFace faceNormals[nFaceNormals];
}

template MeshVertexColors {
 <1630B821-7842-11cf-8F52-0040333594A3>
 DWORD nVertexColors;
 array IndexedColor vertexColors[nVertexColors];
}

template Mesh {
 <3D82AB44-62DA-11cf-AB39-0020AF71E433>
 DWORD nVertices;
 array Vector vertices[nVertices];
 DWORD nFaces;
 array MeshFace faces[nFaces];
 [...]
}

Header{
1;
0;
1;
}

Mesh {
 379;
 0.44714;-2.54193;-3.05705;,
 0.98108;-6.74550;-3.45497;,
 0.14936;-6.89348;-4.05825;,
 -0.11913;-2.57050;-3.46123;,
 -0.39456;-2.58739;-3.61255;,
 -0.22661;-7.00583;-4.28347;,
 -0.43583;-6.99620;-4.23001;,
 -0.55059;-2.58045;-3.57973;,
 -0.24659;-2.56877;-3.56047;,
 -0.01686;-6.96952;-4.22575;,
 -1.39167;-2.71688;-3.06641;,
 -1.51502;-6.88277;-3.45592;,
 -2.15291;-6.90792;-3.19196;,
 -1.91236;-2.76735;-2.86391;,
 -0.65484;-2.58694;-3.48691;,
 -0.60042;-6.93450;-4.06394;,
 -2.40694;-2.77277;-2.84127;,
 -2.79523;-6.90716;-3.13751;,
 -3.40521;-6.91443;-2.44946;,
 -2.85019;-2.78516;-2.38522;,
 -2.81651;-2.79058;-1.89185;,
 -3.41296;-6.90894;-1.71737;,
 -3.90898;-6.83635;0.36189;,
 -3.15058;-2.70841;-0.45404;,
 -3.42501;-6.77443;2.39400;,
 -2.65964;-2.72457;0.84272;,
 -2.66060;-2.75027;1.39293;,
 -3.41340;-6.74000;3.17723;,
 -2.83098;-6.65392;3.71131;,
 -2.25303;-2.59321;1.75199;,
 -1.76660;-2.55050;1.77838;,
 -2.14393;-6.64973;3.85614;,
 -0.30834;-6.49849;4.41872;,
 -0.56485;-2.29861;2.29151;,
 -0.56485;-2.29861;2.29151;,
 -0.30834;-6.49849;4.41872;,
 1.53819;-6.42574;3.94440;,
 0.81743;-2.21311;1.92202;,
 1.34410;-2.18693;1.91020;,
 2.25021;-6.40318;3.95454;,
 2.86132;-6.39755;3.26518;,
 1.79643;-2.17615;1.45302;,
 1.72724;-2.18960;0.93684;,
 2.84609;-6.40500;2.45507;,
 3.30824;-6.45976;0.37122;,
 1.95048;-2.22059;-0.44205;,
 1.10286;-8.77836;-3.12625;,
 0.22125;-8.92450;-3.69190;,
 1.56110;-6.70918;-3.19145;,
 1.70397;-8.72728;-2.87871;,
 -0.17371;-9.01519;-3.89941;,
 -0.38436;-9.00891;-3.84715;,
 0.04243;-8.98544;-3.84773;,
 -1.45472;-8.89245;-3.12400;,
 -2.09020;-8.89464;-2.87585;,
 -0.54676;-8.96180;-3.69112;,
 -2.72929;-8.91777;-2.80826;,
 -3.34427;-8.92668;-2.14564;,
 -3.38731;-8.87845;-1.44926;,
 -3.90818;-8.84614;0.54397;,
 -3.39388;-8.74219;2.47359;,
 -3.35648;-8.74467;3.22313;,
 -2.76954;-8.67874;3.69625;,
 -2.06854;-8.65979;3.89231;,
 -0.20281;-8.58644;4.44646;,
 -0.20281;-8.58644;4.44646;,
 1.64664;-8.49271;3.93981;,
 2.35014;-8.49340;3.94944;,
 2.96412;-8.49075;3.28537;,
 3.00180;-8.45700;2.50068;,
 3.52022;-8.52764;0.54848;,
 2.53263;-11.70653;1.94329;,
 2.70138;-12.19171;0.51860;,
 2.53262;-11.77730;-0.89810;,
 2.98473;-8.59700;-1.44655;,
 1.41415;-12.47787;-2.04383;,
 0.93320;-12.56564;-2.23082;,
 0.22116;-12.68352;-2.67598;,
 -0.24560;-12.70690;-2.82076;,
 -0.08926;-12.69831;-2.86939;,
 0.07530;-12.68938;-2.82118;,
 -2.03888;-12.60157;-1.91902;,
 -2.46229;-12.82929;-1.27143;,
 -2.70664;-12.00238;-0.89891;,
 -2.84715;-12.43152;0.51796;,
 -2.70934;-11.93063;1.93873;,
 -2.46686;-12.75445;2.28978;,
 -2.05160;-12.49240;2.91686;,
 -0.07253;-12.52548;3.41192;,
 -1.51941;-12.48790;3.06825;,
 1.35573;-12.36213;3.06792;,
 -0.07253;-12.52548;3.41192;,
 1.91073;-12.33376;2.95499;,
 2.35154;-12.55767;2.29445;,
 1.45812;-13.52591;-1.70939;,
 0.88686;-13.83810;-1.92689;,
 0.22054;-13.89081;-2.36005;,
 -0.20407;-13.90861;-2.49584;,
 -0.06339;-13.89989;-2.54144;,
 0.08513;-13.89296;-2.49621;,
 -1.48010;-13.65037;-1.71577;,
 -1.54405;-12.60330;-2.04196;,
 -1.05653;-12.65066;-2.22933;,
 -0.95078;-13.91656;-1.93057;,
 -0.36679;-12.71168;-2.67541;,
 -0.31600;-13.91608;-2.35954;,
 -2.26417;-13.67691;-1.06167;,
 -1.88912;-13.35170;-1.65868;,
 -2.60814;-13.88312;0.48361;,
 -2.73125;-13.26881;0.49707;,
 -2.26844;-13.62316;2.03049;,
 -1.91531;-13.19662;2.63894;,
 2.21019;-13.43869;2.03014;,
 1.87787;-13.05726;2.62451;,
 0.09686;-15.49362;-2.14187;,
 -0.03315;-15.48741;-2.18369;,
 -0.04045;-15.10850;-2.24823;,
 0.09408;-15.10516;-2.20518;,
 -0.15680;-15.50708;-2.14155;,
 -0.16842;-15.11916;-2.20486;,
 -2.14100;-15.20963;0.43909;,
 -1.78566;-15.20944;-0.84973;,
 -1.67866;-15.65614;-0.81151;,
 -2.03176;-15.65796;0.42641;,
 -1.73907;-16.24407;-0.93733;,
 -2.11233;-16.25145;0.40369;,
 -2.03176;-15.65796;0.42641;,
 -1.67866;-15.65614;-0.81151;,
 -0.60042;-6.93450;-4.06394;,
 -0.65484;-2.58694;-3.48691;,
 -0.54676;-8.96180;-3.69112;,
 -0.36679;-12.71168;-2.67541;,
 -0.31600;-13.91608;-2.35954;,
 -0.11913;-2.57050;-3.46123;,
 0.14936;-6.89348;-4.05825;,
 0.22125;-8.92450;-3.69190;,
 0.22116;-12.68352;-2.67598;,
 0.22054;-13.89081;-2.36005;,
 1.16491;-15.06447;-1.52837;,
 0.76571;-15.09000;-1.73331;,
 0.22025;-15.11182;-2.07559;,
 0.22025;-15.11182;-2.07559;,
 -0.27488;-15.13442;-2.07515;,
 -0.27488;-15.13442;-2.07515;,
 -0.75933;-15.16840;-1.74160;,
 -1.13420;-15.18420;-1.54130;,
 -2.04997;-14.06389;-0.95756;,
 -2.39116;-14.26163;0.47110;,
 1.16441;-2.12572;1.94912;,
 2.00008;-6.38894;4.00006;,
 1.77158;-2.18162;1.26481;,
 2.85199;-6.39788;2.94900;,
 2.10589;-8.49145;3.99052;,
 2.97667;-8.46823;2.97399;,
 2.09273;-8.72212;-2.89510;,
 1.72941;-12.50063;-2.01773;,
 1.72409;-12.38631;3.04778;,
 2.43339;-12.19290;2.11596;,
 2.61217;-12.70022;0.50241;,
 1.75502;-13.37259;-1.70580;,
 -2.23172;-2.71395;-2.89452;,
 -2.55520;-6.89602;-3.21916;,
 -2.83317;-2.79626;-2.20198;,
 -3.40508;-6.91781;-2.17405;,
 -2.65906;-2.75348;1.19045;,
 -3.41391;-6.76063;2.88557;,
 -2.10109;-2.51188;1.77768;,
 -2.60188;-6.63803;3.81206;,
 -2.48966;-8.91627;-2.89328;,
 -3.35974;-8.90420;-1.88462;,
 -3.36726;-8.74039;2.94670;,
 -2.53502;-8.67648;3.81799;,
 -1.85843;-12.64987;-2.01644;,
 -2.57361;-12.47622;-1.08158;,
 -2.51649;-12.41085;2.09564;,
 -1.88031;-12.53656;3.02591;,
 -2.19666;-13.89713;-1.02855;,
 -1.77665;-13.51941;-1.70832;,
 -2.54654;-14.09360;0.47989;,
 -2.70868;-12.92555;0.50225;,
 -2.05344;-14.01579;1.89914;,
 -2.20127;-13.84522;1.98937;,
 -1.47501;-13.49405;2.67393;,
 -1.80497;-13.36326;2.68531;,
 -0.26079;-15.55000;-1.93554;,
 -3.35908;-18.97318;0.29648;,
 -3.25173;-18.54754;0.29694;,
 -2.72024;-18.51682;-2.04251;,
 -2.79781;-18.94201;-2.10542;,
 2.32109;-18.01227;-2.49951;,
 2.50452;-18.30763;-2.74682;,
 2.02735;-17.99886;-2.92274;,
 1.97895;-17.77271;-2.63059;,
 2.53413;-18.72626;-2.83929;,
 2.01149;-18.41473;-3.03672;,
 2.91758;-18.31574;-2.05633;,
 2.99364;-18.73080;-2.11795;,
 3.45194;-18.29939;0.29604;,
 3.55806;-18.71287;0.29568;,
 0.96790;-16.59119;-1.94613;,
 1.47121;-17.10484;-2.48287;,
 1.43492;-17.50319;-2.59978;,
 1.05851;-16.83343;-2.17541;,
 -2.19473;-18.20975;2.78141;,
 -2.54566;-18.52937;2.69491;,
 -2.57018;-18.95976;2.78921;,
 -2.16978;-18.26111;2.90077;,
 -2.78496;-18.52924;2.26178;,
 -2.86400;-18.95617;2.32161;,
 2.98131;-18.31962;2.27694;,
 3.05889;-18.73473;2.33708;,
 2.73935;-18.33082;2.72048;,
 2.76095;-18.74879;2.81927;,
 2.37223;-18.03026;2.81097;,
 2.34329;-18.44377;2.93797;,
 -0.03077;-13.80452;3.03061;,
 1.43196;-13.38976;2.65043;,
 -0.03077;-13.80452;3.03061;,
 1.99146;-13.84804;1.88977;,
 2.13706;-13.66647;1.98373;,
 1.76244;-13.23230;2.66651;,
 -1.87679;-18.91913;3.25749;,
 -1.19129;-17.78999;3.01605;,
 -1.52423;-17.26480;2.71116;,
 -0.80268;-16.96127;2.71759;,
 -1.05057;-16.52558;2.52381;,
 -1.74227;-16.22514;1.66884;,
 -1.67354;-15.62913;1.63873;,
 -1.78151;-15.17608;1.71347;,
 -1.67354;-15.62913;1.63873;,
 -1.00596;-15.19094;2.34502;,
 1.69269;-17.10841;2.60811;,
 1.65534;-17.50123;2.73539;,
 0.01112;-15.04407;2.68903;,
 1.03404;-15.10218;2.34395;,
 0.01112;-15.04407;2.68903;,
 1.80540;-15.01957;1.71188;,
 -0.02599;-15.71498;-2.12281;,
 -0.13308;-15.68204;-2.09571;,
 0.08398;-15.67141;-2.09595;,
 1.04115;-15.53243;-1.52508;,
 0.68728;-15.55349;-1.71269;,
 0.21992;-15.52835;-1.93597;,
 0.68728;-15.55349;-1.71269;,
 0.61853;-15.94769;-1.87953;,
 0.16098;-15.77062;-1.99962;,
 0.21992;-15.52835;-1.93597;,
 0.21992;-15.52835;-1.93597;,
 0.16098;-15.77062;-1.99962;,
 0.63731;-16.67032;-2.11154;,
 0.41331;-16.69002;-2.04418;,
 -2.11104;-17.27435;-1.37783;,
 -2.54177;-17.29241;0.35686;,
 -3.02120;-18.23853;0.31246;,
 -2.52722;-18.21070;-1.84293;,
 -2.13695;-18.16875;-2.48671;,
 -2.30716;-18.47208;-2.73216;,
 -2.33934;-18.89726;-2.82605;,
 -1.84435;-18.12742;-2.91073;,
 -1.83340;-18.54556;-3.02580;,
 -1.80619;-17.90326;-2.61970;,
 -1.42622;-17.21626;-2.28246;,
 -1.33303;-17.20345;-2.47598;,
 -1.30567;-17.60028;-2.59312;,
 1.67410;-15.04684;-0.83925;,
 2.16455;-15.02197;0.43910;,
 2.08875;-15.47648;0.42641;,
 1.59486;-15.50583;-0.77610;,
 1.88282;-13.88126;-0.92220;,
 2.33346;-14.06211;0.44045;,
 2.49154;-13.88166;0.44921;,
 2.01269;-13.70514;-1.06981;,
 1.72941;-15.47926;1.63873;,
 -0.93236;-15.61946;2.20606;,
 0.96769;-16.49295;2.37375;,
 1.15135;-16.80486;2.53515;,
 0.98957;-15.53535;2.20605;,
 -0.00100;-15.62079;2.52832;,
 -0.00100;-15.62079;2.52832;,
 1.01071;-16.02738;2.21830;,
 0.04079;-15.94093;2.54781;,
 0.05119;-16.60446;2.57008;,
 0.47682;-16.66498;2.58247;,
 -2.34151;-18.20851;2.55243;,
 -2.57977;-18.21712;2.14067;,
 -2.07399;-17.95788;2.62507;,
 -2.13828;-17.26845;1.88958;,
 -1.61666;-17.24279;2.46015;,
 -1.55835;-17.24028;2.58930;,
 -0.86176;-16.21065;2.36497;,
 -0.57164;-16.68734;2.61219;,
 -0.92570;-16.10918;2.21667;,
 -0.93236;-15.61946;2.20606;,
 -0.38218;-16.70281;2.58247;,
 0.04079;-15.94093;2.54781;,
 -0.00100;-15.62079;2.52832;,
 0.05119;-16.60446;2.57008;,
 2.52367;-18.03077;2.56738;,
 2.76255;-18.02060;2.15202;,
 2.24327;-17.79483;2.64350;,
 1.75458;-17.11402;2.46989;,
 1.83092;-16.07330;1.67035;,
 2.20217;-16.06683;0.40358;,
 2.08875;-15.47648;0.42641;,
 1.72941;-15.47926;1.63873;,
 2.27719;-17.09612;1.89563;,
 0.98957;-15.53535;2.20605;,
 0.66351;-16.63501;2.61305;,
 -0.00100;-15.62079;2.52832;,
 1.01462;-16.04876;-1.70492;,
 1.82981;-16.09184;-0.93870;,
 2.25112;-17.10427;-1.38467;,
 1.56684;-17.10765;-2.28937;,
 2.71077;-18.01936;-1.85492;,
 1.04115;-15.53243;-1.52508;,
 1.59486;-15.50583;-0.77610;,
 3.20690;-18.00300;0.31168;,
 2.68259;-17.08391;0.35642;,
 0.78305;-2.49625;-2.79649;,
 2.79017;-6.57688;-1.71548;,
 1.95308;-6.68619;-3.21036;,
 2.65427;-13.04651;0.49711;,
 2.56681;-13.66465;0.45290;,
 2.96211;-8.63427;-1.88287;,
 2.43516;-12.26513;-1.08112;,
 1.61866;-2.35645;-1.83913;,
 2.79835;-6.61669;-2.17239;,
 1.67882;-2.44310;-2.14543;,
 1.09328;-2.48176;-2.79614;,
 1.91509;-12.43992;-1.91950;,
 2.34174;-8.71110;-2.80865;,
 1.87076;-13.19554;-1.65844;,
 2.09624;-13.48080;-1.10395;,
 2.42478;-12.63195;-1.27152;,
 2.74818;-6.67756;-2.43835;,
 2.21669;-6.70388;-3.12200;,
 1.32032;-2.60006;-2.71899;,
 1.64210;-2.50544;-2.36834;,
 2.88673;-8.65357;-2.12610;,
 -0.76215;0.02992;-3.57973;,
 -0.61069;0.06742;-3.61255;,
 -0.46706;0.10299;-3.56047;,
 -2.08398;-0.29743;-2.86391;,
 -1.57856;-0.17227;-3.06641;,
 -3.28591;-0.59500;-0.45404;,
 -2.96162;-0.51473;-1.89185;,
 -2.98503;-0.52051;0.99350;,
 -0.77601;0.02658;2.29151;,
 -2.11818;-0.30582;1.92916;,
 0.64715;0.37897;2.05941;,
 -0.77601;0.02658;2.29151;,
 1.74536;0.65089;-0.44205;,
 1.53030;0.59766;1.07422;,
 -0.86334;0.00486;-3.48691;,
 -0.86334;0.00486;-3.48691;,
 -0.34333;0.13363;-3.46123;,
 0.20633;0.26973;-3.05705;,
 -0.34333;0.13363;-3.46123;,
 1.41786;0.56976;-1.89793;,
 0.60677;0.36889;-2.85528;,
 0.01270;-16.59244;-2.05109;,
 -0.01514;-15.85835;-1.99404;,
 -0.01514;-15.85835;-1.99404;,
 -0.98466;-15.63454;-1.53305;,
 -0.66089;-15.62005;-1.71783;,
 -0.26079;-15.55000;-1.93554;,
 -0.88551;-16.66472;-1.94372;,
 -0.97283;-16.91041;-2.17149;,
 -0.57894;-16.00683;-1.82828;,
 -0.66089;-15.62005;-1.71783;,
 -0.26079;-15.55000;-1.93554;,
 -0.19391;-15.78648;-1.99931;,
 -0.19391;-15.78648;-1.99931;,
 -0.01514;-15.85835;-1.99404;,
 0.01270;-16.59244;-2.05109;,
 -0.39328;-16.72322;-2.04383;,
 -0.93281;-16.13243;-1.70494;,
 -0.98466;-15.63454;-1.53305;,
 -0.61010;-16.72115;-2.10923;;
 
 309;
 4;0,1,2,3;,
 4;4,5,6,7;,
 4;8,9,5,4;,
 4;10,11,12,13;,
 4;14,15,11,10;,
 4;16,17,18,19;,
 4;20,21,22,23;,
 4;23,22,24,25;,
 4;26,27,28,29;,
 4;30,31,32,33;,
 4;34,35,36,37;,
 4;38,39,40,41;,
 4;42,43,44,45;,
 4;46,47,2,1;,
 4;46,1,48,49;,
 4;6,5,50,51;,
 4;50,5,9,52;,
 4;12,11,53,54;,
 4;11,15,55,53;,
 4;56,57,18,17;,
 4;58,59,22,21;,
 4;59,60,24,22;,
 4;61,62,28,27;,
 4;63,64,32,31;,
 4;65,66,36,35;,
 4;67,68,40,39;,
 4;69,70,44,43;,
 4;69,71,72,70;,
 4;72,73,74,70;,
 4;49,75,76,46;,
 4;76,77,47,46;,
 4;78,51,50,79;,
 4;52,80,79,50;,
 4;56,81,82,57;,
 4;58,83,84,59;,
 4;84,85,60,59;,
 4;61,86,87,62;,
 4;88,64,63,89;,
 4;90,66,65,91;,
 4;67,92,93,68;,
 4;75,94,95,76;,
 4;95,96,77,76;,
 4;97,78,79,98;,
 4;80,99,98,79;,
 4;100,101,102,103;,
 4;102,104,105,103;,
 4;106,82,81,107;,
 4;108,109,82,106;,
 4;110,86,109,108;,
 4;111,87,86,110;,
 4;112,93,92,113;,
 4;114,115,116,117;,
 4;116,115,118,119;,
 4;120,121,122,123;,
 4;124,125,126,127;,
 4;53,55,104,102;,
 4;101,54,53,102;,
 4;6,128,129,7;,
 4;130,128,6,51;,
 4;78,131,130,51;,
 4;97,132,131,78;,
 4;133,134,9,8;,
 4;9,134,135,52;,
 4;52,135,136,80;,
 4;80,136,137,99;,
 4;94,138,139,95;,
 4;139,140,96,95;,
 4;117,99,137,141;,
 4;117,116,98,99;,
 4;119,97,98,116;,
 4;119,142,132,97;,
 4;143,144,103,105;,
 4;145,100,103,144;,
 4;121,146,100,145;,
 4;120,147,146,121;,
 4;148,149,39,38;,
 4;36,149,148,37;,
 4;150,151,43,42;,
 4;40,151,150,41;,
 4;39,149,152,67;,
 4;152,149,36,66;,
 4;43,151,153,69;,
 4;153,151,40,68;,
 4;49,154,155,75;,
 4;90,156,152,66;,
 4;67,152,156,92;,
 4;93,157,153,68;,
 4;69,153,157,71;,
 4;71,157,158,72;,
 4;75,155,159,94;,
 4;160,161,17,16;,
 4;12,161,160,13;,
 4;162,163,21,20;,
 4;18,163,162,19;,
 4;164,165,27,26;,
 4;24,165,164,25;,
 4;166,167,31,30;,
 4;28,167,166,29;,
 4;17,161,168,56;,
 4;168,161,12,54;,
 4;21,163,169,58;,
 4;169,163,18,57;,
 4;27,165,170,61;,
 4;170,165,24,60;,
 4;31,167,171,63;,
 4;171,167,28,62;,
 4;101,172,168,54;,
 4;56,168,172,81;,
 4;82,173,169,57;,
 4;58,169,173,83;,
 4;85,174,170,60;,
 4;61,170,174,86;,
 4;87,175,171,62;,
 4;63,171,175,89;,
 4;146,176,177,100;,
 4;107,177,176,106;,
 4;100,177,172,101;,
 4;81,172,177,107;,
 4;147,178,176,146;,
 4;106,176,178,108;,
 4;109,179,173,82;,
 4;83,173,179,84;,
 4;147,180,181,178;,
 4;108,178,181,110;,
 4;86,174,179,109;,
 4;84,179,174,85;,
 4;180,182,183,181;,
 4;110,181,183,111;,
 4;182,89,175,183;,
 4;111,183,175,87;,
 4;118,184,142,119;,
 4;185,186,187,188;,
 4;189,190,191,192;,
 4;191,190,193,194;,
 4;193,190,195,196;,
 4;196,195,197,198;,
 4;199,200,201,202;,
 4;201,200,191,194;,
 4;203,204,205,206;,
 4;205,204,207,208;,
 4;208,207,186,185;,
 4;198,197,209,210;,
 4;209,211,212,210;,
 4;212,211,213,214;,
 4;215,88,89,182;,
 4;216,90,91,217;,
 4;216,218,219,220;,
 4;113,220,219,112;,
 4;216,220,156,90;,
 4;92,156,220,113;,
 4;206,221,222,223;,
 4;224,225,223,222;,
 4;125,226,227,126;,
 4;228,120,123,229;,
 4;120,228,180,147;,
 4;230,182,180,228;,
 4;213,231,232,214;,
 4;230,233,215,182;,
 4;234,216,217,235;,
 4;234,236,218,216;,
 4;115,237,238,118;,
 4;115,114,239,237;,
 4;240,241,139,138;,
 4;241,242,140,139;,
 4;243,244,245,246;,
 4;141,247,114,117;,
 4;247,248,239,114;,
 4;244,249,250,245;,
 4;124,251,252,125;,
 4;253,252,251,254;,
 4;254,187,186,253;,
 4;255,256,187,254;,
 4;256,257,188,187;,
 4;256,258,259,257;,
 4;258,256,255,260;,
 3;254,251,261;,
 4;262,258,260,261;,
 4;258,262,263,259;,
 4;260,255,254,261;,
 4;264,265,266,267;,
 4;268,269,265,264;,
 4;268,264,138,94;,
 4;218,269,270,219;,
 4;271,270,269,268;,
 4;271,268,94,159;,
 4;236,265,269,218;,
 4;267,240,138,264;,
 4;265,236,272,266;,
 4;230,228,229,273;,
 4;231,274,275,232;,
 4;234,276,272,236;,
 4;273,277,233,230;,
 4;235,278,276,234;,
 4;279,280,281,282;,
 4;207,204,283,284;,
 4;283,204,203,285;,
 4;253,186,207,284;,
 4;284,286,252,253;,
 4;125,252,286,226;,
 3;287,286,284;,
 4;223,288,203,206;,
 4;288,287,285,203;,
 4;288,223,225,289;,
 4;224,290,289,225;,
 4;291,292,227,226;,
 4;226,286,287,291;,
 4;287,288,289,291;,
 4;289,290,293,291;,
 4;291,294,295,292;,
 4;293,296,294,291;,
 4;284,283,285,287;,
 4;297,211,209,298;,
 4;213,211,297,299;,
 4;300,299,297,298;,
 4;231,213,299,300;,
 4;301,302,303,304;,
 4;301,279,300,305;,
 4;274,231,300,279;,
 4;304,306,279,301;,
 3;282,307,279;,
 3;307,274,279;,
 4;280,279,306,308;,
 3;298,305,300;,
 4;309,310,311,312;,
 4;195,190,189,313;,
 4;312,200,199,309;,
 4;200,312,192,191;,
 4;243,314,309,244;,
 4;199,249,244,309;,
 4;310,309,314,315;,
 3;312,311,313;,
 4;315,303,302,310;,
 4;197,195,313,316;,
 4;298,209,197,316;,
 4;317,311,310,302;,
 4;316,313,311,317;,
 4;317,305,298,316;,
 4;305,317,302,301;,
 4;313,189,192,312;,
 4;318,48,1,0;,
 4;74,319,44,70;,
 4;48,320,154,49;,
 4;16,19,162,160;,
 4;160,162,20,13;,
 4;38,41,150,148;,
 4;148,150,42,37;,
 4;26,29,166,164;,
 4;164,166,30,25;,
 4;321,93,112,322;,
 4;323,74,73,324;,
 4;219,270,322,112;,
 4;158,157,93,321;,
 4;72,158,324,73;,
 4;45,44,319,325;,
 4;319,326,327,325;,
 4;328,320,48,318;,
 4;323,326,319,74;,
 4;329,155,154,330;,
 4;331,159,155,329;,
 4;321,322,332,333;,
 4;332,322,270,271;,
 4;324,158,321,333;,
 4;333,332,331,329;,
 4;271,159,331,332;,
 4;334,335,336,337;,
 4;330,335,334,338;,
 4;320,328,336,335;,
 4;335,330,154,320;,
 4;324,333,338,323;,
 4;326,323,338,334;,
 4;337,327,326,334;,
 4;338,333,329,330;,
 4;337,336,328,327;,
 4;318,325,327,328;,
 4;7,339,340,4;,
 4;4,340,341,8;,
 4;13,342,343,10;,
 4;23,344,345,20;,
 4;25,346,344,23;,
 4;33,347,348,30;,
 4;37,349,350,34;,
 4;45,351,352,42;,
 4;10,343,353,14;,
 4;129,354,339,7;,
 4;3,355,356,0;,
 4;8,341,357,133;,
 4;325,358,351,45;,
 4;0,356,359,318;,
 4;20,345,342,13;,
 4;42,352,349,37;,
 4;30,348,346,25;,
 4;318,359,358,325;,
 4;360,361,245,250;,
 4;248,362,237,239;,
 4;122,121,145,363;,
 4;144,364,363,145;,
 4;365,364,144,143;,
 4;262,366,367,263;,
 4;368,369,370,371;,
 4;184,118,238,372;,
 4;237,362,372,238;,
 4;371,373,374,375;,
 4;376,261,251,124;,
 4;124,127,377,376;,
 4;369,368,376,377;,
 4;368,378,366,376;,
 4;366,262,261,376;,
 4;375,378,368,371;,
 3;221,206,205;;
 
 MeshMaterialList {
  9;
  309;
  4,
  4,
  4,
  4,
  4,
  4,
  4,
  4,
  4,
  4,
  4,
  4,
  4,
  4,
  4,
  4,
  4,
  4,
  4,
  4,
  4,
  4,
  4,
  4,
  4,
  4,
  4,
  4,
  4,
  4,
  4,
  4,
  4,
  4,
  4,
  4,
  4,
  4,
  4,
  4,
  4,
  4,
  4,
  4,
  4,
  4,
  4,
  4,
  4,
  4,
  4,
  4,
  4,
  4,
  4,
  4,
  4,
  4,
  4,
  4,
  4,
  4,
  4,
  4,
  4,
  4,
  4,
  4,
  4,
  4,
  4,
  4,
  4,
  4,
  4,
  4,
  4,
  4,
  4,
  4,
  4,
  4,
  4,
  4,
  4,
  4,
  4,
  4,
  4,
  4,
  4,
  4,
  4,
  4,
  4,
  4,
  4,
  4,
  4,
  4,
  4,
  4,
  4,
  4,
  4,
  4,
  4,
  4,
  4,
  4,
  4,
  4,
  4,
  4,
  4,
  4,
  4,
  4,
  4,
  4,
  4,
  4,
  4,
  4,
  4,
  4,
  4,
  4,
  4,
  4,
  4,
  4,
  4,
  4,
  4,
  4,
  4,
  4,
  4,
  4,
  4,
  4,
  4,
  4,
  4,
  4,
  4,
  4,
  4,
  4,
  4,
  4,
  4,
  4,
  4,
  4,
  4,
  4,
  4,
  4,
  4,
  4,
  4,
  4,
  4,
  4,
  4,
  4,
  4,
  4,
  4,
  4,
  4,
  4,
  4,
  4,
  4,
  4,
  4,
  4,
  4,
  4,
  4,
  4,
  4,
  4,
  4,
  4,
  4,
  4,
  4,
  4,
  4,
  4,
  4,
  4,
  4,
  4,
  4,
  4,
  4,
  4,
  4,
  4,
  4,
  4,
  4,
  4,
  4,
  4,
  4,
  4,
  4,
  4,
  4,
  4,
  4,
  4,
  4,
  4,
  4,
  4,
  4,
  4,
  4,
  4,
  4,
  4,
  4,
  4,
  4,
  4,
  4,
  4,
  4,
  4,
  4,
  4,
  4,
  4,
  4,
  4,
  4,
  4,
  4,
  4,
  4,
  4,
  4,
  4,
  4,
  4,
  4,
  4,
  4,
  4,
  4,
  4,
  4,
  4,
  4,
  4,
  4,
  4,
  4,
  4,
  4,
  4,
  4,
  4,
  4,
  4,
  4,
  4,
  4,
  4,
  4,
  4,
  4,
  4,
  4,
  4,
  4,
  4,
  4,
  4,
  4,
  4,
  4,
  4,
  4,
  4,
  4,
  4,
  4,
  4,
  4,
  4,
  4,
  4,
  4,
  4,
  4,
  4,
  4,
  4,
  4,
  4,
  4;;
  Material {
   0.765600;0.659200;0.241600;1.000000;;
   5.000000;
   0.000000;0.000000;0.000000;;
   0.000000;0.000000;0.000000;;
  }
  Material {
   0.000000;0.000000;0.000000;1.000000;;
   5.000000;
   0.000000;0.000000;0.000000;;
   0.000000;0.000000;0.000000;;
  }
  Material {
   0.800000;0.800000;0.800000;1.000000;;
   5.000000;
   0.000000;0.000000;0.000000;;
   0.000000;0.000000;0.000000;;
  }
  Material {
   0.800000;0.000000;0.060000;1.000000;;
   5.000000;
   0.000000;0.000000;0.000000;;
   0.000000;0.000000;0.000000;;
  }
  Material {
   0.000000;0.690400;0.251200;1.000000;;
   5.000000;
   0.000000;0.000000;0.000000;;
   0.000000;0.000000;0.000000;;
  }
  Material {
   0.800000;0.768800;0.000000;1.000000;;
   5.000000;
   0.000000;0.000000;0.000000;;
   0.000000;0.000000;0.000000;;
  }
  Material {
   0.000000;0.000000;0.000000;1.000000;;
   5.000000;
   0.000000;0.000000;0.000000;;
   0.000000;0.000000;0.000000;;
  }
  Material {
   0.743200;0.263200;0.094400;1.000000;;
   5.000000;
   0.000000;0.000000;0.000000;;
   0.000000;0.000000;0.000000;;
  }
  Material {
   0.448627;0.000000;0.320000;1.000000;;
   5.000000;
   0.000000;0.000000;0.000000;;
   0.000000;0.000000;0.000000;;
  }
 }
 MeshNormals {
  341;
  0.545282;0.097335;-0.832583;,
  0.601727;0.098533;-0.792601;,
  0.626989;0.019039;-0.778796;,
  0.516213;0.020168;-0.856223;,
  0.046661;0.078941;-0.995787;,
  -0.459228;0.040418;-0.887398;,
  -0.488184;-0.028178;-0.872286;,
  0.020644;-0.017239;-0.999638;,
  0.474172;0.096837;-0.875090;,
  0.489796;0.006035;-0.871816;,
  -0.442811;0.033371;-0.895994;,
  -0.365553;0.024599;-0.930465;,
  -0.154345;-0.038292;-0.987275;,
  -0.458656;-0.030973;-0.888074;,
  -0.595909;0.024611;-0.802675;,
  -0.624962;-0.029328;-0.780104;,
  -0.541906;0.108938;-0.833349;,
  -0.931478;0.134308;-0.338098;,
  -0.933829;0.024105;-0.356907;,
  -0.547419;-0.020525;-0.836607;,
  -0.955512;0.041604;-0.292002;,
  -0.998119;0.054378;0.028328;,
  -0.995687;0.091777;0.013575;,
  -0.990587;0.053888;-0.125832;,
  -0.940561;0.046921;0.336369;,
  -0.982967;0.109068;0.147919;,
  -0.785763;0.565939;0.249577;,
  -0.538567;0.644454;0.542793;,
  -0.554136;0.212544;0.804835;,
  -0.910776;0.149813;0.384764;,
  -0.376897;0.176570;0.909270;,
  -0.069566;0.215590;0.974003;,
  -0.051653;0.241591;0.969002;,
  -0.205441;0.229808;0.951306;,
  0.272928;0.235506;0.932763;,
  0.049478;0.225879;0.972898;,
  0.401384;0.700387;0.590211;,
  0.713737;0.650191;0.260445;,
  0.920960;0.203074;0.332557;,
  0.488863;0.251578;0.835297;,
  0.955886;0.166117;0.242254;,
  0.982565;0.181587;-0.039901;,
  0.981193;0.191445;-0.024676;,
  0.979535;0.180899;0.088245;,
  0.480588;-0.169694;-0.860372;,
  0.631100;-0.156741;-0.759701;,
  0.195522;-0.185330;-0.963028;,
  0.217116;-0.005907;-0.976128;,
  -0.507164;-0.210855;-0.835658;,
  0.010025;-0.228241;-0.973553;,
  0.498748;-0.186199;-0.846511;,
  -0.169576;-0.202331;-0.964524;,
  -0.453080;-0.206096;-0.867320;,
  -0.635916;-0.192155;-0.747454;,
  -0.564906;-0.222604;-0.794562;,
  -0.910552;-0.182702;-0.370829;,
  -0.980150;-0.138226;-0.142125;,
  -0.989747;-0.142740;0.005060;,
  -0.976237;-0.132207;0.171703;,
  -0.905705;-0.148696;0.396973;,
  -0.571904;-0.145922;0.807238;,
  -0.196899;-0.116395;0.973490;,
  -0.005622;-0.120400;0.992710;,
  0.094013;-0.114706;0.988941;,
  0.522576;-0.125208;0.843349;,
  0.926437;-0.086762;0.366315;,
  0.989081;-0.048310;0.139230;,
  0.998245;-0.059167;-0.002582;,
  0.983760;-0.179433;0.004442;,
  0.973043;-0.172150;0.153465;,
  0.988840;-0.049921;-0.140371;,
  0.975151;-0.167759;-0.144699;,
  0.476746;-0.226498;-0.849360;,
  0.236793;-0.256839;-0.936997;,
  0.622397;-0.200995;-0.756454;,
  -0.524301;-0.242714;-0.816210;,
  0.006570;-0.266937;-0.963692;,
  0.501314;-0.224284;-0.835692;,
  -0.904800;-0.244390;-0.348727;,
  -0.628495;-0.315478;-0.710962;,
  -0.963293;-0.268029;0.015072;,
  -0.958981;-0.242523;-0.146758;,
  -0.942955;-0.267368;0.198370;,
  -0.630821;-0.318412;0.707586;,
  -0.906301;-0.234272;0.351760;,
  0.010519;-0.287859;0.957615;,
  -0.177028;-0.293607;0.939391;,
  0.148517;-0.291139;0.945082;,
  0.918009;-0.191617;0.347193;,
  0.611027;-0.294386;0.734835;,
  0.488445;-0.206707;-0.847758;,
  0.463098;-0.359572;-0.810092;,
  0.623462;-0.186271;-0.759341;,
  -0.539923;-0.224086;-0.811337;,
  0.004488;-0.250071;-0.968217;,
  0.511243;-0.208473;-0.833769;,
  -0.428851;-0.354762;-0.830801;,
  -0.491536;-0.228431;-0.840364;,
  -0.465510;-0.252036;-0.848397;,
  -0.220062;-0.270918;-0.937111;,
  -0.654889;-0.205076;-0.727369;,
  -0.644968;-0.224192;-0.730585;,
  -0.848769;-0.298905;-0.436174;,
  -0.688524;-0.326830;-0.647392;,
  -0.962068;-0.272787;0.003463;,
  -0.990164;-0.139911;-0.000323;,
  -0.838033;-0.311920;0.447668;,
  -0.684098;-0.345334;0.642460;,
  0.849901;-0.297312;0.435056;,
  0.683010;-0.326152;0.653545;,
  0.571304;-0.171061;-0.802714;,
  0.538101;-0.175903;-0.824321;,
  0.002021;-0.201352;-0.979517;,
  0.003105;-0.217915;-0.975963;,
  -0.565716;-0.190727;-0.802240;,
  -0.591745;-0.197221;-0.781628;,
  -0.967149;-0.254153;0.005398;,
  -0.998356;-0.057033;0.005670;,
  -0.866185;-0.033760;-0.498582;,
  -0.843919;-0.241521;-0.479029;,
  -0.831523;0.327840;-0.448432;,
  -0.962481;0.271296;0.005308;,
  0.481463;-0.171138;-0.859596;,
  0.643926;-0.185337;-0.742300;,
  0.629817;-0.172900;-0.757256;,
  -0.662894;-0.192114;-0.723647;,
  -0.492054;-0.196189;-0.848170;,
  -0.591059;-0.209191;-0.779030;,
  -0.727296;-0.486865;-0.483738;,
  -0.867720;-0.496997;0.007434;,
  0.040313;0.853784;0.519064;,
  0.042388;0.225266;0.973375;,
  0.972299;0.220116;-0.078635;,
  0.989428;0.141341;-0.032498;,
  0.089979;-0.125250;0.988036;,
  0.997908;-0.049571;0.041492;,
  0.293193;-0.273294;-0.916160;,
  0.183045;-0.192190;-0.964136;,
  0.247982;-0.312128;0.917105;,
  0.986080;-0.123217;0.111643;,
  0.997913;-0.063274;0.012882;,
  0.499487;-0.454823;-0.737325;,
  -0.119540;0.086709;-0.989036;,
  -0.127842;-0.038218;-0.991058;,
  -0.989976;0.137289;0.033162;,
  -0.998466;0.055360;-0.000310;,
  -0.737546;0.673747;-0.045730;,
  -0.996430;0.082719;0.016866;,
  -0.272142;0.841091;0.467445;,
  -0.248807;0.231283;0.940534;,
  -0.173463;-0.210120;-0.962164;,
  -0.990102;-0.129446;-0.054237;,
  -0.990489;-0.128117;0.050179;,
  -0.302208;-0.125675;0.944921;,
  -0.293076;-0.300736;-0.907560;,
  -0.974426;-0.194760;-0.112085;,
  -0.974400;-0.190514;0.119370;,
  -0.353115;-0.316003;0.880598;,
  -0.478443;-0.432060;-0.764471;,
  -0.720025;-0.516403;-0.463564;,
  -0.854965;-0.518639;0.006921;,
  -0.987954;-0.154484;0.008994;,
  -0.695034;-0.529286;0.486604;,
  -0.682114;-0.515450;0.518684;,
  -0.460069;-0.457041;0.761216;,
  -0.320478;-0.400370;0.858486;,
  -0.905767;0.215138;-0.365106;,
  -0.973471;0.228750;0.005322;,
  0.287789;0.383923;-0.877372;,
  -0.116437;0.269093;-0.956050;,
  0.297871;0.486988;-0.821046;,
  -0.677500;-0.105133;-0.727971;,
  -0.839596;0.435866;-0.324190;,
  -0.905167;0.425015;0.005887;,
  -0.684502;0.218363;-0.695539;,
  0.101537;0.268231;-0.957989;,
  -0.281981;0.386674;-0.878049;,
  -0.290697;0.489377;-0.822196;,
  0.972709;0.231973;0.005188;,
  0.902936;0.216109;-0.371488;,
  0.210310;0.270870;-0.939361;,
  0.625412;0.676624;-0.388639;,
  0.653776;0.652348;-0.383431;,
  0.436173;0.520238;-0.734239;,
  0.670577;0.476138;-0.568875;,
  0.668607;0.218270;-0.710861;,
  0.824322;0.457608;-0.333297;,
  0.893258;0.449507;0.005766;,
  0.122311;0.535713;-0.835495;,
  0.106244;0.599193;-0.793524;,
  -0.906155;0.210684;0.366737;,
  -0.714308;0.544490;0.439652;,
  -0.585138;0.402172;0.704181;,
  -0.699435;0.278147;0.658350;,
  -0.730234;0.469724;0.496102;,
  -0.845768;0.415927;0.334189;,
  0.905089;0.214128;0.367373;,
  0.831689;0.441356;0.336897;,
  0.658269;0.225709;0.718148;,
  0.678759;0.460360;0.572149;,
  0.268124;0.266017;0.925929;,
  0.526129;0.491029;0.694319;,
  0.116283;0.359027;0.926055;,
  0.117862;0.425814;0.897101;,
  0.013526;-0.294458;0.955569;,
  0.346743;-0.387409;0.854215;,
  0.452081;-0.457232;0.765873;,
  0.705084;-0.532433;0.468370;,
  0.717507;-0.477995;0.506661;,
  -0.539197;0.509957;0.670232;,
  -0.219806;0.361832;0.905959;,
  -0.422312;0.275744;0.863492;,
  -0.094372;0.396457;0.913190;,
  -0.359383;0.510126;0.781419;,
  -0.819418;-0.100575;0.564304;,
  -0.808746;0.262679;0.526240;,
  -0.802280;-0.286727;0.523578;,
  -0.456322;-0.292976;0.840199;,
  0.373296;0.526830;0.763610;,
  0.009654;-0.284763;0.958549;,
  0.479729;-0.264445;0.836618;,
  0.825119;-0.226078;0.517752;,
  -0.504600;-0.371005;-0.779573;,
  0.013507;-0.458944;-0.888363;,
  0.507785;-0.331322;-0.795223;,
  0.630770;0.070861;-0.772727;,
  0.447945;0.049400;-0.892695;,
  0.632302;-0.056110;-0.772688;,
  0.335416;-0.041607;-0.941151;,
  0.311123;0.264159;-0.912920;,
  -0.003506;0.137268;-0.990528;,
  -0.902156;0.431370;0.005897;,
  -0.788446;0.491143;-0.370313;,
  -0.844754;0.535119;0.006267;,
  -0.744573;0.583577;-0.324112;,
  -0.667153;0.641819;-0.378120;,
  -0.697816;0.455914;-0.552446;,
  -0.663778;0.506985;-0.549877;,
  -0.695871;0.615056;-0.370769;,
  -0.624855;0.603866;-0.494876;,
  -0.536760;0.659207;-0.526626;,
  0.865084;-0.193160;-0.462946;,
  0.866933;0.064194;-0.494274;,
  0.998895;0.033035;-0.033416;,
  0.981371;-0.187012;-0.044021;,
  0.746015;-0.475527;-0.466193;,
  0.888133;-0.458331;-0.033948;,
  0.846387;-0.531867;-0.027329;,
  0.712296;-0.551089;-0.434666;,
  0.824996;-0.047335;0.563153;,
  0.223289;0.585802;0.779088;,
  -0.462034;-0.135910;0.876386;,
  0.156979;0.465828;0.870840;,
  0.173771;0.464752;0.868222;,
  0.365722;0.436779;0.821871;,
  0.467681;-0.100790;0.878132;,
  -0.000068;-0.134731;0.990882;,
  -0.034700;0.401046;0.915401;,
  0.362132;0.342367;0.866975;,
  -0.006237;0.141787;0.989878;,
  -0.006840;0.093844;0.995564;,
  -0.754620;0.547280;0.361987;,
  -0.686579;0.600104;0.410468;,
  -0.710078;0.585608;0.390963;,
  -0.782758;0.443091;0.436989;,
  -0.691802;0.524675;0.496110;,
  -0.745301;0.562419;0.358067;,
  -0.735882;0.564487;0.373942;,
  -0.508640;0.254631;0.822465;,
  0.654303;0.642297;0.399176;,
  0.722843;0.586679;0.365109;,
  0.683594;0.628728;0.370675;,
  0.617187;0.573825;0.538336;,
  0.791238;0.305742;0.529588;,
  0.936666;0.350158;-0.006793;,
  0.755978;0.482224;0.442671;,
  0.498013;0.453479;-0.739148;,
  0.581878;0.638474;-0.503755;,
  0.758411;0.531367;-0.377441;,
  0.791936;0.419239;-0.443933;,
  0.709753;0.621489;-0.331667;,
  0.816730;0.576985;0.006273;,
  0.879434;0.475981;0.006146;,
  0.462333;0.083566;-0.882760;,
  0.978232;0.169954;-0.119069;,
  0.157242;-0.006366;-0.987540;,
  0.995240;-0.097373;0.004082;,
  0.957232;-0.288455;-0.022389;,
  0.993451;-0.045382;-0.104857;,
  0.990302;-0.095257;-0.101131;,
  0.945932;0.161376;-0.281373;,
  0.702051;0.669047;-0.243926;,
  0.980236;0.162060;-0.113460;,
  0.242634;0.598771;-0.763284;,
  0.637759;-0.274481;-0.719669;,
  0.590694;-0.167271;-0.789368;,
  0.710993;-0.327872;-0.622084;,
  0.921075;-0.184913;-0.342679;,
  0.846175;-0.327851;-0.420121;,
  0.885175;0.117929;-0.450064;,
  0.748955;0.446013;-0.490040;,
  0.538067;0.413025;-0.734775;,
  0.574420;0.054293;-0.816758;,
  0.908270;-0.099265;-0.406437;,
  0.064745;0.005387;-0.997887;,
  -0.451260;-0.036490;-0.891646;,
  0.480049;0.039582;-0.876348;,
  -0.430115;-0.032108;-0.902203;,
  -0.562536;-0.038386;-0.825881;,
  -0.882819;-0.057447;-0.466186;,
  -0.995622;-0.088328;0.030569;,
  -0.853782;-0.135419;0.502711;,
  -0.523038;-0.116148;0.844359;,
  -0.051217;-0.041733;0.997815;,
  0.499725;0.003686;0.866177;,
  0.901428;0.043082;0.430780;,
  0.996912;0.067328;-0.040424;,
  -0.583098;-0.046145;-0.811090;,
  0.556054;0.039902;-0.830188;,
  0.598487;0.049960;-0.799573;,
  0.888630;0.052236;-0.455640;,
  0.649556;0.033661;-0.759568;,
  -0.002554;0.056936;-0.998375;,
  0.009407;-0.298170;-0.954466;,
  -0.596524;0.002118;-0.802592;,
  -0.476786;-0.010603;-0.878955;,
  -0.267900;0.307496;-0.913059;,
  -0.143354;0.539620;-0.829614;,
  -0.052245;0.160310;-0.985683;,
  -0.364824;0.238648;-0.899973;,
  -0.382626;-0.074009;-0.920934;,
  -0.518936;0.407264;-0.751559;,
  0.273707;0.275522;-0.921505;,
  0.448033;0.688572;0.570206;,
  -0.173853;0.981529;-0.079847;,
  -0.063429;0.997865;0.015561;,
  0.048363;0.992684;0.110633;,
  0.015018;0.999772;-0.015156;,
  -0.132094;0.980605;-0.144791;,
  -0.089138;0.975433;-0.201455;,
  0.074730;0.982659;-0.169694;;
  309;
  4;0,3,2,1;,
  4;4,7,6,5;,
  4;8,9,7,4;,
  4;10,13,12,11;,
  4;14,15,13,10;,
  4;16,19,18,17;,
  4;20,23,22,21;,
  4;21,22,25,24;,
  4;26,29,28,27;,
  4;30,33,32,31;,
  4;31,32,35,34;,
  4;36,39,38,37;,
  4;40,43,42,41;,
  4;44,45,2,3;,
  4;44,3,47,46;,
  4;6,7,49,48;,
  4;49,7,9,50;,
  4;12,13,52,51;,
  4;13,15,53,52;,
  4;54,55,18,19;,
  4;56,57,22,23;,
  4;57,58,25,22;,
  4;59,60,28,29;,
  4;61,62,32,33;,
  4;62,63,35,32;,
  4;64,65,38,39;,
  4;66,67,42,43;,
  4;66,69,68,67;,
  4;68,71,70,67;,
  4;46,73,72,44;,
  4;72,74,45,44;,
  4;75,48,49,76;,
  4;50,77,76,49;,
  4;54,79,78,55;,
  4;56,81,80,57;,
  4;80,82,58,57;,
  4;59,84,83,60;,
  4;85,62,61,86;,
  4;87,63,62,85;,
  4;64,89,88,65;,
  4;73,91,90,72;,
  4;90,92,74,72;,
  4;93,75,76,94;,
  4;77,95,94,76;,
  4;96,99,98,97;,
  4;98,101,100,97;,
  4;102,78,79,103;,
  4;104,105,78,102;,
  4;106,84,105,104;,
  4;107,83,84,106;,
  4;108,88,89,109;,
  4;110,113,112,111;,
  4;112,113,115,114;,
  4;116,119,118,117;,
  4;120,121,117,118;,
  4;52,53,101,98;,
  4;99,51,52,98;,
  4;6,15,14,5;,
  4;53,15,6,48;,
  4;75,101,53,48;,
  4;93,100,101,75;,
  4;1,2,9,8;,
  4;9,2,45,50;,
  4;50,45,74,77;,
  4;77,74,92,95;,
  4;91,123,122,90;,
  4;122,124,92,90;,
  4;111,95,92,124;,
  4;111,112,94,95;,
  4;114,93,94,112;,
  4;114,125,100,93;,
  4;125,126,97,100;,
  4;127,96,97,126;,
  4;119,128,96,127;,
  4;116,129,128,119;,
  4;130,131,39,36;,
  4;35,131,130,34;,
  4;132,133,43,40;,
  4;38,133,132,37;,
  4;39,131,134,64;,
  4;134,131,35,63;,
  4;43,133,135,66;,
  4;135,133,38,65;,
  4;46,137,136,73;,
  4;87,138,134,63;,
  4;64,134,138,89;,
  4;88,139,135,65;,
  4;66,135,139,69;,
  4;69,139,140,68;,
  4;73,136,141,91;,
  4;142,143,19,16;,
  4;12,143,142,11;,
  4;144,145,23,20;,
  4;18,145,144,17;,
  4;146,147,29,26;,
  4;25,147,146,24;,
  4;148,149,33,30;,
  4;28,149,148,27;,
  4;19,143,150,54;,
  4;150,143,12,51;,
  4;23,145,151,56;,
  4;151,145,18,55;,
  4;29,147,152,59;,
  4;152,147,25,58;,
  4;33,149,153,61;,
  4;153,149,28,60;,
  4;99,154,150,51;,
  4;54,150,154,79;,
  4;78,155,151,55;,
  4;56,151,155,81;,
  4;82,156,152,58;,
  4;59,152,156,84;,
  4;83,157,153,60;,
  4;61,153,157,86;,
  4;128,159,158,96;,
  4;103,158,159,102;,
  4;96,158,154,99;,
  4;79,154,158,103;,
  4;129,160,159,128;,
  4;102,159,160,104;,
  4;105,161,155,78;,
  4;81,155,161,80;,
  4;129,163,162,160;,
  4;104,160,162,106;,
  4;84,156,161,105;,
  4;80,161,156,82;,
  4;163,165,164,162;,
  4;106,162,164,107;,
  4;165,86,157,164;,
  4;107,164,157,83;,
  4;115,171,125,114;,
  4;167,173,172,166;,
  4;181,184,183,182;,
  4;183,184,185,175;,
  4;185,184,186,179;,
  4;179,186,187,178;,
  4;188,189,176,177;,
  4;176,189,183,175;,
  4;191,194,193,192;,
  4;193,194,195,190;,
  4;190,195,173,167;,
  4;178,187,197,196;,
  4;197,199,198,196;,
  4;198,199,201,200;,
  4;204,85,86,165;,
  4;205,87,85,204;,
  4;205,208,207,206;,
  4;109,206,207,108;,
  4;205,206,138,87;,
  4;89,138,206,109;,
  4;192,211,210,209;,
  4;212,213,209,210;,
  4;121,215,214,117;,
  4;216,116,117,214;,
  4;116,216,163,129;,
  4;217,165,163,216;,
  4;201,218,202,200;,
  4;217,219,204,165;,
  4;220,205,204,219;,
  4;220,221,208,205;,
  4;113,223,222,115;,
  4;113,110,224,223;,
  4;225,226,122,123;,
  4;226,227,124,122;,
  4;226,229,228,227;,
  4;124,227,110,111;,
  4;227,228,224,110;,
  4;229,180,230,228;,
  4;120,232,231,121;,
  4;233,231,232,234;,
  4;234,172,173,233;,
  4;235,236,172,234;,
  4;236,174,166,172;,
  4;236,237,169,174;,
  4;237,236,235,238;,
  3;234,232,239;,
  4;240,237,238,239;,
  4;332,168,168,169;,
  4;238,235,234,239;,
  4;241,244,243,242;,
  4;245,246,244,241;,
  4;245,241,123,91;,
  4;208,246,247,207;,
  4;248,247,246,245;,
  4;248,245,91,141;,
  4;221,244,246,208;,
  4;242,225,123,241;,
  4;244,221,249,243;,
  4;217,216,214,251;,
  4;218,254,203,202;,
  4;220,255,249,221;,
  4;251,256,219,217;,
  4;219,256,255,220;,
  4;258,260,259,257;,
  4;195,194,262,261;,
  4;262,194,191,263;,
  4;233,173,195,261;,
  4;261,264,231,233;,
  4;121,231,264,215;,
  3;265,264,261;,
  4;209,266,191,192;,
  4;266,265,263,191;,
  4;266,209,213,267;,
  4;212,250,250,213;,
  4;268,251,214,215;,
  4;215,264,265,268;,
  4;265,266,267,268;,
  4;250,250,252,333;,
  4;268,260,256,251;,
  4;252,259,260,268;,
  4;261,262,263,265;,
  4;269,199,197,270;,
  4;201,199,269,271;,
  4;272,271,269,270;,
  4;218,201,271,272;,
  4;273,274,243,249;,
  4;273,258,272,275;,
  4;254,218,272,258;,
  4;249,255,258,273;,
  3;257,253,258;,
  3;253,254,258;,
  4;260,258,255,256;,
  3;270,275,272;,
  4;276,279,278,277;,
  4;186,184,181,280;,
  4;277,189,188,276;,
  4;189,277,182,183;,
  4;226,225,276,229;,
  4;188,180,229,276;,
  4;279,276,225,242;,
  3;277,278,280;,
  4;242,243,274,279;,
  4;187,186,280,281;,
  4;270,197,187,281;,
  4;282,278,279,274;,
  4;281,280,278,282;,
  4;282,275,270,281;,
  4;275,282,274,273;,
  4;280,181,182,277;,
  4;283,47,3,0;,
  4;70,284,42,67;,
  4;47,285,137,46;,
  4;334,334,335,335;,
  4;335,335,336,336;,
  4;36,37,337,130;,
  4;130,337,338,338;,
  4;26,27,148,146;,
  4;146,148,339,339;,
  4;286,88,108,287;,
  4;288,70,71,289;,
  4;207,247,287,108;,
  4;140,139,88,286;,
  4;68,140,289,71;,
  4;41,42,284,290;,
  4;284,292,291,290;,
  4;293,285,47,283;,
  4;288,292,284,70;,
  4;294,136,137,295;,
  4;296,141,136,294;,
  4;286,287,298,297;,
  4;298,287,247,248;,
  4;289,140,286,297;,
  4;297,298,296,294;,
  4;248,141,296,298;,
  4;299,302,301,300;,
  4;295,302,299,303;,
  4;285,293,301,302;,
  4;302,295,137,285;,
  4;289,297,303,288;,
  4;292,288,303,299;,
  4;300,291,292,299;,
  4;303,297,294,295;,
  4;300,301,293,291;,
  4;340,340,291,293;,
  4;5,305,304,4;,
  4;4,304,306,8;,
  4;11,308,307,10;,
  4;21,310,309,20;,
  4;24,311,310,21;,
  4;31,313,312,30;,
  4;34,314,313,31;,
  4;41,316,315,40;,
  4;10,307,317,14;,
  4;14,317,305,5;,
  4;1,319,318,0;,
  4;8,306,319,1;,
  4;290,320,316,41;,
  4;0,318,321,283;,
  4;20,309,308,11;,
  4;40,315,314,34;,
  4;30,312,311,24;,
  4;283,321,320,290;,
  4;322,323,228,230;,
  4;228,323,223,224;,
  4;118,119,127,324;,
  4;126,325,324,127;,
  4;171,325,126,125;,
  4;168,327,170,168;,
  4;329,325,171,330;,
  4;171,115,222,330;,
  4;223,323,330,222;,
  4;330,323,322,328;,
  4;331,239,232,120;,
  4;120,118,324,331;,
  4;325,329,331,324;,
  4;329,326,327,331;,
  4;327,240,239,331;,
  4;328,326,329,330;,
  3;211,192,193;;
 }
 MeshTextureCoords {
  379;
  0.435950;0.594560;,
  0.393770;0.572510;,
  0.387960;0.581680;,
  0.430070;0.599670;,
  0.684680;0.973680;,
  0.641450;0.972570;,
  0.641200;0.975000;,
  0.684360;0.976880;,
  0.684430;0.970560;,
  0.641500;0.970050;,
  0.960660;0.690530;,
  0.965200;0.643560;,
  0.958670;0.643490;,
  0.954230;0.689370;,
  0.970500;0.688840;,
  0.976310;0.642050;,
  0.949370;0.685360;,
  0.951750;0.642200;,
  0.941340;0.642850;,
  0.943830;0.684960;,
  0.938370;0.688760;,
  0.933980;0.645490;,
  0.913590;0.647330;,
  0.919150;0.690390;,
  0.893920;0.644500;,
  0.900580;0.690550;,
  0.894000;0.687000;,
  0.886330;0.641220;,
  0.877960;0.641270;,
  0.888840;0.688080;,
  0.884580;0.692150;,
  0.870660;0.641970;,
  0.851260;0.644520;,
  0.869460;0.691820;,
  0.490160;0.523420;,
  0.461660;0.481710;,
  0.447990;0.494900;,
  0.481110;0.537270;,
  0.475420;0.538340;,
  0.442610;0.500210;,
  0.437230;0.508590;,
  0.471820;0.542760;,
  0.471790;0.550500;,
  0.435750;0.517260;,
  0.426370;0.534770;,
  0.461400;0.565740;,
  0.375730;0.558010;,
  0.369260;0.566740;,
  0.397150;0.567410;,
  0.379660;0.552500;,
  0.617350;0.972270;,
  0.617650;0.974900;,
  0.618000;0.969580;,
  0.962860;0.620330;,
  0.955950;0.620690;,
  0.973620;0.618790;,
  0.949210;0.621580;,
  0.939650;0.622310;,
  0.932710;0.623370;,
  0.913410;0.624610;,
  0.894660;0.622350;,
  0.887220;0.620800;,
  0.879060;0.620670;,
  0.871090;0.620450;,
  0.850860;0.618780;,
  0.440650;0.465900;,
  0.429330;0.482550;,
  0.424880;0.488790;,
  0.419570;0.496830;,
  0.416530;0.504170;,
  0.407330;0.520770;,
  0.385750;0.488020;,
  0.373260;0.497680;,
  0.368880;0.512810;,
  0.395460;0.535810;,
  0.349580;0.522970;,
  0.345200;0.526370;,
  0.340700;0.535130;,
  0.576240;0.974990;,
  0.575780;0.972390;,
  0.576240;0.969690;,
  0.943240;0.581630;,
  0.934580;0.579940;,
  0.929710;0.588640;,
  0.914930;0.583640;,
  0.899760;0.588330;,
  0.895340;0.579420;,
  0.886500;0.580980;,
  0.865250;0.575640;,
  0.880690;0.578630;,
  0.389020;0.465960;,
  0.396030;0.451800;,
  0.387580;0.472330;,
  0.380940;0.479050;,
  0.343520;0.512750;,
  0.336080;0.515610;,
  0.331080;0.523670;,
  0.562210;0.974990;,
  0.561590;0.972450;,
  0.562150;0.969770;,
  0.944280;0.568330;,
  0.948540;0.579290;,
  0.953810;0.577710;,
  0.950140;0.564240;,
  0.963110;0.578400;,
  0.959070;0.564550;,
  0.933090;0.570670;,
  0.941020;0.573370;,
  0.915490;0.568500;,
  0.915240;0.574880;,
  0.897650;0.570210;,
  0.889320;0.573520;,
  0.372120;0.475580;,
  0.379430;0.470970;,
  0.538780;0.970330;,
  0.539170;0.972420;,
  0.544910;0.972440;,
  0.544720;0.970110;,
  0.538660;0.974410;,
  0.544610;0.974650;,
  0.916390;0.553640;,
  0.932110;0.553190;,
  0.931900;0.548300;,
  0.916760;0.548790;,
  0.430070;0.419090;,
  0.413970;0.416410;,
  0.413610;0.422610;,
  0.427670;0.424910;,
  0.643030;0.978030;,
  0.675500;0.978980;,
  0.617620;0.977850;,
  0.584010;0.977990;,
  0.564060;0.977530;,
  0.675730;0.967410;,
  0.643380;0.967020;,
  0.618000;0.966460;,
  0.584250;0.966510;,
  0.564290;0.966930;,
  0.330350;0.502660;,
  0.326340;0.506370;,
  0.321460;0.512000;,
  0.544210;0.967330;,
  0.544000;0.977210;,
  0.954880;0.550540;,
  0.948200;0.550950;,
  0.943270;0.551800;,
  0.932880;0.565710;,
  0.915700;0.563890;,
  0.477260;0.538040;,
  0.444710;0.498440;,
  0.471920;0.545340;,
  0.436630;0.512180;,
  0.426400;0.486560;,
  0.418270;0.499750;,
  0.382350;0.549510;,
  0.352440;0.520930;,
  0.387810;0.469870;,
  0.382780;0.483290;,
  0.368760;0.494800;,
  0.347490;0.512630;,
  0.950880;0.686600;,
  0.954600;0.642910;,
  0.942000;0.686410;,
  0.938410;0.643950;,
  0.896260;0.688350;,
  0.889270;0.642430;,
  0.887630;0.689300;,
  0.875320;0.641720;,
  0.951880;0.621210;,
  0.936990;0.622680;,
  0.890030;0.621220;,
  0.876200;0.620500;,
  0.945260;0.580370;,
  0.932100;0.583670;,
  0.897760;0.583080;,
  0.884470;0.579830;,
  0.932920;0.568190;,
  0.941890;0.571240;,
  0.915560;0.566250;,
  0.915130;0.578320;,
  0.898350;0.565190;,
  0.898050;0.567740;,
  0.886190;0.568130;,
  0.888590;0.571410;,
  0.537040;0.977680;,
  0.417620;0.387480;,
  0.417470;0.388830;,
  0.439430;0.391560;,
  0.440000;0.390370;,
  0.812830;0.033980;,
  0.811720;0.029550;,
  0.807600;0.034240;,
  0.809730;0.037510;,
  0.811040;0.028640;,
  0.806610;0.033500;,
  0.819490;0.029150;,
  0.819120;0.027960;,
  0.841570;0.029960;,
  0.841630;0.028660;,
  0.809330;0.058990;,
  0.808000;0.046790;,
  0.806760;0.046230;,
  0.807940;0.055530;,
  0.390890;0.392170;,
  0.393650;0.387790;,
  0.392950;0.386810;,
  0.389730;0.391420;,
  0.398580;0.387830;,
  0.398320;0.386570;,
  0.860420;0.031730;,
  0.860870;0.030600;,
  0.865390;0.032460;,
  0.866290;0.031710;,
  0.867540;0.037190;,
  0.868870;0.036730;,
  0.871220;0.561190;,
  0.376650;0.465040;,
  0.380260;0.448150;,
  0.367490;0.473140;,
  0.369820;0.474400;,
  0.378100;0.469030;,
  0.384740;0.388670;,
  0.382460;0.402790;,
  0.387590;0.404180;,
  0.382560;0.413230;,
  0.385890;0.413480;,
  0.398560;0.416540;,
  0.399570;0.422770;,
  0.900800;0.552620;,
  0.901890;0.547700;,
  0.889440;0.549460;,
  0.867610;0.049890;,
  0.869070;0.049470;,
  0.877270;0.547210;,
  0.359700;0.456470;,
  0.364870;0.444990;,
  0.355830;0.467990;,
  0.535540;0.972390;,
  0.535850;0.974080;,
  0.535930;0.970620;,
  0.326070;0.499870;,
  0.322510;0.503130;,
  0.318310;0.507750;,
  0.810710;0.066870;,
  0.807460;0.063410;,
  0.803380;0.067000;,
  0.805280;0.069220;,
  0.537210;0.966900;,
  0.533830;0.969330;,
  0.805110;0.059500;,
  0.803030;0.060050;,
  0.434210;0.407560;,
  0.415190;0.404830;,
  0.416750;0.393210;,
  0.437790;0.395940;,
  0.445230;0.397450;,
  0.447030;0.393260;,
  0.447850;0.392390;,
  0.450350;0.398620;,
  0.451430;0.397970;,
  0.447740;0.401480;,
  0.445760;0.410770;,
  0.448050;0.410870;,
  0.449340;0.410430;,
  0.337290;0.494800;,
  0.347530;0.481720;,
  0.343310;0.479230;,
  0.333530;0.491500;,
  0.347360;0.502330;,
  0.356110;0.487340;,
  0.358220;0.488600;,
  0.349090;0.504470;,
  0.351110;0.466120;,
  0.891310;0.544990;,
  0.868440;0.063130;,
  0.869230;0.058700;,
  0.354910;0.455550;,
  0.880440;0.540900;,
  0.357820;0.443210;,
  0.866590;0.064490;,
  0.876750;0.069650;,
  0.878290;0.066780;,
  0.874530;0.063790;,
  0.393720;0.392200;,
  0.398550;0.392300;,
  0.391560;0.395520;,
  0.398270;0.404410;,
  0.390370;0.405120;,
  0.388890;0.404840;,
  0.385870;0.418040;,
  0.381660;0.416930;,
  0.387530;0.419610;,
  0.389090;0.424560;,
  0.379900;0.417850;,
  0.376790;0.423560;,
  0.378100;0.427010;,
  0.375620;0.420480;,
  0.864590;0.036710;,
  0.859770;0.036130;,
  0.866280;0.040320;,
  0.866020;0.049910;,
  0.856060;0.060100;,
  0.840890;0.057810;,
  0.840270;0.064030;,
  0.854170;0.066140;,
  0.858250;0.048140;,
  0.864410;0.069190;,
  0.872920;0.062610;,
  0.875610;0.073140;,
  0.811870;0.060980;,
  0.824630;0.057690;,
  0.822170;0.045740;,
  0.810260;0.047040;,
  0.820380;0.033740;,
  0.815180;0.065740;,
  0.825870;0.064300;,
  0.841610;0.034410;,
  0.841420;0.046130;,
  0.439170;0.590820;,
  0.413120;0.550320;,
  0.399080;0.563950;,
  0.365780;0.492950;,
  0.360190;0.489860;,
  0.392320;0.538780;,
  0.363460;0.511820;,
  0.448810;0.579220;,
  0.409040;0.552820;,
  0.444120;0.580320;,
  0.439210;0.587420;,
  0.354800;0.519970;,
  0.384250;0.547430;,
  0.349800;0.513160;,
  0.351210;0.506010;,
  0.359010;0.511680;,
  0.406010;0.554160;,
  0.400280;0.561290;,
  0.438730;0.584820;,
  0.441560;0.581310;,
  0.390460;0.540570;,
  0.708040;0.977620;,
  0.708650;0.974860;,
  0.709260;0.972030;,
  0.950420;0.714760;,
  0.956810;0.716660;,
  0.919120;0.710700;,
  0.935760;0.711770;,
  0.902920;0.712210;,
  0.872150;0.719350;,
  0.888580;0.715250;,
  0.502210;0.554020;,
  0.510040;0.540630;,
  0.484300;0.581190;,
  0.494020;0.567170;,
  0.966480;0.719350;,
  0.707550;0.980350;,
  0.456590;0.615890;,
  0.461600;0.609700;,
  0.709810;0.969110;,
  0.473850;0.595160;,
  0.464720;0.606010;,
  0.799450;0.063180;,
  0.801110;0.067060;,
  0.532600;0.972300;,
  0.943490;0.546810;,
  0.947780;0.546060;,
  0.953150;0.545710;,
  0.444950;0.422620;,
  0.446770;0.419360;,
  0.445690;0.427140;,
  0.442550;0.430180;,
  0.446950;0.433050;,
  0.449010;0.431030;,
  0.533740;0.975240;,
  0.451210;0.431390;,
  0.453640;0.427930;,
  0.450380;0.424240;,
  0.442250;0.424260;,
  0.438650;0.428440;,
  0.448530;0.423410;;
 }
}
