xof 0302txt 0064
template Header {
 <3D82AB43-62DA-11cf-AB39-0020AF71E433>
 WORD major;
 WORD minor;
 DWORD flags;
}

template Vector {
 <3D82AB5E-62DA-11cf-AB39-0020AF71E433>
 FLOAT x;
 FLOAT y;
 FLOAT z;
}

template Coords2d {
 <F6F23F44-7686-11cf-8F52-0040333594A3>
 FLOAT u;
 FLOAT v;
}

template Matrix4x4 {
 <F6F23F45-7686-11cf-8F52-0040333594A3>
 array FLOAT matrix[16];
}

template ColorRGBA {
 <35FF44E0-6C7C-11cf-8F52-0040333594A3>
 FLOAT red;
 FLOAT green;
 FLOAT blue;
 FLOAT alpha;
}

template ColorRGB {
 <D3E16E81-7835-11cf-8F52-0040333594A3>
 FLOAT red;
 FLOAT green;
 FLOAT blue;
}

template IndexedColor {
 <1630B820-7842-11cf-8F52-0040333594A3>
 DWORD index;
 ColorRGBA indexColor;
}

template Boolean {
 <4885AE61-78E8-11cf-8F52-0040333594A3>
 WORD truefalse;
}

template Boolean2d {
 <4885AE63-78E8-11cf-8F52-0040333594A3>
 Boolean u;
 Boolean v;
}

template MaterialWrap {
 <4885AE60-78E8-11cf-8F52-0040333594A3>
 Boolean u;
 Boolean v;
}

template TextureFilename {
 <A42790E1-7810-11cf-8F52-0040333594A3>
 STRING filename;
}

template Material {
 <3D82AB4D-62DA-11cf-AB39-0020AF71E433>
 ColorRGBA faceColor;
 FLOAT power;
 ColorRGB specularColor;
 ColorRGB emissiveColor;
 [...]
}

template MeshFace {
 <3D82AB5F-62DA-11cf-AB39-0020AF71E433>
 DWORD nFaceVertexIndices;
 array DWORD faceVertexIndices[nFaceVertexIndices];
}

template MeshFaceWraps {
 <4885AE62-78E8-11cf-8F52-0040333594A3>
 DWORD nFaceWrapValues;
 Boolean2d faceWrapValues;
}

template MeshTextureCoords {
 <F6F23F40-7686-11cf-8F52-0040333594A3>
 DWORD nTextureCoords;
 array Coords2d textureCoords[nTextureCoords];
}

template MeshMaterialList {
 <F6F23F42-7686-11cf-8F52-0040333594A3>
 DWORD nMaterials;
 DWORD nFaceIndexes;
 array DWORD faceIndexes[nFaceIndexes];
 [Material]
}

template MeshNormals {
 <F6F23F43-7686-11cf-8F52-0040333594A3>
 DWORD nNormals;
 array Vector normals[nNormals];
 DWORD nFaceNormals;
 array MeshFace faceNormals[nFaceNormals];
}

template MeshVertexColors {
 <1630B821-7842-11cf-8F52-0040333594A3>
 DWORD nVertexColors;
 array IndexedColor vertexColors[nVertexColors];
}

template Mesh {
 <3D82AB44-62DA-11cf-AB39-0020AF71E433>
 DWORD nVertices;
 array Vector vertices[nVertices];
 DWORD nFaces;
 array MeshFace faces[nFaces];
 [...]
}

Header{
1;
0;
1;
}

Mesh {
 325;
 0.99062;-2.45382;1.58326;,
 1.66002;-2.45352;0.82127;,
 1.58245;-1.83450;0.74408;,
 0.94087;-1.83450;1.44542;,
 1.53073;-1.33914;0.72040;,
 0.91028;-1.33914;1.36894;,
 -0.94842;-2.45382;1.58463;,
 -0.22562;-2.46484;1.89955;,
 -0.22190;-1.86820;1.75569;,
 -0.91219;-1.83450;1.44671;,
 -0.15871;-1.37740;1.65397;,
 -0.88174;-1.33914;1.37015;,
 -1.62232;-2.45352;0.82127;,
 -1.55805;-1.83450;0.74408;,
 -1.50634;-1.33914;0.72040;,
 1.05831;-3.33368;1.79284;,
 1.75481;-3.33249;0.98969;,
 1.17018;-4.80266;2.09100;,
 1.88822;-4.77434;1.25378;,
 -0.97593;-3.33369;1.79426;,
 -0.21796;-3.33678;2.11370;,
 -0.96551;-4.83865;2.09656;,
 -0.17037;-4.82379;2.42123;,
 -1.67716;-3.33249;0.98969;,
 -1.69119;-4.81925;1.25895;,
 -2.45210;-8.10374;-3.06964;,
 -2.48621;-7.79484;-3.11725;,
 -2.75569;-7.86137;-4.30841;,
 -2.72469;-8.10655;-4.27793;,
 -2.81473;-7.94634;-5.62650;,
 -2.79846;-8.12273;-5.61041;,
 -2.29807;-7.08016;-3.18924;,
 -1.78298;-4.53060;-2.65507;,
 -2.07773;-5.51886;-4.36287;,
 -2.56468;-7.22113;-4.32232;,
 -2.11539;-6.01239;-5.69488;,
 -2.61884;-7.40142;-5.58578;,
 -1.50028;-4.44559;-3.22929;,
 -1.70956;-5.24336;-4.61815;,
 -1.71947;-5.73443;-5.81814;,
 -0.72211;-5.03704;-5.03706;,
 -0.68813;-5.48069;-6.01055;,
 -0.64386;-4.33091;-3.86836;,
 -2.44506;-8.10379;0.66514;,
 -2.43507;-7.76378;0.59355;,
 -2.21706;-7.77263;-0.97411;,
 -2.23820;-8.11176;-0.89930;,
 -1.98660;-7.77333;-1.98599;,
 -1.98039;-8.10777;-1.92256;,
 -1.78779;-7.03070;-2.09321;,
 -1.86335;-4.63712;-1.97718;,
 -1.95337;-7.02719;-1.10624;,
 -1.87367;-4.73145;-1.28686;,
 -1.85387;-7.02102;1.70866;,
 -0.99892;-7.02704;2.53761;,
 -1.98636;-4.80054;-0.06655;,
 -2.17717;-7.02169;0.40621;,
 1.97526;-4.58156;-2.52467;,
 2.96103;-7.08016;-3.18924;,
 3.21334;-7.22113;-4.32232;,
 2.38642;-5.57238;-4.30134;,
 3.28619;-7.40120;-5.58578;,
 2.49712;-6.02576;-5.67947;,
 3.21156;-7.78656;-3.11652;,
 3.21316;-8.09537;-3.07072;,
 3.43887;-8.09954;-4.28074;,
 3.44713;-7.85457;-4.30939;,
 3.47638;-8.11448;-5.61103;,
 3.49255;-7.93964;-5.62568;,
 2.92696;-7.76455;-0.95886;,
 2.93497;-8.10385;-0.88473;,
 2.73402;-8.09953;-1.91586;,
 2.73005;-7.76507;-1.97810;,
 2.55465;-8.15654;-8.02735;,
 2.63965;-8.05415;-8.03391;,
 -1.87907;-8.06842;-8.03948;,
 -1.79638;-8.17521;-8.03253;,
 2.46933;-7.64252;-8.36605;,
 1.90681;-6.79279;-8.44308;,
 2.55573;-7.96201;-8.16175;,
 2.35522;-8.19727;-8.17323;,
 1.88994;-7.74412;-9.26367;,
 2.11908;-7.59422;-9.18451;,
 -1.08517;-7.15993;-9.59337;,
 -0.89327;-7.24692;-9.71568;,
 -1.09086;-7.74644;-9.26367;,
 -1.33297;-7.59597;-9.18451;,
 2.54431;-8.08901;1.97782;,
 2.51245;-7.74827;1.95617;,
 1.63597;-7.75868;2.85733;,
 1.67976;-8.10014;2.86980;,
 -0.00657;-7.77057;3.20767;,
 0.04211;-8.11209;3.22782;,
 0.67504;-8.10919;3.21671;,
 0.62696;-7.76755;3.19900;,
 2.94028;-8.09365;0.67781;,
 2.90925;-7.75315;0.60841;,
 1.44686;-7.02702;2.53610;,
 2.24627;-7.02102;1.70866;,
 -0.08626;-7.01061;2.87223;,
 3.29383;-7.76752;-4.27453;,
 3.34490;-7.86216;-5.55156;,
 3.06092;-7.69314;-3.12056;,
 2.55573;-7.96201;-8.16175;,
 2.11908;-7.59422;-9.18451;,
 -1.69847;-7.64391;-8.36605;,
 -1.33297;-7.59597;-9.18451;,
 -1.79686;-7.98044;-8.14005;,
 -1.35564;-6.79243;-8.44381;,
 -1.06915;-6.84221;-9.01762;,
 -2.66940;-7.86591;-5.55217;,
 -2.60903;-7.77127;-4.27418;,
 -2.34553;-7.69773;-3.12117;,
 -1.86153;-7.67414;-2.01714;,
 -2.07234;-7.67400;-1.02733;,
 -2.28747;-7.66704;0.49196;,
 -1.93396;-7.66578;1.79188;,
 -1.00116;-7.67325;2.64776;,
 0.03372;-7.50708;2.91760;,
 0.00187;-7.67501;2.97731;,
 1.55589;-7.66676;2.64654;,
 2.38463;-7.65799;1.79281;,
 2.60988;-7.02169;0.40621;,
 2.21654;-4.77179;-0.07026;,
 2.75988;-7.66107;0.50047;,
 2.66203;-7.02719;-1.10624;,
 2.78036;-7.66949;-1.01878;,
 2.59888;-7.66954;-2.01262;,
 2.50184;-7.03070;-2.09321;,
 2.18472;-4.68359;-1.88844;,
 -2.34553;-7.69773;-3.12117;,
 -2.60903;-7.77127;-4.27418;,
 -2.66940;-7.86591;-5.55217;,
 -2.28747;-7.66704;0.49196;,
 -2.07234;-7.67400;-1.02733;,
 -1.86153;-7.67414;-2.01714;,
 3.34490;-7.86216;-5.55156;,
 3.29383;-7.76752;-4.27453;,
 3.06092;-7.69314;-3.12056;,
 2.59888;-7.66954;-2.01262;,
 2.78036;-7.66949;-1.01878;,
 -1.79686;-7.98044;-8.14005;,
 2.38463;-7.65799;1.79281;,
 1.55589;-7.66676;2.64654;,
 0.60161;-7.67328;2.96944;,
 0.00187;-7.67501;2.97731;,
 0.55011;-7.50682;2.90822;,
 0.03372;-7.50708;2.91760;,
 0.00187;-7.67501;2.97731;,
 0.60161;-7.67328;2.96944;,
 -1.00116;-7.67325;2.64776;,
 -1.06607;-7.77023;2.86010;,
 -1.93396;-7.66578;1.79188;,
 -2.05694;-7.76211;1.95590;,
 2.75988;-7.66107;0.50047;,
 -0.58160;-2.42392;-2.47034;,
 -0.56165;-1.84214;-2.11932;,
 -0.27812;-1.84778;-2.26583;,
 -0.28528;-2.41912;-2.60092;,
 -0.54297;-1.34105;-1.90578;,
 -0.20675;-1.35061;-2.02856;,
 -1.26889;-1.83832;-1.60481;,
 -1.22688;-1.34009;-1.43570;,
 -1.32559;-2.43236;-1.91086;,
 -1.38365;-3.22876;-2.37802;,
 -0.59161;-3.17587;-2.95395;,
 -0.27404;-4.27912;-3.97316;,
 -0.27099;-4.96343;-5.09628;,
 -0.28512;-3.15794;-3.07886;,
 -0.23209;-5.40712;-6.04653;,
 1.60585;-4.47854;-3.14408;,
 1.44284;-3.22603;-2.34092;,
 1.77196;-3.26402;-1.87421;,
 1.89605;-5.27904;-4.57713;,
 0.94400;-5.04091;-5.03347;,
 0.78330;-4.33559;-3.86377;,
 1.98310;-5.74333;-5.80779;,
 0.99288;-5.48416;-6.00824;,
 0.60250;-4.97058;-5.09162;,
 0.65025;-5.41327;-6.04402;,
 0.48861;-4.28544;-3.96415;,
 0.40785;-3.16072;-3.07218;,
 0.68286;-3.17869;-2.95729;,
 0.64847;-2.42462;-2.47680;,
 1.35868;-2.43168;-1.91042;,
 0.37903;-2.41990;-2.59571;,
 0.35250;-1.84784;-2.25768;,
 0.61472;-1.84214;-2.12088;,
 1.29328;-1.83832;-1.61189;,
 0.58963;-1.34105;-1.90066;,
 1.25126;-1.34009;-1.43747;,
 0.27064;-1.35060;-2.01799;,
 0.29488;-2.46506;1.89001;,
 0.27667;-1.86827;1.74660;,
 0.21384;-1.37742;1.64654;,
 0.32865;-3.33731;2.10393;,
 0.40537;-4.81414;2.40998;,
 0.57568;-7.01110;2.86164;,
 1.93212;-2.45370;-0.19551;,
 1.84016;-1.83450;-0.16184;,
 1.78011;-1.33914;-0.11597;,
 1.75706;-1.83450;-0.74161;,
 1.69605;-1.83450;-0.98378;,
 1.64123;-1.33914;-0.87347;,
 1.70055;-1.33914;-0.64846;,
 1.56576;-1.83546;-1.25823;,
 1.51480;-1.33938;-1.12422;,
 1.79245;-2.44574;-1.17789;,
 1.65129;-2.43760;-1.50156;,
 1.85685;-2.45249;-0.88686;,
 2.04784;-3.33321;-0.17415;,
 2.00553;-3.32839;-1.07419;,
 2.27323;-4.75782;-1.26298;,
 1.93548;-3.30136;-1.46606;,
 -1.89134;-2.45355;-0.19423;,
 -1.81584;-1.83450;-0.16147;,
 -1.75551;-1.33914;-0.11674;,
 -1.67486;-1.33914;-0.65314;,
 -1.73310;-1.83450;-0.73936;,
 -1.80097;-2.45190;-0.88203;,
 -1.54145;-1.83546;-1.25608;,
 -1.49020;-1.33938;-1.12455;,
 -1.61297;-2.43905;-1.51473;,
 -1.95691;-3.33262;-0.17323;,
 -1.84925;-3.32601;-1.08015;,
 -1.69087;-3.26982;-1.93993;,
 -1.80889;-3.30357;-1.50828;,
 -1.74350;-2.44629;-1.18424;,
 -1.67195;-1.83450;-0.98228;,
 -1.61597;-1.33914;-0.87659;,
 -0.89327;-7.24692;-9.71568;,
 0.08268;-7.25300;-9.76834;,
 0.12276;-7.72908;-9.37585;,
 -1.09086;-7.74644;-9.26367;,
 -2.09950;-8.21199;-0.93025;,
 -2.30246;-8.20616;0.58555;,
 2.80759;-8.20058;0.59236;,
 -2.30246;-8.20616;0.58555;,
 -2.09950;-8.21199;-0.93025;,
 2.79481;-8.20761;-0.92222;,
 2.80759;-8.20058;0.59236;,
 2.79481;-8.20761;-0.92222;,
 -2.29713;-8.19643;-3.05863;,
 -1.85159;-8.20602;-1.93473;,
 -1.85159;-8.20602;-1.93473;,
 2.60613;-8.20145;-1.93114;,
 2.60613;-8.20145;-1.93114;,
 3.06337;-8.19177;-3.05944;,
 -2.29713;-8.19643;-3.05863;,
 3.06337;-8.19177;-3.05944;,
 1.53576;-6.63664;-8.44555;,
 0.89180;-6.49704;-8.45118;,
 1.66396;-6.84375;-9.01517;,
 0.63111;-6.49895;-8.59146;,
 1.36231;-6.73777;-8.95368;,
 0.89727;-6.65988;-8.88111;,
 0.89921;-6.65898;-9.03735;,
 0.69958;-6.64875;-8.91887;,
 -0.87189;-6.73015;-9.20696;,
 -1.08517;-7.15993;-9.59337;,
 -1.09612;-6.63520;-8.44848;,
 -0.37426;-6.49459;-8.45654;,
 0.06768;-6.49716;-8.59565;,
 -0.87394;-6.73159;-8.96347;,
 -0.73924;-6.66812;-9.10733;,
 -0.12147;-6.64043;-8.93271;,
 -0.42949;-6.64406;-9.06008;,
 -0.38301;-6.65164;-8.89535;,
 0.69958;-6.64875;-8.91887;,
 0.89921;-6.65898;-9.03735;,
 0.63111;-6.49895;-8.59146;,
 -0.65129;-6.57316;-9.19497;,
 -0.70564;-6.56070;-9.30166;,
 1.51349;0.01887;0.71250;,
 0.90008;0.01887;1.34345;,
 -0.18089;0.01887;1.59140;,
 -0.87159;0.01887;1.34464;,
 -1.48910;0.01887;0.71250;,
 -0.53674;0.01887;-1.83461;,
 -0.22054;0.01887;-1.92803;,
 0.58127;0.01887;-1.82726;,
 1.23726;0.01887;-1.37933;,
 0.28017;0.01887;-1.91884;,
 0.28017;0.01887;-1.91884;,
 0.27064;-1.35060;-2.01799;,
 0.23397;0.01887;1.58544;,
 -0.18089;0.01887;1.59140;,
 -0.15871;-1.37740;1.65397;,
 1.76010;-0.83114;-0.10067;,
 1.62295;0.01887;-0.83670;,
 1.68171;0.01887;-0.61741;,
 1.49781;0.01887;-1.07954;,
 -1.73540;0.01887;-0.10184;,
 -1.65545;0.01887;-0.62440;,
 -1.21287;0.01887;-1.37933;,
 -1.47311;0.01887;-1.08071;,
 -1.59732;0.01887;-0.84136;,
 -1.58440;-8.21168;-8.17679;,
 0.53744;-8.12260;-8.78890;,
 -1.58440;-8.21168;-8.17679;,
 3.28074;-8.18324;-4.23423;,
 -2.56277;-8.18716;-4.23247;,
 -2.72350;-8.19373;-5.60924;,
 -2.56277;-8.18716;-4.23247;,
 3.28074;-8.18324;-4.23423;,
 3.40142;-8.18854;-5.60976;,
 2.35522;-8.19727;-8.17323;,
 0.76814;-7.72881;-9.37582;,
 1.88994;-7.74412;-9.26367;,
 -2.72350;-8.19373;-5.60924;,
 3.40142;-8.18854;-5.60976;,
 -1.02432;-8.11113;2.88140;,
 -2.05335;-8.10203;1.98467;,
 0.06536;-8.21605;3.00727;,
 0.66573;-8.21440;2.99744;,
 -0.94811;-8.21353;2.67695;,
 1.61767;-8.20747;2.66884;,
 2.43437;-8.19762;1.82547;,
 -1.93174;-8.20477;1.83007;,
 2.43437;-8.19762;1.82547;,
 -1.93174;-8.20477;1.83007;,
 1.61767;-8.20747;2.66884;,
 -0.94811;-8.21353;2.67695;,
 0.06536;-8.21605;3.00727;,
 0.66573;-8.21440;2.99744;;
 
 286;
 4;0,1,2,3;,
 4;4,5,3,2;,
 4;6,7,8,9;,
 4;10,11,9,8;,
 4;12,6,9,13;,
 4;11,14,13,9;,
 4;0,15,16,1;,
 4;16,15,17,18;,
 4;6,19,20,7;,
 4;19,21,22,20;,
 4;12,23,19,6;,
 4;23,24,21,19;,
 4;25,26,27,28;,
 4;29,30,28,27;,
 4;31,32,33,34;,
 4;35,36,34,33;,
 4;32,37,38,33;,
 4;33,38,39,35;,
 4;38,40,41,39;,
 4;42,40,38,37;,
 4;43,44,45,46;,
 4;45,47,48,46;,
 4;25,48,47,26;,
 4;31,49,50,32;,
 4;51,52,50,49;,
 4;24,53,54,21;,
 4;24,55,56,53;,
 4;55,52,51,56;,
 4;57,58,59,60;,
 4;61,62,60,59;,
 4;63,64,65,66;,
 4;67,68,66,65;,
 4;69,70,71,72;,
 4;63,72,71,64;,
 4;73,74,68,67;,
 4;75,76,30,29;,
 4;77,78,62,61;,
 4;79,80,81,82;,
 4;83,84,85,86;,
 4;87,88,89,90;,
 4;91,92,93,94;,
 4;87,95,96,88;,
 4;17,97,98,18;,
 4;99,22,21,54;,
 4;95,70,69,96;,
 4;59,100,101,61;,
 4;58,102,100,59;,
 4;61,101,103,77;,
 3;104,77,103;,
 3;105,106,107;,
 4;108,109,106,105;,
 4;36,105,107,110;,
 4;35,108,105,36;,
 4;34,111,112,31;,
 4;36,110,111,34;,
 4;49,113,114,51;,
 4;31,112,113,49;,
 4;51,114,115,56;,
 4;56,115,116,53;,
 4;53,116,117,54;,
 3;118,99,119;,
 3;119,99,117;,
 3;99,54,117;,
 4;97,120,121,98;,
 4;98,122,123,18;,
 4;122,98,121,124;,
 4;125,122,124,126;,
 4;125,126,127,128;,
 4;57,129,128,58;,
 4;128,127,102,58;,
 4;130,131,27,26;,
 4;27,131,132,29;,
 4;44,133,134,45;,
 4;134,135,47,45;,
 4;47,135,130,26;,
 4;136,137,66,68;,
 4;66,137,138,63;,
 4;138,139,72,63;,
 4;72,139,140,69;,
 4;74,79,136,68;,
 4;73,80,79,74;,
 4;29,132,141,75;,
 4;88,142,143,89;,
 4;94,144,145,91;,
 4;146,147,148,149;,
 4;91,145,150,151;,
 4;151,150,152,153;,
 4;96,154,142,88;,
 4;153,152,133,44;,
 4;69,140,154,96;,
 4;155,156,157,158;,
 4;157,156,159,160;,
 4;156,161,162,159;,
 4;155,163,161,156;,
 4;42,37,164,165;,
 4;166,167,40,42;,
 4;42,165,168,166;,
 4;41,40,167,169;,
 4;168,165,155,158;,
 4;165,164,163,155;,
 4;170,171,172,57;,
 4;173,174,175,170;,
 4;57,60,173,170;,
 4;176,177,174,173;,
 4;176,173,60,62;,
 4;178,174,177,179;,
 4;178,180,175,174;,
 4;180,181,182,175;,
 4;182,171,170,175;,
 4;183,184,171,182;,
 4;183,182,181,185;,
 4;186,187,183,185;,
 4;187,188,184,183;,
 4;189,190,188,187;,
 4;189,187,186,191;,
 4;192,0,3,193;,
 4;5,194,193,3;,
 4;192,195,15,0;,
 4;195,196,17,15;,
 4;17,196,197,97;,
 3;120,97,149;,
 3;97,197,149;,
 3;197,146,149;,
 4;94,89,143,144;,
 4;89,94,93,90;,
 4;1,198,199,2;,
 4;200,4,2,199;,
 4;201,202,203,204;,
 4;203,202,205,206;,
 4;205,202,207,208;,
 4;207,202,201,209;,
 4;209,198,210,211;,
 4;210,123,212,211;,
 4;1,16,210,198;,
 4;210,16,18,123;,
 4;212,125,128,129;,
 4;123,122,125,212;,
 4;129,213,211,212;,
 4;57,172,213,129;,
 4;184,188,205,208;,
 4;205,188,190,206;,
 4;172,171,184,208;,
 4;211,213,207,209;,
 4;207,213,172,208;,
 4;209,201,199,198;,
 4;204,200,199,201;,
 4;214,12,13,215;,
 4;14,216,215,13;,
 4;216,217,218,215;,
 4;219,214,215,218;,
 4;162,161,220,221;,
 4;220,161,163,222;,
 4;214,223,23,12;,
 4;223,55,24,23;,
 4;219,224,223,214;,
 4;224,52,55,223;,
 4;32,225,164,37;,
 4;163,164,225,222;,
 4;50,226,225,32;,
 4;224,226,50,52;,
 4;225,226,227,222;,
 4;227,226,224,219;,
 4;218,228,227,219;,
 4;227,228,220,222;,
 4;220,228,229,221;,
 4;229,228,218,217;,
 4;230,231,232,233;,
 4;46,234,235,43;,
 4;236,237,238,239;,
 4;95,240,241,70;,
 4;242,243,48,25;,
 4;48,243,234,46;,
 4;238,244,245,239;,
 4;241,246,71,70;,
 4;71,246,247,64;,
 4;244,248,249,245;,
 4;78,250,176,62;,
 4;250,251,177,176;,
 4;77,104,252,78;,
 4;253,179,177,251;,
 4;252,254,250,78;,
 4;254,255,251,250;,
 3;256,257,255;,
 4;258,259,106,109;,
 4;35,39,260,108;,
 4;41,261,260,39;,
 4;169,262,261,41;,
 4;260,263,109,108;,
 4;109,263,264,258;,
 3;265,266,267;,
 3;267,266,263;,
 3;266,264,263;,
 4;261,267,263,260;,
 4;251,255,257,253;,
 4;266,265,268,269;,
 4;270,268,265,262;,
 4;264,271,272,258;,
 4;265,267,261,262;,
 4;4,273,274,5;,
 4;10,275,276,11;,
 4;11,276,277,14;,
 4;159,278,279,160;,
 4;280,281,190,189;,
 4;282,280,189,191;,
 4;160,279,283,284;,
 4;5,274,285,194;,
 4;194,285,286,287;,
 4;200,288,273,4;,
 4;203,289,290,204;,
 4;291,289,203,206;,
 4;190,281,291,206;,
 4;204,290,288,200;,
 4;14,277,292,216;,
 4;216,292,293,217;,
 4;278,159,162,294;,
 4;295,294,162,221;,
 4;229,296,295,221;,
 4;293,296,229,217;,
 4;141,86,85,297;,
 4;75,141,297,76;,
 4;298,299,233,232;,
 4;300,249,248,301;,
 4;302,303,28,30;,
 4;303,242,25,28;,
 4;304,65,64,247;,
 4;65,304,305,67;,
 4;305,80,73,67;,
 4;76,297,302,30;,
 4;306,298,307,308;,
 4;300,301,309,310;,
 4;299,306,310,309;,
 3;298,306,299;,
 4;91,151,311,92;,
 4;151,153,312,311;,
 4;153,44,43,312;,
 4;313,314,93,92;,
 4;315,313,92,311;,
 4;314,316,90,93;,
 4;316,317,87,90;,
 4;318,315,311,312;,
 4;87,317,240,95;,
 4;319,320,237,236;,
 4;235,318,312,43;,
 4;321,322,320,319;,
 4;323,322,321,324;,
 3;258,84,259;,
 3;84,258,272;,
 3;272,266,84;,
 3;266,267,84;,
 3;267,231,84;,
 3;232,307,298;,
 3;231,307,232;,
 3;231,266,269;,
 3;269,307,231;,
 3;269,254,307;,
 3;256,255,254;,
 3;307,254,252;,
 3;307,252,81;,
 3;252,104,81;,
 3;273,288,290;,
 3;270,262,179;,
 3;179,262,169;,
 3;169,167,179;,
 3;167,178,179;,
 3;167,166,178;,
 3;166,180,178;,
 3;181,180,166;,
 3;166,168,181;,
 3;168,185,181;,
 3;168,158,185;,
 3;158,186,185;,
 3;158,157,186;,
 3;157,191,186;,
 3;157,160,191;,
 3;197,147,146;,
 3;99,147,197;,
 3;22,99,197;,
 3;197,196,22;,
 3;196,20,22;,
 3;196,195,20;,
 3;195,7,20;,
 3;195,192,7;,
 3;192,8,7;,
 3;192,193,8;,
 3;193,287,8;,
 3;194,287,193;;
 
 MeshMaterialList {
  8;
  286;
  0,
  0,
  0,
  0,
  0,
  0,
  0,
  0,
  0,
  0,
  0,
  0,
  0,
  0,
  0,
  0,
  0,
  0,
  0,
  0,
  0,
  0,
  0,
  0,
  0,
  0,
  0,
  0,
  0,
  0,
  0,
  0,
  0,
  0,
  0,
  0,
  0,
  0,
  0,
  0,
  0,
  0,
  0,
  0,
  0,
  0,
  0,
  0,
  0,
  0,
  0,
  0,
  0,
  0,
  0,
  0,
  0,
  0,
  0,
  0,
  0,
  0,
  0,
  0,
  0,
  0,
  0,
  0,
  0,
  0,
  0,
  0,
  0,
  0,
  0,
  0,
  0,
  0,
  0,
  0,
  0,
  0,
  0,
  0,
  0,
  0,
  0,
  0,
  0,
  0,
  0,
  0,
  0,
  0,
  0,
  0,
  0,
  0,
  0,
  0,
  0,
  0,
  0,
  0,
  0,
  0,
  0,
  0,
  0,
  0,
  0,
  0,
  0,
  0,
  0,
  0,
  0,
  0,
  0,
  0,
  0,
  0,
  0,
  0,
  0,
  0,
  0,
  0,
  0,
  0,
  0,
  0,
  0,
  0,
  0,
  0,
  0,
  0,
  0,
  0,
  0,
  0,
  0,
  0,
  0,
  0,
  0,
  0,
  0,
  0,
  0,
  0,
  0,
  0,
  0,
  0,
  0,
  0,
  0,
  0,
  0,
  0,
  0,
  0,
  0,
  0,
  0,
  0,
  0,
  0,
  0,
  0,
  0,
  0,
  0,
  0,
  0,
  0,
  0,
  0,
  0,
  0,
  0,
  0,
  0,
  0,
  0,
  0,
  0,
  0,
  0,
  0,
  0,
  0,
  0,
  0,
  0,
  0,
  0,
  0,
  0,
  0,
  0,
  0,
  0,
  0,
  0,
  0,
  0,
  0,
  0,
  0,
  0,
  0,
  0,
  0,
  0,
  0,
  0,
  0,
  0,
  0,
  0,
  0,
  0,
  0,
  0,
  0,
  0,
  0,
  0,
  0,
  0,
  0,
  0,
  0,
  0,
  0,
  0,
  0,
  0,
  0,
  0,
  0,
  0,
  0,
  0,
  0,
  0,
  0,
  0,
  0,
  0,
  0,
  0,
  0,
  0,
  0,
  0,
  0,
  0,
  0,
  0,
  0,
  0,
  0,
  0,
  0,
  0,
  0,
  0,
  0,
  0,
  0,
  0,
  0,
  0,
  0,
  0,
  0,
  0,
  0,
  0,
  0,
  0,
  0;;
  Material {
   0.765600;0.659200;0.241600;1.000000;;
   5.000000;
   0.000000;0.000000;0.000000;;
   0.000000;0.000000;0.000000;;
  }
  Material {
   0.000000;0.000000;0.000000;1.000000;;
   5.000000;
   0.000000;0.000000;0.000000;;
   0.000000;0.000000;0.000000;;
  }
  Material {
   0.800000;0.800000;0.800000;1.000000;;
   5.000000;
   0.000000;0.000000;0.000000;;
   0.000000;0.000000;0.000000;;
  }
  Material {
   0.800000;0.000000;0.060000;1.000000;;
   5.000000;
   0.000000;0.000000;0.000000;;
   0.000000;0.000000;0.000000;;
  }
  Material {
   0.000000;0.690400;0.251200;1.000000;;
   5.000000;
   0.000000;0.000000;0.000000;;
   0.000000;0.000000;0.000000;;
  }
  Material {
   0.800000;0.768800;0.000000;1.000000;;
   5.000000;
   0.000000;0.000000;0.000000;;
   0.000000;0.000000;0.000000;;
  }
  Material {
   0.000000;0.000000;0.000000;1.000000;;
   5.000000;
   0.000000;0.000000;0.000000;;
   0.000000;0.000000;0.000000;;
  }
  Material {
   0.743200;0.263200;0.094400;1.000000;;
   5.000000;
   0.000000;0.000000;0.000000;;
   0.000000;0.000000;0.000000;;
  }
 }
 MeshNormals {
  292;
  0.573989;0.220216;0.788696;,
  0.568195;0.189927;0.800676;,
  0.864505;0.143625;0.481666;,
  0.868075;0.173647;0.465072;,
  0.864841;0.068812;0.497307;,
  0.557993;0.094866;0.824405;,
  -0.573923;0.201959;0.793615;,
  -0.566133;0.184452;0.803412;,
  -0.143901;0.222179;0.964328;,
  -0.146400;0.235457;0.960795;,
  -0.136093;0.137873;0.981055;,
  -0.554923;0.095361;0.826418;,
  -0.872757;0.142849;0.466786;,
  -0.865298;0.133783;0.483075;,
  -0.863606;0.066630;0.499744;,
  0.873252;0.170976;0.456288;,
  0.574574;0.215369;0.789608;,
  0.865726;0.196017;0.460538;,
  0.562950;0.217956;0.797234;,
  -0.144790;0.213199;0.966220;,
  -0.576861;0.179268;0.796928;,
  -0.140371;0.197428;0.970216;,
  -0.563704;0.168306;0.808648;,
  -0.882848;0.111691;0.456184;,
  -0.879213;0.119652;0.461159;,
  -0.827697;-0.494474;0.265356;,
  -0.845636;-0.519683;0.121776;,
  -0.985948;-0.093803;0.138228;,
  -0.856844;0.443602;0.262746;,
  -0.958819;-0.243708;-0.145850;,
  -0.797778;-0.592105;-0.113852;,
  -0.965784;0.125500;0.226958;,
  -0.979167;0.184631;0.084523;,
  -0.856934;0.501755;-0.117927;,
  -0.945882;0.297665;-0.129241;,
  -0.795073;0.545152;-0.265836;,
  -0.965163;0.200965;-0.167549;,
  -0.522770;0.779937;-0.344108;,
  -0.638104;0.610244;-0.469494;,
  -0.442809;0.821758;-0.358656;,
  -0.220873;0.891284;-0.396016;,
  -0.280611;0.855703;-0.434776;,
  -0.376228;0.708727;-0.596790;,
  -0.888386;-0.454691;0.063454;,
  -0.881785;-0.441258;-0.166576;,
  -0.883017;0.439543;-0.164571;,
  -0.865826;0.497449;0.053757;,
  -0.882118;-0.466682;0.063849;,
  -0.889237;0.451484;0.073617;,
  -0.997900;0.049687;-0.041557;,
  -0.994645;0.074018;0.072126;,
  -0.987704;0.078744;-0.135055;,
  -0.995530;0.023579;-0.091453;,
  -0.534681;0.169667;0.827846;,
  -0.858927;0.160779;0.486205;,
  -0.990541;0.125766;0.054875;,
  -0.996579;0.058095;0.058782;,
  0.886282;0.420269;-0.194623;,
  0.769677;0.625831;-0.126224;,
  0.951582;0.300702;0.063791;,
  0.953342;0.247763;0.172490;,
  0.939670;0.304591;-0.155704;,
  0.700510;0.671360;-0.241995;,
  0.833497;0.500152;0.234800;,
  0.993414;-0.024384;0.111951;,
  0.871617;-0.479904;0.099881;,
  0.856138;-0.448406;0.256826;,
  0.810108;-0.574737;-0.115772;,
  0.974878;0.098360;-0.199846;,
  0.875842;0.475289;-0.083675;,
  0.870852;0.484450;0.083221;,
  0.893921;-0.439780;0.086594;,
  0.899311;-0.428695;-0.086373;,
  0.678844;-0.605033;-0.416060;,
  0.735770;-0.443393;-0.511904;,
  -0.720939;-0.406249;-0.561434;,
  -0.665290;-0.592286;-0.454518;,
  0.896703;0.281396;-0.341672;,
  0.617993;0.716263;-0.324116;,
  0.868660;-0.065402;-0.491073;,
  0.747297;0.067795;-0.661023;,
  0.372196;-0.770216;-0.517916;,
  0.322489;-0.874729;-0.361732;,
  -0.561319;-0.401397;-0.723742;,
  -0.851421;-0.030714;-0.523583;,
  -0.345063;-0.667620;-0.659708;,
  -0.320143;-0.546660;-0.773739;,
  0.855616;0.122981;0.502788;,
  0.531461;0.102045;0.840914;,
  0.802087;0.424945;0.419616;,
  -0.149547;0.037582;0.988040;,
  0.170613;0.072085;0.982698;,
  0.832214;0.541595;0.118722;,
  0.901577;-0.411655;0.133039;,
  0.846558;0.239116;0.475565;,
  0.498610;0.219204;0.838653;,
  -0.081992;0.166401;0.982643;,
  0.852366;0.500744;-0.150758;,
  0.818694;0.570679;0.063763;,
  0.798718;0.558480;0.223943;,
  0.295935;0.554163;-0.778027;,
  -0.910243;0.184096;-0.370899;,
  -0.850066;-0.053594;-0.523943;,
  -0.715329;0.588464;-0.376848;,
  -0.680277;0.684589;-0.261840;,
  -0.858922;0.485240;-0.163691;,
  -0.820781;0.511372;0.254592;,
  -0.843330;0.531268;0.080926;,
  -0.851353;0.503156;-0.148435;,
  -0.854330;0.512279;0.087697;,
  -0.831596;0.553781;0.042133;,
  -0.688906;0.599582;0.407321;,
  -0.400563;0.515592;0.757439;,
  0.144418;0.187685;0.971554;,
  0.021954;0.581735;0.813082;,
  0.665287;0.641525;0.381889;,
  0.401717;0.652868;0.642173;,
  0.976867;0.166689;0.133963;,
  0.966475;0.211566;0.145489;,
  0.793424;0.597775;0.114645;,
  0.983604;0.169489;-0.061615;,
  0.836806;0.543073;-0.069475;,
  0.983600;0.178334;0.026991;,
  0.834639;0.544484;0.083160;,
  0.967868;0.212195;-0.134924;,
  0.037381;0.525036;0.850259;,
  -0.200412;0.189640;0.961183;,
  -0.205542;0.913537;0.351002;,
  -0.389897;0.891954;0.228905;,
  -0.453586;0.473395;-0.755087;,
  -0.143337;0.518537;-0.842955;,
  -0.141070;0.461305;-0.875955;,
  -0.456528;0.417197;-0.785831;,
  -0.162719;0.251521;-0.954075;,
  -0.453724;0.215109;-0.864791;,
  -0.665148;0.167374;-0.727712;,
  -0.652320;0.345267;-0.674737;,
  -0.656457;0.403276;-0.637521;,
  -0.439452;0.526092;-0.728086;,
  -0.679681;0.428993;-0.594978;,
  -0.084787;0.749388;-0.656680;,
  -0.078627;0.884763;-0.459361;,
  -0.129816;0.571301;-0.810409;,
  -0.080825;0.908653;-0.409655;,
  0.630416;0.627473;-0.457005;,
  0.849482;0.323262;-0.416992;,
  0.688780;0.427758;-0.585324;,
  0.489857;0.812253;-0.316678;,
  0.421539;0.705797;-0.569347;,
  0.322355;0.856140;-0.403871;,
  0.398568;0.857077;-0.326438;,
  0.259912;0.890636;-0.373114;,
  0.110476;0.875773;-0.469912;,
  0.080636;0.911431;-0.403474;,
  0.166994;0.748290;-0.642009;,
  0.469593;0.522259;-0.711849;,
  0.149524;0.588966;-0.794205;,
  0.466059;0.476606;-0.745410;,
  0.666790;0.402484;-0.627215;,
  0.154061;0.528443;-0.834873;,
  0.155302;0.481278;-0.862701;,
  0.461796;0.426259;-0.777848;,
  0.658584;0.349419;-0.666464;,
  0.458753;0.221356;-0.860551;,
  0.669444;0.171179;-0.722871;,
  0.149576;0.292849;-0.944387;,
  0.168699;0.238778;0.956309;,
  0.167086;0.216274;0.961929;,
  0.195420;0.120366;0.973305;,
  0.165919;0.229539;0.959053;,
  0.159780;0.210996;0.964340;,
  0.025744;0.162367;0.986395;,
  0.987748;0.139370;0.070212;,
  0.985051;0.152834;0.079478;,
  0.994674;0.073920;0.071827;,
  0.968278;0.168769;-0.184268;,
  0.976769;0.086033;-0.196266;,
  0.931199;0.101515;-0.350089;,
  0.921282;0.212194;-0.325904;,
  0.830310;0.130527;-0.541800;,
  0.821321;0.271526;-0.501702;,
  0.827930;0.316587;-0.462931;,
  0.924838;0.245097;-0.290865;,
  0.970798;0.186115;-0.151368;,
  0.978910;0.178974;-0.098503;,
  0.984025;0.144010;0.104673;,
  0.983740;0.169754;-0.058650;,
  0.938834;0.242243;-0.244762;,
  -0.992323;0.106136;0.063479;,
  -0.989930;0.124632;0.067116;,
  -0.995204;0.068690;0.069646;,
  -0.971597;0.148556;-0.184200;,
  -0.976294;0.082897;-0.199945;,
  -0.981203;0.119578;-0.151469;,
  -0.828885;0.129117;-0.544315;,
  -0.823621;0.263824;-0.502041;,
  -0.844237;0.292462;-0.449143;,
  -0.996378;0.058651;0.061567;,
  -0.992851;0.059228;-0.103630;,
  -0.891037;0.264335;-0.369027;,
  -0.978748;0.119857;-0.166393;,
  -0.948270;0.182919;-0.259468;,
  -0.927141;0.194112;-0.320514;,
  -0.930853;0.101071;-0.351139;,
  -0.028750;-0.757622;-0.652060;,
  -0.026254;-0.641909;-0.766331;,
  -0.293437;-0.955722;0.022138;,
  -0.318746;-0.945836;-0.061606;,
  0.307938;-0.950249;0.046907;,
  0.326361;-0.944683;-0.032599;,
  -0.270519;-0.959350;0.080424;,
  -0.304666;-0.952381;0.012247;,
  0.315262;-0.948704;0.023872;,
  0.283675;-0.955588;0.079875;,
  0.295026;0.900019;-0.320819;,
  0.193201;0.913981;-0.356809;,
  0.096105;0.916041;-0.389401;,
  0.188756;0.810781;-0.554080;,
  0.134407;0.976601;-0.167885;,
  0.066156;0.981220;-0.181190;,
  0.058791;0.975486;-0.212065;,
  -0.609305;0.754203;-0.244795;,
  -0.349118;0.868803;-0.351138;,
  -0.156484;0.921678;-0.354996;,
  -0.044012;0.921204;-0.386582;,
  -0.280729;0.958678;-0.046115;,
  -0.386905;0.895664;0.219297;,
  -0.062958;0.996577;-0.053582;,
  -0.027273;0.981100;-0.191568;,
  -0.098696;0.970476;-0.220079;,
  -0.717631;0.692974;-0.069238;,
  -0.545326;0.769963;0.331324;,
  0.550621;0.022316;0.834457;,
  0.921792;0.070315;0.381254;,
  -0.547419;0.022475;0.836557;,
  -0.169394;0.036828;0.984860;,
  -0.862421;0.014524;0.505983;,
  -0.147988;0.066525;-0.986749;,
  -0.441262;0.051176;-0.895918;,
  0.446892;0.052435;-0.893050;,
  0.669436;0.039128;-0.741839;,
  0.170430;0.066833;-0.983101;,
  0.188847;0.036579;0.981325;,
  0.993090;0.073569;0.091433;,
  0.993200;0.072777;-0.090869;,
  0.933672;0.022517;-0.357420;,
  0.830891;0.029391;-0.555659;,
  -0.997404;0.014982;0.070427;,
  -0.978872;0.018212;-0.203661;,
  -0.665868;0.038115;-0.745095;,
  -0.829576;0.029019;-0.557639;,
  -0.933213;0.022407;-0.358625;,
  -0.307003;-0.873077;-0.378794;,
  0.004355;-0.907215;-0.420644;,
  0.291356;-0.956029;0.033456;,
  -0.278741;-0.959479;0.041282;,
  -0.271516;-0.961903;-0.031957;,
  0.286195;-0.957489;-0.036164;,
  0.025322;-0.790189;-0.612340;,
  -0.498450;0.014115;0.866803;,
  -0.846161;0.031317;0.532006;,
  -0.041350;-0.958840;0.280921;,
  0.057138;-0.956110;0.287382;,
  -0.111498;-0.976191;0.186063;,
  0.136535;-0.971605;0.193238;,
  0.242512;-0.960972;0.133121;,
  -0.212134;-0.969020;0.126485;,
  -0.522696;0.852307;0.019001;,
  -0.581806;0.798696;-0.153575;,
  0.490820;0.871254;0.003391;,
  0.466605;0.883381;-0.043799;,
  0.670493;0.700414;-0.244662;,
  -0.655012;0.707356;-0.265718;,
  0.284998;0.914582;0.286906;,
  0.201215;0.923561;0.326418;,
  0.058730;0.925997;0.372935;,
  -0.061002;0.922642;0.380801;,
  -0.523864;0.666387;-0.530561;,
  0.082518;-0.899747;0.428539;,
  -0.061879;-0.905587;0.419623;,
  -0.219713;-0.900255;0.375856;,
  0.263324;-0.882925;0.388721;,
  0.466143;-0.845231;0.261333;,
  -0.414421;-0.874894;0.250629;,
  -0.324474;0.713496;-0.620999;,
  0.679201;0.233999;-0.695651;,
  0.848255;-0.083920;-0.522897;,
  0.882015;-0.388454;-0.266744;,
  0.209566;0.643755;-0.735977;,
  0.406078;0.230056;-0.884406;,
  0.220641;0.297288;-0.928944;,
  0.116609;0.291324;-0.949491;;
  286;
  4;0,3,2,1;,
  4;4,5,1,2;,
  4;6,9,8,7;,
  4;10,11,7,8;,
  4;12,6,7,13;,
  4;11,14,13,7;,
  4;0,16,15,3;,
  4;15,16,18,17;,
  4;6,20,19,9;,
  4;20,22,21,19;,
  4;12,23,20,6;,
  4;23,24,22,20;,
  4;25,28,27,26;,
  4;29,30,26,27;,
  4;31,34,33,32;,
  4;35,36,32,33;,
  4;34,38,37,33;,
  4;33,37,39,35;,
  4;37,41,40,39;,
  4;42,41,37,38;,
  4;43,46,45,44;,
  4;45,48,47,44;,
  4;25,47,48,28;,
  4;31,50,49,34;,
  4;51,52,49,50;,
  4;24,54,53,22;,
  4;24,56,55,54;,
  4;56,52,51,55;,
  4;57,60,59,58;,
  4;61,62,58,59;,
  4;63,66,65,64;,
  4;67,68,64,65;,
  4;69,72,71,70;,
  4;63,70,71,66;,
  4;73,74,68,67;,
  4;75,76,30,29;,
  4;77,78,62,61;,
  4;79,82,81,80;,
  4;83,86,85,84;,
  4;87,89,88,88;,
  4;90,90,91,91;,
  4;87,93,92,89;,
  4;18,95,94,17;,
  4;96,21,22,53;,
  4;93,72,69,92;,
  4;59,98,97,61;,
  4;60,99,98,59;,
  4;61,97,79,77;,
  3;80,77,79;,
  3;101,84,102;,
  4;103,104,84,101;,
  4;36,101,102,105;,
  4;35,103,101,36;,
  4;32,107,106,31;,
  4;36,105,107,32;,
  4;50,109,108,51;,
  4;31,106,109,50;,
  4;51,108,110,55;,
  4;55,110,111,54;,
  4;54,111,112,53;,
  3;113,96,114;,
  3;114,96,112;,
  3;96,53,112;,
  4;95,116,115,94;,
  4;94,118,117,17;,
  4;118,94,115,119;,
  4;120,118,119,121;,
  4;120,121,123,122;,
  4;57,124,122,60;,
  4;122,123,99,60;,
  4;106,107,267,28;,
  4;267,107,105,268;,
  4;46,110,108,45;,
  4;108,109,48,45;,
  4;48,109,106,28;,
  4;97,98,269,270;,
  4;269,98,99,63;,
  4;99,123,70,63;,
  4;70,123,121,69;,
  4;271,79,97,68;,
  4;73,82,79,74;,
  4;268,105,102,272;,
  4;273,115,116,274;,
  4;275,125,114,276;,
  4;126,113,114,125;,
  4;276,114,112,127;,
  4;127,112,111,128;,
  4;92,119,115,89;,
  4;128,111,110,46;,
  4;69,121,119,92;,
  4;129,132,131,130;,
  4;131,132,134,133;,
  4;132,136,135,134;,
  4;129,137,136,132;,
  4;42,38,139,138;,
  4;140,141,41,42;,
  4;42,138,142,140;,
  4;40,41,141,143;,
  4;142,138,129,130;,
  4;138,139,137,129;,
  4;144,146,145,57;,
  4;147,149,148,144;,
  4;57,58,147,144;,
  4;150,151,149,147;,
  4;150,147,58,62;,
  4;152,149,151,153;,
  4;152,154,148,149;,
  4;154,156,155,148;,
  4;155,146,144,148;,
  4;157,158,146,155;,
  4;157,155,156,159;,
  4;160,161,157,159;,
  4;161,162,158,157;,
  4;163,164,162,161;,
  4;163,161,160,165;,
  4;166,0,1,167;,
  4;5,168,167,1;,
  4;166,169,16,0;,
  4;169,170,18,16;,
  4;18,170,171,95;,
  3;116,95,125;,
  3;95,171,125;,
  3;171,126,125;,
  4;275,274,116,125;,
  4;88,91,91,88;,
  4;3,173,172,2;,
  4;174,4,2,172;,
  4;175,178,177,176;,
  4;177,178,180,179;,
  4;180,178,182,181;,
  4;182,178,175,183;,
  4;183,173,185,184;,
  4;185,117,186,184;,
  4;3,15,185,173;,
  4;185,15,17,117;,
  4;186,120,122,124;,
  4;117,118,120,186;,
  4;124,187,184,186;,
  4;57,145,187,124;,
  4;158,162,180,181;,
  4;180,162,164,179;,
  4;145,146,158,181;,
  4;184,187,182,183;,
  4;182,187,145,181;,
  4;183,175,172,173;,
  4;176,174,172,175;,
  4;188,12,13,189;,
  4;14,190,189,13;,
  4;190,192,191,189;,
  4;193,188,189,191;,
  4;135,136,195,194;,
  4;195,136,137,196;,
  4;188,197,23,12;,
  4;197,56,24,23;,
  4;193,198,197,188;,
  4;198,52,56,197;,
  4;34,199,139,38;,
  4;137,139,199,196;,
  4;49,200,199,34;,
  4;198,200,49,52;,
  4;199,200,201,196;,
  4;201,200,198,193;,
  4;191,202,201,193;,
  4;201,202,195,196;,
  4;195,202,203,194;,
  4;203,202,191,192;,
  4;86,205,204,85;,
  4;44,207,206,43;,
  4;208,206,207,209;,
  4;93,208,209,72;,
  4;210,211,47,25;,
  4;47,211,207,44;,
  4;207,211,212,209;,
  4;209,212,71,72;,
  4;71,212,213,66;,
  4;211,210,213,212;,
  4;78,214,150,62;,
  4;214,215,151,150;,
  4;77,80,100,78;,
  4;216,153,151,215;,
  4;100,217,214,78;,
  4;217,218,215,214;,
  3;219,220,218;,
  4;221,277,84,104;,
  4;35,39,222,103;,
  4;40,223,222,39;,
  4;143,224,223,40;,
  4;222,225,104,103;,
  4;104,225,226,221;,
  3;228,227,229;,
  3;229,227,225;,
  3;227,226,225;,
  4;223,229,225,222;,
  4;215,218,220,216;,
  4;227,228,220,219;,
  4;216,220,228,224;,
  4;226,231,230,221;,
  4;228,229,223,224;,
  4;4,233,232,5;,
  4;10,235,234,11;,
  4;11,234,236,14;,
  4;134,238,237,133;,
  4;239,240,164,163;,
  4;241,239,163,165;,
  4;133,237,241,165;,
  4;5,232,242,168;,
  4;168,242,235,10;,
  4;174,243,233,4;,
  4;177,245,244,176;,
  4;246,245,177,179;,
  4;164,240,246,179;,
  4;176,244,243,174;,
  4;14,236,247,190;,
  4;190,247,248,192;,
  4;238,134,135,249;,
  4;250,249,135,194;,
  4;203,251,250,194;,
  4;248,251,203,192;,
  4;102,84,85,252;,
  4;75,102,252,76;,
  4;253,252,85,204;,
  4;254,213,210,255;,
  4;256,255,26,30;,
  4;255,210,25,26;,
  4;254,65,66,213;,
  4;65,254,257,67;,
  4;257,82,73,67;,
  4;76,252,256,30;,
  4;82,253,258,81;,
  4;254,255,256,257;,
  4;252,82,257,256;,
  3;253,82,252;,
  4;90,259,259,90;,
  4;259,260,260,259;,
  4;260,46,43,260;,
  4;261,262,278,279;,
  4;263,261,279,280;,
  4;262,264,281,278;,
  4;264,265,282,281;,
  4;266,263,280,283;,
  4;282,265,208,93;,
  4;265,266,206,208;,
  4;206,266,283,43;,
  4;264,263,266,265;,
  4;261,263,264,262;,
  3;221,284,277;,
  3;284,221,230;,
  3;285,286,286;,
  3;286,287,286;,
  3;229,288,284;,
  3;204,258,253;,
  3;205,258,204;,
  3;288,227,219;,
  3;289,290,288;,
  3;289,217,290;,
  3;219,218,217;,
  3;290,217,100;,
  3;290,100,291;,
  3;100,80,291;,
  3;233,243,244;,
  3;216,224,153;,
  3;153,224,143;,
  3;143,141,153;,
  3;141,152,153;,
  3;141,140,152;,
  3;140,154,152;,
  3;156,154,140;,
  3;140,142,156;,
  3;142,159,156;,
  3;142,130,159;,
  3;130,160,159;,
  3;130,131,160;,
  3;131,165,160;,
  3;131,133,165;,
  3;171,113,126;,
  3;96,113,171;,
  3;21,96,171;,
  3;171,170,21;,
  3;170,19,21;,
  3;170,169,19;,
  3;169,9,19;,
  3;169,166,9;,
  3;166,8,9;,
  3;166,167,8;,
  3;167,10,8;,
  3;168,10,167;;
 }
 MeshTextureCoords {
  325;
  0.914270;0.154420;,
  0.913840;0.143360;,
  0.907140;0.143520;,
  0.907620;0.153960;,
  0.901830;0.144020;,
  0.902380;0.153800;,
  0.968880;0.250990;,
  0.974860;0.257180;,
  0.978950;0.252300;,
  0.973390;0.246100;,
  0.982840;0.248820;,
  0.977160;0.242450;,
  0.961710;0.242590;,
  0.966660;0.238130;,
  0.970850;0.234900;,
  0.923770;0.155410;,
  0.923460;0.143900;,
  0.939490;0.157170;,
  0.939160;0.145160;,
  0.962730;0.258240;,
  0.969100;0.264500;,
  0.952680;0.270810;,
  0.959580;0.277110;,
  0.955210;0.249580;,
  0.944710;0.261760;,
  0.712960;0.941360;,
  0.713450;0.944600;,
  0.726720;0.944760;,
  0.726360;0.942010;,
  0.738870;0.944360;,
  0.739270;0.942570;,
  0.894860;0.240590;,
  0.921100;0.226000;,
  0.900100;0.220570;,
  0.885390;0.233130;,
  0.885920;0.213960;,
  0.875070;0.224690;,
  0.918090;0.219470;,
  0.901190;0.215280;,
  0.887900;0.209450;,
  0.901450;0.203660;,
  0.890800;0.199010;,
  0.915470;0.207570;,
  0.671150;0.939100;,
  0.671830;0.942490;,
  0.688310;0.943500;,
  0.687690;0.939740;,
  0.699590;0.944560;,
  0.699240;0.939990;,
  0.903720;0.249060;,
  0.924620;0.232640;,
  0.910280;0.257010;,
  0.928340;0.239210;,
  0.929360;0.280340;,
  0.938190;0.289350;,
  0.935710;0.250190;,
  0.920220;0.269540;,
  0.932110;0.104320;,
  0.962000;0.095270;,
  0.964010;0.083400;,
  0.943860;0.085180;,
  0.965790;0.070270;,
  0.949500;0.070230;,
  0.553210;0.946340;,
  0.553440;0.943130;,
  0.540260;0.944170;,
  0.540090;0.946890;,
  0.527370;0.945200;,
  0.527810;0.946960;,
  0.577910;0.944330;,
  0.578400;0.940700;,
  0.567020;0.941400;,
  0.566850;0.945940;,
  0.507520;0.947370;,
  0.507980;0.948820;,
  0.758780;0.945450;,
  0.759250;0.944000;,
  0.964510;0.040360;,
  0.953890;0.038480;,
  0.507170;0.950190;,
  0.505560;0.945830;,
  0.487680;0.952440;,
  0.490460;0.955700;,
  0.785340;0.956420;,
  0.788250;0.954190;,
  0.779670;0.948040;,
  0.776920;0.951540;,
  0.607930;0.938750;,
  0.608000;0.942010;,
  0.619990;0.941630;,
  0.619620;0.938400;,
  0.635420;0.941650;,
  0.634990;0.938160;,
  0.629360;0.938180;,
  0.629770;0.941680;,
  0.594810;0.939450;,
  0.594320;0.943000;,
  0.963570;0.159600;,
  0.964080;0.147460;,
  0.946010;0.296200;,
  0.970070;0.082980;,
  0.970760;0.069940;,
  0.968980;0.095040;,
  0.968230;0.042350;,
  0.963090;0.031550;,
  0.854660;0.202030;,
  0.849360;0.194910;,
  0.853450;0.206480;,
  0.860540;0.193960;,
  0.856260;0.188690;,
  0.871330;0.228050;,
  0.880870;0.237140;,
  0.889890;0.245410;,
  0.898730;0.254190;,
  0.905370;0.262380;,
  0.915400;0.274910;,
  0.924610;0.285600;,
  0.934000;0.294980;,
  0.943810;0.301100;,
  0.942310;0.302280;,
  0.970630;0.160230;,
  0.971210;0.147780;,
  0.963270;0.133250;,
  0.937910;0.130510;,
  0.970530;0.133710;,
  0.961960;0.117490;,
  0.969200;0.117880;,
  0.968220;0.107390;,
  0.961000;0.107220;,
  0.934660;0.111190;,
  0.714020;0.946420;,
  0.726660;0.946470;,
  0.740100;0.946300;,
  0.671430;0.944330;,
  0.687720;0.945320;,
  0.699820;0.946450;,
  0.526830;0.948920;,
  0.540240;0.948640;,
  0.552740;0.948230;,
  0.566720;0.947840;,
  0.578540;0.946150;,
  0.759440;0.946740;,
  0.607950;0.944030;,
  0.619460;0.943880;,
  0.629530;0.944110;,
  0.635840;0.944040;,
  0.967150;0.170920;,
  0.966420;0.176270;,
  0.968220;0.176860;,
  0.969070;0.170650;,
  0.646330;0.943930;,
  0.645540;0.941680;,
  0.658330;0.943900;,
  0.658100;0.941900;,
  0.594450;0.944950;,
  0.940210;0.208060;,
  0.947340;0.207210;,
  0.946090;0.203950;,
  0.939310;0.204650;,
  0.952900;0.205950;,
  0.951520;0.202230;,
  0.951220;0.215840;,
  0.956700;0.214130;,
  0.944020;0.217260;,
  0.933980;0.218550;,
  0.930750;0.208410;,
  0.915250;0.203200;,
  0.902210;0.198750;,
  0.930220;0.204830;,
  0.892300;0.194320;,
  0.928840;0.096850;,
  0.916630;0.106920;,
  0.918650;0.112760;,
  0.938300;0.081700;,
  0.930060;0.073550;,
  0.922480;0.086000;,
  0.943950;0.068220;,
  0.934680;0.063050;,
  0.927070;0.071150;,
  0.931410;0.061180;,
  0.920200;0.083280;,
  0.910110;0.094550;,
  0.912020;0.097210;,
  0.904990;0.103500;,
  0.908630;0.112630;,
  0.903390;0.100690;,
  0.897990;0.104900;,
  0.899310;0.107890;,
  0.902540;0.116570;,
  0.894430;0.110890;,
  0.897470;0.119210;,
  0.892870;0.107480;,
  0.913970;0.162790;,
  0.907680;0.162060;,
  0.902490;0.162140;,
  0.923190;0.164050;,
  0.938780;0.166170;,
  0.962150;0.169470;,
  0.912620;0.132040;,
  0.905980;0.133350;,
  0.900730;0.134650;,
  0.904960;0.127100;,
  0.904470;0.124440;,
  0.899310;0.126450;,
  0.899770;0.128920;,
  0.903780;0.121230;,
  0.898640;0.123480;,
  0.910900;0.121520;,
  0.910060;0.117840;,
  0.911500;0.124660;,
  0.922170;0.131050;,
  0.920870;0.121490;,
  0.936390;0.117810;,
  0.919950;0.117330;,
  0.954860;0.233620;,
  0.960510;0.230010;,
  0.965180;0.227350;,
  0.961850;0.222530;,
  0.956900;0.224880;,
  0.950540;0.227620;,
  0.953610;0.219930;,
  0.958870;0.217930;,
  0.946600;0.221780;,
  0.947380;0.239460;,
  0.941620;0.231600;,
  0.936510;0.223720;,
  0.939050;0.227790;,
  0.948670;0.224930;,
  0.955380;0.222660;,
  0.960460;0.220470;,
  0.477670;0.319590;,
  0.474930;0.309620;,
  0.468650;0.311000;,
  0.471310;0.323680;,
  0.687000;0.937960;,
  0.670800;0.937320;,
  0.357300;0.314560;,
  0.373200;0.366890;,
  0.388100;0.360110;,
  0.372860;0.310000;,
  0.594760;0.937650;,
  0.578930;0.938860;,
  0.713590;0.939450;,
  0.699320;0.938090;,
  0.397620;0.354450;,
  0.383790;0.308820;,
  0.566910;0.939500;,
  0.552780;0.941290;,
  0.410510;0.355530;,
  0.393930;0.300650;,
  0.949890;0.037450;,
  0.943220;0.036220;,
  0.953270;0.031770;,
  0.940900;0.034220;,
  0.949790;0.031590;,
  0.944560;0.031600;,
  0.944720;0.030100;,
  0.942510;0.030910;,
  0.855510;0.185460;,
  0.849030;0.188790;,
  0.861900;0.191030;,
  0.865530;0.184420;,
  0.867070;0.180110;,
  0.857710;0.186410;,
  0.857120;0.184190;,
  0.862460;0.179490;,
  0.859320;0.181530;,
  0.861150;0.182120;,
  0.868160;0.172550;,
  0.868450;0.170020;,
  0.870720;0.175440;,
  0.856600;0.182550;,
  0.855400;0.182690;,
  0.896380;0.144660;,
  0.896970;0.153910;,
  0.986660;0.244670;,
  0.981170;0.238900;,
  0.975220;0.231650;,
  0.958030;0.204090;,
  0.956740;0.200820;,
  0.889470;0.113070;,
  0.892220;0.121070;,
  0.888060;0.109920;,
  0.954840;0.195640;,
  0.949810;0.197650;,
  0.896920;0.161490;,
  0.896810;0.166070;,
  0.902430;0.165950;,
  0.895310;0.135750;,
  0.893920;0.127940;,
  0.894380;0.130290;,
  0.893310;0.125130;,
  0.969820;0.224420;,
  0.966650;0.219790;,
  0.961790;0.211790;,
  0.963850;0.215400;,
  0.965350;0.217800;,
  0.761270;0.942350;,
  0.460310;0.308830;,
  0.460680;0.332380;,
  0.405290;0.294800;,
  0.423350;0.354610;,
  0.740930;0.941620;,
  0.726440;0.940200;,
  0.540180;0.942360;,
  0.525830;0.944280;,
  0.448460;0.292100;,
  0.466650;0.304240;,
  0.462070;0.293110;,
  0.437930;0.351980;,
  0.418990;0.289310;,
  0.645130;0.938400;,
  0.657870;0.938810;,
  0.635200;0.935780;,
  0.628900;0.935840;,
  0.645850;0.936150;,
  0.618940;0.936250;,
  0.607670;0.936820;,
  0.658130;0.936840;,
  0.345820;0.322200;,
  0.359300;0.366950;,
  0.339710;0.333180;,
  0.347570;0.359500;,
  0.341040;0.350140;,
  0.339290;0.343950;;
 }
}
