#==============================================================================
#
# 『モーションビューワ』スクリプトファイル [Merchant.txt]
# Author : KOKI NISHIYAMA
#
#==============================================================================
SCRIPT			# この行は絶対消さないこと！

#------------------------------------------------------------------------------
# モデル数
#------------------------------------------------------------------------------
NUM_MODEL = 16

#------------------------------------------------------------------------------
# モデルファイル名
#------------------------------------------------------------------------------
MODEL_FILENAME = 79	# [0]腰
MODEL_FILENAME = 65	# [1]体
MODEL_FILENAME = 66	# [2]頭
MODEL_FILENAME = 70	# [3]右上腕
MODEL_FILENAME = 71	# [4]右腕
MODEL_FILENAME = 72	# [5]右手
MODEL_FILENAME = 67	# [6]左上腕
MODEL_FILENAME = 68	# [7]左腕
MODEL_FILENAME = 69	# [8]左手
MODEL_FILENAME = 76	# [9]右腿
MODEL_FILENAME = 77	# [10]右膝
MODEL_FILENAME = 78	# [11]右足
MODEL_FILENAME = 73	# [12]左腿
MODEL_FILENAME = 74	# [13]左膝
MODEL_FILENAME = 75	# [14]左足
MODEL_FILENAME = 83	# [15]鞄

#------------------------------------------------------------------------------
# キャラクター用当たり判定情報
#------------------------------------------------------------------------------
CHARACTER_COLLISION
	OFFSET = 0.0 50.0 0.0
	RECT
		SIZE = 100.0 2000.0 100.0	
	END_RECT
END_CHARACTER_COLLISION

#------------------------------------------------------------------------------
# キャラクター情報
#------------------------------------------------------------------------------
CHARACTERSET
	MOVE = 3.0						# 移動量
	JUMP = 10.25					# ジャンプ量
	RADIUS = 20.0					# 半径
	NUM_PARTS = 16					# パーツ数

	PARTSSET						# [0]腰
		INDEX = 0
		PARENT = -1					# (親)NULL
		POS = 0.0 58.0 0.0
		ROT = 0.0 0.0 0.0
	END_PARTSSET

	PARTSSET						# [1]体
		INDEX = 1
		PARENT = 0					# (親)腰
		POS = 0.0 0.0 0.0
		ROT = 0.0 0.0 0.0
	END_PARTSSET

	PARTSSET						# [2]頭
		INDEX = 2
		PARENT = 1					# (親)体
		POS = 0.0 30.0 0.0
		ROT = 0.0 0.0 0.0
	END_PARTSSET

	PARTSSET						# [3]右上腕
		INDEX = 3
		PARENT = 1					# (親)体
		POS = -13.0 22.0 0.0
		ROT = 0.0 0.0 0.0
	END_PARTSSET

	PARTSSET						# [4]右腕
		INDEX = 4
		PARENT = 3					# (親)右上腕
		POS = -8.0 0.0 0.0
		ROT = 0.0 0.0 0.0
	END_PARTSSET

	PARTSSET						# [5]右手
		INDEX = 5
		PARENT = 4					# (親)右腕
		POS = -28.5 0.0 2.0
		ROT = 0.0 0.0 0.0
	END_PARTSSET

	PARTSSET						# [6]左上腕
		INDEX = 6
		PARENT = 1					# (親)体
		POS = 11.0 20.0 0.0
		ROT = 0.0 0.0 0.0
	END_PARTSSET

	PARTSSET						# [7]左腕
		INDEX = 7
		PARENT = 6					# (親)左上腕
		POS = 4.7 0.0 0.0
		ROT = 0.0 0.0 0.0
	END_PARTSSET

	PARTSSET						# [8]左手
		INDEX = 8
		PARENT = 7					# (親)左腕
		POS = 29.0 0.5 -2.0
		ROT = 0.0 0.0 0.0
	END_PARTSSET

	PARTSSET						# [9]右腿
		INDEX = 9
		PARENT = 0					# (親)腰
		POS = -4.0 -10.0 2.0
		ROT = 0.0 0.0 0.0	
	END_PARTSSET
	
	PARTSSET						# [10]右膝
		INDEX = 10
		PARENT = 9					# (親)右腿
		POS = -4.0 -24.0 5.0
		ROT = 0.0 0.0 0.0
	END_PARTSSET

	PARTSSET						# [11]右足
		INDEX = 11
		PARENT = 10					# (親)右膝
		POS = 0.0 -15.0 0.0
		ROT = 0.0 0.0 0.0
	END_PARTSSET

	PARTSSET						# [12]左腿
		INDEX = 12
		PARENT = 0					# (親)腰
		POS = 4.0 -10.0 2.0
		ROT = 0.0 0.0 0.0	
	END_PARTSSET
	
	PARTSSET						# [13]左膝
		INDEX = 13
		PARENT = 12					# (親)左腿
		POS = 5.0 -25.0 5.0
		ROT = 0.0 0.0 0.0
	END_PARTSSET

	PARTSSET						# [14]左足
		INDEX = 14
		PARENT = 13					# (親)左膝
		POS = 0.0 -15.0 0.0
		ROT = 0.0 0.0 0.0
	END_PARTSSET
	
	PARTSSET						# [15]鞄
		INDEX = 15
		PARENT = 1					# (親)体
		POS = 0.0 13.0 10.0
		ROT = 0.0 0.0 0.0
	END_PARTSSET
END_CHARACTERSET

#========================================
#
# モーション情報	ニュートラルモーション
#  [ モーション番号 : 0 ]
#
#========================================

MOTIONSET
	LOOP = 1		# ループするかどうか[0:ループしない / 1:ループする]
	NUM_KEY = 2		# キー数

	KEYSET			# --- << KEY : 0 / 2 >> ---
		FRAME = 40
		KEY	# ----- [ 0 ] -----
			POS = 0.00 0.00 0.00
			ROT = -0.00 0.00 0.00
		END_KEY

		KEY	# ----- [ 1 ] -----
			POS = 0.00 0.00 0.00
			ROT = 0.00 0.00 0.00
		END_KEY

		KEY	# ----- [ 2 ] -----
			POS = 0.00 0.00 0.00
			ROT = 0.10 0.00 0.00
		END_KEY

		KEY	# ----- [ 3 ] -----
			POS = 0.00 0.00 0.00
			ROT = 0.00 -1.38 0.97
		END_KEY

		KEY	# ----- [ 4 ] -----
			POS = 0.00 0.00 0.00
			ROT = 0.00 0.00 -1.41
		END_KEY

		KEY	# ----- [ 5 ] -----
			POS = 0.00 0.00 0.00
			ROT = 0.00 0.00 0.00
		END_KEY

		KEY	# ----- [ 6 ] -----
			POS = 0.00 0.00 0.00
			ROT = 0.00 0.00 -1.38
		END_KEY

		KEY	# ----- [ 7 ] -----
			POS = 0.00 0.00 0.00
			ROT = -0.00 0.66 0.00
		END_KEY

		KEY	# ----- [ 8 ] -----
			POS = 0.00 0.00 0.00
			ROT = 0.00 0.00 0.00
		END_KEY

		KEY	# ----- [ 9 ] -----
			POS = 0.00 0.00 0.00
			ROT = 0.47 -0.09 -0.09
		END_KEY

		KEY	# ----- [ 10 ] -----
			POS = 0.00 0.00 0.00
			ROT = -0.69 0.00 0.00
		END_KEY

		KEY	# ----- [ 11 ] -----
			POS = 0.00 0.00 0.00
			ROT = 0.03 0.00 0.00
		END_KEY

		KEY	# ----- [ 12 ] -----
			POS = 0.00 0.00 0.00
			ROT = -0.00 0.00 0.00
		END_KEY

		KEY	# ----- [ 13 ] -----
			POS = 0.00 0.00 0.00
			ROT = -0.25 0.00 0.00
		END_KEY

		KEY	# ----- [ 14 ] -----
			POS = 0.00 0.00 0.00
			ROT = 0.13 0.00 0.00
		END_KEY

		KEY	# ----- [ 15 ] -----
			POS = 0.00 0.00 0.00
			ROT = 0.00 0.00 0.00
		END_KEY
	END_KEYSET

	KEYSET			# --- << KEY : 1 / 2 >> ---
		FRAME = 40
		KEY	# ----- [ 0 ] -----
			POS = 0.00 0.00 0.00
			ROT = -0.00 0.00 0.00
		END_KEY

		KEY	# ----- [ 1 ] -----
			POS = 0.00 0.00 0.00
			ROT = -0.00 0.00 0.00
		END_KEY

		KEY	# ----- [ 2 ] -----
			POS = 0.00 0.00 0.00
			ROT = 0.16 0.00 0.00
		END_KEY

		KEY	# ----- [ 3 ] -----
			POS = 0.00 0.00 0.00
			ROT = 0.16 -0.47 -0.09
		END_KEY

		KEY	# ----- [ 4 ] -----
			POS = 0.00 0.00 0.00
			ROT = 0.00 0.00 0.00
		END_KEY

		KEY	# ----- [ 5 ] -----
			POS = 0.00 0.00 0.00
			ROT = 0.00 0.00 0.00
		END_KEY

		KEY	# ----- [ 6 ] -----
			POS = 0.00 0.00 0.00
			ROT = -0.06 -0.03 -1.07
		END_KEY

		KEY	# ----- [ 7 ] -----
			POS = 0.00 0.00 0.00
			ROT = 0.00 0.25 -0.03
		END_KEY

		KEY	# ----- [ 8 ] -----
			POS = 0.00 0.00 0.00
			ROT = 0.00 0.00 0.00
		END_KEY
		
		KEY	# ----- [ 9 ] -----
			POS = 0.00 0.00 0.00
			ROT = 0.57 -0.06 -0.16
		END_KEY

		KEY	# ----- [ 10 ] -----
			POS = 0.00 0.00 0.00
			ROT = -1.01 0.00 0.00
		END_KEY

		KEY	# ----- [ 11 ] -----
			POS = 0.00 0.00 0.00
			ROT = -0.31 0.00 0.00
		END_KEY

		KEY	# ----- [ 12 ] -----
			POS = 0.00 0.00 0.00
			ROT = 0.03 0.13 0.19
		END_KEY

		KEY	# ----- [ 13 ] -----
			POS = 0.00 0.00 0.00
			ROT = -0.57 0.00 0.00
		END_KEY

		KEY	# ----- [ 14 ] -----
			POS = 0.00 0.00 0.00
			ROT = 0.38 0.00 0.00
		END_KEY

		KEY	# ----- [ 15 ] -----
			POS = 0.00 0.00 0.00
			ROT = 0.00 0.00 0.00
		END_KEY
	END_KEYSET
END_MOTIONSET

#========================================
#
# 移動情報 
#  [ モーション番号 : 1 ]
#
#========================================

MOTIONSET
	LOOP = 1		# ループするかどうか[0:ループしない / 1:ループする]
	NUM_KEY = 4		# キー数

	KEYSET			# --- << KEY : 0 / 4 >> ---
		FRAME = 7
		KEY	# ----- [ 0 ] -----
			POS = 0.00 0.00 0.00
			ROT = -0.16 -0.11 0.00
		END_KEY

		KEY	# ----- [ 1 ] -----
			POS = 0.00 0.00 0.00
			ROT = -0.14 -0.36 0.00
		END_KEY

		KEY	# ----- [ 2 ] -----
			POS = 0.00 0.00 0.00
			ROT = 0.16 0.33 0.00
		END_KEY

		KEY	# ----- [ 3 ] -----
			POS = 0.00 0.00 0.00
			ROT = -0.16 -1.23 0.82
		END_KEY

		KEY	# ----- [ 4 ] -----
			POS = 0.00 0.00 0.00
			ROT = 0.00 0.00 -1.63
		END_KEY

		KEY	# ----- [ 5 ] -----
			POS = 0.00 0.00 0.00
			ROT = 0.00 0.00 0.00
		END_KEY

		KEY	# ----- [ 6 ] -----
			POS = 0.00 0.00 0.00
			ROT = -1.42 0.03 -1.35
		END_KEY

		KEY	# ----- [ 7 ] -----
			POS = 0.00 0.00 0.00
			ROT = -0.03 0.77 0.00
		END_KEY

		KEY	# ----- [ 8 ] -----
			POS = 0.00 0.00 0.00
			ROT = 0.00 0.00 0.00
		END_KEY

		KEY	# ----- [ 9 ] -----
			POS = 0.00 0.00 0.00
			ROT = -0.85 0.00 0.00
		END_KEY

		KEY	# ----- [ 10 ] -----
			POS = 0.00 0.00 0.00
			ROT = -0.54 0.00 0.00
		END_KEY

		KEY	# ----- [ 11 ] -----
			POS = 0.00 0.00 0.00
			ROT = 0.00 0.00 0.00
		END_KEY

		KEY	# ----- [ 12 ] -----
			POS = 0.00 0.00 0.00
			ROT = 1.04 0.00 0.00
		END_KEY

		KEY	# ----- [ 13 ] -----
			POS = 0.00 0.00 0.00
			ROT = -0.45 0.00 0.00
		END_KEY

		KEY	# ----- [ 14 ] -----
			POS = 0.00 0.00 0.00
			ROT = 0.00 0.00 0.00
		END_KEY

		KEY	# ----- [ 15 ] -----
			POS = 0.00 0.00 0.00
			ROT = 0.00 0.00 0.00
		END_KEY
	END_KEYSET

	KEYSET			# --- << KEY : 1 / 4 >> ---
		FRAME = 6
		KEY	# ----- [ 0 ] -----
			POS = 0.00 0.00 0.00
			ROT = -0.13 0.00 0.00
		END_KEY

		KEY	# ----- [ 1 ] -----
			POS = 0.00 0.00 0.00
			ROT = -0.19 0.00 0.00
		END_KEY

		KEY	# ----- [ 2 ] -----
			POS = 0.00 0.00 0.00
			ROT = 0.16 0.00 0.00
		END_KEY

		KEY	# ----- [ 3 ] -----
			POS = 0.00 0.00 0.00
			ROT = -0.19 -1.54 1.92
		END_KEY

		KEY	# ----- [ 4 ] -----
			POS = 0.00 0.00 0.00
			ROT = 0.00 0.00 -0.53
		END_KEY

		KEY	# ----- [ 5 ] -----
			POS = 0.00 0.00 0.00
			ROT = 0.00 0.00 0.00
		END_KEY

		KEY	# ----- [ 6 ] -----
			POS = 0.00 0.00 0.00
			ROT = -0.03 -0.00 -1.48
		END_KEY

		KEY	# ----- [ 7 ] -----
			POS = 0.00 0.00 0.00
			ROT = -0.06 0.60 0.00
		END_KEY

		KEY	# ----- [ 8 ] -----
			POS = 0.00 0.00 0.00
			ROT = 0.00 0.00 0.00
		END_KEY

		KEY	# ----- [ 9 ] -----
			POS = 0.00 0.00 0.00
			ROT = 0.03 0.00 0.00
		END_KEY

		KEY	# ----- [ 10 ] -----
			POS = 0.00 0.00 0.00
			ROT = -0.94 0.00 0.00
		END_KEY

		KEY	# ----- [ 11 ] -----
			POS = 0.00 0.00 0.00
			ROT = 0.00 0.00 0.00
		END_KEY

		KEY	# ----- [ 12 ] -----
			POS = 0.00 0.00 0.00
			ROT = 0.28 0.00 0.00
		END_KEY

		KEY	# ----- [ 13 ] -----
			POS = 0.00 0.00 0.00
			ROT = -0.19 0.00 0.00
		END_KEY

		KEY	# ----- [ 14 ] -----
			POS = 0.00 0.00 0.00
			ROT = 0.00 0.00 0.00
		END_KEY

		KEY	# ----- [ 15 ] -----
			POS = 0.00 0.00 0.00
			ROT = 0.00 0.00 0.00
		END_KEY
	END_KEYSET

	KEYSET			# --- << KEY : 2 / 4 >> ---
		FRAME = 7
		KEY	# ----- [ 0 ] -----
			POS = 0.00 0.00 0.00
			ROT = -0.13 0.12 0.00
		END_KEY

		KEY	# ----- [ 1 ] -----
			POS = 0.00 0.00 0.00
			ROT = -0.16 0.09 0.00
		END_KEY

		KEY	# ----- [ 2 ] -----
			POS = 0.00 0.00 0.00
			ROT = 0.13 -0.09 0.00
		END_KEY

		KEY	# ----- [ 3 ] -----
			POS = 0.00 0.00 0.00
			ROT = -0.13 -1.51 2.73
		END_KEY

		KEY	# ----- [ 4 ] -----
			POS = 0.00 0.00 0.00
			ROT = 0.00 0.00 -0.69
		END_KEY

		KEY	# ----- [ 5 ] -----
			POS = 0.00 0.00 0.00
			ROT = 0.00 0.00 0.00
		END_KEY

		KEY	# ----- [ 6 ] -----
			POS = 0.00 0.00 0.00
			ROT = 0.72 0.00 -1.48
		END_KEY

		KEY	# ----- [ 7 ] -----
			POS = 0.00 0.00 0.00
			ROT = -0.06 1.48 0.00
		END_KEY

		KEY	# ----- [ 8 ] -----
			POS = 0.00 0.00 0.00
			ROT = 0.00 0.00 0.00
		END_KEY

		KEY	# ----- [ 9 ] -----
			POS = 0.00 0.00 0.00
			ROT = 1.16 0.00 0.00
		END_KEY

		KEY	# ----- [ 10 ] -----
			POS = 0.00 0.00 0.00
			ROT = -0.69 0.00 0.00
		END_KEY

		KEY	# ----- [ 11 ] -----
			POS = 0.00 0.00 0.00
			ROT = 0.00 0.00 0.00
		END_KEY

		KEY	# ----- [ 12 ] -----
			POS = 0.00 0.00 0.00
			ROT = -0.73 0.00 0.00
		END_KEY

		KEY	# ----- [ 13 ] -----
			POS = 0.00 0.00 0.00
			ROT = -0.57 0.00 0.00
		END_KEY

		KEY	# ----- [ 14 ] -----
			POS = 0.00 0.00 0.00
			ROT = 0.00 0.00 0.00
		END_KEY

		KEY	# ----- [ 15 ] -----
			POS = 0.00 0.00 0.00
			ROT = 0.00 0.00 0.00
		END_KEY
	END_KEYSET

	KEYSET			# --- << KEY : 3 / 4 >> ---
		FRAME = 7
		KEY	# ----- [ 0 ] -----
			POS = 0.00 0.00 0.00
			ROT = -0.13 0.00 0.00
		END_KEY

		KEY	# ----- [ 1 ] -----
			POS = 0.00 0.00 0.00
			ROT = -0.19 0.00 0.00
		END_KEY

		KEY	# ----- [ 2 ] -----
			POS = 0.00 0.00 0.00
			ROT = 0.19 0.00 0.00
		END_KEY

		KEY	# ----- [ 3 ] -----
			POS = 0.00 0.00 0.00
			ROT = -0.13 -1.54 1.92
		END_KEY

		KEY	# ----- [ 4 ] -----
			POS = 0.00 0.00 0.00
			ROT = 0.00 0.00 -0.53
		END_KEY

		KEY	# ----- [ 5 ] -----
			POS = 0.00 0.00 0.00
			ROT = 0.00 0.00 0.00
		END_KEY

		KEY	# ----- [ 6 ] -----
			POS = 0.00 0.00 0.00
			ROT = -0.41 0.00 -1.54
		END_KEY

		KEY	# ----- [ 7 ] -----
			POS = 0.00 0.00 0.00
			ROT = -0.06 0.60 0.00
		END_KEY

		KEY	# ----- [ 8 ] -----
			POS = 0.00 0.00 0.00
			ROT = 0.00 0.00 0.00
		END_KEY

		KEY	# ----- [ 9 ] -----
			POS = 0.00 0.00 0.00
			ROT = 0.60 0.00 0.00
		END_KEY

		KEY	# ----- [ 10 ] -----
			POS = 0.00 0.00 0.00
			ROT = -1.04 0.00 0.00
		END_KEY

		KEY	# ----- [ 11 ] -----
			POS = 0.00 0.00 0.00
			ROT = 0.00 0.00 0.00
		END_KEY

		KEY	# ----- [ 12 ] -----
			POS = 0.00 0.00 0.00
			ROT = 0.03 0.00 0.00
		END_KEY

		KEY	# ----- [ 13 ] -----
			POS = 0.00 0.00 0.00
			ROT = -0.41 0.00 0.00
		END_KEY

		KEY	# ----- [ 14 ] -----
			POS = 0.00 0.00 0.00
			ROT = 0.00 0.00 0.00
		END_KEY

		KEY	# ----- [ 15 ] -----
			POS = 0.00 0.00 0.00
			ROT = 0.00 0.00 0.00
		END_KEY
	END_KEYSET
END_MOTIONSET

#========================================
#
# モーション情報 ダメージモーション
#  [ モーション番号 : 2 ]
#
#========================================

MOTIONSET
	LOOP = 1		# ループするかどうか[0:ループしない / 1:ループする]
	NUM_KEY = 2		# キー数

	KEYSET			# --- << KEY : 0 / 2 >> ---
		FRAME = 15
		KEY	# ----- [ 0 ] -----
			POS = 0.00 0.00 0.00
			ROT = 0.25 0.00 0.00
		END_KEY

		KEY	# ----- [ 1 ] -----
			POS = 0.00 0.00 0.00
			ROT = 0.19 0.00 0.00
		END_KEY

		KEY	# ----- [ 2 ] -----
			POS = 0.00 0.00 0.00
			ROT = 0.13 0.00 0.00
		END_KEY

		KEY	# ----- [ 3 ] -----
			POS = 0.00 0.00 0.00
			ROT = 0.00 0.82 -0.66
		END_KEY

		KEY	# ----- [ 4 ] -----
			POS = 0.00 0.00 0.00
			ROT = 0.00 0.00 -0.91
		END_KEY

		KEY	# ----- [ 5 ] -----
			POS = 0.00 0.00 0.00
			ROT = 0.00 -0.19 0.66
		END_KEY

		KEY	# ----- [ 6 ] -----
			POS = 0.00 0.00 0.00
			ROT = 0.00 -1.04 0.75
		END_KEY

		KEY	# ----- [ 7 ] -----
			POS = 0.00 0.00 0.00
			ROT = 0.00 0.00 0.69
		END_KEY

		KEY	# ----- [ 8 ] -----
			POS = 0.00 0.00 0.00
			ROT = 0.00 0.00 0.00
		END_KEY

		KEY	# ----- [ 9 ] -----
			POS = 0.00 0.00 0.00
			ROT = -0.31 -0.00 -0.22
		END_KEY

		KEY	# ----- [ 10 ] -----
			POS = 0.00 0.00 0.00
			ROT = -0.19 0.00 0.00
		END_KEY

		KEY	# ----- [ 11 ] -----
			POS = 0.00 0.00 0.00
			ROT = 0.16 0.00 0.00
		END_KEY

		KEY	# ----- [ 12 ] -----
			POS = 0.00 0.00 0.00
			ROT = 0.16 0.00 0.00
		END_KEY

		KEY	# ----- [ 13 ] -----
			POS = 0.00 0.00 0.00
			ROT = -0.19 0.00 0.00
		END_KEY

		KEY	# ----- [ 14 ] -----
			POS = 0.00 0.00 0.00
			ROT = -0.06 0.00 0.00
		END_KEY

		KEY	# ----- [ 15 ] -----
			POS = 0.00 0.00 0.00
			ROT = 0.00 0.00 0.00
		END_KEY
	END_KEYSET

	KEYSET			# --- << KEY : 1 / 2 >> ---
		FRAME = 45
		KEY	# ----- [ 0 ] -----
			POS = 0.00 0.00 0.00
			ROT = 0.25 0.00 0.00
		END_KEY

		KEY	# ----- [ 1 ] -----
			POS = 0.00 0.00 0.00
			ROT = 0.19 0.00 0.00
		END_KEY

		KEY	# ----- [ 2 ] -----
			POS = 0.00 0.00 0.00
			ROT = 0.13 0.00 0.00
		END_KEY

		KEY	# ----- [ 3 ] -----
			POS = 0.00 0.00 0.00
			ROT = 0.00 0.82 -0.66
		END_KEY

		KEY	# ----- [ 4 ] -----
			POS = 0.00 0.00 0.00
			ROT = 0.00 0.00 -0.91
		END_KEY

		KEY	# ----- [ 5 ] -----
			POS = 0.00 0.00 0.00
			ROT = 0.00 -0.19 0.66
		END_KEY

		KEY	# ----- [ 6 ] -----
			POS = 0.00 0.00 0.00
			ROT = 0.00 -1.04 0.75
		END_KEY

		KEY	# ----- [ 7 ] -----
			POS = 0.00 0.00 0.00
			ROT = 0.00 0.00 0.69
		END_KEY

		KEY	# ----- [ 8 ] -----
			POS = 0.00 0.00 0.00
			ROT = 0.00 0.00 0.00
		END_KEY

		KEY	# ----- [ 9 ] -----
			POS = 0.00 0.00 0.00
			ROT = -0.31 -0.00 -0.22
		END_KEY

		KEY	# ----- [ 10 ] -----
			POS = 0.00 0.00 0.00
			ROT = -0.19 0.00 0.00
		END_KEY

		KEY	# ----- [ 11 ] -----
			POS = 0.00 0.00 0.00
			ROT = 0.16 0.00 0.00
		END_KEY

		KEY	# ----- [ 12 ] -----
			POS = 0.00 0.00 0.00
			ROT = 0.16 0.00 0.00
		END_KEY

		KEY	# ----- [ 13 ] -----
			POS = 0.00 0.00 0.00
			ROT = -0.19 0.00 0.00
		END_KEY

		KEY	# ----- [ 14 ] -----
			POS = 0.00 0.00 0.00
			ROT = -0.06 0.00 0.00
		END_KEY

		KEY	# ----- [ 15 ] -----
			POS = 0.00 0.00 0.00
			ROT = 0.00 0.00 0.00
		END_KEY
	END_KEYSET
END_MOTIONSET

#========================================
#
# モーション情報 ダウンモーション
#  [ モーション番号 : 3 ]
#
#========================================

MOTIONSET
	LOOP = 1		# ループするかどうか[0:ループしない / 1:ループする]
	NUM_KEY = 2		# キー数

	KEYSET			# --- << KEY : 0 / 2 >> ---
		FRAME = 25
		KEY	# ----- [ 0 ] -----
			POS = 0.00 -50.00 0.00
			ROT = 1.57 0.00 0.00
		END_KEY

		KEY	# ----- [ 1 ] -----
			POS = 0.00 0.00 0.00
			ROT = -0.00 0.00 0.00
		END_KEY

		KEY	# ----- [ 2 ] -----
			POS = 0.00 0.00 0.00
			ROT = 0.00 0.00 0.00
		END_KEY

		KEY	# ----- [ 3 ] -----
			POS = 0.00 0.00 0.00
			ROT = 0.00 0.00 0.82
		END_KEY

		KEY	# ----- [ 4 ] -----
			POS = 0.00 0.00 0.00
			ROT = 0.00 0.00 0.41
		END_KEY

		KEY	# ----- [ 5 ] -----
			POS = 0.00 0.00 0.00
			ROT = 0.00 0.00 -0.03
		END_KEY

		KEY	# ----- [ 6 ] -----
			POS = 0.00 0.00 0.00
			ROT = 0.00 0.00 -0.47
		END_KEY

		KEY	# ----- [ 7 ] -----
			POS = 0.00 0.00 0.00
			ROT = 0.00 0.00 0.00
		END_KEY

		KEY	# ----- [ 8 ] -----
			POS = 0.00 0.00 0.00
			ROT = 0.00 0.00 0.00
		END_KEY

		KEY	# ----- [ 9 ] -----
			POS = 0.00 0.00 0.00
			ROT = 0.41 -0.47 -0.35
		END_KEY

		KEY	# ----- [ 10 ] -----
			POS = 0.00 0.00 0.00
			ROT = -1.01 0.00 0.00
		END_KEY

		KEY	# ----- [ 11 ] -----
			POS = 0.00 0.00 0.00
			ROT = -0.38 0.00 0.00
		END_KEY

		KEY	# ----- [ 12 ] -----
			POS = 0.00 0.00 0.00
			ROT = 0.00 0.00 0.13
		END_KEY

		KEY	# ----- [ 13 ] -----
			POS = 0.00 0.00 0.00
			ROT = 0.00 0.00 0.00
		END_KEY

		KEY	# ----- [ 14 ] -----
			POS = 0.00 0.00 0.00
			ROT = 0.25 0.00 0.00
		END_KEY

		KEY	# ----- [ 15 ] -----
			POS = 0.00 0.00 0.00
			ROT = 0.00 0.00 0.00
		END_KEY
	END_KEYSET

	KEYSET			# --- << KEY : 1 / 2 >> ---
		FRAME = 60
		KEY	# ----- [ 0 ] -----
			POS = 0.00 -50.00 0.00
			ROT = 1.57 0.00 0.00
		END_KEY

		KEY	# ----- [ 1 ] -----
			POS = 0.00 0.00 0.00
			ROT = -0.22 0.00 0.00
		END_KEY

		KEY	# ----- [ 2 ] -----
			POS = 0.00 0.00 0.00
			ROT = 0.00 0.00 0.00
		END_KEY

		KEY	# ----- [ 3 ] -----
			POS = 0.00 0.00 0.00
			ROT = 0.00 -0.25 0.82
		END_KEY

		KEY	# ----- [ 4 ] -----
			POS = 0.00 0.00 0.00
			ROT = 0.00 0.00 0.41
		END_KEY

		KEY	# ----- [ 5 ] -----
			POS = 0.00 0.00 0.00
			ROT = 0.00 0.00 -0.03
		END_KEY

		KEY	# ----- [ 6 ] -----
			POS = 0.00 0.00 0.00
			ROT = 0.00 0.00 -0.47
		END_KEY

		KEY	# ----- [ 7 ] -----
			POS = 0.00 0.00 0.00
			ROT = 0.00 0.09 0.00
		END_KEY

		KEY	# ----- [ 8 ] -----
			POS = 0.00 0.00 0.00
			ROT = 0.00 0.00 0.00
		END_KEY

		KEY	# ----- [ 9 ] -----
			POS = 0.00 0.00 0.00
			ROT = 0.06 -0.41 -0.35
		END_KEY

		KEY	# ----- [ 10 ] -----
			POS = 0.00 0.00 0.00
			ROT = -0.29 0.00 0.00
		END_KEY

		KEY	# ----- [ 11 ] -----
			POS = 0.00 0.00 0.00
			ROT = -0.38 0.00 0.00
		END_KEY

		KEY	# ----- [ 12 ] -----
			POS = 0.00 0.00 0.00
			ROT = 0.06 0.00 0.13
		END_KEY

		KEY	# ----- [ 13 ] -----
			POS = 0.00 0.00 0.00
			ROT = 0.00 0.00 0.00
		END_KEY

		KEY	# ----- [ 14 ] -----
			POS = 0.00 0.00 0.00
			ROT = -0.06 0.00 0.00
		END_KEY

		KEY	# ----- [ 15 ] -----
			POS = 0.00 0.00 0.00
			ROT = 0.00 0.00 0.00
		END_KEY
	END_KEYSET
END_MOTIONSET

#========================================
#
# モーション情報 起き上がるモーション
#  [ モーション番号 : 4 ]
#
#========================================

MOTIONSET
	LOOP = 1		# ループするかどうか[0:ループしない / 1:ループする]
	NUM_KEY = 5		# キー数

	KEYSET			# --- << KEY : 0 / 5 >> ---
		FRAME = 30
		KEY	# ----- [ 0 ] -----
			POS = 0.00 -50.00 0.00
			ROT = 1.57 0.00 0.00
		END_KEY

		KEY	# ----- [ 1 ] -----
			POS = 0.00 0.00 0.00
			ROT = -1.19 0.00 0.00
		END_KEY

		KEY	# ----- [ 2 ] -----
			POS = 0.00 0.00 0.00
			ROT = 0.00 0.00 0.00
		END_KEY

		KEY	# ----- [ 3 ] -----
			POS = 0.00 0.00 0.00
			ROT = 0.41 0.00 0.60
		END_KEY

		KEY	# ----- [ 4 ] -----
			POS = 0.00 0.00 0.00
			ROT = 0.00 0.00 0.41
		END_KEY

		KEY	# ----- [ 5 ] -----
			POS = 0.00 0.00 0.00
			ROT = 0.00 0.00 -0.03
		END_KEY

		KEY	# ----- [ 6 ] -----
			POS = 0.00 0.00 0.00
			ROT = -0.28 0.09 -0.91
		END_KEY

		KEY	# ----- [ 7 ] -----
			POS = 0.00 0.00 0.00
			ROT = 0.00 0.60 0.00
		END_KEY

		KEY	# ----- [ 8 ] -----
			POS = 0.00 0.00 0.00
			ROT = 0.00 0.00 0.00
		END_KEY

		KEY	# ----- [ 9 ] -----
			POS = 0.00 0.00 0.00
			ROT = 0.41 -0.47 -0.35
		END_KEY

		KEY	# ----- [ 10 ] -----
			POS = 0.00 0.00 0.00
			ROT = -1.01 0.00 0.00
		END_KEY

		KEY	# ----- [ 11 ] -----
			POS = 0.00 0.00 0.00
			ROT = -0.38 0.00 0.00
		END_KEY

		KEY	# ----- [ 12 ] -----
			POS = 0.00 0.00 0.00
			ROT = 0.00 0.00 0.13
		END_KEY

		KEY	# ----- [ 13 ] -----
			POS = 0.00 0.00 0.00
			ROT = 0.00 0.00 0.00
		END_KEY

		KEY	# ----- [ 14 ] -----
			POS = 0.00 0.00 0.00
			ROT = 0.25 0.00 0.00
		END_KEY

		KEY	# ----- [ 15 ] -----
			POS = 0.00 0.00 0.00
			ROT = 0.00 0.00 0.00
		END_KEY
	END_KEYSET

	KEYSET			# --- << KEY : 1 / 5 >> ---
		FRAME = 30
		KEY	# ----- [ 0 ] -----
			POS = 0.00 -50.00 0.00
			ROT = 1.57 0.00 0.00
		END_KEY

		KEY	# ----- [ 1 ] -----
			POS = 0.00 0.00 0.00
			ROT = -1.54 0.60 -0.06
		END_KEY

		KEY	# ----- [ 2 ] -----
			POS = 0.00 0.00 0.00
			ROT = 0.00 0.00 0.00
		END_KEY

		KEY	# ----- [ 3 ] -----
			POS = 0.00 0.00 0.00
			ROT = 0.44 0.03 0.44
		END_KEY

		KEY	# ----- [ 4 ] -----
			POS = 0.00 0.00 0.00
			ROT = 0.00 -0.97 0.41
		END_KEY

		KEY	# ----- [ 5 ] -----
			POS = 0.00 0.00 0.00
			ROT = 0.00 0.00 -0.03
		END_KEY

		KEY	# ----- [ 6 ] -----
			POS = 0.00 0.00 0.00
			ROT = -0.28 0.03 -0.94
		END_KEY

		KEY	# ----- [ 7 ] -----
			POS = 0.00 0.00 0.00
			ROT = -0.03 0.57 -0.85
		END_KEY

		KEY	# ----- [ 8 ] -----
			POS = 0.00 0.00 0.00
			ROT = 0.00 0.00 0.00
		END_KEY

		KEY	# ----- [ 9 ] -----
			POS = 0.00 0.00 0.00
			ROT = 0.44 -0.38 -0.35
		END_KEY

		KEY	# ----- [ 10 ] -----
			POS = 0.00 0.00 0.00
			ROT = -1.26 0.00 0.00
		END_KEY

		KEY	# ----- [ 11 ] -----
			POS = 0.00 0.00 0.00
			ROT = -0.32 0.00 0.00
		END_KEY

		KEY	# ----- [ 12 ] -----
			POS = 0.00 0.00 0.00
			ROT = 0.75 -0.00 0.13
		END_KEY

		KEY	# ----- [ 13 ] -----
			POS = 0.00 0.00 0.00
			ROT = -2.36 0.00 0.00
		END_KEY

		KEY	# ----- [ 14 ] -----
			POS = 0.00 0.00 0.00
			ROT = 0.47 0.00 0.00
		END_KEY

		KEY	# ----- [ 15 ] -----
			POS = 0.00 0.00 0.00
			ROT = 0.00 0.00 0.00
		END_KEY
	END_KEYSET

	KEYSET			# --- << KEY : 2 / 5 >> ---
		FRAME = 20
		KEY	# ----- [ 0 ] -----
			POS = 0.00 -41.40 0.00
			ROT = 0.93 0.00 0.00
		END_KEY

		KEY	# ----- [ 1 ] -----
			POS = 0.00 0.00 0.00
			ROT = -1.42 0.03 -0.06
		END_KEY

		KEY	# ----- [ 2 ] -----
			POS = 0.00 0.00 0.00
			ROT = 0.00 0.00 0.00
		END_KEY

		KEY	# ----- [ 3 ] -----
			POS = 0.00 0.00 0.00
			ROT = 0.30 0.03 0.63
		END_KEY

		KEY	# ----- [ 4 ] -----
			POS = 0.00 0.00 0.00
			ROT = 0.00 -0.48 0.40
		END_KEY

		KEY	# ----- [ 5 ] -----
			POS = 0.00 0.00 0.00
			ROT = -1.03 -0.17 -0.04
		END_KEY

		KEY	# ----- [ 6 ] -----
			POS = 0.00 0.00 0.00
			ROT = -0.16 0.02 -0.62
		END_KEY

		KEY	# ----- [ 7 ] -----
			POS = 0.00 0.00 0.00
			ROT = -0.17 0.54 -0.85
		END_KEY

		KEY	# ----- [ 8 ] -----
			POS = 0.00 0.00 0.00
			ROT = 0.00 0.00 0.00
		END_KEY

		KEY	# ----- [ 9 ] -----
			POS = 0.00 0.00 0.00
			ROT = 1.37 -0.16 -0.23
		END_KEY

		KEY	# ----- [ 10 ] -----
			POS = 0.00 0.00 0.00
			ROT = -2.82 0.00 0.00
		END_KEY

		KEY	# ----- [ 11 ] -----
			POS = 0.00 0.00 0.00
			ROT = 0.50 0.00 0.00
		END_KEY

		KEY	# ----- [ 12 ] -----
			POS = 0.00 0.00 0.00
			ROT = 1.46 0.13 0.17
		END_KEY

		KEY	# ----- [ 13 ] -----
			POS = 0.00 0.00 0.00
			ROT = -2.84 0.00 0.00
		END_KEY

		KEY	# ----- [ 14 ] -----
			POS = 0.00 0.00 0.00
			ROT = 0.68 0.00 0.00
		END_KEY

		KEY	# ----- [ 15 ] -----
			POS = 0.00 0.00 0.00
			ROT = 0.00 0.00 0.00
		END_KEY
	END_KEYSET

	KEYSET			# --- << KEY : 3 / 5 >> ---
		FRAME = 20
		KEY	# ----- [ 0 ] -----
			POS = 0.00 -18.40 0.00
			ROT = 0.93 0.00 0.00
		END_KEY

		KEY	# ----- [ 1 ] -----
			POS = 0.00 0.00 0.00
			ROT = -1.29 0.03 -0.06
		END_KEY

		KEY	# ----- [ 2 ] -----
			POS = 0.00 0.00 0.00
			ROT = 0.00 0.00 0.00
		END_KEY

		KEY	# ----- [ 3 ] -----
			POS = 0.00 0.00 0.00
			ROT = 0.30 0.03 0.63
		END_KEY

		KEY	# ----- [ 4 ] -----
			POS = 0.00 0.00 0.00
			ROT = 0.00 -0.48 0.40
		END_KEY

		KEY	# ----- [ 5 ] -----
			POS = 0.00 0.00 0.00
			ROT = -1.03 -0.17 -0.04
		END_KEY

		KEY	# ----- [ 6 ] -----
			POS = 0.00 0.00 0.00
			ROT = -0.16 0.02 -0.62
		END_KEY

		KEY	# ----- [ 7 ] -----
			POS = 0.00 0.00 0.00
			ROT = -0.17 0.54 -0.85
		END_KEY

		KEY	# ----- [ 8 ] -----
			POS = 0.00 0.00 0.00
			ROT = 0.00 0.00 0.00
		END_KEY

		KEY	# ----- [ 9 ] -----
			POS = 0.00 0.00 0.00
			ROT = 0.08 -0.13 -0.23
		END_KEY

		KEY	# ----- [ 10 ] -----
			POS = 0.00 0.00 0.00
			ROT = -2.06 0.00 0.00
		END_KEY

		KEY	# ----- [ 11 ] -----
			POS = 0.00 0.00 0.00
			ROT = 0.03 0.00 0.00
		END_KEY

		KEY	# ----- [ 12 ] -----
			POS = 0.00 0.00 0.00
			ROT = 0.17 0.13 0.17
		END_KEY

		KEY	# ----- [ 13 ] -----
			POS = 0.00 0.00 0.00
			ROT = -2.28 0.00 0.00
		END_KEY

		KEY	# ----- [ 14 ] -----
			POS = 0.00 0.00 0.00
			ROT = 0.58 0.00 0.00
		END_KEY

		KEY	# ----- [ 15 ] -----
			POS = 0.00 0.00 0.00
			ROT = 0.00 0.00 0.00
		END_KEY
	END_KEYSET

	KEYSET			# --- << KEY : 4 / 5 >> ---
		FRAME = 10
		KEY	# ----- [ 0 ] -----
			POS = 0.00 0.01 0.00
			ROT = 0.02 0.00 0.00
		END_KEY

		KEY	# ----- [ 1 ] -----
			POS = 0.00 0.00 0.00
			ROT = -0.09 0.02 0.00
		END_KEY

		KEY	# ----- [ 2 ] -----
			POS = 0.00 0.00 0.00
			ROT = 0.00 0.00 0.00
		END_KEY

		KEY	# ----- [ 3 ] -----
			POS = 0.00 0.00 0.00
			ROT = 0.25 0.03 0.70
		END_KEY

		KEY	# ----- [ 4 ] -----
			POS = 0.00 0.00 0.00
			ROT = 0.00 -0.29 0.39
		END_KEY

		KEY	# ----- [ 5 ] -----
			POS = 0.00 0.00 0.00
			ROT = -1.43 -0.24 -0.05
		END_KEY

		KEY	# ----- [ 6 ] -----
			POS = 0.00 0.00 0.00
			ROT = -0.11 0.01 -0.49
		END_KEY

		KEY	# ----- [ 7 ] -----
			POS = 0.00 0.00 0.00
			ROT = -0.22 0.53 -0.85
		END_KEY

		KEY	# ----- [ 8 ] -----
			POS = 0.00 0.00 0.00
			ROT = 0.00 0.00 0.00
		END_KEY

		KEY	# ----- [ 9 ] -----
			POS = 0.00 0.00 0.00
			ROT = 0.40 -0.06 -0.20
		END_KEY

		KEY	# ----- [ 10 ] -----
			POS = 0.00 0.00 0.00
			ROT = -0.59 0.00 0.00
		END_KEY

		KEY	# ----- [ 11 ] -----
			POS = 0.00 0.00 0.00
			ROT = 0.24 0.00 0.00
		END_KEY

		KEY	# ----- [ 12 ] -----
			POS = 0.00 0.00 0.00
			ROT = 0.15 0.08 0.19
		END_KEY

		KEY	# ----- [ 13 ] -----
			POS = 0.00 0.00 0.00
			ROT = -0.35 0.00 0.00
		END_KEY

		KEY	# ----- [ 14 ] -----
			POS = 0.00 0.00 0.00
			ROT = 0.44 0.00 0.00
		END_KEY

		KEY	# ----- [ 15 ] -----
			POS = 0.00 0.00 0.00
			ROT = 0.00 0.00 0.00
		END_KEY
	END_KEYSET
END_MOTIONSET

END_SCRIPT		# この行は絶対消さないこと！
