xof 0302txt 0064
template Header {
 <3D82AB43-62DA-11cf-AB39-0020AF71E433>
 WORD major;
 WORD minor;
 DWORD flags;
}

template Vector {
 <3D82AB5E-62DA-11cf-AB39-0020AF71E433>
 FLOAT x;
 FLOAT y;
 FLOAT z;
}

template Coords2d {
 <F6F23F44-7686-11cf-8F52-0040333594A3>
 FLOAT u;
 FLOAT v;
}

template Matrix4x4 {
 <F6F23F45-7686-11cf-8F52-0040333594A3>
 array FLOAT matrix[16];
}

template ColorRGBA {
 <35FF44E0-6C7C-11cf-8F52-0040333594A3>
 FLOAT red;
 FLOAT green;
 FLOAT blue;
 FLOAT alpha;
}

template ColorRGB {
 <D3E16E81-7835-11cf-8F52-0040333594A3>
 FLOAT red;
 FLOAT green;
 FLOAT blue;
}

template IndexedColor {
 <1630B820-7842-11cf-8F52-0040333594A3>
 DWORD index;
 ColorRGBA indexColor;
}

template Boolean {
 <4885AE61-78E8-11cf-8F52-0040333594A3>
 WORD truefalse;
}

template Boolean2d {
 <4885AE63-78E8-11cf-8F52-0040333594A3>
 Boolean u;
 Boolean v;
}

template MaterialWrap {
 <4885AE60-78E8-11cf-8F52-0040333594A3>
 Boolean u;
 Boolean v;
}

template TextureFilename {
 <A42790E1-7810-11cf-8F52-0040333594A3>
 STRING filename;
}

template Material {
 <3D82AB4D-62DA-11cf-AB39-0020AF71E433>
 ColorRGBA faceColor;
 FLOAT power;
 ColorRGB specularColor;
 ColorRGB emissiveColor;
 [...]
}

template MeshFace {
 <3D82AB5F-62DA-11cf-AB39-0020AF71E433>
 DWORD nFaceVertexIndices;
 array DWORD faceVertexIndices[nFaceVertexIndices];
}

template MeshFaceWraps {
 <4885AE62-78E8-11cf-8F52-0040333594A3>
 DWORD nFaceWrapValues;
 Boolean2d faceWrapValues;
}

template MeshTextureCoords {
 <F6F23F40-7686-11cf-8F52-0040333594A3>
 DWORD nTextureCoords;
 array Coords2d textureCoords[nTextureCoords];
}

template MeshMaterialList {
 <F6F23F42-7686-11cf-8F52-0040333594A3>
 DWORD nMaterials;
 DWORD nFaceIndexes;
 array DWORD faceIndexes[nFaceIndexes];
 [Material]
}

template MeshNormals {
 <F6F23F43-7686-11cf-8F52-0040333594A3>
 DWORD nNormals;
 array Vector normals[nNormals];
 DWORD nFaceNormals;
 array MeshFace faceNormals[nFaceNormals];
}

template MeshVertexColors {
 <1630B821-7842-11cf-8F52-0040333594A3>
 DWORD nVertexColors;
 array IndexedColor vertexColors[nVertexColors];
}

template Mesh {
 <3D82AB44-62DA-11cf-AB39-0020AF71E433>
 DWORD nVertices;
 array Vector vertices[nVertices];
 DWORD nFaces;
 array MeshFace faces[nFaces];
 [...]
}

Header{
1;
0;
1;
}

Mesh {
 287;
 -0.21492;-7.57428;-5.14126;,
 1.32552;-7.46611;-5.60208;,
 2.69630;-13.94547;-5.24118;,
 1.11398;-14.29516;-4.94467;,
 2.80961;-7.05513;-5.37918;,
 4.17006;-13.57951;-4.91193;,
 6.74878;-13.42376;-2.19325;,
 5.79934;-6.54746;-2.47024;,
 6.23252;-6.35029;-0.40466;,
 7.15744;-13.44691;-0.29177;,
 5.95051;-6.22719;1.34936;,
 6.76720;-13.31975;1.90179;,
 4.99938;-6.21939;3.22400;,
 5.69550;-13.39281;3.79591;,
 3.10331;-6.17198;4.88049;,
 4.02926;-13.38693;5.28767;,
 1.28676;-6.28932;5.51469;,
 2.14249;-13.31527;6.21583;,
 0.21252;-6.44756;5.74637;,
 0.63051;-13.61105;6.10800;,
 -0.94357;-6.64757;5.39411;,
 -0.42075;-13.94204;5.77149;,
 -2.25528;-6.86559;4.76967;,
 -1.46567;-14.29866;4.76260;,
 -3.01364;-7.31932;3.29018;,
 -2.12000;-14.87698;3.24020;,
 -3.38196;-7.71214;2.05821;,
 -2.40703;-15.42805;1.39784;,
 -3.51715;-8.24735;0.43387;,
 -2.41711;-15.30835;-0.13209;,
 -2.40703;-15.42805;1.39784;,
 -3.38196;-7.71214;2.05821;,
 -3.27600;-8.30534;-1.44024;,
 -2.15938;-15.00148;-1.73208;,
 -2.56058;-8.07663;-3.28869;,
 -1.33522;-14.74573;-3.52243;,
 -1.52133;-7.97946;-4.11688;,
 -0.34207;-14.68316;-4.09753;,
 5.31806;-17.73237;-4.97491;,
 3.38808;-17.89212;-5.43127;,
 5.48404;-13.40879;-3.98901;,
 6.57348;-17.48771;-4.02937;,
 8.00985;-18.08005;-2.34368;,
 8.85170;-17.86983;0.04477;,
 8.30132;-17.04070;2.17931;,
 6.83322;-16.22227;4.49691;,
 4.76112;-16.60664;6.45719;,
 2.98510;-17.00164;7.12211;,
 1.04660;-16.84270;6.98440;,
 -0.24721;-17.30666;6.08784;,
 -1.20080;-17.48820;5.14536;,
 -2.01982;-17.91423;3.84143;,
 -2.34668;-18.26759;1.81122;,
 -2.32671;-18.11707;0.18791;,
 -2.34668;-18.26759;1.81122;,
 -2.01915;-18.04889;-1.84079;,
 -1.36127;-18.10925;-3.08300;,
 5.53418;-20.34352;-4.70392;,
 3.60542;-20.42431;-5.18885;,
 7.19292;-19.68359;-3.57478;,
 8.39639;-19.50068;-1.99633;,
 8.90153;-19.70575;1.20378;,
 8.53791;-19.26643;2.69763;,
 7.25629;-19.21234;6.01824;,
 5.23857;-18.41283;7.72143;,
 2.93648;-18.79408;7.88477;,
 0.81149;-19.63273;7.19942;,
 -0.39111;-20.07720;6.07923;,
 -1.14069;-20.50634;4.96125;,
 -2.04762;-20.73446;3.90261;,
 -2.58069;-21.20335;2.01557;,
 -2.58069;-21.20335;2.01557;,
 -2.38921;-21.14102;-0.31533;,
 -1.83505;-20.95721;-1.75324;,
 5.10540;-22.58829;-2.44893;,
 3.41766;-22.88997;-2.90032;,
 3.54242;-21.68013;-4.29528;,
 5.34112;-21.38567;-3.66344;,
 6.45498;-22.15129;-1.62920;,
 7.13128;-21.02537;-2.90399;,
 7.34798;-22.00630;-0.45819;,
 8.07042;-20.73947;-1.35083;,
 7.72621;-21.94499;1.77152;,
 8.38481;-20.75051;1.47167;,
 7.90136;-21.54888;3.68665;,
 8.45656;-20.42993;3.17734;,
 6.46762;-21.56727;5.83884;,
 6.95239;-20.31808;5.98430;,
 4.90283;-21.51425;7.31747;,
 5.03276;-19.71347;7.56789;,
 2.90851;-21.69924;7.16553;,
 2.92750;-20.06147;7.71797;,
 1.15528;-22.08356;6.30445;,
 1.03182;-20.73821;6.65510;,
 0.16917;-22.39623;5.46447;,
 -0.21485;-21.19471;5.87866;,
 -0.55599;-22.71836;4.60295;,
 -1.11086;-21.63267;4.99869;,
 -1.07737;-22.85208;3.82870;,
 -1.83736;-21.81854;3.99756;,
 -1.47501;-23.25816;2.23558;,
 -2.28963;-22.24344;2.13604;,
 -1.16426;-23.38532;0.42837;,
 -1.47501;-23.25816;2.23558;,
 -2.28963;-22.24344;2.13604;,
 -2.04958;-22.28399;-0.02460;,
 -0.62882;-23.41262;-0.87597;,
 -1.48897;-22.20418;-1.44878;,
 0.77624;-24.31777;0.06924;,
 0.20246;-24.34017;1.05613;,
 -0.28222;-24.24394;2.32514;,
 -0.28222;-24.24394;2.32514;,
 -0.19668;-24.04416;3.63208;,
 0.09437;-23.96662;4.13683;,
 0.65421;-23.75353;4.92817;,
 1.43063;-23.50267;5.60238;,
 2.99098;-23.01025;6.30978;,
 4.77252;-22.86694;6.32779;,
 5.81862;-22.96609;5.59044;,
 6.62131;-22.92469;3.82239;,
 6.67153;-23.14519;2.12039;,
 6.29517;-23.30224;0.63943;,
 5.68940;-23.46972;-0.16878;,
 4.70347;-23.72861;-0.84749;,
 3.22708;-24.06640;-1.10523;,
 4.24508;-24.68801;-0.35682;,
 3.52827;-24.81720;-0.49041;,
 5.12204;-24.42858;0.39775;,
 5.63255;-24.24557;1.11437;,
 6.05315;-24.02265;2.35924;,
 6.17175;-23.89988;3.97533;,
 5.57314;-23.75534;5.55496;,
 4.48337;-23.76873;6.20759;,
 2.50860;-24.22655;6.04374;,
 1.49808;-24.37399;5.39053;,
 0.79867;-24.65542;4.79693;,
 0.42796;-24.82870;3.92671;,
 0.30342;-24.93272;3.14273;,
 0.36606;-25.04601;2.36858;,
 0.61766;-25.07500;1.41670;,
 0.36606;-25.04601;2.36858;,
 1.31611;-25.15210;0.38469;,
 3.55676;-25.10773;-0.71928;,
 3.52827;-24.81720;-0.49041;,
 4.24508;-24.68801;-0.35682;,
 4.04794;-25.00975;-0.67252;,
 5.12204;-24.42858;0.39775;,
 4.58229;-25.43864;-0.96364;,
 5.68453;-25.11954;0.27031;,
 5.90807;-25.89054;-0.64301;,
 5.28899;-26.25760;-1.42377;,
 8.30895;-27.60834;0.30882;,
 7.36264;-27.93451;-1.60115;,
 7.14399;-25.58208;1.29264;,
 8.94282;-27.40065;3.43047;,
 7.29321;-25.48406;3.75773;,
 8.71976;-27.24889;6.22350;,
 9.17279;-27.99024;6.38135;,
 9.44783;-28.13906;3.32112;,
 7.28308;-27.15931;8.53254;,
 7.82182;-27.94344;8.84635;,
 4.56918;-27.41567;9.93721;,
 4.95706;-28.06391;10.44215;,
 2.22543;-27.64819;10.03423;,
 2.58892;-28.26578;10.62888;,
 0.04221;-27.99252;9.15417;,
 -0.00692;-28.60792;9.73745;,
 -1.39556;-28.28357;7.38714;,
 -1.67162;-28.99564;7.96626;,
 -2.18305;-28.67291;5.25953;,
 -2.47538;-29.35205;5.61587;,
 -2.05224;-28.80626;3.02474;,
 -2.44278;-29.55187;3.16871;,
 -2.05224;-28.80626;3.02474;,
 -1.63679;-28.77960;1.08041;,
 -1.99307;-29.62278;1.08707;,
 -2.44278;-29.55187;3.16871;,
 7.16889;-28.49955;-2.80022;,
 6.43846;-24.88191;1.86788;,
 5.63255;-24.24557;1.11437;,
 6.05315;-24.02265;2.35924;,
 6.71147;-24.71660;3.86299;,
 6.17175;-23.89988;3.97533;,
 6.19386;-24.57220;5.74753;,
 5.57314;-23.75534;5.55496;,
 5.06588;-24.46968;6.91373;,
 4.48337;-23.76873;6.20759;,
 2.80118;-24.91555;6.98676;,
 2.50860;-24.22655;6.04374;,
 1.40482;-25.14464;6.30510;,
 1.49808;-24.37399;5.39053;,
 0.47087;-25.33591;6.11682;,
 0.79867;-24.65542;4.79693;,
 0.02495;-25.67590;5.06639;,
 0.42796;-24.82870;3.92671;,
 -0.26489;-25.80853;3.56376;,
 0.30342;-24.93272;3.14273;,
 -0.22266;-25.92037;2.63763;,
 0.36606;-25.04601;2.36858;,
 0.13396;-25.93666;1.34151;,
 -0.22266;-25.92037;2.63763;,
 0.36606;-25.04601;2.36858;,
 0.61766;-25.07500;1.41670;,
 0.82472;-26.04296;0.10869;,
 1.31611;-25.15210;0.38469;,
 -0.93051;-26.57789;4.24777;,
 -0.40241;-26.44698;5.65793;,
 -0.74931;-26.80664;2.64916;,
 -0.43587;-26.69354;0.92385;,
 -0.74931;-26.80664;2.64916;,
 0.66318;-26.16431;6.94512;,
 1.34214;-25.85342;7.71733;,
 3.40735;-25.57769;7.85643;,
 5.53548;-25.32077;7.32810;,
 7.23464;-25.34055;5.70694;,
 8.69962;-28.34285;-0.02989;,
 -0.07128;-18.60185;-4.05428;,
 1.61912;-18.42259;-5.28796;,
 1.63157;-20.61304;-5.23870;,
 1.91413;-23.13269;-2.75615;,
 2.20596;-24.22096;-0.76196;,
 1.11110;-23.16842;-2.16983;,
 1.87893;-24.25940;-0.59681;,
 0.30807;-23.20415;-1.58351;,
 1.48092;-24.30619;-0.39583;,
 1.62044;-25.18828;0.13431;,
 2.68240;-24.90577;-0.24846;,
 2.15142;-25.04703;-0.05708;,
 2.68240;-24.90577;-0.24846;,
 3.15868;-25.67262;-1.08399;,
 -1.11865;-20.89372;-3.03354;,
 -0.00721;-20.67480;-4.28140;,
 -0.64127;-22.13232;-2.52673;,
 0.57752;-21.98905;-3.39417;,
 1.72664;-21.85395;-4.21203;,
 2.32687;-25.80860;-0.73027;,
 2.15142;-25.04703;-0.05708;,
 0.34658;-28.52299;-1.58369;,
 1.06293;-28.42192;-2.18186;,
 1.87131;-28.99598;-3.19712;,
 0.41250;-29.26639;-2.06114;,
 -0.60096;-28.65666;-0.79247;,
 -0.76937;-29.48547;-1.14080;,
 1.62044;-25.18828;0.13431;,
 1.67937;-25.91446;-0.45494;,
 0.10177;-26.80557;0.08931;,
 1.62328;-26.69543;-1.03278;,
 2.80874;-26.56878;-1.62420;,
 2.15662;-26.63845;-1.29886;,
 4.97936;-2.96963;-2.46450;,
 5.29989;-2.75578;-0.57104;,
 5.09415;-2.92819;1.21218;,
 3.89264;-2.83978;3.37168;,
 2.52870;-2.87837;4.48863;,
 1.20491;-3.06087;5.12136;,
 0.14758;-3.28028;5.34383;,
 -1.33940;-3.42542;5.22135;,
 -2.52656;-3.82314;4.43364;,
 -3.42186;-4.32931;3.28421;,
 -3.78958;-4.68729;1.91227;,
 -3.97609;-5.19564;0.40106;,
 -3.86740;-5.14170;-1.38003;,
 -3.22261;-4.72801;-3.17813;,
 -2.56298;-4.47089;-4.33699;,
 -1.55406;-3.99187;-5.39372;,
 0.35527;-3.70009;-5.78957;,
 2.25545;-3.56526;-5.55275;,
 3.77396;-3.05547;-4.35476;,
 0.00035;-1.76839;-6.01768;,
 1.84181;-1.17328;-5.54093;,
 3.09996;-0.89893;-4.52046;,
 4.31710;-0.74941;-2.63960;,
 4.62658;-0.55195;-0.63629;,
 4.44017;-0.52615;1.16544;,
 3.54312;-0.89864;2.94640;,
 2.26079;-1.28275;4.40966;,
 1.10802;-1.68280;5.13382;,
 0.00702;-1.96915;5.33840;,
 -1.47657;-2.14309;5.24661;,
 -2.99244;-2.65451;4.37421;,
 -3.72263;-3.53338;3.07937;,
 -3.97377;-4.13789;1.88369;,
 -4.12687;-4.52315;0.29702;,
 -4.09863;-4.48263;-1.05590;,
 -3.74368;-4.04799;-2.97828;,
 -3.20782;-3.31525;-4.57297;,
 -2.10621;-1.93776;-6.03557;;
 
 237;
 4;0,1,2,3;,
 4;2,1,4,5;,
 4;6,7,8,9;,
 4;9,8,10,11;,
 4;11,10,12,13;,
 4;14,15,13,12;,
 4;16,17,15,14;,
 4;18,19,17,16;,
 4;20,21,19,18;,
 4;22,23,21,20;,
 4;24,25,23,22;,
 4;26,27,25,24;,
 4;28,29,30,31;,
 4;32,33,29,28;,
 4;34,35,33,32;,
 4;36,0,3,37;,
 4;37,35,34,36;,
 4;2,5,38,39;,
 4;40,41,38,5;,
 4;6,42,41,40;,
 4;9,43,42,6;,
 4;11,44,43,9;,
 4;13,45,44,11;,
 4;15,46,45,13;,
 4;17,47,46,15;,
 4;19,48,47,17;,
 4;21,49,48,19;,
 4;23,50,49,21;,
 4;25,51,50,23;,
 4;27,52,51,25;,
 4;29,53,54,30;,
 4;33,55,53,29;,
 4;35,56,55,33;,
 4;39,38,57,58;,
 4;57,38,41,59;,
 4;59,41,42,60;,
 4;60,42,43,61;,
 4;61,43,44,62;,
 4;62,44,45,63;,
 4;63,45,46,64;,
 4;64,46,47,65;,
 4;65,47,48,66;,
 4;66,48,49,67;,
 4;67,49,50,68;,
 4;68,50,51,69;,
 4;69,51,52,70;,
 4;71,54,53,72;,
 4;72,53,55,73;,
 4;74,75,76,77;,
 4;78,74,77,79;,
 4;80,78,79,81;,
 4;82,80,81,83;,
 4;84,82,83,85;,
 4;86,84,85,87;,
 4;88,86,87,89;,
 4;90,88,89,91;,
 4;92,90,91,93;,
 4;94,92,93,95;,
 4;96,94,95,97;,
 4;98,96,97,99;,
 4;100,98,99,101;,
 4;102,103,104,105;,
 4;106,102,105,107;,
 4;77,76,58,57;,
 4;79,77,57,59;,
 4;81,79,59,60;,
 4;83,81,60,61;,
 4;85,83,61,62;,
 4;87,85,62,63;,
 4;89,87,63,64;,
 4;91,89,64,65;,
 4;93,91,65,66;,
 4;95,93,66,67;,
 4;97,95,67,68;,
 4;99,97,68,69;,
 4;101,99,69,70;,
 4;105,104,71,72;,
 4;107,105,72,73;,
 4;102,106,108,109;,
 4;103,102,109,110;,
 4;98,100,111,112;,
 4;96,98,112,113;,
 4;94,96,113,114;,
 4;92,94,114,115;,
 4;90,92,115,116;,
 4;88,90,116,117;,
 4;86,88,117,118;,
 4;84,86,118,119;,
 4;82,84,119,120;,
 4;80,82,120,121;,
 4;78,80,121,122;,
 4;74,78,122,123;,
 4;75,74,123,124;,
 4;124,123,125,126;,
 4;122,127,125,123;,
 4;127,122,121,128;,
 4;128,121,120,129;,
 4;119,130,129,120;,
 4;130,119,118,131;,
 4;117,132,131,118;,
 4;116,133,132,117;,
 4;115,134,133,116;,
 4;114,135,134,115;,
 4;113,136,135,114;,
 4;112,137,136,113;,
 4;111,138,137,112;,
 4;109,139,140,110;,
 4;108,141,139,109;,
 4;142,143,144,145;,
 4;145,144,146,147;,
 4;147,148,149,150;,
 4;151,152,149,153;,
 4;154,151,153,155;,
 4;154,156,157,158;,
 4;156,159,160,157;,
 4;159,161,162,160;,
 4;161,163,164,162;,
 4;163,165,166,164;,
 4;165,167,168,166;,
 4;167,169,170,168;,
 4;169,171,172,170;,
 4;173,174,175,176;,
 4;150,149,152,177;,
 4;178,148,179,180;,
 4;181,178,180,182;,
 4;183,181,182,184;,
 4;185,183,184,186;,
 4;187,185,186,188;,
 4;189,187,188,190;,
 4;191,189,190,192;,
 4;193,191,192,194;,
 4;195,193,194,196;,
 4;197,195,196,198;,
 4;199,200,201,202;,
 4;203,199,202,204;,
 4;193,195,205,206;,
 4;195,197,207,205;,
 4;200,199,208,209;,
 4;191,193,206,210;,
 4;189,191,210,211;,
 4;187,189,211,212;,
 4;185,187,212,213;,
 4;183,185,213,214;,
 4;181,183,214,155;,
 4;178,181,155,153;,
 4;148,178,153,149;,
 4;148,147,146,179;,
 4;151,154,158,215;,
 4;156,154,155,214;,
 4;159,156,214,213;,
 4;161,159,213,212;,
 4;163,161,212,211;,
 4;165,163,211,210;,
 4;167,165,210,206;,
 4;169,167,206,205;,
 4;171,169,205,207;,
 4;174,173,209,208;,
 4;152,151,215,177;,
 4;37,216,56,35;,
 4;217,216,37,3;,
 4;3,2,39,217;,
 4;217,39,58,218;,
 4;219,75,124,220;,
 4;221,219,220,222;,
 4;223,224,108,106;,
 4;224,225,141,108;,
 4;222,220,226,227;,
 4;226,220,124,126;,
 4;228,143,142,229;,
 4;73,55,56,230;,
 4;230,56,216,231;,
 4;216,217,218,231;,
 4;223,106,107,232;,
 4;219,221,233,234;,
 4;76,234,218,58;,
 4;232,107,73,230;,
 4;75,219,234,76;,
 4;234,233,231,218;,
 4;233,232,230,231;,
 4;221,223,232,233;,
 4;222,224,223,221;,
 4;227,225,224,222;,
 4;228,229,235,236;,
 4;237,238,239,240;,
 4;174,241,242,175;,
 4;203,204,243,244;,
 4;199,203,245,208;,
 4;203,244,246,245;,
 4;247,239,238,248;,
 4;235,229,247,248;,
 4;241,174,208,245;,
 4;244,243,236,235;,
 4;246,244,235,248;,
 4;246,248,238,237;,
 4;237,241,245,246;,
 4;240,242,241,237;,
 4;7,249,250,8;,
 4;250,251,10,8;,
 4;252,12,10,251;,
 4;12,252,253,14;,
 4;253,254,16,14;,
 4;254,255,18,16;,
 4;18,255,256,20;,
 4;20,256,257,22;,
 4;257,258,24,22;,
 4;258,259,26,24;,
 4;259,260,28,31;,
 4;260,261,32,28;,
 4;261,262,34,32;,
 4;262,263,36,34;,
 4;263,264,0,36;,
 4;264,265,1,0;,
 4;265,266,4,1;,
 3;5,4,40;,
 3;40,4,7;,
 3;40,7,6;,
 4;266,249,7,4;,
 3;266,267,249;,
 4;265,268,269,266;,
 4;266,269,270,267;,
 4;249,267,270,271;,
 4;271,272,250,249;,
 4;250,272,273,251;,
 4;273,274,252,251;,
 4;275,253,252,274;,
 4;276,254,253,275;,
 4;276,277,255,254;,
 4;277,278,256,255;,
 4;279,257,256,278;,
 4;257,279,280,258;,
 4;258,280,281,259;,
 4;259,281,282,260;,
 4;260,282,283,261;,
 4;261,283,284,262;,
 4;262,284,285,263;,
 4;263,285,286,264;,
 4;264,286,268,265;;
 
 MeshMaterialList {
  12;
  237;
  8,
  8,
  8,
  8,
  8,
  8,
  8,
  8,
  8,
  8,
  8,
  8,
  8,
  8,
  8,
  8,
  8,
  8,
  8,
  8,
  8,
  8,
  8,
  8,
  8,
  8,
  8,
  8,
  8,
  8,
  8,
  8,
  8,
  8,
  8,
  8,
  8,
  8,
  8,
  8,
  8,
  8,
  8,
  8,
  8,
  8,
  8,
  8,
  8,
  8,
  8,
  8,
  8,
  8,
  8,
  8,
  8,
  8,
  8,
  8,
  8,
  8,
  8,
  8,
  8,
  8,
  8,
  8,
  8,
  8,
  8,
  8,
  8,
  8,
  8,
  8,
  8,
  8,
  8,
  8,
  8,
  8,
  8,
  8,
  8,
  8,
  8,
  8,
  8,
  8,
  8,
  8,
  8,
  8,
  8,
  8,
  8,
  8,
  8,
  8,
  8,
  8,
  8,
  8,
  8,
  8,
  8,
  8,
  8,
  8,
  8,
  8,
  8,
  8,
  8,
  8,
  8,
  8,
  8,
  8,
  8,
  8,
  8,
  8,
  8,
  8,
  8,
  8,
  8,
  8,
  8,
  8,
  8,
  8,
  8,
  8,
  8,
  8,
  8,
  8,
  8,
  8,
  8,
  8,
  8,
  8,
  8,
  8,
  8,
  8,
  8,
  8,
  8,
  8,
  8,
  8,
  8,
  8,
  8,
  8,
  8,
  8,
  8,
  8,
  8,
  8,
  8,
  8,
  8,
  8,
  8,
  8,
  8,
  8,
  8,
  8,
  8,
  8,
  8,
  8,
  8,
  8,
  8,
  8,
  8,
  8,
  8,
  8,
  8,
  8,
  8,
  8,
  8,
  8,
  8,
  8,
  8,
  8,
  8,
  8,
  8,
  8,
  8,
  8,
  8,
  8,
  8,
  8,
  8,
  8,
  8,
  8,
  8,
  8,
  8,
  8,
  8,
  8,
  8,
  8,
  8,
  8,
  8,
  8,
  8,
  8,
  8,
  8,
  8,
  8,
  8,
  8,
  8,
  8,
  8,
  8,
  8;;
  Material {
   0.765600;0.659200;0.241600;1.000000;;
   5.000000;
   0.000000;0.000000;0.000000;;
   0.000000;0.000000;0.000000;;
  }
  Material {
   0.000000;0.000000;0.000000;1.000000;;
   5.000000;
   0.000000;0.000000;0.000000;;
   0.000000;0.000000;0.000000;;
  }
  Material {
   0.800000;0.800000;0.800000;1.000000;;
   5.000000;
   0.000000;0.000000;0.000000;;
   0.000000;0.000000;0.000000;;
  }
  Material {
   0.800000;0.000000;0.060000;1.000000;;
   5.000000;
   0.000000;0.000000;0.000000;;
   0.000000;0.000000;0.000000;;
  }
  Material {
   0.000000;0.000000;0.000000;1.000000;;
   5.000000;
   0.000000;0.000000;0.000000;;
   0.000000;0.000000;0.000000;;
  }
  Material {
   0.800000;0.768800;0.000000;1.000000;;
   5.000000;
   0.000000;0.000000;0.000000;;
   0.000000;0.000000;0.000000;;
  }
  Material {
   0.000000;0.000000;0.000000;1.000000;;
   5.000000;
   0.000000;0.000000;0.000000;;
   0.000000;0.000000;0.000000;;
  }
  Material {
   0.743200;0.263200;0.094400;1.000000;;
   5.000000;
   0.000000;0.000000;0.000000;;
   0.000000;0.000000;0.000000;;
  }
  Material {
   0.968627;1.000000;0.000000;1.000000;;
   50.000000;
   0.500000;0.500000;0.500000;;
   0.096863;0.100000;0.000000;;
  }
  Material {
   1.000000;1.000000;1.000000;1.000000;;
   50.000000;
   0.500000;0.500000;0.500000;;
   0.100000;0.100000;0.100000;;
  }
  Material {
   0.000000;1.000000;0.000000;1.000000;;
   50.000000;
   0.500000;0.500000;0.500000;;
   0.000000;0.100000;0.000000;;
  }
  Material {
   1.000000;0.007843;0.537255;1.000000;;
   50.000000;
   0.500000;0.500000;0.500000;;
   0.100000;0.000784;0.053725;;
  }
 }
 MeshNormals {
  268;
  0.854920;0.143143;-0.498620;,
  0.981893;0.186874;-0.031060;,
  0.476575;0.055211;-0.877399;,
  -0.031289;-0.065821;-0.997341;,
  -0.403460;-0.147773;-0.902986;,
  -0.609052;-0.162040;-0.776402;,
  0.931425;0.193528;0.308212;,
  0.769258;0.176695;0.614020;,
  0.516120;0.148079;0.843619;,
  0.249052;0.121110;0.960888;,
  -0.065574;0.078604;0.994747;,
  -0.394218;0.022457;0.918742;,
  -0.716261;-0.044263;0.696428;,
  -0.913447;-0.102972;0.393714;,
  -0.972406;-0.132261;0.192183;,
  -0.988780;-0.149075;-0.009559;,
  -0.953693;-0.156830;-0.256659;,
  -0.800373;-0.151306;-0.580095;,
  0.008391;0.003113;-0.999960;,
  -0.369761;-0.045300;-0.928022;,
  0.391716;0.071440;-0.917308;,
  0.692315;0.134829;-0.708887;,
  0.890719;0.185412;-0.415021;,
  0.970689;0.234513;-0.052590;,
  0.916354;0.264324;0.300713;,
  0.754309;0.271143;0.597913;,
  0.508618;0.252597;0.823105;,
  0.180837;0.201027;0.962749;,
  -0.206156;0.121804;0.970909;,
  -0.518891;0.039133;0.853944;,
  -0.778492;-0.020082;0.627333;,
  -0.940818;-0.051776;0.334935;,
  -0.990193;-0.075180;0.117751;,
  -0.993723;-0.091540;-0.064312;,
  -0.951545;-0.093749;-0.292869;,
  -0.755372;-0.090047;-0.649080;,
  -0.548477;-0.075376;-0.832761;,
  0.409467;0.036909;-0.911578;,
  0.074930;-0.003996;-0.997181;,
  0.690846;0.112468;-0.714200;,
  0.883706;0.163123;-0.438697;,
  0.973600;0.221571;-0.054853;,
  0.908813;0.298474;0.291500;,
  0.740653;0.393281;0.544760;,
  0.427348;0.447849;0.785370;,
  0.040450;0.341888;0.938870;,
  -0.358646;0.177291;0.916483;,
  -0.653107;0.055212;0.755250;,
  -0.795094;0.007354;0.606441;,
  -0.932309;0.015977;0.361309;,
  -0.996788;0.018702;0.077872;,
  -0.993229;-0.004615;-0.116083;,
  -0.940724;-0.038443;-0.336988;,
  -0.771357;-0.051950;-0.634279;,
  0.430768;-0.338011;-0.836772;,
  0.148425;-0.366141;-0.918646;,
  0.702385;-0.224088;-0.675603;,
  0.904786;-0.168891;-0.390945;,
  0.993748;-0.111007;-0.011897;,
  0.953736;0.023590;0.299719;,
  0.796251;0.125389;0.591829;,
  0.384999;0.186871;0.903800;,
  -0.080699;0.085118;0.993097;,
  -0.422464;-0.085172;0.902369;,
  -0.672810;-0.100824;0.732913;,
  -0.773262;-0.046497;0.632379;,
  -0.896418;-0.052088;0.440138;,
  -0.990987;-0.097936;0.091402;,
  -0.969607;-0.148253;-0.194639;,
  -0.884782;-0.211340;-0.415326;,
  0.389055;-0.759117;-0.521899;,
  0.169768;-0.795887;-0.581157;,
  0.176084;-0.686962;-0.705037;,
  0.396423;-0.660819;-0.637313;,
  0.552601;-0.728652;-0.404598;,
  0.620036;-0.592125;-0.514726;,
  0.714093;-0.662891;-0.225047;,
  0.818707;-0.504593;-0.274052;,
  0.810389;-0.585289;-0.026581;,
  0.913760;-0.405895;-0.017065;,
  0.827713;-0.496098;0.262254;,
  0.920744;-0.270754;0.280933;,
  0.702000;-0.382817;0.600538;,
  0.753080;-0.205176;0.625118;,
  0.321461;-0.395481;0.860382;,
  0.348977;-0.207577;0.913853;,
  -0.153876;-0.406797;0.900466;,
  -0.140444;-0.241570;0.960166;,
  -0.404247;-0.401313;0.821908;,
  -0.408746;-0.319232;0.854995;,
  -0.527134;-0.448383;0.721860;,
  -0.568615;-0.324128;0.756055;,
  -0.611476;-0.521235;0.595325;,
  -0.694406;-0.303728;0.652342;,
  -0.690453;-0.596716;0.408907;,
  -0.809399;-0.357446;0.465946;,
  -0.712983;-0.693828;0.101285;,
  -0.888299;-0.444542;0.115359;,
  -0.634891;-0.752230;-0.176246;,
  -0.842607;-0.494211;-0.213936;,
  -0.470782;-0.784357;-0.403915;,
  -0.707001;-0.545132;-0.450534;,
  -0.496425;-0.730073;-0.469634;,
  -0.637011;-0.731023;-0.244586;,
  -0.729229;-0.684257;0.004071;,
  -0.749024;-0.589372;0.302662;,
  -0.720332;-0.473838;0.506556;,
  -0.628636;-0.382940;0.676885;,
  -0.456353;-0.339343;0.822550;,
  -0.185958;-0.359016;0.914619;,
  0.282967;-0.376184;0.882279;,
  0.699125;-0.393767;0.596801;,
  0.830169;-0.508050;0.229575;,
  0.788658;-0.613859;-0.034593;,
  0.703913;-0.669926;-0.236021;,
  0.594404;-0.690000;-0.413017;,
  0.414494;-0.699852;-0.581723;,
  0.107675;-0.743729;-0.659752;,
  0.429959;-0.589083;-0.684191;,
  0.056279;-0.615374;-0.786223;,
  0.638907;-0.625006;-0.448515;,
  0.739023;-0.624924;-0.251625;,
  0.831681;-0.552253;-0.057653;,
  0.986539;0.083746;0.140457;,
  0.788606;0.214388;0.576315;,
  0.264610;-0.211374;0.940905;,
  -0.307846;0.312435;0.898674;,
  -0.546691;0.320575;0.773537;,
  -0.702065;-0.272256;0.658013;,
  -0.798990;-0.409045;0.440792;,
  -0.807079;-0.546992;0.222315;,
  -0.798233;-0.598414;-0.068737;,
  -0.733315;-0.600139;-0.319501;,
  -0.611922;-0.565954;-0.552492;,
  -0.142129;0.638646;-0.756261;,
  0.110432;0.671391;-0.732830;,
  0.400989;0.661092;-0.634165;,
  0.570834;0.647395;-0.505003;,
  0.513168;0.696691;-0.501279;,
  0.443547;0.697592;-0.562701;,
  0.733122;0.605074;-0.310512;,
  0.606061;0.636698;-0.476765;,
  0.677730;0.677915;-0.284805;,
  0.805226;0.588193;-0.075104;,
  0.749782;0.659636;-0.052036;,
  0.743719;0.629148;0.225952;,
  0.788575;0.572618;0.224182;,
  0.829121;0.552913;-0.082740;,
  0.462204;0.681885;0.566921;,
  0.538603;0.622561;0.567737;,
  0.101276;0.701245;0.705690;,
  0.162826;0.648626;0.743486;,
  -0.257570;0.686272;0.680212;,
  -0.186651;0.635279;0.749387;,
  -0.554176;0.642915;0.528724;,
  -0.520061;0.600066;0.607830;,
  -0.737737;0.591871;0.324705;,
  -0.764839;0.540050;0.351238;,
  -0.860633;0.505493;0.061546;,
  -0.885853;0.457085;0.079611;,
  -0.880259;0.455441;-0.133109;,
  -0.903445;0.408778;-0.129179;,
  -0.842410;0.436607;-0.315784;,
  -0.868973;0.378775;-0.318457;,
  0.593792;0.642139;-0.484839;,
  0.732275;0.626240;-0.267574;,
  0.777714;0.628617;0.001163;,
  0.651698;0.676809;0.342373;,
  0.230434;0.707332;0.668267;,
  -0.211944;0.722824;0.657727;,
  -0.400250;0.747570;0.530036;,
  -0.638230;0.665401;0.387174;,
  -0.790829;0.581181;0.191882;,
  -0.823060;0.567934;-0.004882;,
  -0.833775;0.526540;-0.166058;,
  -0.755562;0.561738;-0.337012;,
  -0.601334;0.552931;-0.576771;,
  -0.817429;0.575427;0.026350;,
  -0.744809;0.606269;0.278743;,
  -0.838755;0.524990;-0.144486;,
  -0.768746;0.558704;-0.311255;,
  -0.621524;0.640091;0.451654;,
  -0.348868;0.742212;0.572200;,
  -0.038949;0.743023;0.668131;,
  0.342922;0.702463;0.623658;,
  0.674912;0.689773;0.262122;,
  0.749041;0.581560;-0.317373;,
  -0.586091;-0.020255;-0.809992;,
  -0.323171;-0.002525;-0.946337;,
  -0.246760;-0.344624;-0.905729;,
  -0.125964;-0.816224;-0.563837;,
  -0.136742;-0.765107;-0.629216;,
  -0.286699;-0.801594;-0.524644;,
  -0.225001;-0.737110;-0.637215;,
  -0.314634;-0.788991;-0.527730;,
  -0.317161;-0.710406;-0.628277;,
  -0.381710;-0.552386;-0.741059;,
  -0.174028;-0.643794;-0.745146;,
  -0.217100;-0.599290;-0.770532;,
  -0.358598;0.580206;-0.731279;,
  -0.732269;-0.275394;-0.622849;,
  -0.562544;-0.305318;-0.768327;,
  -0.515678;-0.622371;-0.588839;,
  -0.399331;-0.672830;-0.622763;,
  -0.166519;-0.698184;-0.696284;,
  -0.405754;0.561888;-0.720864;,
  -0.572942;0.478183;-0.665642;,
  -0.513240;0.525569;-0.678500;,
  -0.522816;0.493214;-0.695273;,
  -0.616049;0.387999;-0.685522;,
  -0.696816;0.445614;-0.562029;,
  -0.732051;0.379301;-0.565891;,
  -0.465484;0.539219;-0.701832;,
  -0.617358;0.554151;-0.558377;,
  -0.496085;0.556107;-0.666817;,
  -0.410935;0.587443;-0.697168;,
  -0.430739;0.582974;-0.688916;,
  0.882798;0.214473;-0.417935;,
  0.964344;0.262414;-0.034333;,
  0.918336;0.261550;0.297069;,
  0.761113;0.227172;0.607535;,
  0.536233;0.157330;0.829278;,
  0.303478;0.091962;0.948390;,
  0.028268;0.049475;0.998375;,
  -0.320418;-0.010405;0.947219;,
  -0.660561;-0.089866;0.745375;,
  -0.874029;-0.164930;0.457025;,
  -0.951695;-0.195218;0.236994;,
  -0.977910;-0.204015;0.045505;,
  -0.947766;-0.241209;-0.208704;,
  -0.831414;-0.303271;-0.465593;,
  -0.659437;-0.337575;-0.671704;,
  -0.371015;-0.262369;-0.890792;,
  0.008326;-0.098937;-0.995059;,
  0.429089;0.051243;-0.901808;,
  0.496175;-0.822149;-0.279071;,
  0.061878;-0.121722;-0.990634;,
  0.409655;0.049931;-0.910873;,
  0.719531;0.164381;-0.674725;,
  0.897263;0.245868;-0.366700;,
  0.959501;0.279666;-0.033825;,
  0.916641;0.267195;0.297280;,
  0.762921;0.230365;0.604056;,
  0.566707;0.142425;0.811516;,
  0.330931;0.044883;0.942587;,
  0.060953;-0.000280;0.998141;,
  -0.290239;-0.066498;0.954641;,
  -0.635539;-0.157151;0.755906;,
  -0.844271;-0.237982;0.480178;,
  -0.932918;-0.261351;0.247710;,
  -0.964493;-0.256293;0.063772;,
  -0.931814;-0.313804;-0.182344;,
  -0.813185;-0.419358;-0.403570;,
  -0.642994;-0.449147;-0.620343;,
  -0.316916;-0.329789;-0.889271;,
  0.408230;0.631491;-0.659218;,
  0.673347;0.543230;-0.501504;,
  0.814049;0.516779;-0.265073;,
  0.157662;0.745075;0.648079;,
  -0.610963;0.726619;0.314245;,
  -0.798049;0.589765;0.123674;,
  -0.843063;0.537473;-0.019165;,
  -0.844859;0.503863;-0.179821;,
  -0.786331;0.499742;-0.363237;,
  -0.626333;0.506991;-0.592171;,
  -0.334581;0.581386;-0.741651;,
  -0.405005;0.551740;-0.729078;,
  -0.463419;0.530512;-0.709789;;
  237;
  4;4,3,18,19;,
  4;18,3,2,20;,
  4;22,0,1,23;,
  4;23,1,6,24;,
  4;24,6,7,25;,
  4;8,26,25,7;,
  4;9,27,26,8;,
  4;10,28,27,9;,
  4;11,29,28,10;,
  4;12,30,29,11;,
  4;13,31,30,12;,
  4;14,32,31,13;,
  4;15,33,32,14;,
  4;16,34,33,15;,
  4;17,35,34,16;,
  4;5,4,19,36;,
  4;36,35,17,5;,
  4;18,20,37,38;,
  4;21,39,37,20;,
  4;22,40,39,21;,
  4;23,41,40,22;,
  4;24,42,41,23;,
  4;25,43,42,24;,
  4;26,44,43,25;,
  4;27,45,44,26;,
  4;28,46,45,27;,
  4;29,47,46,28;,
  4;30,48,47,29;,
  4;31,49,48,30;,
  4;32,50,49,31;,
  4;33,51,50,32;,
  4;34,52,51,33;,
  4;35,53,52,34;,
  4;38,37,54,55;,
  4;54,37,39,56;,
  4;56,39,40,57;,
  4;57,40,41,58;,
  4;58,41,42,59;,
  4;59,42,43,60;,
  4;60,43,44,61;,
  4;61,44,45,62;,
  4;62,45,46,63;,
  4;63,46,47,64;,
  4;64,47,48,65;,
  4;65,48,49,66;,
  4;66,49,50,67;,
  4;67,50,51,68;,
  4;68,51,52,69;,
  4;70,71,72,73;,
  4;74,70,73,75;,
  4;76,74,75,77;,
  4;78,76,77,79;,
  4;80,78,79,81;,
  4;82,80,81,83;,
  4;84,82,83,85;,
  4;86,84,85,87;,
  4;88,86,87,89;,
  4;90,88,89,91;,
  4;92,90,91,93;,
  4;94,92,93,95;,
  4;96,94,95,97;,
  4;98,96,97,99;,
  4;100,98,99,101;,
  4;73,72,55,54;,
  4;75,73,54,56;,
  4;77,75,56,57;,
  4;79,77,57,58;,
  4;81,79,58,59;,
  4;83,81,59,60;,
  4;85,83,60,61;,
  4;87,85,61,62;,
  4;89,87,62,63;,
  4;91,89,63,64;,
  4;93,91,64,65;,
  4;95,93,65,66;,
  4;97,95,66,67;,
  4;99,97,67,68;,
  4;101,99,68,69;,
  4;98,100,102,103;,
  4;96,98,103,104;,
  4;94,96,104,105;,
  4;92,94,105,106;,
  4;90,92,106,107;,
  4;88,90,107,108;,
  4;86,88,108,109;,
  4;84,86,109,110;,
  4;82,84,110,111;,
  4;80,82,111,112;,
  4;78,80,112,113;,
  4;76,78,113,114;,
  4;74,76,114,115;,
  4;70,74,115,116;,
  4;71,70,116,117;,
  4;117,116,118,119;,
  4;115,120,118,116;,
  4;120,115,114,121;,
  4;121,114,113,122;,
  4;112,123,122,113;,
  4;123,112,111,124;,
  4;110,125,124,111;,
  4;109,126,125,110;,
  4;108,127,126,109;,
  4;107,128,127,108;,
  4;106,129,128,107;,
  4;105,130,129,106;,
  4;104,131,130,105;,
  4;103,132,131,104;,
  4;102,133,132,103;,
  4;134,134,135,135;,
  4;135,135,255,136;,
  4;136,137,138,139;,
  4;140,141,138,142;,
  4;143,140,142,144;,
  4;143,145,146,147;,
  4;145,148,149,146;,
  4;148,150,151,149;,
  4;150,152,153,151;,
  4;152,154,155,153;,
  4;154,156,157,155;,
  4;156,158,159,157;,
  4;158,160,161,159;,
  4;160,162,163,161;,
  4;139,138,141,164;,
  4;165,137,256,257;,
  4;166,165,257,123;,
  4;167,166,123,124;,
  4;168,167,124,258;,
  4;169,168,258,126;,
  4;170,169,126,127;,
  4;171,170,127,259;,
  4;172,171,259,260;,
  4;173,172,260,261;,
  4;174,173,261,262;,
  4;175,174,262,263;,
  4;176,175,263,264;,
  4;172,173,177,178;,
  4;173,174,179,177;,
  4;174,175,180,179;,
  4;171,172,178,181;,
  4;170,171,181,182;,
  4;169,170,182,183;,
  4;168,169,183,184;,
  4;167,168,184,185;,
  4;166,167,185,144;,
  4;165,166,144,142;,
  4;137,165,142,138;,
  4;137,136,255,256;,
  4;140,143,147,186;,
  4;145,143,144,185;,
  4;148,145,185,184;,
  4;150,148,184,183;,
  4;152,150,183,182;,
  4;154,152,182,181;,
  4;156,154,181,178;,
  4;158,156,178,177;,
  4;160,158,177,179;,
  4;162,160,179,180;,
  4;141,140,186,164;,
  4;36,187,53,35;,
  4;188,187,36,19;,
  4;19,18,38,188;,
  4;188,38,55,189;,
  4;190,71,117,191;,
  4;192,190,191,193;,
  4;194,195,102,100;,
  4;195,196,133,102;,
  4;193,191,197,198;,
  4;197,191,117,119;,
  4;265,134,134,199;,
  4;69,52,53,200;,
  4;200,53,187,201;,
  4;187,188,189,201;,
  4;194,100,101,202;,
  4;190,192,203,204;,
  4;72,204,189,55;,
  4;202,101,69,200;,
  4;71,190,204,72;,
  4;204,203,201,189;,
  4;203,202,200,201;,
  4;192,194,202,203;,
  4;193,195,194,192;,
  4;198,196,195,193;,
  4;265,199,205,266;,
  4;206,207,208,209;,
  4;162,210,211,163;,
  4;176,264,267,212;,
  4;175,176,213,180;,
  4;176,212,214,213;,
  4;215,208,207,216;,
  4;205,199,215,216;,
  4;210,162,180,213;,
  4;212,267,266,205;,
  4;214,212,205,216;,
  4;214,216,207,206;,
  4;206,210,213,214;,
  4;209,211,210,206;,
  4;0,217,218,1;,
  4;218,219,6,1;,
  4;220,7,6,219;,
  4;7,220,221,8;,
  4;221,222,9,8;,
  4;222,223,10,9;,
  4;10,223,224,11;,
  4;11,224,225,12;,
  4;225,226,13,12;,
  4;226,227,14,13;,
  4;227,228,15,14;,
  4;228,229,16,15;,
  4;229,230,17,16;,
  4;230,231,5,17;,
  4;231,232,4,5;,
  4;232,233,3,4;,
  4;233,234,2,3;,
  3;20,2,21;,
  3;21,2,0;,
  3;21,0,22;,
  4;234,217,0,2;,
  3;235,235,235;,
  4;233,236,237,234;,
  4;234,237,238,238;,
  4;217,238,238,239;,
  4;239,240,218,217;,
  4;218,240,241,219;,
  4;241,242,220,219;,
  4;243,221,220,242;,
  4;244,222,221,243;,
  4;244,245,223,222;,
  4;245,246,224,223;,
  4;247,225,224,246;,
  4;225,247,248,226;,
  4;226,248,249,227;,
  4;227,249,250,228;,
  4;228,250,251,229;,
  4;229,251,252,230;,
  4;230,252,253,231;,
  4;231,253,254,232;,
  4;232,254,236,233;;
 }
 MeshTextureCoords {
  287;
  0.205080;0.655860;,
  0.204500;0.677850;,
  0.275290;0.687880;,
  0.280990;0.667570;,
  0.201820;0.699050;,
  0.271950;0.707900;,
  0.276580;0.757780;,
  0.203430;0.758200;,
  0.204840;0.786190;,
  0.280840;0.783110;,
  0.205900;0.809450;,
  0.284370;0.811630;,
  0.207930;0.836580;,
  0.289280;0.839090;,
  0.208660;0.868290;,
  0.292860;0.867040;,
  0.210220;0.892510;,
  0.295650;0.892650;,
  0.211630;0.906250;,
  0.301150;0.911230;,
  0.212600;0.921000;,
  0.306990;0.924500;,
  0.214130;0.938060;,
  0.313880;0.941300;,
  0.220770;0.957100;,
  0.324750;0.960030;,
  0.229990;0.972030;,
  0.333060;0.980830;,
  0.235740;0.571170;,
  0.324990;0.601550;,
  0.339850;0.588530;,
  0.243040;0.553790;,
  0.226020;0.592240;,
  0.309460;0.615620;,
  0.215920;0.616200;,
  0.295390;0.635280;,
  0.212160;0.633440;,
  0.290360;0.647970;,
  0.320810;0.717230;,
  0.322110;0.696070;,
  0.272570;0.729330;,
  0.320630;0.734170;,
  0.332830;0.756360;,
  0.336290;0.781650;,
  0.331300;0.804830;,
  0.325990;0.834810;,
  0.335380;0.865420;,
  0.343510;0.885700;,
  0.344150;0.905870;,
  0.351940;0.922440;,
  0.356350;0.936290;,
  0.364550;0.952350;,
  0.371960;0.974500;,
  0.364440;0.610800;,
  0.378840;0.597450;,
  0.348370;0.628030;,
  0.341120;0.640980;,
  0.354390;0.720360;,
  0.355260;0.701870;,
  0.349880;0.739810;,
  0.351830;0.758820;,
  0.362560;0.788800;,
  0.361920;0.804280;,
  0.368780;0.837500;,
  0.364510;0.863500;,
  0.370640;0.884810;,
  0.383440;0.905700;,
  0.391850;0.920730;,
  0.398790;0.933500;,
  0.403220;0.947630;,
  0.412160;0.967460;,
  0.416070;0.615870;,
  0.398420;0.632990;,
  0.386570;0.643800;,
  0.394510;0.728940;,
  0.398240;0.710170;,
  0.375450;0.705380;,
  0.373390;0.724140;,
  0.390700;0.746380;,
  0.368800;0.742900;,
  0.390390;0.762580;,
  0.369870;0.761150;,
  0.395190;0.786170;,
  0.377890;0.787850;,
  0.393440;0.807870;,
  0.377820;0.805430;,
  0.400680;0.834620;,
  0.383840;0.836270;,
  0.403190;0.858200;,
  0.381190;0.862510;,
  0.409770;0.879140;,
  0.388070;0.883340;,
  0.418000;0.899110;,
  0.400230;0.903210;,
  0.424180;0.912460;,
  0.407190;0.917500;,
  0.430050;0.924110;,
  0.413730;0.929620;,
  0.433080;0.934490;,
  0.417320;0.942390;,
  0.440940;0.951680;,
  0.425920;0.961320;,
  0.429380;0.653310;,
  0.441120;0.637900;,
  0.428390;0.624800;,
  0.413310;0.640930;,
  0.420170;0.664820;,
  0.402730;0.652520;,
  0.437160;0.681080;,
  0.446330;0.669600;,
  0.454610;0.655250;,
  0.458070;0.938980;,
  0.450230;0.925060;,
  0.447410;0.917900;,
  0.441960;0.906080;,
  0.436290;0.893590;,
  0.427290;0.872840;,
  0.420370;0.849410;,
  0.418040;0.831660;,
  0.414350;0.806590;,
  0.413740;0.784020;,
  0.412690;0.764210;,
  0.413920;0.750940;,
  0.416390;0.734880;,
  0.421880;0.715230;,
  0.428370;0.732890;,
  0.430560;0.722500;,
  0.426750;0.750190;,
  0.425870;0.763250;,
  0.425060;0.782420;,
  0.425900;0.805250;,
  0.426420;0.828880;,
  0.429640;0.846400;,
  0.440450;0.872930;,
  0.445270;0.889330;,
  0.451260;0.901400;,
  0.457230;0.913430;,
  0.463000;0.922870;,
  0.470000;0.931160;,
  0.453880;0.676630;,
  0.463450;0.666690;,
  0.444760;0.691530;,
  0.438350;0.087980;,
  0.436480;0.091500;,
  0.442740;0.096440;,
  0.442750;0.091140;,
  0.449020;0.107560;,
  0.450300;0.088440;,
  0.458080;0.104830;,
  0.464820;0.093250;,
  0.461480;0.082530;,
  0.497060;0.101210;,
  0.490090;0.079190;,
  0.474320;0.115950;,
  0.504520;0.134430;,
  0.478060;0.141870;,
  0.506250;0.164160;,
  0.515690;0.164810;,
  0.513890;0.132050;,
  0.500010;0.192200;,
  0.510530;0.194400;,
  0.484900;0.220720;,
  0.493630;0.224970;,
  0.467150;0.238210;,
  0.475720;0.243110;,
  0.445130;0.250560;,
  0.450240;0.258020;,
  0.421080;0.254370;,
  0.424670;0.264000;,
  0.396640;0.254000;,
  0.397880;0.262720;,
  0.374040;0.246440;,
  0.372450;0.255540;,
  0.361230;0.049700;,
  0.381440;0.043150;,
  0.377690;0.034160;,
  0.356150;0.042050;,
  0.491490;0.064910;,
  0.464260;0.123200;,
  0.452460;0.116530;,
  0.455550;0.130480;,
  0.467950;0.144780;,
  0.457930;0.147780;,
  0.466680;0.165960;,
  0.455420;0.165900;,
  0.460170;0.182040;,
  0.448730;0.177930;,
  0.444080;0.200600;,
  0.433270;0.193520;,
  0.429010;0.208250;,
  0.421040;0.198290;,
  0.421120;0.214650;,
  0.411290;0.202280;,
  0.408570;0.216040;,
  0.400860;0.202400;,
  0.392420;0.212980;,
  0.392310;0.200980;,
  0.382850;0.210360;,
  0.384130;0.198630;,
  0.394730;0.076710;,
  0.380910;0.081180;,
  0.388490;0.090090;,
  0.398480;0.086560;,
  0.409630;0.072870;,
  0.411680;0.083920;,
  0.395390;0.225740;,
  0.411400;0.227100;,
  0.379000;0.220830;,
  0.393710;0.065760;,
  0.375920;0.071280;,
  0.429440;0.223870;,
  0.440280;0.220210;,
  0.456760;0.205240;,
  0.470620;0.186000;,
  0.480010;0.162610;,
  0.505200;0.096190;,
  0.339710;0.657680;,
  0.330740;0.678150;,
  0.358940;0.683870;,
  0.403540;0.694640;,
  0.428410;0.702260;,
  0.409210;0.685790;,
  0.430570;0.697650;,
  0.414220;0.676170;,
  0.432960;0.692040;,
  0.442800;0.696620;,
  0.435330;0.710870;,
  0.439090;0.703720;,
  0.427460;0.088480;,
  0.437310;0.079630;,
  0.377540;0.655160;,
  0.366590;0.667850;,
  0.394980;0.663800;,
  0.387820;0.676610;,
  0.379890;0.688150;,
  0.427900;0.076880;,
  0.421690;0.086040;,
  0.417410;0.041110;,
  0.427350;0.042020;,
  0.440930;0.035200;,
  0.421020;0.032350;,
  0.404230;0.040030;,
  0.404800;0.030290;,
  0.415920;0.083620;,
  0.420570;0.074720;,
  0.404030;0.063190;,
  0.424170;0.064920;,
  0.438110;0.067780;,
  0.430440;0.066230;,
  0.000000;0.000000;,
  0.000000;0.000000;,
  0.000000;0.000000;,
  0.000000;0.000000;,
  0.000000;0.000000;,
  0.000000;0.000000;,
  0.000000;0.000000;,
  0.000000;0.000000;,
  0.000000;0.000000;,
  0.000000;0.000000;,
  0.000000;0.000000;,
  0.000000;0.000000;,
  0.000000;0.000000;,
  0.000000;0.000000;,
  0.000000;0.000000;,
  0.000000;0.000000;,
  0.000000;0.000000;,
  0.000000;0.000000;,
  0.000000;0.000000;,
  0.000000;0.000000;,
  0.000000;0.000000;,
  0.000000;0.000000;,
  0.000000;0.000000;,
  0.000000;0.000000;,
  0.000000;0.000000;,
  0.000000;0.000000;,
  0.000000;0.000000;,
  0.000000;0.000000;,
  0.000000;0.000000;,
  0.000000;0.000000;,
  0.000000;0.000000;,
  0.000000;0.000000;,
  0.000000;0.000000;,
  0.000000;0.000000;,
  0.000000;0.000000;,
  0.000000;0.000000;,
  0.000000;0.000000;,
  0.000000;0.000000;;
 }
}
