xof 0302txt 0064
template Header {
 <3D82AB43-62DA-11cf-AB39-0020AF71E433>
 WORD major;
 WORD minor;
 DWORD flags;
}

template Vector {
 <3D82AB5E-62DA-11cf-AB39-0020AF71E433>
 FLOAT x;
 FLOAT y;
 FLOAT z;
}

template Coords2d {
 <F6F23F44-7686-11cf-8F52-0040333594A3>
 FLOAT u;
 FLOAT v;
}

template Matrix4x4 {
 <F6F23F45-7686-11cf-8F52-0040333594A3>
 array FLOAT matrix[16];
}

template ColorRGBA {
 <35FF44E0-6C7C-11cf-8F52-0040333594A3>
 FLOAT red;
 FLOAT green;
 FLOAT blue;
 FLOAT alpha;
}

template ColorRGB {
 <D3E16E81-7835-11cf-8F52-0040333594A3>
 FLOAT red;
 FLOAT green;
 FLOAT blue;
}

template IndexedColor {
 <1630B820-7842-11cf-8F52-0040333594A3>
 DWORD index;
 ColorRGBA indexColor;
}

template Boolean {
 <4885AE61-78E8-11cf-8F52-0040333594A3>
 WORD truefalse;
}

template Boolean2d {
 <4885AE63-78E8-11cf-8F52-0040333594A3>
 Boolean u;
 Boolean v;
}

template MaterialWrap {
 <4885AE60-78E8-11cf-8F52-0040333594A3>
 Boolean u;
 Boolean v;
}

template TextureFilename {
 <A42790E1-7810-11cf-8F52-0040333594A3>
 STRING filename;
}

template Material {
 <3D82AB4D-62DA-11cf-AB39-0020AF71E433>
 ColorRGBA faceColor;
 FLOAT power;
 ColorRGB specularColor;
 ColorRGB emissiveColor;
 [...]
}

template MeshFace {
 <3D82AB5F-62DA-11cf-AB39-0020AF71E433>
 DWORD nFaceVertexIndices;
 array DWORD faceVertexIndices[nFaceVertexIndices];
}

template MeshFaceWraps {
 <4885AE62-78E8-11cf-8F52-0040333594A3>
 DWORD nFaceWrapValues;
 Boolean2d faceWrapValues;
}

template MeshTextureCoords {
 <F6F23F40-7686-11cf-8F52-0040333594A3>
 DWORD nTextureCoords;
 array Coords2d textureCoords[nTextureCoords];
}

template MeshMaterialList {
 <F6F23F42-7686-11cf-8F52-0040333594A3>
 DWORD nMaterials;
 DWORD nFaceIndexes;
 array DWORD faceIndexes[nFaceIndexes];
 [Material]
}

template MeshNormals {
 <F6F23F43-7686-11cf-8F52-0040333594A3>
 DWORD nNormals;
 array Vector normals[nNormals];
 DWORD nFaceNormals;
 array MeshFace faceNormals[nFaceNormals];
}

template MeshVertexColors {
 <1630B821-7842-11cf-8F52-0040333594A3>
 DWORD nVertexColors;
 array IndexedColor vertexColors[nVertexColors];
}

template Mesh {
 <3D82AB44-62DA-11cf-AB39-0020AF71E433>
 DWORD nVertices;
 array Vector vertices[nVertices];
 DWORD nFaces;
 array MeshFace faces[nFaces];
 [...]
}

Header{
1;
0;
1;
}

Mesh {
 376;
 -0.27783;-3.18579;-3.22637;,
 0.28844;-3.21437;-3.63055;,
 0.01995;-7.53734;-4.22757;,
 -0.81177;-7.38936;-3.62429;,
 0.56387;-3.23126;-3.78187;,
 0.71990;-3.22431;-3.74905;,
 0.60514;-7.64007;-4.39933;,
 0.39592;-7.64969;-4.45279;,
 0.41590;-3.21263;-3.72979;,
 0.18617;-7.61339;-4.39507;,
 1.56097;-3.36074;-3.23573;,
 2.08167;-3.41121;-3.03323;,
 2.32222;-7.55179;-3.36128;,
 1.68433;-7.52663;-3.62524;,
 0.82415;-3.23079;-3.65623;,
 0.76973;-7.57836;-4.23326;,
 2.57625;-3.41663;-3.01059;,
 3.01950;-3.42902;-2.55454;,
 3.57452;-7.55830;-2.61878;,
 2.96454;-7.55102;-3.30683;,
 2.98582;-3.43444;-2.06117;,
 3.31989;-3.35227;-0.62336;,
 4.07829;-7.48022;0.19257;,
 3.58227;-7.55281;-1.88669;,
 2.82895;-3.36844;0.67340;,
 3.59432;-7.41830;2.22468;,
 2.82991;-3.39413;1.22361;,
 2.42234;-3.23707;1.58267;,
 3.00029;-7.29778;3.54199;,
 3.58271;-7.38386;3.00791;,
 1.93591;-3.19436;1.60906;,
 0.73415;-2.94247;2.12219;,
 0.47765;-7.14236;4.24940;,
 2.31324;-7.29359;3.68682;,
 0.73415;-2.94247;2.12219;,
 -0.64812;-2.85697;1.75270;,
 -1.36888;-7.06961;3.77508;,
 0.47765;-7.14236;4.24940;,
 -1.17479;-2.83079;1.74088;,
 -1.62712;-2.82001;1.28370;,
 -2.69202;-7.04142;3.09586;,
 -2.08090;-7.04704;3.78522;,
 -1.55794;-2.83346;0.76752;,
 -1.78117;-2.86445;-0.61137;,
 -3.13893;-7.10363;0.20190;,
 -2.67678;-7.04887;2.28575;,
 -0.93355;-9.42222;-3.29557;,
 -0.05194;-9.56835;-3.86122;,
 -1.53466;-9.37115;-3.04803;,
 -1.39179;-7.35303;-3.36077;,
 0.55367;-9.65278;-4.01647;,
 0.34302;-9.65905;-4.06874;,
 0.12688;-9.62930;-4.01705;,
 2.25951;-9.53850;-3.04517;,
 1.62403;-9.53631;-3.29332;,
 0.71607;-9.60566;-3.86044;,
 2.89859;-9.56164;-2.97758;,
 3.51358;-9.57054;-2.31496;,
 3.55662;-9.52231;-1.61858;,
 4.07749;-9.49001;0.37465;,
 3.56319;-9.38606;2.30427;,
 3.52579;-9.38854;3.05381;,
 2.93885;-9.32260;3.52693;,
 2.23785;-9.30365;3.72299;,
 0.37212;-9.23030;4.27714;,
 0.37212;-9.23030;4.27714;,
 -1.47733;-9.13657;3.77049;,
 -2.18083;-9.13726;3.78012;,
 -2.79481;-9.13461;3.11605;,
 -2.83249;-9.10087;2.33136;,
 -3.35091;-9.17150;0.37916;,
 -2.53207;-12.83558;0.34928;,
 -2.36332;-12.35040;1.77397;,
 -2.81542;-9.24086;-1.61587;,
 -2.36331;-12.42117;-1.06742;,
 -0.76389;-13.20950;-2.40014;,
 -1.24484;-13.12174;-2.21315;,
 -0.05185;-13.32739;-2.84530;,
 0.41491;-13.35077;-2.99008;,
 0.25857;-13.34218;-3.03871;,
 0.09401;-13.33324;-2.99050;,
 2.63160;-13.47316;-1.44075;,
 2.20819;-13.24545;-2.08834;,
 3.01646;-13.07539;0.34864;,
 2.87595;-12.64624;-1.06823;,
 2.87865;-12.57449;1.76941;,
 2.22091;-13.13628;2.74754;,
 2.63617;-13.39833;2.12046;,
 0.24184;-13.16934;3.24260;,
 1.68872;-13.13178;2.89893;,
 -1.18642;-13.00600;2.89860;,
 0.24184;-13.16934;3.24260;,
 -2.18223;-13.20154;2.12513;,
 -1.74143;-12.97763;2.78567;,
 -0.71755;-14.48197;-2.09621;,
 -1.28881;-14.16978;-1.87871;,
 -0.05123;-14.53468;-2.52937;,
 0.37338;-14.55249;-2.66516;,
 0.23270;-14.54376;-2.71076;,
 0.08418;-14.53682;-2.66553;,
 1.64941;-14.29424;-1.88509;,
 1.12009;-14.56043;-2.09989;,
 1.22584;-13.29453;-2.39865;,
 1.71336;-13.24717;-2.21128;,
 0.48531;-14.55995;-2.52886;,
 0.53610;-13.35555;-2.84473;,
 2.43348;-14.32076;-1.23099;,
 2.05843;-13.99556;-1.82800;,
 2.77745;-14.52699;0.31429;,
 2.90056;-13.91268;0.32775;,
 2.43775;-14.26703;1.86117;,
 2.08462;-13.84049;2.46962;,
 -2.04088;-14.08257;1.86082;,
 -1.70856;-13.70113;2.45519;,
 0.07245;-16.13749;-2.31119;,
 0.07523;-15.74902;-2.37450;,
 0.20976;-15.75238;-2.41755;,
 0.20246;-16.13128;-2.35301;,
 0.33773;-15.76303;-2.37418;,
 0.32611;-16.15096;-2.31087;,
 2.31031;-15.85350;0.26977;,
 2.20107;-16.30183;0.25709;,
 1.84797;-16.30001;-0.98083;,
 1.95497;-15.85331;-1.01905;,
 1.90838;-16.88794;-1.10665;,
 1.84797;-16.30001;-0.98083;,
 2.20107;-16.30183;0.25709;,
 2.28164;-16.89532;0.23437;,
 0.82415;-3.23079;-3.65623;,
 0.76973;-7.57836;-4.23326;,
 0.71607;-9.60566;-3.86044;,
 0.53610;-13.35555;-2.84473;,
 0.48531;-14.55995;-2.52886;,
 0.28844;-3.21437;-3.63055;,
 0.01995;-7.53734;-4.22757;,
 -0.05194;-9.56835;-3.86122;,
 -0.05185;-13.32739;-2.84530;,
 -0.05123;-14.53468;-2.52937;,
 -0.59640;-15.73387;-1.90263;,
 -0.99560;-15.70833;-1.69769;,
 -0.05094;-15.75569;-2.24491;,
 -0.05094;-15.75569;-2.24491;,
 0.44419;-15.77828;-2.24447;,
 0.44419;-15.77828;-2.24447;,
 0.92864;-15.81227;-1.91092;,
 1.30350;-15.82807;-1.71062;,
 2.21928;-14.70775;-1.12688;,
 2.56047;-14.90548;0.30178;,
 -0.99510;-2.76959;1.77980;,
 -1.83077;-7.03280;3.83074;,
 -1.60227;-2.82548;1.09549;,
 -2.68268;-7.04175;2.77968;,
 -1.93658;-9.13532;3.82120;,
 -2.80736;-9.11209;2.80467;,
 -1.56010;-13.14450;-2.18705;,
 -1.92342;-9.36599;-3.06442;,
 -1.55478;-13.03017;2.87846;,
 -2.26408;-12.83676;1.94664;,
 -2.44286;-13.34410;0.33309;,
 -1.58571;-14.01645;-1.87512;,
 2.40103;-3.35782;-3.06384;,
 2.72451;-7.53988;-3.38848;,
 3.00248;-3.44012;-2.37130;,
 3.57439;-7.56167;-2.34337;,
 2.82837;-3.39733;1.02113;,
 3.58321;-7.40450;2.71625;,
 2.27040;-3.15574;1.60836;,
 2.77119;-7.28190;3.64274;,
 2.65896;-9.56013;-3.06260;,
 3.52905;-9.54806;-2.05394;,
 3.53657;-9.38425;2.77738;,
 2.70433;-9.32034;3.64867;,
 2.02774;-13.29374;-2.18576;,
 2.74292;-13.12009;-1.25090;,
 2.68580;-13.05472;1.92632;,
 2.04962;-13.18043;2.85659;,
 1.94596;-14.16328;-1.87764;,
 2.36597;-14.54099;-1.19787;,
 2.71585;-14.73747;0.31058;,
 2.87799;-13.56941;0.33293;,
 2.37058;-14.48909;1.82005;,
 2.22275;-14.65965;1.72982;,
 1.97428;-14.00714;2.51599;,
 1.64432;-14.13792;2.50461;,
 0.43010;-16.19387;-2.10486;,
 3.52839;-19.91289;0.12716;,
 2.96711;-19.88171;-2.27474;,
 2.88955;-19.16069;-2.21183;,
 3.42104;-19.19141;0.12762;,
 -2.15178;-18.65614;-2.66883;,
 -1.80964;-18.41658;-2.79991;,
 -1.85804;-18.64274;-3.09206;,
 -2.33521;-18.95151;-2.91614;,
 -1.84218;-19.35444;-3.20604;,
 -2.36482;-19.66596;-3.00861;,
 -2.82433;-19.67050;-2.28727;,
 -2.74827;-18.95961;-2.22565;,
 -3.38875;-19.65256;0.12637;,
 -3.28263;-18.94326;0.12672;,
 -0.79859;-17.53089;-2.11545;,
 -0.88920;-17.77313;-2.34473;,
 -1.26561;-18.44289;-2.76910;,
 -1.30191;-17.74871;-2.65219;,
 2.36403;-18.85361;2.61209;,
 2.33909;-19.57397;2.73145;,
 2.73949;-19.89947;2.61989;,
 2.71497;-19.17324;2.52559;,
 3.03331;-19.89588;2.15229;,
 2.95427;-19.17311;2.09246;,
 -2.88958;-19.67444;2.16776;,
 -2.81200;-18.96350;2.10762;,
 -2.59165;-19.68849;2.64996;,
 -2.57004;-18.97469;2.55116;,
 -2.17398;-19.38346;2.76865;,
 -2.20292;-18.67413;2.64165;,
 0.20008;-14.44839;2.86129;,
 -1.26265;-14.03363;2.48112;,
 0.20008;-14.44839;2.86129;,
 -1.59313;-13.87617;2.49719;,
 -1.96775;-14.31033;1.81441;,
 -1.82215;-14.49192;1.72045;,
 1.84285;-16.27300;1.46941;,
 1.91158;-16.86901;1.49952;,
 1.95082;-15.81995;1.54415;,
 1.84285;-16.27300;1.46941;,
 1.17527;-15.83481;2.17570;,
 -1.48603;-18.44093;2.56607;,
 -1.52338;-17.75228;2.43879;,
 0.15819;-15.68794;2.51971;,
 -0.86473;-15.74604;2.17463;,
 0.15819;-15.68794;2.51971;,
 -1.63610;-15.66344;1.54256;,
 0.30239;-16.32591;-2.26503;,
 0.19530;-16.35884;-2.29213;,
 0.08533;-16.31528;-2.26527;,
 -0.87184;-16.17630;-1.69440;,
 -0.51797;-16.19736;-1.88201;,
 -0.05061;-16.17222;-2.10529;,
 -0.51797;-16.19736;-1.88201;,
 -0.05061;-16.17222;-2.10529;,
 0.00833;-16.41448;-2.16894;,
 -0.44922;-16.59156;-2.04885;,
 -0.05061;-16.17222;-2.10529;,
 0.00833;-16.41448;-2.16894;,
 -0.24400;-17.62973;-2.21350;,
 -0.46800;-17.61002;-2.28086;,
 2.71108;-17.93626;0.18754;,
 2.28035;-17.91823;-1.54715;,
 3.19051;-18.88240;0.14314;,
 2.69653;-18.85457;-2.01225;,
 2.30625;-18.81262;-2.65603;,
 2.47647;-19.11595;-2.90148;,
 2.50865;-19.83697;-2.99537;,
 2.00271;-19.48525;-3.19512;,
 2.01366;-18.77128;-3.08005;,
 1.97550;-18.54713;-2.78902;,
 1.59553;-17.86014;-2.45178;,
 1.50233;-17.84732;-2.64530;,
 1.47498;-18.53998;-2.76244;,
 -1.50480;-15.69071;-1.00857;,
 -1.42556;-16.14970;-0.94542;,
 -1.91944;-16.12035;0.25709;,
 -1.99525;-15.66584;0.26978;,
 -1.71351;-14.52512;-1.09152;,
 -2.16415;-14.70598;0.27113;,
 -2.32223;-14.52553;0.27989;,
 -1.84338;-14.34900;-1.23913;,
 -1.56010;-16.12312;1.46941;,
 1.10167;-16.26332;2.03675;,
 -0.98204;-17.74456;2.36583;,
 -0.79838;-17.43265;2.20443;,
 -0.82026;-16.17922;2.03673;,
 0.17031;-16.26466;2.35900;,
 0.17031;-16.26466;2.35900;,
 -0.84140;-16.67125;2.04898;,
 -0.30751;-17.60468;2.41315;,
 0.11812;-17.54416;2.40076;,
 0.12852;-16.58479;2.37849;,
 2.74908;-18.86099;1.97135;,
 2.51082;-18.85239;2.38311;,
 2.24330;-18.60175;2.45575;,
 2.30759;-17.91232;1.72026;,
 1.78597;-17.88666;2.29083;,
 1.69354;-18.57765;2.54184;,
 1.72766;-17.88415;2.41998;,
 1.03107;-17.52350;2.19565;,
 1.21988;-17.83843;2.35449;,
 1.09501;-16.75305;2.04735;,
 1.10167;-16.26332;2.03675;,
 0.55149;-17.64251;2.41315;,
 0.74095;-17.62704;2.44287;,
 0.17031;-16.26466;2.35900;,
 0.12852;-16.58479;2.37849;,
 0.11812;-17.54416;2.40076;,
 -2.35437;-18.67464;2.39806;,
 -2.59324;-18.66448;1.98270;,
 -2.07396;-18.43869;2.47418;,
 -1.58527;-17.75790;2.30057;,
 -1.66161;-16.71718;1.50103;,
 -1.56010;-16.12312;1.46941;,
 -1.91944;-16.12035;0.25709;,
 -2.03286;-16.71069;0.23426;,
 -2.10788;-17.73999;1.72631;,
 -0.82026;-16.17922;2.03673;,
 -0.49421;-17.57471;2.44373;,
 0.17031;-16.26466;2.35900;,
 -0.84531;-16.69263;-1.87424;,
 -1.39753;-17.75152;-2.45869;,
 -2.08181;-17.74814;-1.55399;,
 -1.66050;-16.73572;-1.10802;,
 -2.54147;-18.66323;-2.02424;,
 -0.87184;-16.17630;-1.69440;,
 -1.42556;-16.14970;-0.94542;,
 -3.03759;-18.64688;0.14236;,
 -2.51328;-17.72778;0.18710;,
 -0.61374;-3.14010;-2.96581;,
 -2.62086;-7.22075;-1.88480;,
 -1.78377;-7.33006;-3.37968;,
 -2.48496;-13.69037;0.32779;,
 -2.39750;-14.30851;0.28358;,
 -2.79280;-9.27813;-2.05219;,
 -2.26585;-12.90900;-1.25044;,
 -1.44935;-3.00031;-2.00845;,
 -1.50951;-3.08696;-2.31475;,
 -2.62904;-7.26056;-2.34171;,
 -0.92397;-3.12563;-2.96546;,
 -1.74578;-13.08379;-2.08882;,
 -2.17243;-9.35496;-2.97797;,
 -1.70145;-13.83942;-1.82776;,
 -2.25547;-13.27581;-1.44084;,
 -1.92693;-14.12466;-1.27327;,
 -2.57887;-7.32142;-2.60767;,
 -1.47279;-3.14931;-2.53766;,
 -1.15102;-3.24392;-2.88831;,
 -2.04738;-7.34775;-3.29132;,
 -2.71742;-9.29743;-2.29542;,
 0.78000;-0.57644;-3.78187;,
 0.93145;-0.61394;-3.74905;,
 0.63637;-0.54088;-3.72979;,
 1.74787;-0.81613;-3.23573;,
 2.25329;-0.94128;-3.03323;,
 3.13093;-1.15860;-2.06117;,
 3.45522;-1.23887;-0.62336;,
 3.15434;-1.16437;0.82418;,
 2.28748;-0.94968;1.75984;,
 0.94531;-0.61729;2.12219;,
 0.94531;-0.61729;2.12219;,
 -0.47784;-0.26489;1.89009;,
 -1.36099;-0.04621;0.90490;,
 -1.57605;0.00703;-0.61137;,
 1.03265;-0.63900;-3.65623;,
 1.03265;-0.63900;-3.65623;,
 -0.03702;-0.37414;-3.22637;,
 0.51264;-0.51024;-3.63055;,
 0.51264;-0.51024;-3.63055;,
 -1.24855;-0.07411;-2.06725;,
 -0.43746;-0.27498;-3.02460;,
 0.15661;-17.53214;-2.22041;,
 0.18445;-16.50221;-2.16336;,
 0.18445;-16.50221;-2.16336;,
 1.15397;-16.27841;-1.70237;,
 0.83020;-16.26391;-1.88715;,
 0.43010;-16.19387;-2.10486;,
 1.14214;-17.85011;-2.34081;,
 1.05482;-17.60441;-2.11304;,
 0.74825;-16.65069;-1.99760;,
 0.36322;-16.43035;-2.16863;,
 0.43010;-16.19387;-2.10486;,
 0.83020;-16.26391;-1.88715;,
 0.36322;-16.43035;-2.16863;,
 0.56259;-17.66292;-2.21315;,
 0.15661;-17.53214;-2.22041;,
 0.18445;-16.50221;-2.16336;,
 1.10211;-16.77630;-1.87426;,
 1.15397;-16.27841;-1.70237;,
 0.77941;-17.66085;-2.27855;;
 
 305;
 4;0,1,2,3;,
 4;4,5,6,7;,
 4;8,4,7,9;,
 4;10,11,12,13;,
 4;14,10,13,15;,
 4;16,17,18,19;,
 4;20,21,22,23;,
 4;21,24,25,22;,
 4;26,27,28,29;,
 4;30,31,32,33;,
 4;34,35,36,37;,
 4;38,39,40,41;,
 4;42,43,44,45;,
 4;46,3,2,47;,
 4;46,48,49,3;,
 4;6,50,51,7;,
 4;51,52,9,7;,
 4;12,53,54,13;,
 4;13,54,55,15;,
 4;56,19,18,57;,
 4;58,23,22,59;,
 4;59,22,25,60;,
 4;61,29,28,62;,
 4;63,33,32,64;,
 4;65,37,36,66;,
 4;67,41,40,68;,
 4;69,45,44,70;,
 4;69,70,71,72;,
 4;71,70,73,74;,
 4;48,46,75,76;,
 4;75,46,47,77;,
 4;78,79,51,50;,
 4;52,51,79,80;,
 4;56,57,81,82;,
 4;58,59,83,84;,
 4;83,59,60,85;,
 4;61,62,86,87;,
 4;88,89,63,64;,
 4;90,91,65,66;,
 4;67,68,92,93;,
 4;76,75,94,95;,
 4;94,75,77,96;,
 4;97,98,79,78;,
 4;80,79,98,99;,
 4;100,101,102,103;,
 4;102,101,104,105;,
 4;106,107,82,81;,
 4;108,106,81,109;,
 4;110,108,109,87;,
 4;111,110,87,86;,
 4;112,113,93,92;,
 4;114,115,116,117;,
 4;116,118,119,117;,
 4;120,121,122,123;,
 4;124,125,126,127;,
 4;54,102,105,55;,
 4;103,102,54,53;,
 4;6,5,128,129;,
 4;130,50,6,129;,
 4;78,50,130,131;,
 4;97,78,131,132;,
 4;133,8,9,134;,
 4;9,52,135,134;,
 4;52,80,136,135;,
 4;80,99,137,136;,
 4;95,94,138,139;,
 4;138,94,96,140;,
 4;115,141,137,99;,
 4;115,99,98,116;,
 4;118,116,98,97;,
 4;118,97,132,142;,
 4;143,104,101,144;,
 4;145,144,101,100;,
 4;123,145,100,146;,
 4;120,123,146,147;,
 4;148,38,41,149;,
 4;36,35,148,149;,
 4;150,42,45,151;,
 4;40,39,150,151;,
 4;41,67,152,149;,
 4;152,66,36,149;,
 4;45,69,153,151;,
 4;153,68,40,151;,
 4;48,76,154,155;,
 4;90,66,152,156;,
 4;67,93,156,152;,
 4;92,68,153,157;,
 4;69,72,157,153;,
 4;72,71,158,157;,
 4;76,95,159,154;,
 4;160,16,19,161;,
 4;12,11,160,161;,
 4;162,20,23,163;,
 4;18,17,162,163;,
 4;164,26,29,165;,
 4;25,24,164,165;,
 4;166,30,33,167;,
 4;28,27,166,167;,
 4;19,56,168,161;,
 4;168,53,12,161;,
 4;23,58,169,163;,
 4;169,57,18,163;,
 4;29,61,170,165;,
 4;170,60,25,165;,
 4;33,63,171,167;,
 4;171,62,28,167;,
 4;103,53,168,172;,
 4;56,82,172,168;,
 4;81,57,169,173;,
 4;58,84,173,169;,
 4;85,60,170,174;,
 4;61,87,174,170;,
 4;86,62,171,175;,
 4;63,89,175,171;,
 4;146,100,176,177;,
 4;107,106,177,176;,
 4;100,103,172,176;,
 4;82,107,176,172;,
 4;147,146,177,178;,
 4;106,108,178,177;,
 4;109,81,173,179;,
 4;84,83,179,173;,
 4;147,178,180,181;,
 4;108,110,180,178;,
 4;87,109,179,174;,
 4;83,85,174,179;,
 4;181,180,182,183;,
 4;110,111,182,180;,
 4;183,182,175,89;,
 4;111,86,175,182;,
 4;119,118,142,184;,
 4;185,186,187,188;,
 4;189,190,191,192;,
 4;191,193,194,192;,
 4;194,195,196,192;,
 4;195,197,198,196;,
 4;199,200,201,202;,
 4;201,193,191,202;,
 4;203,204,205,206;,
 4;205,207,208,206;,
 4;207,185,188,208;,
 4;197,209,210,198;,
 4;210,209,211,212;,
 4;211,213,214,212;,
 4;215,183,89,88;,
 4;216,217,91,90;,
 4;216,218,219,220;,
 4;113,112,219,218;,
 4;216,90,156,218;,
 4;93,113,218,156;,
 4;127,126,221,222;,
 4;223,224,121,120;,
 4;120,147,181,223;,
 4;225,223,181,183;,
 4;214,213,226,227;,
 4;225,183,215,228;,
 4;229,230,217,216;,
 4;229,216,220,231;,
 4;117,119,232,233;,
 4;117,233,234,114;,
 4;235,139,138,236;,
 4;236,138,140,237;,
 4;238,239,240,241;,
 4;141,115,114,242;,
 4;242,114,234,243;,
 4;241,240,244,245;,
 4;124,127,246,247;,
 4;248,249,247,246;,
 4;249,248,188,187;,
 4;250,249,187,251;,
 4;251,187,186,252;,
 4;251,252,253,254;,
 4;254,255,250,251;,
 3;249,256,247;,
 4;257,256,255,254;,
 4;254,253,258,257;,
 4;255,256,249,250;,
 4;259,260,261,262;,
 4;263,259,262,264;,
 4;263,95,139,259;,
 4;220,219,265,264;,
 4;266,263,264,265;,
 4;266,159,95,263;,
 4;231,220,264,262;,
 4;260,259,139,235;,
 4;262,261,267,231;,
 4;225,268,224,223;,
 4;227,226,269,270;,
 4;229,231,267,271;,
 4;268,225,228,272;,
 4;230,229,271,273;,
 4;274,275,276,277;,
 4;208,278,279,206;,
 4;279,280,203,206;,
 4;248,278,208,188;,
 4;278,248,246,281;,
 4;127,222,281,246;,
 3;282,278,281;,
 4;283,204,203,284;,
 4;284,203,280,282;,
 4;284,285,286,283;,
 4;287,222,221,288;,
 4;222,287,282,281;,
 4;282,287,285,284;,
 4;285,287,289,290;,
 4;287,288,291,292;,
 4;289,287,292,293;,
 4;278,282,280,279;,
 4;294,295,210,212;,
 4;214,296,294,212;,
 4;297,295,294,296;,
 4;227,297,296,214;,
 4;298,299,300,301;,
 4;298,302,297,274;,
 4;270,274,297,227;,
 4;299,298,274,303;,
 3;275,274,304;,
 3;304,274,270;,
 4;277,305,303,274;,
 3;295,297,302;,
 4;306,307,308,309;,
 4;196,310,189,192;,
 4;307,306,199,202;,
 4;202,191,190,307;,
 4;238,241,306,311;,
 4;199,306,241,245;,
 4;309,312,311,306;,
 3;307,310,308;,
 4;312,309,301,300;,
 4;198,313,310,196;,
 4;295,313,198,210;,
 4;314,301,309,308;,
 4;313,314,308,310;,
 4;314,313,295,302;,
 4;302,298,301,314;,
 4;310,307,190,189;,
 4;315,0,3,49;,
 4;73,70,44,316;,
 4;49,48,155,317;,
 4;16,160,162,17;,
 4;160,11,20,162;,
 4;38,148,150,39;,
 4;148,35,42,150;,
 4;26,164,166,27;,
 4;164,24,30,166;,
 4;318,319,112,92;,
 4;320,321,74,73;,
 4;219,112,319,265;,
 4;158,318,92,157;,
 4;71,74,321,158;,
 4;43,322,316,44;,
 4;316,322,323,324;,
 4;325,315,49,317;,
 4;320,73,316,324;,
 4;326,327,155,154;,
 4;328,326,154,159;,
 4;318,329,330,319;,
 4;330,266,265,319;,
 4;321,329,318,158;,
 4;329,326,328,330;,
 4;266,330,328,159;,
 4;331,332,333,334;,
 4;327,335,331,334;,
 4;317,334,333,325;,
 4;334,317,155,327;,
 4;321,320,335,329;,
 4;324,331,335,320;,
 4;332,331,324,323;,
 4;335,327,326,329;,
 4;332,323,325,333;,
 4;315,325,323,322;,
 4;5,4,336,337;,
 4;4,8,338,336;,
 4;11,10,339,340;,
 4;21,20,341,342;,
 4;24,21,342,343;,
 4;31,30,344,345;,
 4;35,34,346,347;,
 4;43,42,348,349;,
 4;10,14,350,339;,
 4;128,5,337,351;,
 4;1,0,352,353;,
 4;8,133,354,338;,
 4;322,43,349,355;,
 4;0,315,356,352;,
 4;20,11,340,341;,
 4;42,35,347,348;,
 4;30,24,343,344;,
 4;315,322,355,356;,
 4;357,244,240,358;,
 4;243,234,233,359;,
 4;122,360,145,123;,
 4;144,145,360,361;,
 4;362,143,144,361;,
 4;257,258,363,364;,
 4;365,366,367,368;,
 4;184,369,232,119;,
 4;233,232,369,359;,
 4;366,370,371,372;,
 4;373,124,247,256;,
 4;124,373,374,125;,
 4;368,374,373,365;,
 4;365,373,364,375;,
 4;364,373,256,257;,
 4;370,366,365,375;;
 
 MeshMaterialList {
  12;
  305;
  9,
  9,
  9,
  9,
  9,
  9,
  9,
  9,
  9,
  9,
  9,
  9,
  9,
  9,
  9,
  9,
  9,
  9,
  9,
  9,
  9,
  9,
  9,
  9,
  9,
  9,
  9,
  9,
  9,
  9,
  9,
  9,
  9,
  9,
  9,
  9,
  9,
  9,
  9,
  9,
  9,
  9,
  9,
  9,
  9,
  9,
  9,
  9,
  9,
  9,
  9,
  9,
  9,
  9,
  9,
  9,
  9,
  9,
  9,
  9,
  9,
  9,
  9,
  9,
  9,
  9,
  9,
  9,
  9,
  9,
  9,
  9,
  9,
  9,
  9,
  9,
  9,
  9,
  9,
  9,
  9,
  9,
  9,
  9,
  9,
  9,
  9,
  9,
  9,
  9,
  9,
  9,
  9,
  9,
  9,
  9,
  9,
  9,
  9,
  9,
  9,
  9,
  9,
  9,
  9,
  9,
  9,
  9,
  9,
  9,
  9,
  9,
  9,
  9,
  9,
  9,
  9,
  9,
  9,
  9,
  9,
  9,
  9,
  9,
  9,
  9,
  9,
  9,
  9,
  9,
  9,
  9,
  9,
  9,
  9,
  9,
  9,
  9,
  9,
  9,
  9,
  9,
  9,
  9,
  9,
  9,
  9,
  9,
  9,
  9,
  9,
  9,
  9,
  9,
  9,
  9,
  9,
  9,
  9,
  9,
  9,
  9,
  9,
  9,
  9,
  9,
  9,
  9,
  9,
  9,
  9,
  9,
  9,
  9,
  9,
  9,
  9,
  9,
  9,
  9,
  9,
  9,
  9,
  9,
  9,
  9,
  9,
  9,
  9,
  9,
  9,
  9,
  9,
  9,
  9,
  9,
  9,
  9,
  9,
  9,
  9,
  9,
  9,
  9,
  9,
  9,
  9,
  9,
  9,
  9,
  9,
  9,
  9,
  9,
  9,
  9,
  9,
  9,
  9,
  9,
  9,
  9,
  9,
  9,
  9,
  9,
  9,
  9,
  9,
  9,
  9,
  9,
  9,
  9,
  9,
  9,
  9,
  9,
  9,
  9,
  9,
  9,
  9,
  9,
  9,
  9,
  9,
  9,
  9,
  9,
  9,
  9,
  9,
  9,
  9,
  9,
  9,
  9,
  9,
  9,
  9,
  9,
  9,
  9,
  9,
  9,
  9,
  9,
  9,
  9,
  9,
  9,
  9,
  9,
  9,
  9,
  9,
  9,
  9,
  9,
  9,
  9,
  9,
  9,
  9,
  9,
  9,
  9,
  9,
  9,
  9,
  9,
  9,
  9,
  9,
  9,
  9,
  9,
  9,
  9,
  9,
  9,
  9,
  9,
  9;;
  Material {
   0.765600;0.659200;0.241600;1.000000;;
   5.000000;
   0.000000;0.000000;0.000000;;
   0.000000;0.000000;0.000000;;
  }
  Material {
   0.000000;0.000000;0.000000;1.000000;;
   5.000000;
   0.000000;0.000000;0.000000;;
   0.000000;0.000000;0.000000;;
  }
  Material {
   0.800000;0.800000;0.800000;1.000000;;
   5.000000;
   0.000000;0.000000;0.000000;;
   0.000000;0.000000;0.000000;;
  }
  Material {
   0.800000;0.000000;0.060000;1.000000;;
   5.000000;
   0.000000;0.000000;0.000000;;
   0.000000;0.000000;0.000000;;
  }
  Material {
   0.000000;0.000000;0.000000;1.000000;;
   5.000000;
   0.000000;0.000000;0.000000;;
   0.000000;0.000000;0.000000;;
  }
  Material {
   0.800000;0.768800;0.000000;1.000000;;
   5.000000;
   0.000000;0.000000;0.000000;;
   0.000000;0.000000;0.000000;;
  }
  Material {
   0.000000;0.000000;0.000000;1.000000;;
   5.000000;
   0.000000;0.000000;0.000000;;
   0.000000;0.000000;0.000000;;
  }
  Material {
   0.743200;0.263200;0.094400;1.000000;;
   5.000000;
   0.000000;0.000000;0.000000;;
   0.000000;0.000000;0.000000;;
  }
  Material {
   0.968627;1.000000;0.000000;1.000000;;
   50.000000;
   0.500000;0.500000;0.500000;;
   0.096863;0.100000;0.000000;;
  }
  Material {
   1.000000;1.000000;1.000000;1.000000;;
   50.000000;
   0.500000;0.500000;0.500000;;
   0.100000;0.100000;0.100000;;
  }
  Material {
   0.000000;1.000000;0.000000;1.000000;;
   50.000000;
   0.500000;0.500000;0.500000;;
   0.000000;0.100000;0.000000;;
  }
  Material {
   1.000000;0.007843;0.537255;1.000000;;
   50.000000;
   0.500000;0.500000;0.500000;;
   0.100000;0.000784;0.053725;;
  }
 }
 MeshNormals {
  342;
  -0.545280;0.097335;-0.832583;,
  -0.601728;0.098533;-0.792600;,
  -0.626990;0.019039;-0.778795;,
  -0.516211;0.020168;-0.856224;,
  -0.046660;0.078941;-0.995787;,
  0.459223;0.040419;-0.887401;,
  0.488186;-0.028177;-0.872284;,
  -0.020645;-0.017238;-0.999638;,
  -0.474172;0.096837;-0.875090;,
  -0.489800;0.006036;-0.871814;,
  0.442811;0.033370;-0.895994;,
  0.365551;0.024599;-0.930466;,
  0.154345;-0.038292;-0.987275;,
  0.458656;-0.030973;-0.888074;,
  0.595905;0.024611;-0.802678;,
  0.624963;-0.029328;-0.780103;,
  0.541905;0.108938;-0.833349;,
  0.931477;0.134308;-0.338100;,
  0.933828;0.024105;-0.356908;,
  0.547417;-0.020526;-0.836608;,
  0.955512;0.041604;-0.292002;,
  0.998119;0.054378;0.028328;,
  0.995687;0.091777;0.013575;,
  0.990587;0.053888;-0.125831;,
  0.940560;0.046922;0.336371;,
  0.982966;0.109069;0.147923;,
  0.785766;0.565934;0.249583;,
  0.538567;0.644447;0.542802;,
  0.554133;0.212544;0.804836;,
  0.910779;0.149815;0.384757;,
  0.376897;0.176571;0.909270;,
  0.069565;0.215590;0.974003;,
  0.051652;0.241591;0.969002;,
  0.205442;0.229808;0.951306;,
  -0.272929;0.235506;0.932763;,
  -0.049479;0.225878;0.972898;,
  -0.401372;0.700395;0.590210;,
  -0.713734;0.650198;0.260435;,
  -0.920962;0.203072;0.332551;,
  -0.488859;0.251578;0.835300;,
  -0.955885;0.166118;0.242257;,
  -0.982564;0.181593;-0.039903;,
  -0.981192;0.191450;-0.024678;,
  -0.979534;0.180900;0.088248;,
  -0.480589;-0.169700;-0.860369;,
  -0.631101;-0.156741;-0.759700;,
  -0.195522;-0.185337;-0.963027;,
  -0.217114;-0.005906;-0.976128;,
  0.507173;-0.210854;-0.835653;,
  -0.010029;-0.228240;-0.973553;,
  -0.498758;-0.186197;-0.846505;,
  0.169576;-0.202330;-0.964524;,
  0.453079;-0.206096;-0.867320;,
  0.635918;-0.192154;-0.747452;,
  0.564902;-0.222604;-0.794565;,
  0.910552;-0.182702;-0.370830;,
  0.980150;-0.138226;-0.142124;,
  0.989747;-0.142740;0.005060;,
  0.976237;-0.132206;0.171705;,
  0.905708;-0.148695;0.396968;,
  0.571902;-0.145921;0.807239;,
  0.196899;-0.116395;0.973490;,
  0.005621;-0.120400;0.992710;,
  -0.094013;-0.114706;0.988941;,
  -0.522573;-0.125208;0.843351;,
  -0.926439;-0.086763;0.366310;,
  -0.989081;-0.048310;0.139231;,
  -0.998245;-0.059166;-0.002582;,
  -0.983760;-0.179432;0.004442;,
  -0.973043;-0.172150;0.153466;,
  -0.988840;-0.049921;-0.140371;,
  -0.975151;-0.167759;-0.144699;,
  -0.476755;-0.226496;-0.849355;,
  -0.236795;-0.256846;-0.936994;,
  -0.622403;-0.200986;-0.756452;,
  0.524305;-0.242713;-0.816208;,
  -0.006579;-0.266937;-0.963691;,
  -0.501321;-0.224283;-0.835688;,
  0.904800;-0.244392;-0.348727;,
  0.628492;-0.315480;-0.710964;,
  0.963293;-0.268029;0.015072;,
  0.958981;-0.242523;-0.146757;,
  0.942955;-0.267367;0.198370;,
  0.630819;-0.318413;0.707588;,
  0.906301;-0.234272;0.351759;,
  -0.010519;-0.287858;0.957615;,
  0.177028;-0.293607;0.939391;,
  -0.148520;-0.291136;0.945083;,
  -0.918010;-0.191615;0.347191;,
  -0.611022;-0.294388;0.734839;,
  -0.488453;-0.206698;-0.847756;,
  -0.463101;-0.359570;-0.810091;,
  -0.623466;-0.186263;-0.759340;,
  0.539925;-0.224085;-0.811337;,
  -0.004500;-0.250070;-0.968217;,
  -0.511247;-0.208472;-0.833766;,
  0.428853;-0.354763;-0.830800;,
  0.491537;-0.228431;-0.840363;,
  0.465510;-0.252035;-0.848398;,
  0.220062;-0.270917;-0.937111;,
  0.654891;-0.205075;-0.727366;,
  0.644970;-0.224191;-0.730583;,
  0.848769;-0.298904;-0.436173;,
  0.688527;-0.326830;-0.647389;,
  0.962068;-0.272786;0.003462;,
  0.990164;-0.139912;-0.000324;,
  0.838034;-0.311918;0.447667;,
  0.684099;-0.345334;0.642459;,
  -0.849899;-0.297317;0.435055;,
  -0.683002;-0.326159;0.653550;,
  -0.571304;-0.171062;-0.802714;,
  -0.538106;-0.175902;-0.824318;,
  -0.002029;-0.201352;-0.979517;,
  -0.003111;-0.217919;-0.975962;,
  0.565720;-0.190725;-0.802237;,
  0.591743;-0.197225;-0.781628;,
  0.967149;-0.254151;0.005398;,
  0.998356;-0.057033;0.005670;,
  0.866184;-0.033759;-0.498584;,
  0.843919;-0.241518;-0.479030;,
  0.831522;0.327839;-0.448434;,
  0.962481;0.271297;0.005308;,
  -0.481464;-0.171138;-0.859596;,
  -0.643924;-0.185335;-0.742302;,
  -0.629815;-0.172900;-0.757258;,
  0.662897;-0.192113;-0.723644;,
  0.492056;-0.196188;-0.848170;,
  0.591060;-0.209189;-0.779031;,
  0.727294;-0.486870;-0.483737;,
  0.867712;-0.497012;0.007433;,
  -0.040305;0.853785;0.519063;,
  -0.042385;0.225266;0.973375;,
  -0.972299;0.220115;-0.078635;,
  -0.989428;0.141339;-0.032502;,
  -0.089976;-0.125250;0.988037;,
  -0.997908;-0.049572;0.041488;,
  -0.293192;-0.273295;-0.916160;,
  -0.183045;-0.192190;-0.964136;,
  -0.247978;-0.312126;0.917106;,
  -0.986080;-0.123216;0.111643;,
  -0.997913;-0.063272;0.012883;,
  -0.499486;-0.454826;-0.737324;,
  0.119539;0.086709;-0.989036;,
  0.127841;-0.038219;-0.991058;,
  0.989976;0.137289;0.033161;,
  0.998466;0.055360;-0.000310;,
  0.737546;0.673747;-0.045729;,
  0.996430;0.082721;0.016862;,
  0.272139;0.841089;0.467450;,
  0.248805;0.231283;0.940534;,
  0.173459;-0.210119;-0.962165;,
  0.990102;-0.129445;-0.054236;,
  0.990489;-0.128115;0.050175;,
  0.302208;-0.125675;0.944921;,
  0.293073;-0.300736;-0.907561;,
  0.974426;-0.194760;-0.112084;,
  0.974400;-0.190513;0.119368;,
  0.353114;-0.316003;0.880598;,
  0.478447;-0.432059;-0.764469;,
  0.720025;-0.516405;-0.463562;,
  0.854956;-0.518654;0.006920;,
  0.987954;-0.154485;0.008994;,
  0.695025;-0.529300;0.486602;,
  0.682103;-0.515465;0.518682;,
  0.460067;-0.457045;0.761215;,
  0.320474;-0.400374;0.858485;,
  0.918800;0.128565;-0.373198;,
  0.990502;0.137400;0.005230;,
  -0.539118;0.227906;-0.810809;,
  -0.003960;0.163794;-0.986487;,
  -0.618304;0.294410;-0.728713;,
  0.677501;-0.105133;-0.727969;,
  0.856036;0.396105;-0.332120;,
  0.923796;0.382839;0.005905;,
  0.671526;0.132982;-0.728950;,
  0.006119;0.163441;-0.986534;,
  0.508437;0.240017;-0.826972;,
  0.579039;0.314265;-0.752297;,
  -0.990449;0.137786;0.005153;,
  -0.917266;0.128279;-0.377050;,
  -0.211553;0.192789;-0.958164;,
  -0.625413;0.676616;-0.388651;,
  -0.653778;0.652342;-0.383437;,
  -0.622047;0.512926;-0.591578;,
  -0.675591;0.439667;-0.591836;,
  -0.659247;0.132264;-0.740202;,
  -0.842381;0.417694;-0.340479;,
  -0.913633;0.406498;0.005821;,
  0.090122;0.497587;-0.862720;,
  0.386161;0.444670;-0.808176;,
  0.919562;0.126370;0.372071;,
  0.499639;0.418735;0.758302;,
  0.166676;0.156102;0.973577;,
  0.642391;0.133376;0.754682;,
  0.693077;0.393779;0.603806;,
  0.861489;0.376764;0.340420;,
  -0.919767;0.126977;0.371356;,
  -0.849277;0.401351;0.342996;,
  -0.642653;0.138408;0.753552;,
  -0.680667;0.423904;0.597493;,
  -0.159601;0.166337;0.973067;,
  -0.486404;0.454778;0.746048;,
  0.084309;0.239073;0.967335;,
  0.123434;0.296040;0.947166;,
  -0.013525;-0.294457;0.955569;,
  -0.346750;-0.387402;0.854215;,
  -0.452084;-0.457227;0.765874;,
  -0.705092;-0.532424;0.468370;,
  -0.717517;-0.477979;0.506660;,
  -0.064849;0.233333;0.970232;,
  -0.095930;0.295914;0.950386;,
  0.819419;-0.100577;0.564303;,
  0.808747;0.262678;0.526240;,
  0.802281;-0.286725;0.523578;,
  0.456323;-0.292973;0.840200;,
  -0.012723;0.409684;0.912139;,
  -0.009655;-0.284761;0.958550;,
  -0.479727;-0.264446;0.836618;,
  -0.825117;-0.226084;0.517752;,
  0.504583;-0.371018;-0.779578;,
  -0.013515;-0.458954;-0.888357;,
  -0.507778;-0.331332;-0.795224;,
  -0.630768;0.070859;-0.772729;,
  -0.447946;0.049400;-0.892695;,
  -0.632302;-0.056109;-0.772688;,
  -0.333054;-0.058042;-0.941120;,
  -0.311985;0.225540;-0.922928;,
  0.006634;0.099927;-0.994973;,
  0.902156;0.431370;0.005897;,
  0.788444;0.491144;-0.370315;,
  0.844754;0.535118;0.006267;,
  0.744572;0.583578;-0.324114;,
  0.667156;0.641820;-0.378114;,
  0.701018;0.419287;-0.576865;,
  0.659195;0.485195;-0.574498;,
  0.695875;0.615057;-0.370761;,
  0.579409;0.641611;-0.502614;,
  0.396301;0.745545;-0.535825;,
  -0.865083;-0.193158;-0.462949;,
  -0.866932;0.064188;-0.494276;,
  -0.998896;0.033023;-0.033415;,
  -0.981370;-0.187016;-0.044021;,
  -0.746018;-0.475521;-0.466194;,
  -0.888139;-0.458319;-0.033949;,
  -0.846391;-0.531860;-0.027330;,
  -0.712297;-0.551089;-0.434666;,
  -0.824995;-0.047343;0.563154;,
  0.251455;0.312655;0.915979;,
  0.462053;-0.135920;0.876375;,
  0.209534;0.206816;0.955679;,
  -0.198571;0.327332;0.923809;,
  -0.236709;0.407076;0.882189;,
  -0.467681;-0.100791;0.878132;,
  0.000089;-0.134741;0.990881;,
  0.030837;0.289883;0.956565;,
  -0.338767;0.310929;0.888009;,
  0.004631;0.100199;0.994957;,
  0.006036;0.072538;0.997347;,
  0.754619;0.547278;0.361990;,
  0.686580;0.600103;0.410467;,
  0.710081;0.585605;0.390964;,
  0.782758;0.443091;0.436990;,
  0.613249;0.561634;0.555422;,
  0.035920;0.394288;0.918285;,
  0.133945;0.440717;0.887597;,
  0.382497;0.278992;0.880829;,
  -0.654309;0.642296;0.399169;,
  -0.722846;0.586680;0.365102;,
  -0.683593;0.628730;0.370675;,
  -0.584076;0.598194;0.548652;,
  -0.791238;0.305741;0.529589;,
  -0.936667;0.350156;-0.006793;,
  -0.755978;0.482221;0.442674;,
  -0.452788;0.463760;-0.761518;,
  -0.536411;0.672189;-0.510319;,
  -0.758411;0.531369;-0.377439;,
  -0.791937;0.419235;-0.443934;,
  -0.709753;0.621486;-0.331670;,
  -0.816730;0.576986;0.006275;,
  -0.879435;0.475980;0.006147;,
  -0.462333;0.083566;-0.882760;,
  -0.978231;0.169960;-0.119070;,
  -0.157239;-0.006366;-0.987540;,
  -0.995240;-0.097370;0.004082;,
  -0.957232;-0.288455;-0.022389;,
  -0.993451;-0.045382;-0.104857;,
  -0.990302;-0.095256;-0.101131;,
  -0.945931;0.161381;-0.281374;,
  -0.702053;0.669044;-0.243929;,
  -0.980236;0.162060;-0.113461;,
  -0.242637;0.598768;-0.763285;,
  -0.637759;-0.274481;-0.719669;,
  -0.590695;-0.167271;-0.789367;,
  -0.710990;-0.327878;-0.622085;,
  -0.921076;-0.184911;-0.342677;,
  -0.846175;-0.327853;-0.420119;,
  -0.885176;0.117929;-0.450062;,
  -0.748955;0.446017;-0.490036;,
  -0.538064;0.413028;-0.734775;,
  -0.574420;0.054292;-0.816759;,
  -0.908270;-0.099265;-0.406437;,
  -0.064742;0.005387;-0.997887;,
  0.451252;-0.036488;-0.891650;,
  -0.480050;0.039582;-0.876348;,
  0.430115;-0.032109;-0.902203;,
  0.562535;-0.038386;-0.825882;,
  0.882819;-0.057447;-0.466186;,
  0.995622;-0.088328;0.030569;,
  0.853781;-0.135418;0.502712;,
  0.523036;-0.116146;0.844360;,
  0.051215;-0.041732;0.997815;,
  -0.499724;0.003687;0.866177;,
  -0.901428;0.043083;0.430780;,
  -0.996911;0.067329;-0.040426;,
  0.583090;-0.046145;-0.811096;,
  -0.556053;0.039902;-0.830188;,
  -0.598488;0.049960;-0.799572;,
  -0.888630;0.052236;-0.455640;,
  -0.649556;0.033661;-0.759569;,
  0.002103;0.041801;-0.999124;,
  -0.009633;-0.305614;-0.952107;,
  0.596525;0.002118;-0.802591;,
  0.476789;-0.010604;-0.878954;,
  0.263942;0.220397;-0.939021;,
  -0.351564;0.577214;-0.737040;,
  0.044965;0.116973;-0.992117;,
  0.362289;0.194787;-0.911485;,
  0.377832;-0.092833;-0.921209;,
  0.471256;0.418348;-0.776468;,
  0.429663;0.161911;-0.888355;,
  -0.450532;0.157429;-0.878770;,
  0.760140;0.562426;0.325368;,
  -0.737855;0.607056;0.295048;,
  -0.706659;0.614714;-0.350372;,
  0.173824;0.981536;-0.079828;,
  0.063421;0.997866;0.015561;,
  -0.048350;0.992687;0.110615;,
  -0.015011;0.999772;-0.015157;,
  0.132084;0.980609;-0.144776;,
  0.089114;0.975432;-0.201474;,
  -0.074756;0.982653;-0.169717;,
  0.426986;0.242691;-0.871082;;
  305;
  4;0,1,2,3;,
  4;4,5,6,7;,
  4;8,4,7,9;,
  4;10,11,12,13;,
  4;14,10,13,15;,
  4;16,17,18,19;,
  4;20,21,22,23;,
  4;21,24,25,22;,
  4;26,27,28,29;,
  4;30,31,32,33;,
  4;31,34,35,32;,
  4;36,37,38,39;,
  4;40,41,42,43;,
  4;44,3,2,45;,
  4;44,46,47,3;,
  4;6,48,49,7;,
  4;49,50,9,7;,
  4;12,51,52,13;,
  4;13,52,53,15;,
  4;54,19,18,55;,
  4;56,23,22,57;,
  4;57,22,25,58;,
  4;59,29,28,60;,
  4;61,33,32,62;,
  4;62,32,35,63;,
  4;64,39,38,65;,
  4;66,43,42,67;,
  4;66,67,68,69;,
  4;68,67,70,71;,
  4;46,44,72,73;,
  4;72,44,45,74;,
  4;75,76,49,48;,
  4;50,49,76,77;,
  4;54,55,78,79;,
  4;56,57,80,81;,
  4;80,57,58,82;,
  4;59,60,83,84;,
  4;85,86,61,62;,
  4;87,85,62,63;,
  4;64,65,88,89;,
  4;73,72,90,91;,
  4;90,72,74,92;,
  4;93,94,76,75;,
  4;77,76,94,95;,
  4;96,97,98,99;,
  4;98,97,100,101;,
  4;102,103,79,78;,
  4;104,102,78,105;,
  4;106,104,105,84;,
  4;107,106,84,83;,
  4;108,109,89,88;,
  4;110,111,112,113;,
  4;112,114,115,113;,
  4;116,117,118,119;,
  4;120,118,117,121;,
  4;52,98,101,53;,
  4;99,98,52,51;,
  4;6,5,14,15;,
  4;53,48,6,15;,
  4;75,48,53,101;,
  4;93,75,101,100;,
  4;1,8,9,2;,
  4;9,50,45,2;,
  4;50,77,74,45;,
  4;77,95,92,74;,
  4;91,90,122,123;,
  4;122,90,92,124;,
  4;111,124,92,95;,
  4;111,95,94,112;,
  4;114,112,94,93;,
  4;114,93,100,125;,
  4;125,100,97,126;,
  4;127,126,97,96;,
  4;119,127,96,128;,
  4;116,119,128,129;,
  4;130,36,39,131;,
  4;35,34,130,131;,
  4;132,40,43,133;,
  4;38,37,132,133;,
  4;39,64,134,131;,
  4;134,63,35,131;,
  4;43,66,135,133;,
  4;135,65,38,133;,
  4;46,73,136,137;,
  4;87,63,134,138;,
  4;64,89,138,134;,
  4;88,65,135,139;,
  4;66,69,139,135;,
  4;69,68,140,139;,
  4;73,91,141,136;,
  4;142,16,19,143;,
  4;12,11,142,143;,
  4;144,20,23,145;,
  4;18,17,144,145;,
  4;146,26,29,147;,
  4;25,24,146,147;,
  4;148,30,33,149;,
  4;28,27,148,149;,
  4;19,54,150,143;,
  4;150,51,12,143;,
  4;23,56,151,145;,
  4;151,55,18,145;,
  4;29,59,152,147;,
  4;152,58,25,147;,
  4;33,61,153,149;,
  4;153,60,28,149;,
  4;99,51,150,154;,
  4;54,79,154,150;,
  4;78,55,151,155;,
  4;56,81,155,151;,
  4;82,58,152,156;,
  4;59,84,156,152;,
  4;83,60,153,157;,
  4;61,86,157,153;,
  4;128,96,158,159;,
  4;103,102,159,158;,
  4;96,99,154,158;,
  4;79,103,158,154;,
  4;129,128,159,160;,
  4;102,104,160,159;,
  4;105,78,155,161;,
  4;81,80,161,155;,
  4;129,160,162,163;,
  4;104,106,162,160;,
  4;84,105,161,156;,
  4;80,82,156,161;,
  4;163,162,164,165;,
  4;106,107,164,162;,
  4;165,164,157,86;,
  4;107,83,157,164;,
  4;115,114,125,171;,
  4;167,166,172,173;,
  4;181,182,183,184;,
  4;183,175,185,184;,
  4;185,179,186,184;,
  4;179,178,187,186;,
  4;188,177,176,189;,
  4;176,175,329,189;,
  4;191,192,193,194;,
  4;193,190,195,194;,
  4;190,167,173,195;,
  4;178,196,197,187;,
  4;197,196,198,199;,
  4;198,200,201,199;,
  4;204,165,86,85;,
  4;205,204,85,87;,
  4;205,206,207,208;,
  4;109,108,207,206;,
  4;205,87,138,206;,
  4;89,109,206,138;,
  4;121,117,211,212;,
  4;213,211,117,116;,
  4;116,129,163,213;,
  4;214,213,163,165;,
  4;201,200,202,215;,
  4;214,165,204,216;,
  4;217,216,204,205;,
  4;217,205,208,218;,
  4;113,115,219,220;,
  4;113,220,221,110;,
  4;222,123,122,223;,
  4;223,122,124,224;,
  4;223,224,225,226;,
  4;124,111,110,224;,
  4;224,110,221,225;,
  4;226,225,227,180;,
  4;120,121,228,229;,
  4;230,231,229,228;,
  4;231,230,173,172;,
  4;232,231,172,233;,
  4;233,172,166,174;,
  4;233,174,169,234;,
  4;234,235,232,233;,
  3;231,236,229;,
  4;237,236,235,234;,
  4;330,169,168,168;,
  4;235,236,231,232;,
  4;238,239,240,241;,
  4;242,238,241,243;,
  4;242,91,123,238;,
  4;208,207,244,243;,
  4;245,242,243,244;,
  4;245,141,91,242;,
  4;218,208,243,241;,
  4;239,238,123,222;,
  4;241,240,246,218;,
  4;214,248,211,213;,
  4;215,202,203,251;,
  4;217,218,246,252;,
  4;248,214,216,253;,
  4;216,217,252,253;,
  4;255,254,256,257;,
  4;195,258,259,194;,
  4;259,260,191,194;,
  4;230,258,195,173;,
  4;258,230,228,261;,
  4;121,212,261,228;,
  3;262,258,261;,
  4;209,192,191,263;,
  4;331,191,260,262;,
  4;263,264,210,209;,
  4;265,212,211,248;,
  4;212,265,262,261;,
  4;262,265,264,263;,
  4;264,265,249,247;,
  4;265,248,253,257;,
  4;249,265,257,256;,
  4;258,262,260,259;,
  4;266,267,197,199;,
  4;201,268,266,199;,
  4;269,267,266,268;,
  4;332,269,268,201;,
  4;270,246,240,271;,
  4;270,272,269,255;,
  4;251,255,269,215;,
  4;246,270,255,252;,
  3;254,255,250;,
  3;250,255,251;,
  4;257,253,252,255;,
  3;267,269,272;,
  4;273,274,275,276;,
  4;186,277,181,184;,
  4;274,273,188,189;,
  4;333,183,182,274;,
  4;223,226,273,222;,
  4;188,273,226,180;,
  4;276,239,222,273;,
  3;274,277,275;,
  4;239,276,271,240;,
  4;187,278,277,186;,
  4;267,278,187,197;,
  4;279,271,276,275;,
  4;278,279,275,277;,
  4;279,278,267,272;,
  4;272,270,271,279;,
  4;277,274,182,181;,
  4;280,0,3,47;,
  4;70,67,42,281;,
  4;47,46,137,282;,
  4;334,335,335,334;,
  4;335,336,336,335;,
  4;36,130,337,37;,
  4;130,338,338,337;,
  4;26,146,148,27;,
  4;146,339,339,148;,
  4;283,284,108,88;,
  4;285,286,71,70;,
  4;207,108,284,244;,
  4;140,283,88,139;,
  4;68,71,286,140;,
  4;41,287,281,42;,
  4;281,287,288,289;,
  4;290,280,47,282;,
  4;285,70,281,289;,
  4;291,292,137,136;,
  4;293,291,136,141;,
  4;283,294,295,284;,
  4;295,245,244,284;,
  4;286,294,283,140;,
  4;294,291,293,295;,
  4;245,295,293,141;,
  4;296,297,298,299;,
  4;292,300,296,299;,
  4;282,299,298,290;,
  4;299,282,137,292;,
  4;286,285,300,294;,
  4;289,296,300,285;,
  4;297,296,289,288;,
  4;300,292,291,294;,
  4;297,288,290,298;,
  4;340,290,288,340;,
  4;5,4,301,302;,
  4;4,8,303,301;,
  4;11,10,304,305;,
  4;21,20,306,307;,
  4;24,21,307,308;,
  4;31,30,309,310;,
  4;34,31,310,311;,
  4;41,40,312,313;,
  4;10,14,314,304;,
  4;14,5,302,314;,
  4;1,0,315,316;,
  4;8,1,316,303;,
  4;287,41,313,317;,
  4;0,280,318,315;,
  4;20,11,305,306;,
  4;40,34,311,312;,
  4;30,24,308,309;,
  4;280,287,317,318;,
  4;319,227,225,320;,
  4;225,221,220,320;,
  4;118,321,127,119;,
  4;126,127,321,322;,
  4;171,125,126,322;,
  4;168,168,170,324;,
  4;326,327,171,322;,
  4;171,327,219,115;,
  4;220,219,327,320;,
  4;327,325,319,320;,
  4;328,120,229,236;,
  4;120,328,321,118;,
  4;322,321,328,326;,
  4;326,328,341,323;,
  4;324,328,236,237;,
  4;325,327,326,323;;
 }
 MeshTextureCoords {
  376;
  0.435950;0.594560;,
  0.430070;0.599670;,
  0.387960;0.581680;,
  0.393770;0.572510;,
  0.684680;0.973680;,
  0.684360;0.976880;,
  0.641200;0.975000;,
  0.641450;0.972570;,
  0.684430;0.970560;,
  0.641500;0.970050;,
  0.960660;0.690530;,
  0.954230;0.689370;,
  0.958670;0.643490;,
  0.965200;0.643560;,
  0.970500;0.688840;,
  0.976310;0.642050;,
  0.949370;0.685360;,
  0.943830;0.684960;,
  0.941340;0.642850;,
  0.951750;0.642200;,
  0.938370;0.688760;,
  0.919150;0.690390;,
  0.913590;0.647330;,
  0.933980;0.645490;,
  0.900580;0.690550;,
  0.893920;0.644500;,
  0.894000;0.687000;,
  0.888840;0.688080;,
  0.877960;0.641270;,
  0.886330;0.641220;,
  0.884580;0.692150;,
  0.869460;0.691820;,
  0.851260;0.644520;,
  0.870660;0.641970;,
  0.490160;0.523420;,
  0.481110;0.537270;,
  0.447990;0.494900;,
  0.461660;0.481710;,
  0.475420;0.538340;,
  0.471820;0.542760;,
  0.437230;0.508590;,
  0.442610;0.500210;,
  0.471790;0.550500;,
  0.461400;0.565740;,
  0.426370;0.534770;,
  0.435750;0.517260;,
  0.375730;0.558010;,
  0.369260;0.566740;,
  0.379660;0.552500;,
  0.397150;0.567410;,
  0.617650;0.974900;,
  0.617350;0.972270;,
  0.618000;0.969580;,
  0.955950;0.620690;,
  0.962860;0.620330;,
  0.973620;0.618790;,
  0.949210;0.621580;,
  0.939650;0.622310;,
  0.932710;0.623370;,
  0.913410;0.624610;,
  0.894660;0.622350;,
  0.887220;0.620800;,
  0.879060;0.620670;,
  0.871090;0.620450;,
  0.850860;0.618780;,
  0.440650;0.465900;,
  0.429330;0.482550;,
  0.424880;0.488790;,
  0.419570;0.496830;,
  0.416530;0.504170;,
  0.407330;0.520770;,
  0.373260;0.497680;,
  0.385750;0.488020;,
  0.395460;0.535810;,
  0.368880;0.512810;,
  0.345200;0.526370;,
  0.349580;0.522970;,
  0.340700;0.535130;,
  0.576240;0.974990;,
  0.575780;0.972390;,
  0.576240;0.969690;,
  0.934580;0.579940;,
  0.943240;0.581630;,
  0.914930;0.583640;,
  0.929710;0.588640;,
  0.899760;0.588330;,
  0.886500;0.580980;,
  0.895340;0.579420;,
  0.865250;0.575640;,
  0.880690;0.578630;,
  0.389020;0.465960;,
  0.396030;0.451800;,
  0.380940;0.479050;,
  0.387580;0.472330;,
  0.336080;0.515610;,
  0.343520;0.512750;,
  0.331080;0.523670;,
  0.562210;0.974990;,
  0.561590;0.972450;,
  0.562150;0.969770;,
  0.944280;0.568330;,
  0.950140;0.564240;,
  0.953810;0.577710;,
  0.948540;0.579290;,
  0.959070;0.564550;,
  0.963110;0.578400;,
  0.933090;0.570670;,
  0.941020;0.573370;,
  0.915490;0.568500;,
  0.915240;0.574880;,
  0.897650;0.570210;,
  0.889320;0.573520;,
  0.372120;0.475580;,
  0.379430;0.470970;,
  0.538780;0.970330;,
  0.544720;0.970110;,
  0.544910;0.972440;,
  0.539170;0.972420;,
  0.544610;0.974650;,
  0.538660;0.974410;,
  0.916390;0.553640;,
  0.916760;0.548790;,
  0.931900;0.548300;,
  0.932110;0.553190;,
  0.430070;0.419090;,
  0.427670;0.424910;,
  0.413610;0.422610;,
  0.413970;0.416410;,
  0.675500;0.978980;,
  0.643030;0.978030;,
  0.617620;0.977850;,
  0.584010;0.977990;,
  0.564060;0.977530;,
  0.675730;0.967410;,
  0.643380;0.967020;,
  0.618000;0.966460;,
  0.584250;0.966510;,
  0.564290;0.966930;,
  0.326340;0.506370;,
  0.330350;0.502660;,
  0.321460;0.512000;,
  0.544210;0.967330;,
  0.544000;0.977210;,
  0.954880;0.550540;,
  0.948200;0.550950;,
  0.943270;0.551800;,
  0.932880;0.565710;,
  0.915700;0.563890;,
  0.477260;0.538040;,
  0.444710;0.498440;,
  0.471920;0.545340;,
  0.436630;0.512180;,
  0.426400;0.486560;,
  0.418270;0.499750;,
  0.352440;0.520930;,
  0.382350;0.549510;,
  0.387810;0.469870;,
  0.382780;0.483290;,
  0.368760;0.494800;,
  0.347490;0.512630;,
  0.950880;0.686600;,
  0.954600;0.642910;,
  0.942000;0.686410;,
  0.938410;0.643950;,
  0.896260;0.688350;,
  0.889270;0.642430;,
  0.887630;0.689300;,
  0.875320;0.641720;,
  0.951880;0.621210;,
  0.936990;0.622680;,
  0.890030;0.621220;,
  0.876200;0.620500;,
  0.945260;0.580370;,
  0.932100;0.583670;,
  0.897760;0.583080;,
  0.884470;0.579830;,
  0.941890;0.571240;,
  0.932920;0.568190;,
  0.915560;0.566250;,
  0.915130;0.578320;,
  0.898050;0.567740;,
  0.898350;0.565190;,
  0.888590;0.571410;,
  0.886190;0.568130;,
  0.537040;0.977680;,
  0.417620;0.387480;,
  0.440000;0.390370;,
  0.439430;0.391560;,
  0.417470;0.388830;,
  0.812830;0.033980;,
  0.809730;0.037510;,
  0.807600;0.034240;,
  0.811720;0.029550;,
  0.806610;0.033500;,
  0.811040;0.028640;,
  0.819120;0.027960;,
  0.819490;0.029150;,
  0.841630;0.028660;,
  0.841570;0.029960;,
  0.809330;0.058990;,
  0.807940;0.055530;,
  0.806760;0.046230;,
  0.808000;0.046790;,
  0.390890;0.392170;,
  0.389730;0.391420;,
  0.392950;0.386810;,
  0.393650;0.387790;,
  0.398320;0.386570;,
  0.398580;0.387830;,
  0.860870;0.030600;,
  0.860420;0.031730;,
  0.866290;0.031710;,
  0.865390;0.032460;,
  0.868870;0.036730;,
  0.867540;0.037190;,
  0.871220;0.561190;,
  0.376650;0.465040;,
  0.380260;0.448150;,
  0.378100;0.469030;,
  0.369820;0.474400;,
  0.367490;0.473140;,
  0.399570;0.422770;,
  0.398560;0.416540;,
  0.900800;0.552620;,
  0.901890;0.547700;,
  0.889440;0.549460;,
  0.869070;0.049470;,
  0.867610;0.049890;,
  0.877270;0.547210;,
  0.359700;0.456470;,
  0.364870;0.444990;,
  0.355830;0.467990;,
  0.535850;0.974080;,
  0.535540;0.972390;,
  0.535930;0.970620;,
  0.326070;0.499870;,
  0.322510;0.503130;,
  0.318310;0.507750;,
  0.810710;0.066870;,
  0.805280;0.069220;,
  0.803380;0.067000;,
  0.807460;0.063410;,
  0.537210;0.966900;,
  0.533830;0.969330;,
  0.803030;0.060050;,
  0.805110;0.059500;,
  0.415190;0.404830;,
  0.434210;0.407560;,
  0.416750;0.393210;,
  0.437790;0.395940;,
  0.445230;0.397450;,
  0.447030;0.393260;,
  0.447850;0.392390;,
  0.451430;0.397970;,
  0.450350;0.398620;,
  0.447740;0.401480;,
  0.445760;0.410770;,
  0.448050;0.410870;,
  0.449340;0.410430;,
  0.337290;0.494800;,
  0.333530;0.491500;,
  0.343310;0.479230;,
  0.347530;0.481720;,
  0.347360;0.502330;,
  0.356110;0.487340;,
  0.358220;0.488600;,
  0.349090;0.504470;,
  0.351110;0.466120;,
  0.891310;0.544990;,
  0.869230;0.058700;,
  0.868440;0.063130;,
  0.354910;0.455550;,
  0.880440;0.540900;,
  0.357820;0.443210;,
  0.866590;0.064490;,
  0.874530;0.063790;,
  0.878290;0.066780;,
  0.876750;0.069650;,
  0.398550;0.392300;,
  0.393720;0.392200;,
  0.391560;0.395520;,
  0.398270;0.404410;,
  0.390370;0.405120;,
  0.387590;0.404180;,
  0.388890;0.404840;,
  0.385870;0.418040;,
  0.385890;0.413480;,
  0.387530;0.419610;,
  0.389090;0.424560;,
  0.379900;0.417850;,
  0.381660;0.416930;,
  0.378100;0.427010;,
  0.376790;0.423560;,
  0.375620;0.420480;,
  0.864590;0.036710;,
  0.859770;0.036130;,
  0.866280;0.040320;,
  0.866020;0.049910;,
  0.856060;0.060100;,
  0.854170;0.066140;,
  0.840270;0.064030;,
  0.840890;0.057810;,
  0.858250;0.048140;,
  0.864410;0.069190;,
  0.872920;0.062610;,
  0.875610;0.073140;,
  0.811870;0.060980;,
  0.810260;0.047040;,
  0.822170;0.045740;,
  0.824630;0.057690;,
  0.820380;0.033740;,
  0.815180;0.065740;,
  0.825870;0.064300;,
  0.841610;0.034410;,
  0.841420;0.046130;,
  0.439170;0.590820;,
  0.413120;0.550320;,
  0.399080;0.563950;,
  0.365780;0.492950;,
  0.360190;0.489860;,
  0.392320;0.538780;,
  0.363460;0.511820;,
  0.448810;0.579220;,
  0.444120;0.580320;,
  0.409040;0.552820;,
  0.439210;0.587420;,
  0.354800;0.519970;,
  0.384250;0.547430;,
  0.349800;0.513160;,
  0.359010;0.511680;,
  0.351210;0.506010;,
  0.406010;0.554160;,
  0.441560;0.581310;,
  0.438730;0.584820;,
  0.400280;0.561290;,
  0.390460;0.540570;,
  0.708650;0.974860;,
  0.708040;0.977620;,
  0.709260;0.972030;,
  0.956810;0.716660;,
  0.950420;0.714760;,
  0.935760;0.711770;,
  0.919120;0.710700;,
  0.902920;0.712210;,
  0.888580;0.715250;,
  0.872150;0.719350;,
  0.510040;0.540630;,
  0.502210;0.554020;,
  0.494020;0.567170;,
  0.484300;0.581190;,
  0.966480;0.719350;,
  0.707550;0.980350;,
  0.461600;0.609700;,
  0.456590;0.615890;,
  0.709810;0.969110;,
  0.473850;0.595160;,
  0.464720;0.606010;,
  0.799450;0.063180;,
  0.801110;0.067060;,
  0.532600;0.972300;,
  0.943490;0.546810;,
  0.947780;0.546060;,
  0.953150;0.545710;,
  0.446770;0.419360;,
  0.444950;0.422620;,
  0.445690;0.427140;,
  0.449010;0.431030;,
  0.446950;0.433050;,
  0.442550;0.430180;,
  0.533740;0.975240;,
  0.450380;0.424240;,
  0.453640;0.427930;,
  0.451210;0.431390;,
  0.442250;0.424260;,
  0.438650;0.428440;,
  0.448530;0.423410;;
 }
}
