xof 0302txt 0064
template Header {
 <3D82AB43-62DA-11cf-AB39-0020AF71E433>
 WORD major;
 WORD minor;
 DWORD flags;
}

template Vector {
 <3D82AB5E-62DA-11cf-AB39-0020AF71E433>
 FLOAT x;
 FLOAT y;
 FLOAT z;
}

template Coords2d {
 <F6F23F44-7686-11cf-8F52-0040333594A3>
 FLOAT u;
 FLOAT v;
}

template Matrix4x4 {
 <F6F23F45-7686-11cf-8F52-0040333594A3>
 array FLOAT matrix[16];
}

template ColorRGBA {
 <35FF44E0-6C7C-11cf-8F52-0040333594A3>
 FLOAT red;
 FLOAT green;
 FLOAT blue;
 FLOAT alpha;
}

template ColorRGB {
 <D3E16E81-7835-11cf-8F52-0040333594A3>
 FLOAT red;
 FLOAT green;
 FLOAT blue;
}

template IndexedColor {
 <1630B820-7842-11cf-8F52-0040333594A3>
 DWORD index;
 ColorRGBA indexColor;
}

template Boolean {
 <4885AE61-78E8-11cf-8F52-0040333594A3>
 WORD truefalse;
}

template Boolean2d {
 <4885AE63-78E8-11cf-8F52-0040333594A3>
 Boolean u;
 Boolean v;
}

template MaterialWrap {
 <4885AE60-78E8-11cf-8F52-0040333594A3>
 Boolean u;
 Boolean v;
}

template TextureFilename {
 <A42790E1-7810-11cf-8F52-0040333594A3>
 STRING filename;
}

template Material {
 <3D82AB4D-62DA-11cf-AB39-0020AF71E433>
 ColorRGBA faceColor;
 FLOAT power;
 ColorRGB specularColor;
 ColorRGB emissiveColor;
 [...]
}

template MeshFace {
 <3D82AB5F-62DA-11cf-AB39-0020AF71E433>
 DWORD nFaceVertexIndices;
 array DWORD faceVertexIndices[nFaceVertexIndices];
}

template MeshFaceWraps {
 <4885AE62-78E8-11cf-8F52-0040333594A3>
 DWORD nFaceWrapValues;
 Boolean2d faceWrapValues;
}

template MeshTextureCoords {
 <F6F23F40-7686-11cf-8F52-0040333594A3>
 DWORD nTextureCoords;
 array Coords2d textureCoords[nTextureCoords];
}

template MeshMaterialList {
 <F6F23F42-7686-11cf-8F52-0040333594A3>
 DWORD nMaterials;
 DWORD nFaceIndexes;
 array DWORD faceIndexes[nFaceIndexes];
 [Material]
}

template MeshNormals {
 <F6F23F43-7686-11cf-8F52-0040333594A3>
 DWORD nNormals;
 array Vector normals[nNormals];
 DWORD nFaceNormals;
 array MeshFace faceNormals[nFaceNormals];
}

template MeshVertexColors {
 <1630B821-7842-11cf-8F52-0040333594A3>
 DWORD nVertexColors;
 array IndexedColor vertexColors[nVertexColors];
}

template Mesh {
 <3D82AB44-62DA-11cf-AB39-0020AF71E433>
 DWORD nVertices;
 array Vector vertices[nVertices];
 DWORD nFaces;
 array MeshFace faces[nFaces];
 [...]
}

Header{
1;
0;
1;
}

Mesh {
 308;
 3.74517;-1.70370;-4.58428;,
 3.74517;-2.57903;-3.74676;,
 3.47113;-2.55461;-3.84936;,
 3.32534;-1.67302;-4.68532;,
 -6.56387;-6.24873;-1.94198;,
 -6.99706;-6.05156;0.12360;,
 -6.06443;-2.45705;-0.04278;,
 -5.74390;-2.67090;-1.93624;,
 -5.30640;-6.44016;-4.05694;,
 -4.53850;-2.75674;-3.82650;,
 -3.57415;-6.75640;-4.85092;,
 -3.01999;-3.26654;-5.02449;,
 -2.09005;-7.16739;-5.07382;,
 -1.11981;-3.40136;-5.26131;,
 -0.54961;-7.27555;-4.61300;,
 0.78952;-3.69315;-4.86546;,
 1.79845;-4.17216;-3.80873;,
 0.75680;-7.68073;-3.58862;,
 3.21156;-4.89691;0.92932;,
 3.10286;-4.84297;-0.85177;,
 3.33410;-4.18391;-0.52764;,
 3.36234;-4.22442;0.82528;,
 3.49510;-3.86783;-0.65898;,
 3.42684;-4.02331;0.83023;,
 3.20924;-3.83917;2.41195;,
 3.02504;-4.38857;2.44053;,
 3.10125;-2.72601;-3.88110;,
 2.39226;-1.56158;-5.07863;,
 -5.08163;-0.45068;-2.11134;,
 -3.86450;-0.60020;-3.99220;,
 2.44329;-3.01653;-4.04471;,
 1.34168;-1.63904;-5.50731;,
 3.62201;-3.72504;-0.79903;,
 3.36174;-3.35616;-2.51573;,
 3.56086;-3.14653;-2.80194;,
 -2.60634;-0.87455;-5.01267;,
 -5.39111;-0.25323;-0.10803;,
 2.95810;-3.23465;3.60763;,
 2.22791;-2.35578;4.90247;,
 1.76203;-3.52442;4.96190;,
 2.65733;-4.03059;3.81247;,
 3.25691;-2.81906;3.83592;,
 3.20924;-3.83917;2.41195;,
 3.36891;-3.54701;2.42847;,
 3.59109;-3.79660;0.44370;,
 3.55686;-3.40726;2.36263;,
 3.36891;-3.54701;2.42847;,
 3.55686;-3.40726;2.36263;,
 3.52122;-2.67778;3.78084;,
 3.74517;-3.36621;2.23277;,
 3.74517;-2.64705;3.72155;,
 3.74517;-3.36621;2.23277;,
 3.74517;-3.74569;0.37495;,
 3.02504;-4.38857;2.44053;,
 3.74517;-3.69548;-0.90364;,
 -0.76489;-1.46966;-5.48941;,
 3.74517;-3.07931;-2.89467;,
 2.45807;-4.42929;-2.64987;,
 2.97915;-3.74927;-2.45002;,
 -6.71505;-5.92846;1.87762;,
 -5.85868;-2.62947;1.74044;,
 -5.76391;-5.92066;3.75226;,
 -4.65718;-2.54106;3.89994;,
 -3.86784;-5.87325;5.40875;,
 -3.29324;-2.57964;5.01689;,
 -2.05130;-5.99059;6.04295;,
 -1.96945;-2.76215;5.64962;,
 -0.97705;-6.14883;6.27463;,
 -0.91212;-2.98155;5.87209;,
 0.17903;-6.34885;5.92237;,
 0.57486;-3.12670;5.74961;,
 1.49074;-6.56686;5.29793;,
 2.24910;-7.02059;3.81844;,
 2.61742;-7.41341;2.58647;,
 2.61742;-7.41341;2.58647;,
 2.75262;-7.94863;0.96213;,
 2.51146;-8.00661;-0.91198;,
 1.79604;-7.77790;-2.76043;,
 -1.87851;-13.99644;-4.41641;,
 -3.46083;-13.64674;-4.71292;,
 -4.93460;-13.28078;-4.38367;,
 -6.24858;-13.11006;-3.46075;,
 -7.51331;-13.12504;-1.66499;,
 -7.92198;-13.14819;0.23649;,
 -7.53174;-13.02102;2.43005;,
 -6.46003;-13.09408;4.32417;,
 -4.79379;-13.08820;5.81593;,
 -2.90703;-13.01654;6.74409;,
 -1.39505;-13.31233;6.63626;,
 -0.34379;-13.64331;6.29975;,
 0.70114;-13.99994;5.29086;,
 1.35546;-14.57826;3.76846;,
 1.64250;-15.12932;1.92610;,
 1.64250;-15.12932;1.92610;,
 1.65258;-15.00963;0.39617;,
 1.39484;-14.70275;-1.20382;,
 0.57068;-14.44700;-2.99417;,
 -0.42247;-14.38443;-3.56927;,
 -4.15262;-17.59339;-4.90301;,
 -6.08260;-17.43364;-4.44665;,
 -7.33801;-17.18898;-3.50111;,
 -8.77439;-17.78132;-1.81542;,
 -9.61623;-17.57110;0.57303;,
 -9.06586;-16.74198;2.70757;,
 -7.59776;-15.92354;5.02517;,
 -5.52566;-16.30791;6.98545;,
 -3.74964;-16.70292;7.65037;,
 -1.81114;-16.54397;7.51266;,
 -0.51733;-17.00794;6.61610;,
 0.43627;-17.18947;5.67362;,
 1.25528;-17.61550;4.36969;,
 1.58215;-17.96887;2.33948;,
 1.58215;-17.96887;2.33948;,
 1.56217;-17.81835;0.71617;,
 1.25462;-17.75016;-1.31253;,
 0.59673;-17.81052;-2.55474;,
 -4.36996;-20.12559;-4.66059;,
 -6.29872;-20.04479;-4.17566;,
 -7.95746;-19.38486;-3.04652;,
 -9.16093;-19.20195;-1.46807;,
 -9.66606;-19.40703;1.73204;,
 -9.30244;-18.96771;3.22589;,
 -8.02083;-18.91362;6.54650;,
 -6.00310;-18.11410;8.24969;,
 -3.70101;-18.49535;8.41303;,
 -1.57603;-19.33401;7.72768;,
 -0.37342;-19.77847;6.60749;,
 0.37615;-20.20761;5.48951;,
 1.28308;-20.43573;4.43087;,
 1.81615;-20.90463;2.54383;,
 1.81615;-20.90463;2.54383;,
 1.62467;-20.84230;0.21293;,
 1.07052;-20.65848;-1.22498;,
 -5.86994;-22.28955;-1.92068;,
 -6.10565;-21.08695;-3.13517;,
 -4.30696;-21.38141;-3.76702;,
 -4.18220;-22.59125;-2.37206;,
 -7.21952;-21.85257;-1.10094;,
 -7.89582;-20.72664;-2.37573;,
 -8.11252;-21.70757;0.07007;,
 -8.83496;-20.44074;-0.82257;,
 -8.49075;-21.64627;2.29978;,
 -9.14935;-20.45178;1.99993;,
 -8.66589;-21.25016;4.21491;,
 -9.22109;-20.13120;3.70560;,
 -7.23215;-21.26855;6.36710;,
 -7.71692;-20.01935;6.51256;,
 -5.66737;-21.21552;7.84573;,
 -5.79729;-19.41474;8.09615;,
 -3.67304;-21.40051;7.69379;,
 -3.69204;-19.76274;8.24623;,
 -1.91981;-21.78484;6.83271;,
 -1.79636;-20.43948;7.18336;,
 -0.93370;-22.09750;5.99273;,
 -0.54968;-20.89598;6.40692;,
 -0.20854;-22.41964;5.13121;,
 0.34633;-21.33394;5.52695;,
 0.31283;-22.55335;4.35696;,
 1.07283;-21.51982;4.52582;,
 0.71047;-22.95943;2.76384;,
 1.52509;-21.94472;2.66430;,
 0.39972;-23.08660;0.95663;,
 1.28505;-21.98526;0.50366;,
 1.52509;-21.94472;2.66430;,
 0.71047;-22.95943;2.76384;,
 -0.13571;-23.11390;-0.34771;,
 0.72443;-21.90546;-0.92052;,
 -0.96700;-24.04146;1.58439;,
 -1.54078;-24.01906;0.59750;,
 -0.48232;-23.94523;2.85340;,
 -0.56785;-23.74544;4.16034;,
 -0.48232;-23.94523;2.85340;,
 -0.85891;-23.66791;4.66509;,
 -1.41874;-23.45481;5.45643;,
 -2.19516;-23.20395;6.13064;,
 -3.75552;-22.71152;6.83804;,
 -5.53705;-22.56821;6.85605;,
 -6.58316;-22.66736;6.11870;,
 -7.38585;-22.62597;4.35065;,
 -7.43607;-22.84647;2.64865;,
 -7.05970;-23.00351;1.16769;,
 -6.45394;-23.17100;0.35948;,
 -5.46801;-23.42989;-0.31923;,
 -3.99162;-23.76768;-0.57697;,
 -4.29280;-24.51848;0.03785;,
 -5.00961;-24.38929;0.17144;,
 -5.88657;-24.12986;0.92601;,
 -6.39708;-23.94686;1.64263;,
 -6.81768;-23.72393;2.88750;,
 -6.93628;-23.60116;4.50359;,
 -6.33767;-23.45662;6.08322;,
 -5.24790;-23.47001;6.73585;,
 -3.27313;-23.92784;6.57200;,
 -2.26262;-24.07527;5.91879;,
 -1.56320;-24.35670;5.32519;,
 -1.19250;-24.52998;4.45497;,
 -1.06795;-24.63400;3.67099;,
 -1.13060;-24.74730;2.89684;,
 -1.13060;-24.74730;2.89684;,
 -1.38219;-24.77628;1.94496;,
 -2.08064;-24.85338;0.91295;,
 -4.32129;-24.80901;-0.19102;,
 -4.81248;-24.71104;-0.14426;,
 -5.00961;-24.38929;0.17144;,
 -4.29280;-24.51848;0.03785;,
 -5.34683;-25.13993;-0.43538;,
 -5.88657;-24.12986;0.92601;,
 -6.05353;-25.95889;-0.89551;,
 -6.67260;-25.59183;-0.11475;,
 -6.44906;-24.82082;0.79857;,
 -9.07348;-27.30964;0.83708;,
 -7.90853;-25.28337;1.82090;,
 -8.12718;-27.63580;-1.07289;,
 -9.70735;-27.10193;3.95873;,
 -8.05775;-25.18535;4.28599;,
 -10.21237;-27.84034;3.84938;,
 -9.93732;-27.69153;6.90961;,
 -9.48430;-26.95017;6.75176;,
 -8.58636;-27.64473;9.37461;,
 -8.04761;-26.86060;9.06080;,
 -5.72160;-27.76519;10.97041;,
 -5.33372;-27.11696;10.46547;,
 -3.35345;-27.96707;11.15714;,
 -2.98996;-27.34947;10.56249;,
 -0.75762;-28.30920;10.26571;,
 -0.80674;-27.69380;9.68243;,
 0.90708;-28.69693;8.49452;,
 0.63102;-27.98486;7.91540;,
 1.71084;-29.05334;6.14413;,
 1.41852;-28.37419;5.78779;,
 1.67824;-29.25316;3.69697;,
 1.28771;-28.50754;3.55300;,
 1.28771;-28.50754;3.55300;,
 1.67824;-29.25316;3.69697;,
 1.22854;-29.32407;1.61533;,
 0.87225;-28.48089;1.60867;,
 -7.93342;-28.20084;-2.27196;,
 -7.20299;-24.58319;2.39614;,
 -6.81768;-23.72393;2.88750;,
 -6.39708;-23.94686;1.64263;,
 -7.47601;-24.41788;4.39125;,
 -6.93628;-23.60116;4.50359;,
 -6.95840;-24.27349;6.27579;,
 -6.33767;-23.45662;6.08322;,
 -5.83042;-24.17096;7.44199;,
 -5.24790;-23.47001;6.73585;,
 -3.56571;-24.61684;7.51502;,
 -3.27313;-23.92784;6.57200;,
 -2.16935;-24.84593;6.83336;,
 -2.26262;-24.07527;5.91879;,
 -1.23541;-25.03720;6.64508;,
 -1.56320;-24.35670;5.32519;,
 -0.78949;-25.37719;5.59465;,
 -1.19250;-24.52998;4.45497;,
 -0.49964;-25.50981;4.09202;,
 -1.06795;-24.63400;3.67099;,
 -0.54188;-25.62166;3.16589;,
 -1.13060;-24.74730;2.89684;,
 -0.89850;-25.63795;1.86977;,
 -1.38219;-24.77628;1.94496;,
 -1.13060;-24.74730;2.89684;,
 -0.54188;-25.62166;3.16589;,
 -1.58926;-25.74424;0.63695;,
 -2.08064;-24.85338;0.91295;,
 -0.36212;-26.14827;6.18619;,
 0.16598;-26.27917;4.77603;,
 -0.01522;-26.50792;3.17742;,
 -0.01522;-26.50792;3.17742;,
 -0.32866;-26.39482;1.45211;,
 -1.42771;-25.86561;7.47338;,
 -2.10668;-25.55470;8.24559;,
 -4.17189;-25.27898;8.38469;,
 -6.30002;-25.02205;7.85636;,
 -7.99917;-25.04183;6.23520;,
 -9.46416;-28.04413;0.49837;,
 -0.69326;-18.30312;-3.52602;,
 -2.38365;-18.12386;-4.75970;,
 -2.39611;-20.31431;-4.71044;,
 -2.67866;-22.83397;-2.22789;,
 -2.97050;-23.92225;-0.23370;,
 -1.87563;-22.86970;-1.64157;,
 -2.64346;-23.96069;-0.06855;,
 -1.07261;-22.90544;-1.05525;,
 -2.24546;-24.00748;0.13243;,
 -2.38498;-24.88958;0.66257;,
 -2.91595;-24.74832;0.47118;,
 -3.44693;-24.60706;0.27980;,
 -3.44693;-24.60706;0.27980;,
 -3.92322;-25.37391;-0.55573;,
 0.35412;-20.59500;-2.50528;,
 -0.75732;-20.37607;-3.75313;,
 -0.12327;-21.83360;-1.99847;,
 -2.49118;-21.55523;-3.68377;,
 -1.34205;-21.69031;-2.86591;,
 -2.91595;-24.74832;0.47118;,
 -3.09140;-25.50988;-0.20201;,
 -1.11112;-28.22427;-1.05543;,
 -1.17703;-28.96768;-1.53288;,
 -2.63584;-28.69727;-2.66886;,
 -1.82747;-28.12321;-1.65360;,
 0.00483;-29.18676;-0.61254;,
 -0.16357;-28.35795;-0.26421;,
 -2.44391;-25.61575;0.07332;,
 -2.38498;-24.88958;0.66257;,
 -0.86630;-26.50685;0.61757;,
 -2.38782;-26.39672;-0.50452;,
 -3.57327;-26.27007;-1.09594;,
 -2.92115;-26.33973;-0.77060;;
 
 247;
 4;0,1,2,3;,
 4;4,5,6,7;,
 4;8,4,7,9;,
 4;10,8,9,11;,
 4;12,10,11,13;,
 4;14,12,13,15;,
 4;16,17,14,15;,
 4;18,19,20,21;,
 4;21,20,22,23;,
 4;21,24,25,18;,
 4;3,2,26,27;,
 4;9,7,28,29;,
 4;30,16,15,31;,
 4;32,22,33,34;,
 4;29,35,11,9;,
 4;36,28,7,6;,
 4;37,38,39,40;,
 4;41,37,42,43;,
 4;23,44,45,46;,
 4;23,46,24,21;,
 4;47,48,41,43;,
 4;49,50,48,47;,
 4;51,45,44,52;,
 4;42,37,40,53;,
 4;44,23,22,32;,
 4;54,52,44,32;,
 4;35,55,13,11;,
 4;34,56,54,32;,
 4;55,31,15,13;,
 4;30,31,27,26;,
 4;57,58,20,19;,
 4;58,33,22,20;,
 4;58,57,16,30;,
 4;26,33,58,30;,
 4;2,34,33,26;,
 4;1,56,34,2;,
 4;5,59,60,6;,
 4;59,61,62,60;,
 4;61,63,64,62;,
 4;63,65,66,64;,
 4;65,67,68,66;,
 4;67,69,70,68;,
 4;69,71,39,70;,
 4;71,72,40,39;,
 4;72,73,53,40;,
 4;74,75,18,25;,
 4;75,76,19,18;,
 4;77,17,16,57;,
 4;14,78,79,12;,
 4;79,80,10,12;,
 4;80,81,8,10;,
 4;81,82,4,8;,
 4;82,83,5,4;,
 4;83,84,59,5;,
 4;84,85,61,59;,
 4;63,61,85,86;,
 4;65,63,86,87;,
 4;67,65,87,88;,
 4;69,67,88,89;,
 4;71,69,89,90;,
 4;72,71,90,91;,
 4;73,72,91,92;,
 4;75,74,93,94;,
 4;76,75,94,95;,
 4;77,76,95,96;,
 4;17,97,78,14;,
 4;97,17,77,96;,
 4;79,98,99,80;,
 4;81,80,99,100;,
 4;82,81,100,101;,
 4;83,82,101,102;,
 4;84,83,102,103;,
 4;85,84,103,104;,
 4;86,85,104,105;,
 4;87,86,105,106;,
 4;88,87,106,107;,
 4;89,88,107,108;,
 4;90,89,108,109;,
 4;91,90,109,110;,
 4;92,91,110,111;,
 4;94,93,112,113;,
 4;95,94,113,114;,
 4;96,95,114,115;,
 4;98,116,117,99;,
 4;117,118,100,99;,
 4;118,119,101,100;,
 4;119,120,102,101;,
 4;120,121,103,102;,
 4;121,122,104,103;,
 4;122,123,105,104;,
 4;123,124,106,105;,
 4;124,125,107,106;,
 4;125,126,108,107;,
 4;126,127,109,108;,
 4;127,128,110,109;,
 4;128,129,111,110;,
 4;130,131,113,112;,
 4;131,132,114,113;,
 4;133,134,135,136;,
 4;137,138,134,133;,
 4;139,140,138,137;,
 4;141,142,140,139;,
 4;143,144,142,141;,
 4;145,146,144,143;,
 4;147,148,146,145;,
 4;149,150,148,147;,
 4;151,152,150,149;,
 4;153,154,152,151;,
 4;155,156,154,153;,
 4;157,158,156,155;,
 4;159,160,158,157;,
 4;161,162,163,164;,
 4;165,166,162,161;,
 4;134,117,116,135;,
 4;138,118,117,134;,
 4;140,119,118,138;,
 4;142,120,119,140;,
 4;144,121,120,142;,
 4;146,122,121,144;,
 4;148,123,122,146;,
 4;150,124,123,148;,
 4;152,125,124,150;,
 4;154,126,125,152;,
 4;156,127,126,154;,
 4;158,128,127,156;,
 4;160,129,128,158;,
 4;162,131,130,163;,
 4;166,132,131,162;,
 4;161,167,168,165;,
 4;164,169,167,161;,
 4;157,170,171,159;,
 4;155,172,170,157;,
 4;153,173,172,155;,
 4;151,174,173,153;,
 4;149,175,174,151;,
 4;147,176,175,149;,
 4;145,177,176,147;,
 4;143,178,177,145;,
 4;141,179,178,143;,
 4;139,180,179,141;,
 4;137,181,180,139;,
 4;133,182,181,137;,
 4;136,183,182,133;,
 4;183,184,185,182;,
 4;181,182,185,186;,
 4;186,187,180,181;,
 4;187,188,179,180;,
 4;178,179,188,189;,
 4;189,190,177,178;,
 4;176,177,190,191;,
 4;175,176,191,192;,
 4;174,175,192,193;,
 4;173,174,193,194;,
 4;172,173,194,195;,
 4;170,172,195,196;,
 4;171,170,196,197;,
 4;167,169,198,199;,
 4;168,167,199,200;,
 4;201,202,203,204;,
 4;202,205,206,203;,
 4;205,207,208,209;,
 4;210,211,208,212;,
 4;213,214,211,210;,
 4;213,215,216,217;,
 4;217,216,218,219;,
 4;219,218,220,221;,
 4;221,220,222,223;,
 4;223,222,224,225;,
 4;225,224,226,227;,
 4;227,226,228,229;,
 4;229,228,230,231;,
 4;232,233,234,235;,
 4;207,236,212,208;,
 4;237,238,239,209;,
 4;240,241,238,237;,
 4;242,243,241,240;,
 4;244,245,243,242;,
 4;246,247,245,244;,
 4;248,249,247,246;,
 4;250,251,249,248;,
 4;252,253,251,250;,
 4;254,255,253,252;,
 4;256,257,255,254;,
 4;258,259,260,261;,
 4;262,263,259,258;,
 4;252,264,265,254;,
 4;254,265,266,256;,
 4;261,267,268,258;,
 4;250,269,264,252;,
 4;248,270,269,250;,
 4;246,271,270,248;,
 4;244,272,271,246;,
 4;242,273,272,244;,
 4;240,214,273,242;,
 4;237,211,214,240;,
 4;209,208,211,237;,
 4;209,239,206,205;,
 4;210,274,215,213;,
 4;217,273,214,213;,
 4;219,272,273,217;,
 4;221,271,272,219;,
 4;223,270,271,221;,
 4;225,269,270,223;,
 4;227,264,269,225;,
 4;229,265,264,227;,
 4;231,266,265,229;,
 4;235,268,267,232;,
 4;212,236,274,210;,
 4;97,96,115,275;,
 4;276,78,97,275;,
 4;78,276,98,79;,
 4;276,277,116,98;,
 4;278,279,183,136;,
 4;280,281,279,278;,
 4;282,165,168,283;,
 4;283,168,200,284;,
 4;281,285,286,279;,
 4;286,184,183,279;,
 4;287,288,201,204;,
 4;132,289,115,114;,
 4;289,290,275,115;,
 4;275,290,277,276;,
 4;282,291,166,165;,
 4;278,292,293,280;,
 4;135,116,277,292;,
 4;291,289,132,166;,
 4;136,135,292,278;,
 4;292,277,290,293;,
 4;293,290,289,291;,
 4;280,293,291,282;,
 4;281,280,282,283;,
 4;285,281,283,284;,
 4;287,294,295,288;,
 4;296,297,298,299;,
 4;235,234,300,301;,
 4;262,302,303,263;,
 4;258,268,304,262;,
 4;262,304,305,302;,
 4;306,307,299,298;,
 4;295,307,306,288;,
 4;301,304,268,235;,
 4;302,295,294,303;,
 4;305,307,295,302;,
 4;305,296,299,307;,
 4;296,305,304,301;,
 4;297,296,301,300;,
 4;19,76,77,57;;
 
 MeshMaterialList {
  12;
  247;
  8,
  8,
  8,
  8,
  8,
  8,
  8,
  8,
  8,
  8,
  8,
  8,
  8,
  8,
  8,
  8,
  8,
  8,
  8,
  8,
  8,
  8,
  8,
  8,
  8,
  8,
  8,
  8,
  8,
  8,
  8,
  8,
  8,
  8,
  8,
  8,
  8,
  8,
  8,
  8,
  8,
  8,
  8,
  8,
  8,
  8,
  8,
  8,
  8,
  8,
  8,
  8,
  8,
  8,
  8,
  8,
  8,
  8,
  8,
  8,
  8,
  8,
  8,
  8,
  8,
  8,
  8,
  8,
  8,
  8,
  8,
  8,
  8,
  8,
  8,
  8,
  8,
  8,
  8,
  8,
  8,
  8,
  8,
  8,
  8,
  8,
  8,
  8,
  8,
  8,
  8,
  8,
  8,
  8,
  8,
  8,
  8,
  8,
  8,
  8,
  8,
  8,
  8,
  8,
  8,
  8,
  8,
  8,
  8,
  8,
  8,
  8,
  8,
  8,
  8,
  8,
  8,
  8,
  8,
  8,
  8,
  8,
  8,
  8,
  8,
  8,
  8,
  8,
  8,
  8,
  8,
  8,
  8,
  8,
  8,
  8,
  8,
  8,
  8,
  8,
  8,
  8,
  8,
  8,
  8,
  8,
  8,
  8,
  8,
  8,
  8,
  8,
  8,
  8,
  8,
  8,
  8,
  8,
  8,
  8,
  8,
  8,
  8,
  8,
  8,
  8,
  8,
  8,
  8,
  8,
  8,
  8,
  8,
  8,
  8,
  8,
  8,
  8,
  8,
  8,
  8,
  8,
  8,
  8,
  8,
  8,
  8,
  8,
  8,
  8,
  8,
  8,
  8,
  8,
  8,
  8,
  8,
  8,
  8,
  8,
  8,
  8,
  8,
  8,
  8,
  8,
  8,
  8,
  8,
  8,
  8,
  8,
  8,
  8,
  8,
  8,
  8,
  8,
  8,
  8,
  8,
  8,
  8,
  8,
  8,
  8,
  8,
  8,
  8,
  8,
  8,
  8,
  8,
  8,
  8,
  8,
  8,
  8,
  8,
  8,
  8,
  8,
  8,
  8,
  8,
  8,
  8;;
  Material {
   0.765600;0.659200;0.241600;1.000000;;
   5.000000;
   0.000000;0.000000;0.000000;;
   0.000000;0.000000;0.000000;;
  }
  Material {
   0.000000;0.000000;0.000000;1.000000;;
   5.000000;
   0.000000;0.000000;0.000000;;
   0.000000;0.000000;0.000000;;
  }
  Material {
   0.800000;0.800000;0.800000;1.000000;;
   5.000000;
   0.000000;0.000000;0.000000;;
   0.000000;0.000000;0.000000;;
  }
  Material {
   0.800000;0.000000;0.060000;1.000000;;
   5.000000;
   0.000000;0.000000;0.000000;;
   0.000000;0.000000;0.000000;;
  }
  Material {
   0.000000;0.000000;0.000000;1.000000;;
   5.000000;
   0.000000;0.000000;0.000000;;
   0.000000;0.000000;0.000000;;
  }
  Material {
   0.800000;0.768800;0.000000;1.000000;;
   5.000000;
   0.000000;0.000000;0.000000;;
   0.000000;0.000000;0.000000;;
  }
  Material {
   0.000000;0.000000;0.000000;1.000000;;
   5.000000;
   0.000000;0.000000;0.000000;;
   0.000000;0.000000;0.000000;;
  }
  Material {
   0.743200;0.263200;0.094400;1.000000;;
   5.000000;
   0.000000;0.000000;0.000000;;
   0.000000;0.000000;0.000000;;
  }
  Material {
   0.968627;1.000000;0.000000;1.000000;;
   50.000000;
   0.500000;0.500000;0.500000;;
   0.096863;0.100000;0.000000;;
  }
  Material {
   1.000000;1.000000;1.000000;1.000000;;
   50.000000;
   0.500000;0.500000;0.500000;;
   0.100000;0.100000;0.100000;;
  }
  Material {
   0.000000;1.000000;0.000000;1.000000;;
   50.000000;
   0.500000;0.500000;0.500000;;
   0.000000;0.100000;0.000000;;
  }
  Material {
   1.000000;0.007843;0.537255;1.000000;;
   50.000000;
   0.500000;0.500000;0.500000;;
   0.100000;0.000784;0.053725;;
  }
 }
 MeshNormals {
  284;
  0.165716;-0.674631;-0.719313;,
  0.129008;-0.776932;-0.616225;,
  0.342941;-0.839245;0.421970;,
  0.353197;-0.883444;0.307862;,
  0.305941;-0.949198;0.073648;,
  0.173981;-0.970691;-0.165803;,
  0.093291;-0.913976;-0.394897;,
  0.224444;-0.757485;-0.613059;,
  0.230172;-0.648352;-0.725714;,
  -0.911979;0.161052;-0.377303;,
  -0.981892;0.186874;-0.031072;,
  -0.963036;0.255757;-0.084557;,
  -0.900560;0.231261;-0.368117;,
  -0.685104;0.100793;-0.721438;,
  -0.701904;0.158132;-0.694496;,
  -0.336503;0.016991;-0.941529;,
  -0.367749;0.044122;-0.928878;,
  0.031290;-0.065821;-0.997341;,
  -0.008326;-0.098935;-0.995059;,
  0.403460;-0.147773;-0.902986;,
  0.371014;-0.262368;-0.890793;,
  0.659437;-0.337577;-0.671703;,
  0.609053;-0.162040;-0.776400;,
  0.977909;-0.204019;0.045505;,
  0.947765;-0.241214;-0.208705;,
  0.896504;-0.412413;-0.161853;,
  0.943491;-0.323861;0.070281;,
  0.765536;-0.627521;-0.142026;,
  0.853395;-0.515430;0.077775;,
  0.885554;-0.377397;0.270860;,
  0.951694;-0.195221;0.236995;,
  0.390046;-0.683465;-0.617041;,
  0.339498;-0.573661;-0.745422;,
  -0.897262;0.245872;-0.366699;,
  -0.719530;0.164383;-0.674725;,
  -0.275304;0.138456;0.951335;,
  0.004849;0.099554;0.995020;,
  -0.944099;0.274961;-0.181859;,
  0.555988;-0.544370;-0.628123;,
  0.342179;-0.399588;-0.850437;,
  -0.409653;0.049932;-0.910874;,
  0.434811;-0.886234;-0.159776;,
  0.546948;-0.751990;-0.367910;,
  0.273085;-0.881542;-0.385108;,
  -0.919998;0.255919;0.296830;,
  -0.759276;0.223956;0.611018;,
  -0.504882;0.172044;0.845869;,
  0.348899;0.044972;0.936081;,
  0.710910;-0.080703;0.698637;,
  0.755471;-0.194944;0.625508;,
  0.813908;-0.354544;0.460274;,
  0.874029;-0.164932;0.457024;,
  0.646027;-0.648507;0.402600;,
  0.755999;-0.585097;0.293473;,
  0.458238;-0.786450;0.414144;,
  0.562138;-0.823279;0.078814;,
  0.525463;-0.793766;0.306307;,
  -0.061879;-0.121719;-0.990634;,
  0.831413;-0.303275;-0.465592;,
  0.736353;-0.552537;-0.390496;,
  -0.931427;0.193530;0.308204;,
  -0.769258;0.176695;0.614021;,
  -0.516121;0.148078;0.843619;,
  -0.249052;0.121110;0.960888;,
  0.065576;0.078604;0.994747;,
  0.394218;0.022457;0.918743;,
  0.716260;-0.044264;0.696428;,
  0.913447;-0.102973;0.393713;,
  0.972405;-0.132261;0.192186;,
  0.988780;-0.149075;-0.009559;,
  0.953692;-0.156829;-0.256662;,
  0.800374;-0.151306;-0.580093;,
  0.369762;-0.045300;-0.928022;,
  -0.008391;0.003113;-0.999960;,
  -0.371864;0.059659;-0.926368;,
  -0.687192;0.124004;-0.715814;,
  -0.894775;0.183315;-0.407152;,
  -0.970689;0.234513;-0.052592;,
  -0.916354;0.264324;0.300714;,
  -0.754308;0.271144;0.597914;,
  -0.508619;0.252598;0.823105;,
  -0.180837;0.201027;0.962749;,
  0.206157;0.121804;0.970908;,
  0.518890;0.039133;0.853945;,
  0.778493;-0.020082;0.627332;,
  0.940818;-0.051775;0.334935;,
  0.990193;-0.075181;0.117753;,
  0.993722;-0.091540;-0.064313;,
  0.951545;-0.093749;-0.292872;,
  0.755372;-0.090047;-0.649080;,
  0.548478;-0.075377;-0.832760;,
  -0.074930;-0.003996;-0.997181;,
  -0.409468;0.036910;-0.911577;,
  -0.690847;0.112469;-0.714200;,
  -0.883706;0.163125;-0.438696;,
  -0.973601;0.221569;-0.054853;,
  -0.908814;0.298471;0.291500;,
  -0.740653;0.393280;0.544761;,
  -0.427348;0.447849;0.785370;,
  -0.040450;0.341889;0.938870;,
  0.358645;0.177292;0.916483;,
  0.653106;0.055213;0.755251;,
  0.795095;0.007353;0.606441;,
  0.932309;0.015977;0.361309;,
  0.996788;0.018701;0.077872;,
  0.993229;-0.004616;-0.116083;,
  0.940724;-0.038442;-0.336988;,
  0.771356;-0.051948;-0.634280;,
  -0.148426;-0.366140;-0.918646;,
  -0.430769;-0.338011;-0.836771;,
  -0.702385;-0.224088;-0.675603;,
  -0.904787;-0.168890;-0.390944;,
  -0.993748;-0.111007;-0.011896;,
  -0.953736;0.023586;0.299719;,
  -0.796252;0.125385;0.591829;,
  -0.384999;0.186869;0.903801;,
  0.080699;0.085117;0.993098;,
  0.422463;-0.085173;0.902369;,
  0.672810;-0.100823;0.732912;,
  0.773264;-0.046494;0.632378;,
  0.896419;-0.052086;0.440137;,
  0.990987;-0.097934;0.091402;,
  0.969607;-0.148252;-0.194638;,
  0.884783;-0.211340;-0.415325;,
  -0.389055;-0.759115;-0.521900;,
  -0.396424;-0.660818;-0.637312;,
  -0.176086;-0.686962;-0.705037;,
  -0.169771;-0.795885;-0.581158;,
  -0.552602;-0.728651;-0.404598;,
  -0.620036;-0.592124;-0.514727;,
  -0.714094;-0.662890;-0.225047;,
  -0.818708;-0.504591;-0.274052;,
  -0.810390;-0.585288;-0.026581;,
  -0.913762;-0.405892;-0.017064;,
  -0.827714;-0.496095;0.262256;,
  -0.920744;-0.270753;0.280934;,
  -0.702000;-0.382816;0.600539;,
  -0.753080;-0.205178;0.625118;,
  -0.321461;-0.395480;0.860383;,
  -0.348977;-0.207578;0.913853;,
  0.153875;-0.406796;0.900466;,
  0.140444;-0.241569;0.960167;,
  0.404247;-0.401311;0.821909;,
  0.408746;-0.319232;0.854996;,
  0.527135;-0.448382;0.721860;,
  0.568615;-0.324126;0.756055;,
  0.611477;-0.521234;0.595324;,
  0.694407;-0.303726;0.652341;,
  0.690454;-0.596716;0.408905;,
  0.809400;-0.357446;0.465944;,
  0.712984;-0.693827;0.101285;,
  0.888299;-0.444543;0.115358;,
  0.634893;-0.752229;-0.176245;,
  0.842608;-0.494211;-0.213935;,
  0.470785;-0.784356;-0.403915;,
  0.707001;-0.545132;-0.450533;,
  0.637013;-0.731021;-0.244586;,
  0.496428;-0.730071;-0.469633;,
  0.729233;-0.684254;0.004071;,
  0.749026;-0.589369;0.302662;,
  0.720333;-0.473838;0.506555;,
  0.628637;-0.382941;0.676884;,
  0.456353;-0.339344;0.822550;,
  0.185957;-0.359016;0.914619;,
  -0.282966;-0.376184;0.882279;,
  -0.699123;-0.393768;0.596803;,
  -0.830167;-0.508052;0.229577;,
  -0.788656;-0.613861;-0.034594;,
  -0.703914;-0.669925;-0.236021;,
  -0.594406;-0.690001;-0.413014;,
  -0.414494;-0.699852;-0.581723;,
  -0.107679;-0.743728;-0.659753;,
  -0.056282;-0.615374;-0.786224;,
  -0.429959;-0.589086;-0.684188;,
  -0.638908;-0.625007;-0.448512;,
  -0.739024;-0.624923;-0.251626;,
  -0.831679;-0.552256;-0.057654;,
  -0.986539;0.083745;0.140458;,
  -0.788605;0.214388;0.576316;,
  -0.264609;-0.211373;0.940906;,
  0.307846;0.312434;0.898674;,
  0.546691;0.320573;0.773539;,
  0.702065;-0.272259;0.658012;,
  0.798988;-0.409047;0.440792;,
  0.807077;-0.546993;0.222317;,
  0.798234;-0.598412;-0.068739;,
  0.733316;-0.600138;-0.319502;,
  0.611924;-0.565952;-0.552492;,
  0.142129;0.638641;-0.756265;,
  -0.110436;0.671386;-0.732834;,
  -0.400990;0.661091;-0.634166;,
  -0.443548;0.697591;-0.562701;,
  -0.513169;0.696689;-0.501280;,
  -0.570834;0.647395;-0.505003;,
  -0.733119;0.605078;-0.310511;,
  -0.677732;0.677912;-0.284807;,
  -0.606060;0.636701;-0.476764;,
  -0.805224;0.588195;-0.075104;,
  -0.749783;0.659634;-0.052037;,
  -0.829118;0.552917;-0.082739;,
  -0.788577;0.572615;0.224184;,
  -0.743720;0.629147;0.225953;,
  -0.538603;0.622561;0.567736;,
  -0.462204;0.681885;0.566922;,
  -0.162826;0.648628;0.743484;,
  -0.101277;0.701246;0.705689;,
  0.186651;0.635277;0.749390;,
  0.257570;0.686272;0.680212;,
  0.520064;0.600061;0.607833;,
  0.554178;0.642913;0.528724;,
  0.764841;0.540044;0.351241;,
  0.737738;0.591869;0.324707;,
  0.885857;0.457076;0.079614;,
  0.860635;0.505489;0.061549;,
  0.903448;0.408771;-0.129180;,
  0.880261;0.455437;-0.133110;,
  0.868973;0.378775;-0.318457;,
  0.842411;0.436605;-0.315785;,
  -0.593789;0.642142;-0.484838;,
  -0.732274;0.626240;-0.267576;,
  -0.777713;0.628618;0.001163;,
  -0.651698;0.676810;0.342372;,
  -0.230433;0.707333;0.668267;,
  0.211945;0.722824;0.657728;,
  0.400251;0.747569;0.530037;,
  0.638232;0.665399;0.387175;,
  0.790827;0.581182;0.191885;,
  0.823057;0.567937;-0.004884;,
  0.833779;0.526532;-0.166062;,
  0.755569;0.561730;-0.337010;,
  0.601330;0.552932;-0.576774;,
  0.744806;0.606272;0.278745;,
  0.817426;0.575430;0.026351;,
  0.838752;0.524993;-0.144489;,
  0.768744;0.558707;-0.311254;,
  0.621525;0.640092;0.451652;,
  0.348869;0.742213;0.572199;,
  0.038949;0.743024;0.668131;,
  -0.342922;0.702463;0.623659;,
  -0.674912;0.689772;0.262123;,
  -0.749034;0.581569;-0.317373;,
  0.586091;-0.020255;-0.809992;,
  0.323172;-0.002526;-0.946337;,
  0.246762;-0.344623;-0.905728;,
  0.125964;-0.816222;-0.563839;,
  0.136739;-0.765106;-0.629218;,
  0.286701;-0.801591;-0.524647;,
  0.225001;-0.737109;-0.637217;,
  0.314635;-0.788989;-0.527732;,
  0.317164;-0.710405;-0.628277;,
  0.381713;-0.552384;-0.741058;,
  0.217099;-0.599289;-0.770532;,
  0.174023;-0.643793;-0.745149;,
  0.358596;0.580206;-0.731280;,
  0.732267;-0.275395;-0.622850;,
  0.562543;-0.305318;-0.768327;,
  0.515676;-0.622370;-0.588840;,
  0.166522;-0.698182;-0.696285;,
  0.399331;-0.672828;-0.622766;,
  0.405757;0.561889;-0.720862;,
  0.572942;0.478183;-0.665641;,
  0.616048;0.388001;-0.685521;,
  0.522814;0.493216;-0.695273;,
  0.513240;0.525570;-0.678499;,
  0.732052;0.379300;-0.565891;,
  0.696816;0.445612;-0.562029;,
  0.465485;0.539217;-0.701832;,
  0.617356;0.554153;-0.558378;,
  0.496087;0.556107;-0.666815;,
  0.410930;0.587442;-0.697171;,
  0.430741;0.582973;-0.688915;,
  -0.408230;0.631489;-0.659219;,
  -0.814046;0.516784;-0.265075;,
  -0.673345;0.543232;-0.501503;,
  -0.157661;0.745075;0.648078;,
  0.610967;0.726614;0.314248;,
  0.798050;0.589762;0.123678;,
  0.843063;0.537472;-0.019168;,
  0.844874;0.503836;-0.179826;,
  0.786349;0.499715;-0.363236;,
  0.626329;0.506987;-0.592179;,
  0.334582;0.581386;-0.741650;,
  0.405009;0.551741;-0.729074;,
  0.463418;0.530510;-0.709791;;
  247;
  4;0,1,7,8;,
  4;9,10,11,12;,
  4;13,9,12,14;,
  4;15,13,14,16;,
  4;17,15,16,18;,
  4;19,17,18,20;,
  4;21,22,19,20;,
  4;23,24,25,26;,
  4;26,25,27,28;,
  4;26,29,30,23;,
  4;8,7,31,32;,
  4;14,12,33,34;,
  4;38,21,20,39;,
  4;41,27,42,43;,
  4;34,40,16,14;,
  4;37,33,12,11;,
  4;50,49,48,51;,
  4;52,50,29,53;,
  4;28,55,56,53;,
  4;28,53,29,26;,
  4;56,54,52,53;,
  4;3,2,54,56;,
  4;3,56,55,4;,
  4;29,50,51,30;,
  4;55,28,27,41;,
  4;5,4,55,41;,
  4;40,57,18,16;,
  4;43,6,5,41;,
  4;57,39,20,18;,
  4;38,39,32,31;,
  4;58,59,25,24;,
  4;59,42,27,25;,
  4;59,58,21,38;,
  4;31,42,59,38;,
  4;7,43,42,31;,
  4;1,6,43,7;,
  4;10,60,44,11;,
  4;60,61,45,44;,
  4;61,62,46,45;,
  4;62,63,35,46;,
  4;63,64,36,35;,
  4;64,65,47,36;,
  4;65,66,48,47;,
  4;66,67,51,48;,
  4;67,68,30,51;,
  4;68,69,23,30;,
  4;69,70,24,23;,
  4;71,22,21,58;,
  4;19,72,73,17;,
  4;73,74,15,17;,
  4;74,75,13,15;,
  4;75,76,9,13;,
  4;76,77,10,9;,
  4;77,78,60,10;,
  4;78,79,61,60;,
  4;62,61,79,80;,
  4;63,62,80,81;,
  4;64,63,81,82;,
  4;65,64,82,83;,
  4;66,65,83,84;,
  4;67,66,84,85;,
  4;68,67,85,86;,
  4;69,68,86,87;,
  4;70,69,87,88;,
  4;71,70,88,89;,
  4;22,90,72,19;,
  4;90,22,71,89;,
  4;73,91,92,74;,
  4;75,74,92,93;,
  4;76,75,93,94;,
  4;77,76,94,95;,
  4;78,77,95,96;,
  4;79,78,96,97;,
  4;80,79,97,98;,
  4;81,80,98,99;,
  4;82,81,99,100;,
  4;83,82,100,101;,
  4;84,83,101,102;,
  4;85,84,102,103;,
  4;86,85,103,104;,
  4;87,86,104,105;,
  4;88,87,105,106;,
  4;89,88,106,107;,
  4;91,108,109,92;,
  4;109,110,93,92;,
  4;110,111,94,93;,
  4;111,112,95,94;,
  4;112,113,96,95;,
  4;113,114,97,96;,
  4;114,115,98,97;,
  4;115,116,99,98;,
  4;116,117,100,99;,
  4;117,118,101,100;,
  4;118,119,102,101;,
  4;119,120,103,102;,
  4;120,121,104,103;,
  4;121,122,105,104;,
  4;122,123,106,105;,
  4;124,125,126,127;,
  4;128,129,125,124;,
  4;130,131,129,128;,
  4;132,133,131,130;,
  4;134,135,133,132;,
  4;136,137,135,134;,
  4;138,139,137,136;,
  4;140,141,139,138;,
  4;142,143,141,140;,
  4;144,145,143,142;,
  4;146,147,145,144;,
  4;148,149,147,146;,
  4;150,151,149,148;,
  4;152,153,151,150;,
  4;154,155,153,152;,
  4;125,109,108,126;,
  4;129,110,109,125;,
  4;131,111,110,129;,
  4;133,112,111,131;,
  4;135,113,112,133;,
  4;137,114,113,135;,
  4;139,115,114,137;,
  4;141,116,115,139;,
  4;143,117,116,141;,
  4;145,118,117,143;,
  4;147,119,118,145;,
  4;149,120,119,147;,
  4;151,121,120,149;,
  4;153,122,121,151;,
  4;155,123,122,153;,
  4;152,156,157,154;,
  4;150,158,156,152;,
  4;148,159,158,150;,
  4;146,160,159,148;,
  4;144,161,160,146;,
  4;142,162,161,144;,
  4;140,163,162,142;,
  4;138,164,163,140;,
  4;136,165,164,138;,
  4;134,166,165,136;,
  4;132,167,166,134;,
  4;130,168,167,132;,
  4;128,169,168,130;,
  4;124,170,169,128;,
  4;127,171,170,124;,
  4;171,172,173,170;,
  4;169,170,173,174;,
  4;174,175,168,169;,
  4;175,176,167,168;,
  4;166,167,176,177;,
  4;177,178,165,166;,
  4;164,165,178,179;,
  4;163,164,179,180;,
  4;162,163,180,181;,
  4;161,162,181,182;,
  4;160,161,182,183;,
  4;159,160,183,184;,
  4;158,159,184,185;,
  4;156,158,185,186;,
  4;157,156,186,187;,
  4;188,189,189,188;,
  4;189,190,271,189;,
  4;190,191,192,193;,
  4;194,195,192,196;,
  4;197,198,195,194;,
  4;197,199,200,201;,
  4;201,200,202,203;,
  4;203,202,204,205;,
  4;205,204,206,207;,
  4;207,206,208,209;,
  4;209,208,210,211;,
  4;211,210,212,213;,
  4;213,212,214,215;,
  4;215,214,216,217;,
  4;191,218,196,192;,
  4;219,272,273,193;,
  4;220,177,272,219;,
  4;221,178,177,220;,
  4;222,274,178,221;,
  4;223,180,274,222;,
  4;224,181,180,223;,
  4;225,275,181,224;,
  4;226,276,275,225;,
  4;227,277,276,226;,
  4;228,278,277,227;,
  4;229,279,278,228;,
  4;230,280,279,229;,
  4;226,231,232,227;,
  4;227,232,233,228;,
  4;228,233,234,229;,
  4;225,235,231,226;,
  4;224,236,235,225;,
  4;223,237,236,224;,
  4;222,238,237,223;,
  4;221,239,238,222;,
  4;220,198,239,221;,
  4;219,195,198,220;,
  4;193,192,195,219;,
  4;193,273,271,190;,
  4;194,240,199,197;,
  4;201,239,198,197;,
  4;203,238,239,201;,
  4;205,237,238,203;,
  4;207,236,237,205;,
  4;209,235,236,207;,
  4;211,231,235,209;,
  4;213,232,231,211;,
  4;215,233,232,213;,
  4;217,234,233,215;,
  4;196,218,240,194;,
  4;90,89,107,241;,
  4;242,72,90,241;,
  4;72,242,91,73;,
  4;242,243,108,91;,
  4;244,245,171,127;,
  4;246,247,245,244;,
  4;248,154,157,249;,
  4;249,157,187,250;,
  4;247,251,252,245;,
  4;252,172,171,245;,
  4;281,253,188,188;,
  4;123,254,107,106;,
  4;254,255,241,107;,
  4;241,255,243,242;,
  4;248,256,155,154;,
  4;244,257,258,246;,
  4;126,108,243,257;,
  4;256,254,123,155;,
  4;127,126,257,244;,
  4;257,243,255,258;,
  4;258,255,254,256;,
  4;246,258,256,248;,
  4;247,246,248,249;,
  4;251,247,249,250;,
  4;281,282,259,253;,
  4;260,261,262,263;,
  4;217,216,264,265;,
  4;230,266,283,280;,
  4;229,234,267,230;,
  4;230,267,268,266;,
  4;269,270,263,262;,
  4;259,270,269,253;,
  4;265,267,234,217;,
  4;266,259,282,283;,
  4;268,270,259,266;,
  4;268,260,263,270;,
  4;260,268,267,265;,
  4;261,260,265,264;,
  4;24,70,71,58;;
 }
 MeshTextureCoords {
  308;
  0.131470;0.624800;,
  0.144950;0.616160;,
  0.146330;0.619320;,
  0.133210;0.629500;,
  0.203430;0.758200;,
  0.204840;0.786190;,
  0.164750;0.786050;,
  0.164510;0.759850;,
  0.201600;0.725150;,
  0.161400;0.729370;,
  0.201820;0.699050;,
  0.163790;0.701990;,
  0.204500;0.677850;,
  0.162140;0.676140;,
  0.205080;0.655860;,
  0.164050;0.648900;,
  0.171510;0.628070;,
  0.212160;0.633440;,
  0.198360;0.560760;,
  0.188880;0.583540;,
  0.182390;0.577900;,
  0.190130;0.559350;,
  0.177620;0.578730;,
  0.187980;0.558480;,
  0.197200;0.538420;,
  0.204700;0.541330;,
  0.150330;0.621680;,
  0.134470;0.641700;,
  0.139300;0.758870;,
  0.136800;0.729160;,
  0.156030;0.627050;,
  0.137700;0.654100;,
  0.174690;0.580300;,
  0.163330;0.602840;,
  0.157620;0.606240;,
  0.136680;0.707400;,
  0.139630;0.786230;,
  0.171740;0.961820;,
  0.160920;0.941880;,
  0.175740;0.938880;,
  0.181830;0.957930;,
  0.164620;0.961680;,
  0.182500;0.975970;,
  0.178220;0.976910;,
  0.182560;0.563270;,
  0.189510;0.536280;,
  0.192950;0.536410;,
  0.175700;0.979080;,
  0.161490;0.963750;,
  0.174480;0.982000;,
  0.159370;0.965250;,
  0.186400;0.537340;,
  0.180640;0.564200;,
  0.189970;0.974480;,
  0.171770;0.582390;,
  0.139880;0.680760;,
  0.154380;0.606980;,
  0.177570;0.609530;,
  0.169410;0.604250;,
  0.205900;0.809450;,
  0.168650;0.810040;,
  0.207930;0.836580;,
  0.169180;0.842530;,
  0.208660;0.868290;,
  0.169860;0.865690;,
  0.210220;0.892510;,
  0.172020;0.885280;,
  0.211630;0.906250;,
  0.173890;0.899930;,
  0.212600;0.921000;,
  0.173130;0.919590;,
  0.214130;0.938060;,
  0.220770;0.957100;,
  0.229990;0.972030;,
  0.243040;0.553790;,
  0.235740;0.571170;,
  0.226020;0.592240;,
  0.215920;0.616200;,
  0.280990;0.667570;,
  0.275290;0.687880;,
  0.271950;0.707900;,
  0.272570;0.729330;,
  0.276580;0.757780;,
  0.280840;0.783110;,
  0.284370;0.811630;,
  0.289280;0.839090;,
  0.292860;0.867040;,
  0.295650;0.892650;,
  0.301150;0.911230;,
  0.306990;0.924500;,
  0.313880;0.941300;,
  0.324750;0.960030;,
  0.333060;0.980830;,
  0.339850;0.588530;,
  0.324990;0.601550;,
  0.309460;0.615620;,
  0.295390;0.635280;,
  0.290360;0.647970;,
  0.322110;0.696070;,
  0.320810;0.717230;,
  0.320630;0.734170;,
  0.332830;0.756360;,
  0.336290;0.781650;,
  0.331300;0.804830;,
  0.325990;0.834810;,
  0.335380;0.865420;,
  0.343510;0.885700;,
  0.344150;0.905870;,
  0.351940;0.922440;,
  0.356350;0.936290;,
  0.364550;0.952350;,
  0.371960;0.974500;,
  0.378840;0.597450;,
  0.364440;0.610800;,
  0.348370;0.628030;,
  0.341120;0.640980;,
  0.355260;0.701870;,
  0.354390;0.720360;,
  0.349880;0.739810;,
  0.351830;0.758820;,
  0.362560;0.788800;,
  0.361920;0.804280;,
  0.368780;0.837500;,
  0.364510;0.863500;,
  0.370640;0.884810;,
  0.383440;0.905700;,
  0.391850;0.920730;,
  0.398790;0.933500;,
  0.403220;0.947630;,
  0.412160;0.967460;,
  0.416070;0.615870;,
  0.398420;0.632990;,
  0.386570;0.643800;,
  0.394510;0.728940;,
  0.373390;0.724140;,
  0.375450;0.705380;,
  0.398240;0.710170;,
  0.390700;0.746380;,
  0.368800;0.742900;,
  0.390390;0.762580;,
  0.369870;0.761150;,
  0.395190;0.786170;,
  0.377890;0.787850;,
  0.393440;0.807870;,
  0.377820;0.805430;,
  0.400680;0.834620;,
  0.383840;0.836270;,
  0.403190;0.858200;,
  0.381190;0.862510;,
  0.409770;0.879140;,
  0.388070;0.883340;,
  0.418000;0.899110;,
  0.400230;0.903210;,
  0.424180;0.912460;,
  0.407190;0.917500;,
  0.430050;0.924110;,
  0.413730;0.929620;,
  0.433080;0.934490;,
  0.417320;0.942390;,
  0.440940;0.951680;,
  0.425920;0.961320;,
  0.429380;0.653310;,
  0.413310;0.640930;,
  0.428390;0.624800;,
  0.441120;0.637900;,
  0.420170;0.664820;,
  0.402730;0.652520;,
  0.446330;0.669600;,
  0.437160;0.681080;,
  0.454610;0.655250;,
  0.450230;0.925060;,
  0.458070;0.938980;,
  0.447410;0.917900;,
  0.441960;0.906080;,
  0.436290;0.893590;,
  0.427290;0.872840;,
  0.420370;0.849410;,
  0.418040;0.831660;,
  0.414350;0.806590;,
  0.413740;0.784020;,
  0.412690;0.764210;,
  0.413920;0.750940;,
  0.416390;0.734880;,
  0.421880;0.715230;,
  0.430560;0.722500;,
  0.428370;0.732890;,
  0.426750;0.750190;,
  0.425870;0.763250;,
  0.425060;0.782420;,
  0.425900;0.805250;,
  0.426420;0.828880;,
  0.429640;0.846400;,
  0.440450;0.872930;,
  0.445270;0.889330;,
  0.451260;0.901400;,
  0.457230;0.913430;,
  0.463000;0.922870;,
  0.470000;0.931160;,
  0.463450;0.666690;,
  0.453880;0.676630;,
  0.444760;0.691530;,
  0.438350;0.087980;,
  0.442750;0.091140;,
  0.442740;0.096440;,
  0.436480;0.091500;,
  0.450300;0.088440;,
  0.449020;0.107560;,
  0.461480;0.082530;,
  0.464820;0.093250;,
  0.458080;0.104830;,
  0.497060;0.101210;,
  0.474320;0.115950;,
  0.490090;0.079190;,
  0.504520;0.134430;,
  0.478060;0.141870;,
  0.513890;0.132050;,
  0.515690;0.164810;,
  0.506250;0.164160;,
  0.510530;0.194400;,
  0.500010;0.192200;,
  0.493630;0.224970;,
  0.484900;0.220720;,
  0.475720;0.243110;,
  0.467150;0.238210;,
  0.450240;0.258020;,
  0.445130;0.250560;,
  0.424670;0.264000;,
  0.421080;0.254370;,
  0.397880;0.262720;,
  0.396640;0.254000;,
  0.372450;0.255540;,
  0.374040;0.246440;,
  0.361230;0.049700;,
  0.356150;0.042050;,
  0.377690;0.034160;,
  0.381440;0.043150;,
  0.491490;0.064910;,
  0.464260;0.123200;,
  0.455550;0.130480;,
  0.452460;0.116530;,
  0.467950;0.144780;,
  0.457930;0.147780;,
  0.466680;0.165960;,
  0.455420;0.165900;,
  0.460170;0.182040;,
  0.448730;0.177930;,
  0.444080;0.200600;,
  0.433270;0.193520;,
  0.429010;0.208250;,
  0.421040;0.198290;,
  0.421120;0.214650;,
  0.411290;0.202280;,
  0.408570;0.216040;,
  0.400860;0.202400;,
  0.392420;0.212980;,
  0.392310;0.200980;,
  0.382850;0.210360;,
  0.384130;0.198630;,
  0.394730;0.076710;,
  0.398480;0.086560;,
  0.388490;0.090090;,
  0.380910;0.081180;,
  0.409630;0.072870;,
  0.411680;0.083920;,
  0.411400;0.227100;,
  0.395390;0.225740;,
  0.379000;0.220830;,
  0.375920;0.071280;,
  0.393710;0.065760;,
  0.429440;0.223870;,
  0.440280;0.220210;,
  0.456760;0.205240;,
  0.470620;0.186000;,
  0.480010;0.162610;,
  0.505200;0.096190;,
  0.339710;0.657680;,
  0.330740;0.678150;,
  0.358940;0.683870;,
  0.403540;0.694640;,
  0.428410;0.702260;,
  0.409210;0.685790;,
  0.430570;0.697650;,
  0.414220;0.676170;,
  0.432960;0.692040;,
  0.442800;0.696620;,
  0.439090;0.703720;,
  0.435330;0.710870;,
  0.427460;0.088480;,
  0.437310;0.079630;,
  0.377540;0.655160;,
  0.366590;0.667850;,
  0.394980;0.663800;,
  0.379890;0.688150;,
  0.387820;0.676610;,
  0.421690;0.086040;,
  0.427900;0.076880;,
  0.417410;0.041110;,
  0.421020;0.032350;,
  0.440930;0.035200;,
  0.427350;0.042020;,
  0.404800;0.030290;,
  0.404230;0.040030;,
  0.420570;0.074720;,
  0.415920;0.083620;,
  0.404030;0.063190;,
  0.424170;0.064920;,
  0.438110;0.067780;,
  0.430440;0.066230;;
 }
}
