xof 0302txt 0064
template Header {
 <3D82AB43-62DA-11cf-AB39-0020AF71E433>
 WORD major;
 WORD minor;
 DWORD flags;
}

template Vector {
 <3D82AB5E-62DA-11cf-AB39-0020AF71E433>
 FLOAT x;
 FLOAT y;
 FLOAT z;
}

template Coords2d {
 <F6F23F44-7686-11cf-8F52-0040333594A3>
 FLOAT u;
 FLOAT v;
}

template Matrix4x4 {
 <F6F23F45-7686-11cf-8F52-0040333594A3>
 array FLOAT matrix[16];
}

template ColorRGBA {
 <35FF44E0-6C7C-11cf-8F52-0040333594A3>
 FLOAT red;
 FLOAT green;
 FLOAT blue;
 FLOAT alpha;
}

template ColorRGB {
 <D3E16E81-7835-11cf-8F52-0040333594A3>
 FLOAT red;
 FLOAT green;
 FLOAT blue;
}

template IndexedColor {
 <1630B820-7842-11cf-8F52-0040333594A3>
 DWORD index;
 ColorRGBA indexColor;
}

template Boolean {
 <4885AE61-78E8-11cf-8F52-0040333594A3>
 WORD truefalse;
}

template Boolean2d {
 <4885AE63-78E8-11cf-8F52-0040333594A3>
 Boolean u;
 Boolean v;
}

template MaterialWrap {
 <4885AE60-78E8-11cf-8F52-0040333594A3>
 Boolean u;
 Boolean v;
}

template TextureFilename {
 <A42790E1-7810-11cf-8F52-0040333594A3>
 STRING filename;
}

template Material {
 <3D82AB4D-62DA-11cf-AB39-0020AF71E433>
 ColorRGBA faceColor;
 FLOAT power;
 ColorRGB specularColor;
 ColorRGB emissiveColor;
 [...]
}

template MeshFace {
 <3D82AB5F-62DA-11cf-AB39-0020AF71E433>
 DWORD nFaceVertexIndices;
 array DWORD faceVertexIndices[nFaceVertexIndices];
}

template MeshFaceWraps {
 <4885AE62-78E8-11cf-8F52-0040333594A3>
 DWORD nFaceWrapValues;
 Boolean2d faceWrapValues;
}

template MeshTextureCoords {
 <F6F23F40-7686-11cf-8F52-0040333594A3>
 DWORD nTextureCoords;
 array Coords2d textureCoords[nTextureCoords];
}

template MeshMaterialList {
 <F6F23F42-7686-11cf-8F52-0040333594A3>
 DWORD nMaterials;
 DWORD nFaceIndexes;
 array DWORD faceIndexes[nFaceIndexes];
 [Material]
}

template MeshNormals {
 <F6F23F43-7686-11cf-8F52-0040333594A3>
 DWORD nNormals;
 array Vector normals[nNormals];
 DWORD nFaceNormals;
 array MeshFace faceNormals[nFaceNormals];
}

template MeshVertexColors {
 <1630B821-7842-11cf-8F52-0040333594A3>
 DWORD nVertexColors;
 array IndexedColor vertexColors[nVertexColors];
}

template Mesh {
 <3D82AB44-62DA-11cf-AB39-0020AF71E433>
 DWORD nVertices;
 array Vector vertices[nVertices];
 DWORD nFaces;
 array MeshFace faces[nFaces];
 [...]
}

Header{
1;
0;
1;
}

Mesh {
 395;
 -0.90589;-2.59686;1.77724;,
 -0.85614;-1.97755;1.63939;,
 -1.49772;-1.97755;0.93806;,
 -1.57529;-2.59656;1.01525;,
 -1.44600;-1.48219;0.91438;,
 -0.82555;-1.48219;1.56291;,
 1.03315;-2.59686;1.77860;,
 0.99692;-1.97755;1.64068;,
 0.30663;-2.01124;1.94967;,
 0.31035;-2.60789;2.09353;,
 0.24344;-1.52045;1.84794;,
 0.96647;-1.48219;1.56413;,
 1.70704;-2.59656;1.01525;,
 1.64278;-1.97755;0.93806;,
 1.59107;-1.48219;0.91438;,
 -1.67008;-3.47554;1.18367;,
 -0.97358;-3.47673;1.98682;,
 -1.80349;-4.91739;1.44775;,
 -1.08545;-4.94571;2.28498;,
 0.30269;-3.47983;2.30768;,
 1.06066;-3.47674;1.98823;,
 0.25510;-4.96684;2.61521;,
 1.05024;-4.98170;2.29053;,
 1.76189;-3.47554;1.18367;,
 1.77592;-4.96230;1.45293;,
 2.53683;-8.24679;-2.87566;,
 2.80942;-8.24960;-4.08395;,
 2.84041;-8.00441;-4.11443;,
 2.57094;-7.93789;-2.92328;,
 2.89946;-8.08939;-5.43252;,
 2.88319;-8.26578;-5.41644;,
 2.38280;-7.22321;-2.99526;,
 2.64941;-7.36418;-4.12835;,
 2.16246;-5.66191;-4.16890;,
 1.86771;-4.67365;-2.46109;,
 2.20013;-6.15543;-5.50090;,
 2.70357;-7.54446;-5.39181;,
 1.79429;-5.38641;-4.42417;,
 1.58501;-4.58864;-3.03532;,
 1.80421;-5.87748;-5.62416;,
 0.77286;-5.62374;-5.81658;,
 0.80684;-5.18009;-4.84308;,
 0.72859;-4.47396;-3.67438;,
 2.52979;-8.24684;0.85911;,
 2.32292;-8.25481;-0.70533;,
 2.30179;-7.91567;-0.78013;,
 2.51980;-7.90683;0.78753;,
 2.06512;-8.25081;-1.72859;,
 2.07133;-7.91638;-1.79201;,
 1.94808;-4.78016;-1.78320;,
 1.87251;-7.17375;-1.89924;,
 2.03810;-7.17024;-0.91226;,
 1.95840;-4.87450;-1.09288;,
 1.08365;-7.17009;2.73159;,
 1.93860;-7.16407;1.90264;,
 2.26190;-7.16474;0.60018;,
 2.07109;-4.94359;0.12743;,
 -1.89053;-4.72461;-2.33070;,
 -2.30169;-5.71543;-4.10737;,
 -3.12861;-7.36418;-4.12835;,
 -2.87630;-7.22321;-2.99526;,
 -3.20146;-7.54425;-5.39181;,
 -2.41240;-6.16881;-5.48549;,
 -3.12683;-7.92960;-2.92255;,
 -3.36240;-7.99762;-4.11542;,
 -3.35414;-8.24259;-4.08676;,
 -3.12843;-8.23842;-2.87674;,
 -3.39165;-8.25753;-5.41705;,
 -3.40782;-8.08269;-5.43170;,
 -2.84223;-7.90760;-0.76489;,
 -2.64532;-7.90811;-1.78412;,
 -2.64929;-8.24257;-1.72189;,
 -2.85024;-8.24690;-0.69076;,
 -2.46992;-8.29959;-7.83338;,
 -2.55493;-8.19719;-7.83994;,
 1.96381;-8.21147;-7.84551;,
 1.88111;-8.31826;-7.83855;,
 -2.38460;-7.78557;-8.17207;,
 -1.82207;-6.93584;-8.24911;,
 -2.47100;-8.10506;-7.96777;,
 -2.03435;-7.73727;-8.99053;,
 -1.80522;-7.88717;-9.06970;,
 -2.27050;-8.34032;-7.97926;,
 -2.45959;-8.23206;2.17179;,
 -1.59504;-8.24319;3.06377;,
 -1.55125;-7.90173;3.05131;,
 -2.42773;-7.89131;2.15014;,
 0.09130;-7.91362;3.40164;,
 -0.54223;-7.91060;3.39297;,
 -0.59031;-8.25224;3.41068;,
 0.04262;-8.25514;3.42180;,
 -2.82452;-7.89620;0.80238;,
 -2.85555;-8.23670;0.87178;,
 -2.16154;-7.16407;1.90264;,
 -1.36213;-7.17007;2.73007;,
 0.17099;-7.15366;3.06620;,
 -3.26017;-8.00521;-5.35759;,
 -3.20910;-7.91056;-4.08055;,
 -2.97619;-7.83618;-2.92659;,
 -2.47100;-8.10506;-7.96777;,
 -2.03435;-7.73727;-8.99053;,
 1.78321;-7.78696;-8.17207;,
 1.88159;-8.12349;-7.94608;,
 1.41770;-7.73902;-8.99053;,
 1.44037;-6.93548;-8.24984;,
 1.15388;-6.98526;-8.82365;,
 2.75413;-8.00896;-5.35820;,
 2.43026;-7.84077;-2.92720;,
 2.69376;-7.91432;-4.08020;,
 2.15707;-7.81704;-0.83336;,
 1.94626;-7.81719;-1.82316;,
 2.37219;-7.81009;0.68594;,
 2.01869;-7.80883;1.98585;,
 1.08589;-7.81630;2.84173;,
 0.08286;-7.81806;3.17129;,
 0.05101;-7.65013;3.11158;,
 -2.29989;-7.80104;1.98679;,
 -1.47116;-7.80981;2.84052;,
 -2.13181;-4.91484;0.12372;,
 -2.52515;-7.16474;0.60018;,
 -2.67515;-7.80412;0.69444;,
 -2.57730;-7.17024;-0.91226;,
 -2.69563;-7.81254;-0.82481;,
 -2.41712;-7.17375;-1.89924;,
 -2.51416;-7.81259;-1.81864;,
 -2.09999;-4.82664;-1.69447;,
 2.43026;-7.84077;-2.92720;,
 2.69376;-7.91432;-4.08020;,
 2.75413;-8.00896;-5.35820;,
 2.15707;-7.81704;-0.83336;,
 2.37219;-7.81009;0.68594;,
 1.94626;-7.81719;-1.82316;,
 -3.26017;-8.00521;-5.35759;,
 -3.20910;-7.91056;-4.08055;,
 -2.97619;-7.83618;-2.92659;,
 -2.51416;-7.81259;-1.81864;,
 -2.69563;-7.81254;-0.82481;,
 1.88159;-8.12349;-7.94608;,
 -1.47116;-7.80981;2.84052;,
 -2.29989;-7.80104;1.98679;,
 0.08286;-7.81806;3.17129;,
 -0.51688;-7.81632;3.16342;,
 -0.46538;-7.64986;3.10220;,
 -0.51688;-7.81632;3.16342;,
 0.08286;-7.81806;3.17129;,
 0.05101;-7.65013;3.11158;,
 1.15080;-7.91327;3.05407;,
 1.08589;-7.81630;2.84173;,
 2.14167;-7.90516;2.14988;,
 2.01869;-7.80883;1.98585;,
 -2.67515;-7.80412;0.69444;,
 0.66633;-2.56696;-2.27636;,
 0.37001;-2.56217;-2.40694;,
 0.36285;-1.99083;-2.07186;,
 0.64638;-1.98519;-1.92535;,
 0.29148;-1.49366;-1.83458;,
 0.62770;-1.48410;-1.71181;,
 1.31161;-1.48314;-1.24173;,
 1.35362;-1.98137;-1.41084;,
 1.41032;-2.57541;-1.71688;,
 0.67634;-3.31892;-2.75997;,
 1.46838;-3.37181;-2.18405;,
 0.35878;-4.42217;-3.77919;,
 0.35572;-5.10648;-4.90231;,
 0.36985;-3.30099;-2.88489;,
 0.31682;-5.55016;-5.85256;,
 -1.52112;-4.62159;-2.95011;,
 -1.68723;-3.40707;-1.68023;,
 -1.35811;-3.36908;-2.14694;,
 -1.81132;-5.42209;-4.38315;,
 -0.69857;-4.47864;-3.66979;,
 -0.85927;-5.18396;-4.83949;,
 -1.89837;-5.88638;-5.61382;,
 -0.90815;-5.62721;-5.81426;,
 -0.51776;-5.11363;-4.89765;,
 -0.56552;-5.55632;-5.85005;,
 -0.40388;-4.42849;-3.77017;,
 -0.59813;-3.32174;-2.76332;,
 -0.32312;-3.30376;-2.87820;,
 -0.56374;-2.56767;-2.28283;,
 -1.27395;-2.57473;-1.71645;,
 -0.29430;-2.56295;-2.40173;,
 -0.26777;-1.99088;-2.06370;,
 -0.52999;-1.98519;-1.92690;,
 -1.20855;-1.98137;-1.41791;,
 -0.50491;-1.48410;-1.70668;,
 -1.16653;-1.48314;-1.24349;,
 -0.18591;-1.49365;-1.82402;,
 -0.26777;-1.99088;-2.06370;,
 -0.18591;-1.49365;-1.82402;,
 -0.09239;-1.66244;-2.09304;,
 -0.15108;-2.00796;-2.24268;,
 -0.16975;-2.55332;-2.52865;,
 -0.29430;-2.56295;-2.40173;,
 0.29148;-1.49366;-1.83458;,
 0.19263;-1.66248;-2.10430;,
 -0.36060;-5.02879;-4.95509;,
 -0.51776;-5.11363;-4.89765;,
 -0.40388;-4.42849;-3.77017;,
 -0.26611;-4.35693;-3.85398;,
 -0.40565;-5.46690;-5.88869;,
 -0.56552;-5.55632;-5.85005;,
 -0.32312;-3.30376;-2.87820;,
 -0.19417;-3.26795;-2.98206;,
 0.35572;-5.10648;-4.90231;,
 0.31682;-5.55016;-5.85256;,
 0.11737;-5.45968;-5.88755;,
 0.15960;-5.01960;-4.95575;,
 0.35878;-4.42217;-3.77919;,
 0.19443;-4.34765;-3.86026;,
 0.36985;-3.30099;-2.88489;,
 0.23079;-3.26352;-2.99043;,
 0.23743;-2.55185;-2.53760;,
 0.37001;-2.56217;-2.40694;,
 0.36285;-1.99083;-2.07186;,
 0.23956;-2.00775;-2.25476;,
 -0.21015;-2.60811;2.08398;,
 -0.19194;-2.01132;1.94058;,
 -0.12911;-1.52047;1.84052;,
 -0.24392;-3.48036;2.29790;,
 -0.32064;-4.95719;2.60395;,
 -0.49095;-7.15415;3.05561;,
 -0.12911;-1.52047;1.84052;,
 -0.04139;-1.83576;2.03834;,
 0.15099;-1.83569;2.04614;,
 0.24344;-1.52045;1.84794;,
 -0.19194;-2.01132;1.94058;,
 -0.21015;-2.60811;2.08398;,
 -0.08490;-2.64141;2.19202;,
 -0.07465;-2.11263;2.08383;,
 -0.11211;-3.48946;2.39187;,
 -0.24392;-3.48036;2.29790;,
 -0.32064;-4.95719;2.60395;,
 -0.18279;-4.94142;2.69487;,
 -0.49095;-7.15415;3.05561;,
 -0.33553;-7.09731;3.14649;,
 -0.46538;-7.64986;3.10220;,
 0.05101;-7.65013;3.11158;,
 -0.07021;-7.49389;3.17909;,
 -0.33205;-7.49445;3.16992;,
 0.30663;-2.01124;1.94967;,
 0.18397;-2.11234;2.09443;,
 0.18019;-2.64050;2.20284;,
 0.31035;-2.60789;2.09353;,
 0.30269;-3.47983;2.30768;,
 0.16607;-3.48725;2.40271;,
 0.25510;-4.96684;2.61521;,
 0.11230;-4.94380;2.70666;,
 0.17099;-7.15366;3.06620;,
 0.01263;-7.09503;3.15845;,
 -1.75543;-1.97755;0.03213;,
 -1.84739;-2.59675;-0.00153;,
 -1.69539;-1.48219;0.07801;,
 -1.67233;-1.97755;-0.54764;,
 -1.61582;-1.48219;-0.45449;,
 -1.55650;-1.48219;-0.67950;,
 -1.61132;-1.97755;-0.78981;,
 -1.43007;-1.48243;-0.93024;,
 -1.48103;-1.97851;-1.06425;,
 -1.56656;-2.58065;-1.30759;,
 -1.70772;-2.58879;-0.98392;,
 -1.77212;-2.59554;-0.69289;,
 -1.92080;-3.47144;-0.88021;,
 -1.96311;-3.47626;0.01982;,
 -2.18850;-4.90087;-1.06900;,
 -1.85075;-3.44441;-1.27208;,
 1.97607;-2.59660;-0.00025;,
 1.90057;-1.97755;0.03251;,
 1.84024;-1.48219;0.07723;,
 1.81783;-1.97755;-0.54538;,
 1.75959;-1.48219;-0.45916;,
 1.88570;-2.59495;-0.68806;,
 1.57493;-1.48243;-0.93058;,
 1.62618;-1.97851;-1.06211;,
 1.69770;-2.58209;-1.32075;,
 2.04164;-3.47567;0.02074;,
 1.93398;-3.46906;-0.88618;,
 1.77560;-3.41287;-1.74595;,
 1.89362;-3.44662;-1.31431;,
 1.82823;-2.58934;-0.99027;,
 1.75668;-1.97755;-0.78830;,
 1.70070;-1.48219;-0.68262;,
 2.38719;-8.34921;0.77953;,
 2.18423;-8.35504;-0.73627;,
 -2.72286;-8.34363;0.78633;,
 -2.71008;-8.35066;-0.72824;,
 2.18423;-8.35504;-0.73627;,
 2.38719;-8.34921;0.77953;,
 -2.71008;-8.35066;-0.72824;,
 -2.72286;-8.34363;0.78633;,
 2.38186;-8.33948;-2.86466;,
 1.93632;-8.34907;-1.74076;,
 -2.52140;-8.34449;-1.73717;,
 1.93632;-8.34907;-1.74076;,
 -2.52140;-8.34449;-1.73717;,
 -2.97864;-8.33482;-2.86546;,
 -2.97864;-8.33482;-2.86546;,
 2.38186;-8.33948;-2.86466;,
 -1.45103;-6.77969;-8.25158;,
 -0.80707;-6.64009;-8.25721;,
 -1.57924;-6.98680;-8.82120;,
 -0.54638;-6.64200;-8.39749;,
 -0.54638;-6.64200;-8.39749;,
 -0.42291;-6.47153;-8.23355;,
 -1.27758;-6.88082;-8.75970;,
 -0.81254;-6.80293;-8.68714;,
 1.18085;-6.77825;-8.25450;,
 0.45899;-6.63764;-8.26257;,
 0.01705;-6.64021;-8.40168;,
 -0.14611;-6.47107;-8.23355;,
 0.01705;-6.64021;-8.40168;,
 0.95867;-6.87463;-8.76949;,
 0.46774;-6.79469;-8.70137;,
 -0.61485;-6.79180;-8.72490;,
 -0.54638;-6.64200;-8.39749;,
 0.20620;-6.78348;-8.73874;,
 -0.61485;-6.79180;-8.72490;,
 -0.81535;-0.97419;1.53742;,
 -1.42876;-0.97419;0.90648;,
 -0.81536;-0.45986;1.53742;,
 -1.42876;-0.45986;0.90648;,
 0.95632;-0.97419;1.53861;,
 0.26562;-0.97419;1.78537;,
 0.95632;-0.45986;1.53861;,
 0.26562;-0.45986;1.78537;,
 1.57383;-0.97419;0.90648;,
 1.57383;-0.45986;0.90648;,
 0.30527;-0.97419;-1.73405;,
 0.62147;-0.97419;-1.64063;,
 0.30527;-0.45986;-1.73405;,
 0.62147;-0.45986;-1.64063;,
 -0.49654;-0.97419;-1.63328;,
 -1.15253;-0.97419;-1.18536;,
 -1.15253;-0.45986;-1.18536;,
 -0.49654;-0.45986;-1.63328;,
 -0.19544;-0.45986;-1.72487;,
 -0.19544;-0.97419;-1.72487;,
 -0.18591;-1.49365;-1.82402;,
 -0.19544;-0.97419;-1.72487;,
 -0.19544;-0.45986;-1.72487;,
 -0.14924;-0.97419;1.77941;,
 -0.14924;-0.45986;1.77941;,
 0.24344;-1.52045;1.84794;,
 0.26562;-0.97419;1.78537;,
 0.26562;-0.45986;1.78537;,
 -1.67537;-0.97419;0.09330;,
 -1.67537;-0.45986;0.09330;,
 -1.59699;-0.97419;-0.42344;,
 -1.53822;-0.97419;-0.64273;,
 -1.59698;-0.45986;-0.42344;,
 -1.53822;-0.45986;-0.64273;,
 -1.41309;-0.45986;-0.88557;,
 -1.41308;-0.97419;-0.88557;,
 1.82013;-0.97419;0.09213;,
 1.82013;-0.45986;0.09213;,
 1.74018;-0.97419;-0.43043;,
 1.74018;-0.45986;-0.43043;,
 1.29760;-0.97419;-1.18536;,
 1.29760;-0.45986;-1.18536;,
 1.55784;-0.45986;-0.88674;,
 1.55784;-0.97419;-0.88674;,
 1.68205;-0.97419;-0.64739;,
 1.68205;-0.45986;-0.64739;,
 1.66913;-8.35473;-7.98281;,
 1.17559;-7.88949;-9.06970;,
 1.41770;-7.73902;-8.99053;,
 -0.45271;-8.26565;-8.59492;,
 -0.03803;-7.87213;-9.18187;,
 1.17559;-7.88949;-9.06970;,
 1.66913;-8.35473;-7.98281;,
 -3.19601;-8.32629;-4.04026;,
 2.64750;-8.33021;-4.03850;,
 2.80823;-8.33678;-5.41527;,
 2.64750;-8.33021;-4.03850;,
 -3.19601;-8.32629;-4.04026;,
 -3.31669;-8.33159;-5.41579;,
 -2.27050;-8.34032;-7.97926;,
 -1.80522;-7.88717;-9.06970;,
 -0.68341;-7.87186;-9.18184;,
 -3.31669;-8.33159;-5.41579;,
 2.80823;-8.33678;-5.41527;,
 1.10905;-8.25418;3.07538;,
 2.13808;-8.24508;2.17865;,
 0.01937;-8.35910;3.20124;,
 -0.58100;-8.35744;3.19141;,
 1.03284;-8.35658;2.87093;,
 -1.53294;-8.35051;2.86282;,
 -2.34964;-8.34067;2.01944;,
 2.01647;-8.34782;2.02404;,
 -2.34964;-8.34067;2.01944;,
 2.01647;-8.34782;2.02404;,
 -1.53294;-8.35051;2.86282;,
 1.03284;-8.35658;2.87093;,
 0.01937;-8.35910;3.20124;,
 -0.58100;-8.35744;3.19141;;
 
 305;
 4;0,1,2,3;,
 4;4,2,1,5;,
 4;6,7,8,9;,
 4;10,8,7,11;,
 4;12,13,7,6;,
 4;11,7,13,14;,
 4;0,3,15,16;,
 4;15,17,18,16;,
 4;6,9,19,20;,
 4;20,19,21,22;,
 4;12,6,20,23;,
 4;23,20,22,24;,
 4;25,26,27,28;,
 4;29,27,26,30;,
 4;31,32,33,34;,
 4;35,33,32,36;,
 4;34,33,37,38;,
 4;33,35,39,37;,
 4;37,39,40,41;,
 4;42,38,37,41;,
 4;43,44,45,46;,
 4;45,44,47,48;,
 4;25,28,48,47;,
 4;31,34,49,50;,
 4;51,50,49,52;,
 4;24,22,53,54;,
 4;24,54,55,56;,
 4;56,55,51,52;,
 4;57,58,59,60;,
 4;61,59,58,62;,
 4;63,64,65,66;,
 4;67,65,64,68;,
 4;69,70,71,72;,
 4;63,66,71,70;,
 4;73,67,68,74;,
 4;75,29,30,76;,
 4;77,61,62,78;,
 4;79,80,81,82;,
 4;83,84,85,86;,
 4;87,88,89,90;,
 4;83,86,91,92;,
 4;18,17,93,94;,
 4;95,53,22,21;,
 4;92,91,69,72;,
 4;59,61,96,97;,
 4;60,59,97,98;,
 4;61,77,99,96;,
 3;100,99,77;,
 3;101,102,103;,
 4;104,101,103,105;,
 4;36,106,102,101;,
 4;35,36,101,104;,
 4;32,31,107,108;,
 4;36,32,108,106;,
 4;50,51,109,110;,
 4;31,50,110,107;,
 4;51,55,111,109;,
 4;55,54,112,111;,
 4;54,53,113,112;,
 3;53,95,113;,
 3;113,95,114;,
 3;95,115,114;,
 4;94,93,116,117;,
 4;93,17,118,119;,
 4;119,120,116,93;,
 4;121,122,120,119;,
 4;121,123,124,122;,
 4;57,60,123,125;,
 4;123,60,98,124;,
 4;126,28,27,127;,
 4;27,29,128,127;,
 4;46,45,129,130;,
 4;129,45,48,131;,
 4;48,28,126,131;,
 4;132,68,64,133;,
 4;64,63,134,133;,
 4;134,63,70,135;,
 4;70,69,136,135;,
 4;74,68,132,79;,
 4;73,74,79,82;,
 4;29,75,137,128;,
 4;86,85,138,139;,
 4;88,87,140,141;,
 4;142,143,144,145;,
 4;87,146,147,140;,
 4;146,148,149,147;,
 4;91,86,139,150;,
 4;148,46,130,149;,
 4;69,91,150,136;,
 4;151,152,153,154;,
 4;153,155,156,154;,
 4;154,156,157,158;,
 4;151,154,158,159;,
 4;42,160,161,38;,
 4;162,42,41,163;,
 4;42,162,164,160;,
 4;40,165,163,41;,
 4;164,152,151,160;,
 4;160,151,159,161;,
 4;166,57,167,168;,
 4;169,166,170,171;,
 4;57,166,169,58;,
 4;172,169,171,173;,
 4;172,62,58,169;,
 4;174,175,173,171;,
 4;174,171,170,176;,
 4;176,170,177,178;,
 4;177,170,166,168;,
 4;179,177,168,180;,
 4;179,181,178,177;,
 4;182,181,179,183;,
 4;183,179,180,184;,
 4;185,183,184,186;,
 4;185,187,182,183;,
 4;188,189,190,191;,
 4;192,193,188,191;,
 4;194,195,190,189;,
 4;196,197,198,199;,
 4;200,201,197,196;,
 4;202,193,192,203;,
 4;198,202,203,199;,
 4;204,205,206,207;,
 4;208,204,207,209;,
 4;210,208,209,211;,
 4;212,213,210,211;,
 4;214,213,212,215;,
 4;195,194,214,215;,
 4;216,217,1,0;,
 4;5,1,217,218;,
 4;216,0,16,219;,
 4;219,16,18,220;,
 4;18,94,221,220;,
 3;142,221,143;,
 3;221,94,143;,
 3;94,117,143;,
 4;88,141,138,85;,
 4;85,84,89,88;,
 4;222,223,224,225;,
 4;226,227,228,229;,
 4;223,222,226,229;,
 4;230,231,232,233;,
 4;228,227,231,230;,
 4;232,234,235,233;,
 4;236,237,238,239;,
 4;234,236,239,235;,
 4;240,225,224,241;,
 4;242,243,240,241;,
 4;244,243,242,245;,
 4;246,244,245,247;,
 4;248,246,247,249;,
 4;238,237,248,249;,
 4;3,2,250,251;,
 4;252,250,2,4;,
 4;253,254,255,256;,
 4;255,257,258,256;,
 4;258,259,260,256;,
 4;260,261,253,256;,
 4;261,262,263,251;,
 4;263,262,264,118;,
 4;3,251,263,15;,
 4;263,118,17,15;,
 4;264,125,123,121;,
 4;118,264,121,119;,
 4;125,264,262,265;,
 4;57,125,265,167;,
 4;180,259,258,184;,
 4;258,257,186,184;,
 4;167,259,180,168;,
 4;262,261,260,265;,
 4;260,259,167,265;,
 4;261,251,250,253;,
 4;254,253,250,252;,
 4;266,267,13,12;,
 4;14,13,267,268;,
 4;268,267,269,270;,
 4;271,269,267,266;,
 4;157,272,273,158;,
 4;273,274,159,158;,
 4;266,12,23,275;,
 4;275,23,24,56;,
 4;271,266,275,276;,
 4;276,275,56,52;,
 4;34,38,161,277;,
 4;159,274,277,161;,
 4;49,34,277,278;,
 4;276,52,49,278;,
 4;277,274,279,278;,
 4;279,271,276,278;,
 4;269,271,279,280;,
 4;279,274,273,280;,
 4;273,272,281,280;,
 4;281,270,269,280;,
 4;44,43,282,283;,
 4;284,285,286,287;,
 4;92,72,288,289;,
 4;290,25,47,291;,
 4;47,44,283,291;,
 4;286,285,292,293;,
 4;288,72,71,294;,
 4;71,66,295,294;,
 4;293,292,296,297;,
 4;78,62,172,298;,
 4;298,172,173,299;,
 4;77,78,300,100;,
 4;301,299,173,175;,
 4;302,201,200,303;,
 4;300,78,298,304;,
 4;304,298,299,305;,
 4;35,104,306,39;,
 4;40,39,306,307;,
 4;165,40,307,308;,
 4;302,303,309,310;,
 4;205,310,309,206;,
 4;306,104,105,311;,
 4;307,306,311,312;,
 4;299,301,313,305;,
 4;314,308,315,316;,
 4;315,308,307,312;,
 4;4,5,317,318;,
 4;319,320,318,317;,
 4;10,11,321,322;,
 4;323,324,322,321;,
 4;11,14,325,321;,
 4;326,323,321,325;,
 4;156,155,327,328;,
 4;327,329,330,328;,
 4;331,185,186,332;,
 4;333,334,331,332;,
 4;334,335,336,331;,
 4;336,187,185,331;,
 4;155,337,338,327;,
 4;339,329,327,338;,
 4;5,218,340,317;,
 4;341,319,317,340;,
 4;218,342,343,340;,
 4;344,341,340,343;,
 4;252,4,318,345;,
 4;320,346,345,318;,
 4;255,254,347,348;,
 4;347,349,350,348;,
 4;350,351,352,348;,
 4;352,257,255,348;,
 4;186,257,352,332;,
 4;352,351,333,332;,
 4;254,252,345,347;,
 4;346,349,347,345;,
 4;14,268,353,325;,
 4;354,326,325,353;,
 4;268,270,355,353;,
 4;356,354,353,355;,
 4;328,357,157,156;,
 4;330,358,357,328;,
 4;358,359,360,357;,
 4;360,272,157,357;,
 4;281,272,360,361;,
 4;360,359,362,361;,
 4;362,356,355,361;,
 4;355,270,281,361;,
 4;137,363,364,365;,
 4;75,76,363,137;,
 4;366,367,368,369;,
 4;370,371,297,296;,
 4;372,30,26,373;,
 4;373,26,25,290;,
 4;374,295,66,65;,
 4;65,67,375,374;,
 4;375,67,73,82;,
 4;76,30,372,363;,
 4;376,377,378,366;,
 4;370,379,380,371;,
 4;369,380,379,376;,
 3;366,369,376;,
 4;87,90,381,146;,
 4;146,381,382,148;,
 4;148,382,43,46;,
 4;383,90,89,384;,
 4;385,381,90,383;,
 4;384,89,84,386;,
 4;386,84,83,387;,
 4;388,382,381,385;,
 4;83,92,289,387;,
 4;389,284,287,390;,
 4;282,43,382,388;,
 4;391,389,390,392;,
 4;393,394,391,392;,
 3;366,378,367;,
 4;81,100,300,378;,
 4;378,300,304,305;,
 4;378,305,316,367;,
 4;367,316,315,364;,
 4;364,315,312,103;,
 4;312,311,105,103;,
 4;190,195,215,191;,
 4;191,215,212,192;,
 4;192,212,211,203;,
 4;203,211,209,199;,
 4;199,209,207,196;,
 4;196,207,206,200;,
 4;200,206,309,303;,
 4;224,223,229,241;,
 4;241,229,228,242;,
 4;242,228,230,245;,
 4;245,230,233,247;,
 4;247,233,235,249;,
 4;249,235,239,238;;
 
 MeshMaterialList {
  8;
  305;
  0,
  0,
  0,
  0,
  0,
  0,
  0,
  0,
  0,
  0,
  0,
  0,
  0,
  0,
  0,
  0,
  0,
  0,
  0,
  0,
  0,
  0,
  0,
  0,
  0,
  0,
  0,
  0,
  0,
  0,
  0,
  0,
  0,
  0,
  0,
  0,
  0,
  0,
  0,
  0,
  0,
  0,
  0,
  0,
  0,
  0,
  0,
  0,
  0,
  0,
  0,
  0,
  0,
  0,
  0,
  0,
  0,
  0,
  0,
  0,
  0,
  0,
  0,
  0,
  0,
  0,
  0,
  0,
  0,
  0,
  0,
  0,
  0,
  0,
  0,
  0,
  0,
  0,
  0,
  0,
  0,
  0,
  0,
  0,
  0,
  0,
  0,
  0,
  0,
  0,
  0,
  0,
  0,
  0,
  0,
  0,
  0,
  0,
  0,
  0,
  0,
  0,
  0,
  0,
  0,
  0,
  0,
  0,
  0,
  0,
  0,
  0,
  0,
  0,
  0,
  0,
  0,
  0,
  0,
  0,
  0,
  0,
  0,
  0,
  0,
  0,
  0,
  0,
  0,
  0,
  0,
  0,
  0,
  0,
  0,
  0,
  0,
  0,
  0,
  0,
  0,
  0,
  0,
  0,
  0,
  0,
  0,
  0,
  0,
  0,
  0,
  0,
  0,
  0,
  0,
  0,
  0,
  0,
  0,
  0,
  0,
  0,
  0,
  0,
  0,
  0,
  0,
  0,
  0,
  0,
  0,
  0,
  0,
  0,
  0,
  0,
  0,
  0,
  0,
  0,
  0,
  0,
  0,
  0,
  0,
  0,
  0,
  0,
  0,
  0,
  0,
  0,
  0,
  0,
  0,
  0,
  0,
  0,
  0,
  0,
  0,
  0,
  0,
  0,
  0,
  0,
  0,
  0,
  0,
  0,
  0,
  0,
  0,
  0,
  0,
  0,
  0,
  0,
  0,
  0,
  0,
  0,
  0,
  0,
  0,
  0,
  0,
  0,
  0,
  0,
  0,
  0,
  0,
  0,
  0,
  0,
  0,
  0,
  0,
  0,
  0,
  0,
  0,
  0,
  0,
  0,
  0,
  0,
  0,
  0,
  0,
  0,
  0,
  0,
  0,
  0,
  0,
  0,
  0,
  0,
  0,
  0,
  0,
  0,
  0,
  0,
  0,
  0,
  0,
  0,
  0,
  0,
  0,
  0,
  0,
  0,
  0,
  0,
  0,
  0,
  0,
  0,
  0,
  0,
  0,
  0,
  0,
  0,
  0,
  0,
  0,
  0,
  0,
  0,
  0,
  0,
  0,
  0,
  0,
  0,
  0,
  0,
  0,
  0,
  0;;
  Material {
   0.765600;0.659200;0.241600;1.000000;;
   5.000000;
   0.000000;0.000000;0.000000;;
   0.000000;0.000000;0.000000;;
  }
  Material {
   0.000000;0.000000;0.000000;1.000000;;
   5.000000;
   0.000000;0.000000;0.000000;;
   0.000000;0.000000;0.000000;;
  }
  Material {
   0.800000;0.800000;0.800000;1.000000;;
   5.000000;
   0.000000;0.000000;0.000000;;
   0.000000;0.000000;0.000000;;
  }
  Material {
   0.800000;0.000000;0.060000;1.000000;;
   5.000000;
   0.000000;0.000000;0.000000;;
   0.000000;0.000000;0.000000;;
  }
  Material {
   0.000000;0.690400;0.251200;1.000000;;
   5.000000;
   0.000000;0.000000;0.000000;;
   0.000000;0.000000;0.000000;;
  }
  Material {
   0.800000;0.768800;0.000000;1.000000;;
   5.000000;
   0.000000;0.000000;0.000000;;
   0.000000;0.000000;0.000000;;
  }
  Material {
   0.000000;0.000000;0.000000;1.000000;;
   5.000000;
   0.000000;0.000000;0.000000;;
   0.000000;0.000000;0.000000;;
  }
  Material {
   0.743200;0.263200;0.094400;1.000000;;
   5.000000;
   0.000000;0.000000;0.000000;;
   0.000000;0.000000;0.000000;;
  }
 }
 MeshNormals {
  329;
  -0.573985;0.220218;0.788698;,
  -0.568195;0.189929;0.800676;,
  -0.864504;0.143625;0.481669;,
  -0.868075;0.173649;0.465072;,
  -0.863368;0.078516;0.498428;,
  -0.556719;0.112895;0.822994;,
  0.573926;0.201958;0.793613;,
  0.566135;0.184450;0.803411;,
  0.530255;0.203569;0.823037;,
  0.505157;0.199406;0.839675;,
  0.286917;0.240496;0.927276;,
  0.553647;0.113512;0.824979;,
  0.872756;0.142848;0.466789;,
  0.865297;0.133780;0.483077;,
  0.862852;0.078734;0.499287;,
  -0.873253;0.170974;0.456287;,
  -0.574570;0.215368;0.789612;,
  -0.865727;0.196016;0.460538;,
  -0.562948;0.217956;0.797236;,
  0.476589;0.184591;0.859528;,
  0.576863;0.179268;0.796926;,
  0.461243;0.165996;0.871608;,
  0.563704;0.168306;0.808647;,
  0.882847;0.111693;0.456187;,
  0.879212;0.119653;0.461161;,
  0.827701;-0.494466;0.265358;,
  0.845641;-0.519675;0.121776;,
  0.985951;-0.093780;0.138228;,
  0.856846;0.443599;0.262745;,
  0.958819;-0.243712;-0.145845;,
  0.797776;-0.592108;-0.113850;,
  0.965782;0.125501;0.226969;,
  0.979166;0.184630;0.084533;,
  0.856933;0.501757;-0.117925;,
  0.945882;0.297664;-0.129240;,
  0.795069;0.545158;-0.265835;,
  0.965164;0.200962;-0.167547;,
  0.522767;0.779939;-0.344107;,
  0.638104;0.610244;-0.469494;,
  0.442804;0.821761;-0.358655;,
  0.220880;0.891283;-0.396014;,
  0.280618;0.855702;-0.434774;,
  0.376235;0.708725;-0.596788;,
  0.888386;-0.454691;0.063452;,
  0.881788;-0.441251;-0.166577;,
  0.883017;0.439542;-0.164571;,
  0.865823;0.497454;0.053758;,
  0.882123;-0.466671;0.063851;,
  0.889242;0.451475;0.073619;,
  0.997900;0.049686;-0.041558;,
  0.994645;0.074021;0.072126;,
  0.987704;0.078744;-0.135057;,
  0.995530;0.023578;-0.091454;,
  0.534679;0.169662;0.827849;,
  0.858928;0.160775;0.486205;,
  0.990542;0.125762;0.054875;,
  0.996579;0.058095;0.058781;,
  -0.886281;0.420271;-0.194624;,
  -0.769676;0.625832;-0.126224;,
  -0.951582;0.300703;0.063791;,
  -0.953342;0.247764;0.172488;,
  -0.939671;0.304590;-0.155704;,
  -0.700510;0.671360;-0.241995;,
  -0.833498;0.500151;0.234798;,
  -0.993415;-0.024381;0.111952;,
  -0.871617;-0.479904;0.099881;,
  -0.856137;-0.448406;0.256829;,
  -0.810110;-0.574734;-0.115773;,
  -0.974877;0.098379;-0.199842;,
  -0.875840;0.475292;-0.083674;,
  -0.870849;0.484455;0.083221;,
  -0.893921;-0.439781;0.086595;,
  -0.899311;-0.428695;-0.086376;,
  -0.678850;-0.605021;-0.416067;,
  -0.735771;-0.443381;-0.511912;,
  0.720915;-0.406288;-0.561437;,
  0.665269;-0.592310;-0.454517;,
  -0.896704;0.281395;-0.341670;,
  -0.617995;0.716263;-0.324113;,
  -0.868659;-0.065378;-0.491077;,
  -0.744508;0.066983;-0.664245;,
  -0.372210;-0.770207;-0.517920;,
  -0.322498;-0.874723;-0.361739;,
  0.587329;0.077064;-0.805671;,
  0.360341;-0.770699;-0.525525;,
  -0.855619;0.122975;0.502785;,
  -0.531460;0.102032;0.840916;,
  -0.802086;0.424952;0.419612;,
  0.149543;0.037604;0.988040;,
  -0.170613;0.072086;0.982698;,
  -0.832210;0.541603;0.118717;,
  -0.901576;-0.411658;0.133036;,
  -0.846559;0.239114;0.475566;,
  -0.498609;0.219209;0.838652;,
  0.271076;0.135293;0.953003;,
  -0.852360;0.500755;-0.150755;,
  -0.818700;0.570671;0.063763;,
  -0.798720;0.558478;0.223940;,
  -0.336718;0.619223;-0.709355;,
  0.910243;0.184088;-0.370903;,
  0.850060;-0.053607;-0.523951;,
  0.715328;0.588466;-0.376848;,
  0.679786;0.624288;-0.384910;,
  0.858918;0.485248;-0.163690;,
  0.820782;0.511364;0.254605;,
  0.843329;0.531268;0.080936;,
  0.851351;0.503159;-0.148435;,
  0.854332;0.512275;0.087696;,
  0.831593;0.553786;0.042135;,
  0.688904;0.599587;0.407316;,
  0.400561;0.515597;0.757437;,
  -0.021693;0.026757;0.999407;,
  -0.021943;0.581734;0.813083;,
  -0.665278;0.641537;0.381884;,
  -0.401714;0.652872;0.642172;,
  -0.976867;0.166689;0.133962;,
  -0.966475;0.211564;0.145489;,
  -0.793419;0.597782;0.114642;,
  -0.983604;0.169490;-0.061610;,
  -0.836805;0.543075;-0.069471;,
  -0.983599;0.178336;0.026993;,
  -0.834636;0.544488;0.083162;,
  -0.967868;0.212197;-0.134922;,
  -0.037387;0.525033;0.850260;,
  0.015176;0.026864;0.999524;,
  0.205531;0.913546;0.350986;,
  0.389881;0.891965;0.228892;,
  0.453586;0.473392;-0.755089;,
  0.532406;0.442980;-0.721327;,
  0.574253;0.405968;-0.710931;,
  0.456524;0.417195;-0.785833;,
  0.310879;0.432710;-0.846237;,
  0.449009;0.255951;-0.856084;,
  0.661293;0.198519;-0.723382;,
  0.652321;0.345264;-0.674738;,
  0.656458;0.403273;-0.637522;,
  0.439457;0.526092;-0.728083;,
  0.679681;0.428994;-0.594978;,
  0.417059;0.683313;-0.599287;,
  0.345794;0.824776;-0.447405;,
  0.477815;0.511589;-0.714121;,
  0.307816;0.860152;-0.406679;,
  -0.630415;0.627474;-0.457005;,
  -0.849482;0.323261;-0.416992;,
  -0.688782;0.427756;-0.585324;,
  -0.489855;0.812254;-0.316679;,
  -0.421539;0.705796;-0.569347;,
  -0.322357;0.856140;-0.403870;,
  -0.398567;0.857078;-0.326438;,
  -0.259914;0.890635;-0.373113;,
  -0.409574;0.817912;-0.404066;,
  -0.390679;0.844521;-0.366269;,
  -0.466088;0.686185;-0.558491;,
  -0.469589;0.522258;-0.711851;,
  -0.500714;0.520773;-0.691434;,
  -0.466054;0.476609;-0.745411;,
  -0.666789;0.402486;-0.627214;,
  -0.537347;0.455778;-0.709595;,
  -0.574524;0.421605;-0.701549;,
  -0.461799;0.426259;-0.777847;,
  -0.658583;0.349422;-0.666462;,
  -0.453738;0.263117;-0.851405;,
  -0.665375;0.203110;-0.718347;,
  -0.325865;0.437378;-0.838160;,
  -0.307383;0.603603;-0.735649;,
  -0.424927;0.432644;-0.795145;,
  -0.381320;0.478123;-0.791197;,
  0.274735;0.604210;-0.747964;,
  -0.295809;0.850091;-0.435710;,
  -0.328992;0.723551;-0.606827;,
  -0.288747;0.876062;-0.386187;,
  -0.348655;0.557126;-0.753691;,
  0.221183;0.882773;-0.414476;,
  0.237032;0.852629;-0.465659;,
  0.276094;0.720181;-0.636484;,
  0.311833;0.551451;-0.773733;,
  0.355208;0.472788;-0.806411;,
  0.398131;0.427510;-0.811620;,
  -0.507937;0.215769;0.833933;,
  -0.537124;0.207689;0.817534;,
  -0.308991;0.238076;0.920785;,
  -0.478461;0.214388;0.851536;,
  -0.464420;0.209524;0.860473;,
  -0.259100;0.166016;0.951476;,
  -0.273029;0.327927;0.904389;,
  0.222302;0.332586;0.916498;,
  -0.346516;0.215714;0.912904;,
  -0.380959;0.202453;0.902155;,
  -0.317430;0.219123;0.922618;,
  -0.307868;0.212327;0.927435;,
  -0.294296;0.136346;0.945939;,
  -0.199824;-0.102894;0.974414;,
  0.145063;-0.135401;0.980114;,
  0.337467;0.202632;0.919270;,
  0.306544;0.207823;0.928892;,
  0.278256;0.203104;0.938788;,
  0.268877;0.187026;0.944842;,
  0.247610;0.097381;0.963953;,
  -0.987749;0.139366;0.070211;,
  -0.985051;0.152834;0.079477;,
  -0.994268;0.080675;0.070159;,
  -0.968278;0.168767;-0.184269;,
  -0.975033;0.097817;-0.199356;,
  -0.929252;0.120198;-0.349347;,
  -0.921280;0.212196;-0.325909;,
  -0.827403;0.154768;-0.539863;,
  -0.821317;0.271530;-0.501706;,
  -0.827929;0.316587;-0.462932;,
  -0.924837;0.245097;-0.290867;,
  -0.970798;0.186115;-0.151368;,
  -0.978911;0.178973;-0.098502;,
  -0.984025;0.144010;0.104673;,
  -0.983740;0.169755;-0.058648;,
  -0.938834;0.242242;-0.244762;,
  0.992323;0.106136;0.063482;,
  0.989931;0.124631;0.067116;,
  0.994267;0.081169;0.069600;,
  0.971598;0.148556;-0.184199;,
  0.974947;0.098053;-0.199661;,
  0.981202;0.119579;-0.151468;,
  0.826053;0.153062;-0.542410;,
  0.823623;0.263822;-0.502039;,
  0.844237;0.292462;-0.449144;,
  0.996378;0.058653;0.061568;,
  0.992851;0.059228;-0.103629;,
  0.891037;0.264335;-0.369027;,
  0.978748;0.119858;-0.166395;,
  0.948270;0.182920;-0.259468;,
  0.927143;0.194111;-0.320510;,
  0.928929;0.119663;-0.350387;,
  0.030486;-0.853381;-0.520396;,
  0.293442;-0.955721;0.022097;,
  0.318757;-0.945832;-0.061607;,
  -0.307935;-0.950252;0.046866;,
  -0.326360;-0.944683;-0.032598;,
  0.270519;-0.959348;0.080444;,
  0.304676;-0.952377;0.012265;,
  -0.315260;-0.948704;0.023890;,
  -0.283673;-0.955587;0.079895;,
  -0.295027;0.900019;-0.320819;,
  -0.193203;0.913981;-0.356808;,
  -0.194738;0.868228;-0.456353;,
  -0.200650;0.838550;-0.506531;,
  -0.154537;0.829171;-0.537210;,
  -0.095229;0.727117;-0.679877;,
  -0.061048;0.702338;-0.709221;,
  0.349116;0.868805;-0.351136;,
  0.156487;0.921677;-0.354996;,
  0.135999;0.875458;-0.463764;,
  0.146303;0.840091;-0.522343;,
  0.300211;0.900569;-0.314403;,
  0.063083;0.707217;-0.704176;,
  0.059831;0.692778;-0.718664;,
  -0.546406;0.029302;0.837008;,
  -0.862002;0.019348;0.506536;,
  -0.542974;-0.000005;0.839749;,
  -0.861348;-0.000004;0.508015;,
  0.543186;0.029509;0.839094;,
  0.166184;0.047156;0.984967;,
  0.539727;0.000000;0.841840;,
  0.163642;0.000000;0.986520;,
  0.861568;0.019408;0.507270;,
  0.860930;0.000000;0.508723;,
  0.140452;0.086994;-0.986258;,
  0.432651;0.067698;-0.899016;,
  0.134066;0.000000;-0.990972;,
  0.425888;0.000000;-0.904776;,
  -0.438688;0.069337;-0.895960;,
  -0.666501;0.052036;-0.743686;,
  -0.664782;-0.000004;-0.747038;,
  -0.432438;0.000000;-0.901663;,
  -0.156170;0.000000;-0.987730;,
  -0.162610;0.087429;-0.982809;,
  -0.184268;0.046851;0.981759;,
  -0.180420;-0.000002;0.983590;,
  -0.997235;0.019893;0.071598;,
  -0.997412;0.000005;0.071891;,
  -0.978691;0.024276;-0.203896;,
  -0.932913;0.030058;-0.358844;,
  -0.978819;0.000010;-0.204727;,
  -0.932754;0.000000;-0.360514;,
  -0.827783;-0.000008;-0.561049;,
  -0.828893;0.039184;-0.558033;,
  0.997299;0.020018;0.070665;,
  0.997485;0.000000;0.070882;,
  0.978575;0.024324;-0.204447;,
  0.978693;0.000000;-0.205330;,
  0.663284;0.050707;-0.746648;,
  0.661854;0.000000;-0.749633;,
  0.826598;0.000000;-0.562793;,
  0.827655;0.038698;-0.559902;,
  0.932434;0.029915;-0.360100;,
  0.932242;0.000000;-0.361835;,
  0.306994;-0.873081;-0.378794;,
  -0.004355;-0.907215;-0.420645;,
  -0.291355;-0.956030;0.033460;,
  0.278738;-0.959479;0.041286;,
  0.271516;-0.961903;-0.031953;,
  -0.286199;-0.957488;-0.036161;,
  -0.037379;-0.852631;-0.521175;,
  0.498449;0.014135;0.866804;,
  0.846161;0.031321;0.532007;,
  0.041342;-0.958845;0.280905;,
  -0.057141;-0.956117;0.287359;,
  0.111494;-0.976192;0.186058;,
  -0.136530;-0.971609;0.193224;,
  -0.242505;-0.960980;0.133075;,
  0.212136;-0.969025;0.126444;,
  0.522697;0.852307;0.019000;,
  0.581789;0.798710;-0.153572;,
  -0.466624;0.883371;-0.043801;,
  -0.490840;0.871243;0.003391;,
  -0.670448;0.700462;-0.244648;,
  0.654990;0.707380;-0.265710;,
  -0.284977;0.914595;0.286887;,
  -0.201209;0.923561;0.326419;,
  -0.058732;0.925986;0.372961;,
  0.061002;0.922639;0.380810;,
  0.061871;-0.905594;0.419609;,
  -0.082518;-0.899759;0.428515;,
  0.219710;-0.900258;0.375850;,
  -0.263308;-0.882939;0.388701;,
  -0.466128;-0.845243;0.261322;,
  0.414422;-0.874895;0.250626;,
  -0.116624;0.291327;-0.949488;,
  -0.053194;0.369526;-0.927697;,
  -0.030809;0.382322;-0.923515;,
  0.074158;0.375892;-0.923691;,
  -0.144070;0.172660;-0.974388;;
  305;
  4;0,1,2,3;,
  4;4,2,1,5;,
  4;6,7,8,9;,
  4;10,8,7,11;,
  4;12,13,7,6;,
  4;11,7,13,14;,
  4;0,3,15,16;,
  4;15,17,18,16;,
  4;6,9,19,20;,
  4;20,19,21,22;,
  4;12,6,20,23;,
  4;23,20,22,24;,
  4;25,26,27,28;,
  4;29,27,26,30;,
  4;31,32,33,34;,
  4;35,33,32,36;,
  4;34,33,37,38;,
  4;33,35,39,37;,
  4;37,39,40,41;,
  4;42,38,37,41;,
  4;43,44,45,46;,
  4;45,44,47,48;,
  4;25,28,48,47;,
  4;31,34,49,50;,
  4;51,50,49,52;,
  4;24,22,53,54;,
  4;24,54,55,56;,
  4;56,55,51,52;,
  4;57,58,59,60;,
  4;61,59,58,62;,
  4;63,64,65,66;,
  4;67,65,64,68;,
  4;69,70,71,72;,
  4;63,66,71,70;,
  4;73,67,68,74;,
  4;75,29,30,76;,
  4;77,61,62,78;,
  4;79,80,81,82;,
  4;85,86,86,87;,
  4;88,89,89,88;,
  4;85,87,90,91;,
  4;18,17,92,93;,
  4;94,53,22,21;,
  4;91,90,69,72;,
  4;59,61,95,96;,
  4;60,59,96,97;,
  4;61,77,79,95;,
  3;80,79,77;,
  3;99,100,83;,
  4;101,99,83,102;,
  4;36,103,100,99;,
  4;35,36,99,101;,
  4;32,31,104,105;,
  4;36,32,105,103;,
  4;50,51,106,107;,
  4;31,50,107,104;,
  4;51,55,108,106;,
  4;55,54,109,108;,
  4;54,53,110,109;,
  3;53,94,110;,
  3;110,94,112;,
  3;94,111,112;,
  4;93,92,113,114;,
  4;92,17,115,116;,
  4;116,117,113,92;,
  4;118,119,117,116;,
  4;118,120,121,119;,
  4;57,60,120,122;,
  4;120,60,97,121;,
  4;104,28,308,105;,
  4;308,309,103,105;,
  4;46,45,106,108;,
  4;106,45,48,107;,
  4;48,28,104,107;,
  4;95,310,311,96;,
  4;311,63,97,96;,
  4;97,63,70,121;,
  4;70,69,119,121;,
  4;312,68,95,79;,
  4;73,74,79,82;,
  4;309,313,100,103;,
  4;314,315,114,113;,
  4;316,317,112,123;,
  4;124,123,112,111;,
  4;317,125,110,112;,
  4;125,126,109,110;,
  4;90,87,113,117;,
  4;126,46,108,109;,
  4;69,90,117,119;,
  4;127,128,129,130;,
  4;129,131,132,130;,
  4;130,132,133,134;,
  4;127,130,134,135;,
  4;42,136,137,38;,
  4;138,42,41,139;,
  4;42,138,140,136;,
  4;40,141,139,41;,
  4;140,128,127,136;,
  4;136,127,135,137;,
  4;142,57,143,144;,
  4;145,142,146,147;,
  4;57,142,145,58;,
  4;148,145,147,149;,
  4;148,62,58,145;,
  4;150,151,149,147;,
  4;150,147,146,152;,
  4;152,146,153,154;,
  4;153,146,142,144;,
  4;155,153,144,156;,
  4;155,157,154,153;,
  4;158,157,155,159;,
  4;159,155,156,160;,
  4;161,159,160,162;,
  4;161,163,158,159;,
  4;158,163,164,165;,
  4;166,157,158,165;,
  4;131,167,164,163;,
  4;168,150,152,169;,
  4;170,151,150,168;,
  4;154,157,166,171;,
  4;152,154,171,169;,
  4;139,141,172,173;,
  4;138,139,173,174;,
  4;140,138,174,175;,
  4;176,128,140,175;,
  4;129,128,176,177;,
  4;167,131,129,177;,
  4;178,179,1,0;,
  4;5,1,179,180;,
  4;178,0,16,181;,
  4;181,16,18,182;,
  4;18,93,183,182;,
  3;124,183,123;,
  3;183,93,123;,
  3;93,114,123;,
  4;316,123,114,315;,
  4;86,86,89,89;,
  4;180,184,185,10;,
  4;179,178,186,187;,
  4;184,180,179,187;,
  4;188,181,182,189;,
  4;186,178,181,188;,
  4;182,183,190,189;,
  4;124,111,192,191;,
  4;183,124,191,190;,
  4;8,10,185,193;,
  4;194,9,8,193;,
  4;19,9,194,195;,
  4;21,19,195,196;,
  4;94,21,196,197;,
  4;192,111,94,197;,
  4;3,2,198,199;,
  4;200,198,2,4;,
  4;201,202,203,204;,
  4;203,205,206,204;,
  4;206,207,208,204;,
  4;208,209,201,204;,
  4;209,210,211,199;,
  4;211,210,212,115;,
  4;3,199,211,15;,
  4;211,115,17,15;,
  4;212,122,120,118;,
  4;115,212,118,116;,
  4;122,212,210,213;,
  4;57,122,213,143;,
  4;156,207,206,160;,
  4;206,205,162,160;,
  4;143,207,156,144;,
  4;210,209,208,213;,
  4;208,207,143,213;,
  4;209,199,198,201;,
  4;202,201,198,200;,
  4;214,215,13,12;,
  4;14,13,215,216;,
  4;216,215,217,218;,
  4;219,217,215,214;,
  4;133,220,221,134;,
  4;221,222,135,134;,
  4;214,12,23,223;,
  4;223,23,24,56;,
  4;219,214,223,224;,
  4;224,223,56,52;,
  4;34,38,137,225;,
  4;135,222,225,137;,
  4;49,34,225,226;,
  4;224,52,49,226;,
  4;225,222,227,226;,
  4;227,219,224,226;,
  4;217,219,227,228;,
  4;227,222,221,228;,
  4;221,220,229,228;,
  4;229,218,217,228;,
  4;44,43,231,232;,
  4;233,234,232,231;,
  4;91,72,234,233;,
  4;235,25,47,236;,
  4;47,44,232,236;,
  4;232,234,237,236;,
  4;234,72,71,237;,
  4;71,66,238,237;,
  4;236,237,238,235;,
  4;78,62,148,239;,
  4;239,148,149,240;,
  4;77,78,98,80;,
  4;241,240,149,151;,
  4;241,151,170,242;,
  4;98,78,239,243;,
  4;243,239,240,244;,
  4;35,101,246,39;,
  4;40,39,246,247;,
  4;141,40,247,248;,
  4;241,242,249,248;,
  4;141,248,249,172;,
  4;246,101,102,250;,
  4;247,246,250,252;,
  4;240,241,245,244;,
  4;241,248,251,245;,
  4;251,248,247,252;,
  4;4,5,253,254;,
  4;255,256,254,253;,
  4;10,11,257,258;,
  4;259,260,258,257;,
  4;11,14,261,257;,
  4;262,259,257,261;,
  4;132,131,263,264;,
  4;263,265,266,264;,
  4;267,161,162,268;,
  4;269,270,267,268;,
  4;270,271,272,267;,
  4;272,163,161,267;,
  4;131,163,272,263;,
  4;271,265,263,272;,
  4;5,180,273,253;,
  4;274,255,253,273;,
  4;180,10,258,273;,
  4;260,274,273,258;,
  4;200,4,254,275;,
  4;256,276,275,254;,
  4;203,202,277,278;,
  4;277,279,280,278;,
  4;280,281,282,278;,
  4;282,205,203,278;,
  4;162,205,282,268;,
  4;282,281,269,268;,
  4;202,200,275,277;,
  4;276,279,277,275;,
  4;14,216,283,261;,
  4;284,262,261,283;,
  4;216,218,285,283;,
  4;286,284,283,285;,
  4;264,287,133,132;,
  4;266,288,287,264;,
  4;288,289,290,287;,
  4;290,220,133,287;,
  4;229,220,290,291;,
  4;290,289,292,291;,
  4;292,286,285,291;,
  4;285,218,229,291;,
  4;100,293,84,83;,
  4;75,76,293,100;,
  4;294,230,84,293;,
  4;295,296,235,238;,
  4;297,30,26,296;,
  4;296,26,25,235;,
  4;295,238,66,65;,
  4;65,67,298,295;,
  4;298,67,73,82;,
  4;76,30,297,293;,
  4;82,81,299,294;,
  4;295,298,297,296;,
  4;293,297,298,82;,
  3;294,293,82;,
  4;88,88,300,300;,
  4;300,300,301,301;,
  4;301,301,43,46;,
  4;302,318,319,303;,
  4;304,320,318,302;,
  4;303,319,321,305;,
  4;305,321,322,306;,
  4;307,323,320,304;,
  4;322,91,233,306;,
  4;306,233,231,307;,
  4;231,43,323,307;,
  4;305,306,307,304;,
  4;302,303,305,304;,
  3;294,299,230;,
  4;324,80,98,325;,
  4;325,98,243,244;,
  4;325,244,245,326;,
  4;326,245,251,327;,
  4;327,251,252,83;,
  4;252,328,328,83;,
  4;164,167,177,165;,
  4;165,177,176,166;,
  4;166,176,175,171;,
  4;171,175,174,169;,
  4;169,174,173,168;,
  4;168,173,172,170;,
  4;170,172,249,242;,
  4;185,184,187,193;,
  4;193,187,186,194;,
  4;194,186,188,195;,
  4;195,188,189,196;,
  4;196,189,190,197;,
  4;197,190,191,192;;
 }
 MeshTextureCoords {
  395;
  0.914270;0.154420;,
  0.907620;0.153960;,
  0.907140;0.143520;,
  0.913840;0.143360;,
  0.901830;0.144020;,
  0.902380;0.153800;,
  0.968880;0.250990;,
  0.973390;0.246100;,
  0.978950;0.252300;,
  0.974860;0.257180;,
  0.982840;0.248820;,
  0.977160;0.242450;,
  0.961710;0.242590;,
  0.966660;0.238130;,
  0.970850;0.234900;,
  0.923460;0.143900;,
  0.923770;0.155410;,
  0.939160;0.145160;,
  0.939490;0.157170;,
  0.969100;0.264500;,
  0.962730;0.258240;,
  0.959580;0.277110;,
  0.952680;0.270810;,
  0.955210;0.249580;,
  0.944710;0.261760;,
  0.712960;0.941360;,
  0.726360;0.942010;,
  0.726720;0.944760;,
  0.713450;0.944600;,
  0.738870;0.944360;,
  0.739270;0.942570;,
  0.894860;0.240590;,
  0.885390;0.233130;,
  0.900100;0.220570;,
  0.921100;0.226000;,
  0.885920;0.213960;,
  0.875070;0.224690;,
  0.901190;0.215280;,
  0.918090;0.219470;,
  0.887900;0.209450;,
  0.890800;0.199010;,
  0.901450;0.203660;,
  0.915470;0.207570;,
  0.671150;0.939100;,
  0.687690;0.939740;,
  0.688310;0.943500;,
  0.671830;0.942490;,
  0.699240;0.939990;,
  0.699590;0.944560;,
  0.924620;0.232640;,
  0.903720;0.249060;,
  0.910280;0.257010;,
  0.928340;0.239210;,
  0.938190;0.289350;,
  0.929360;0.280340;,
  0.920220;0.269540;,
  0.935710;0.250190;,
  0.932110;0.104320;,
  0.943860;0.085180;,
  0.964010;0.083400;,
  0.962000;0.095270;,
  0.965790;0.070270;,
  0.949500;0.070230;,
  0.553210;0.946340;,
  0.540090;0.946890;,
  0.540260;0.944170;,
  0.553440;0.943130;,
  0.527370;0.945200;,
  0.527810;0.946960;,
  0.577910;0.944330;,
  0.566850;0.945940;,
  0.567020;0.941400;,
  0.578400;0.940700;,
  0.507520;0.947370;,
  0.507980;0.948820;,
  0.758780;0.945450;,
  0.759250;0.944000;,
  0.964510;0.040360;,
  0.953890;0.038480;,
  0.507170;0.950190;,
  0.490460;0.955700;,
  0.487680;0.952440;,
  0.505560;0.945830;,
  0.607930;0.938750;,
  0.619620;0.938400;,
  0.619990;0.941630;,
  0.608000;0.942010;,
  0.635420;0.941650;,
  0.629770;0.941680;,
  0.629360;0.938180;,
  0.634990;0.938160;,
  0.594320;0.943000;,
  0.594810;0.939450;,
  0.964080;0.147460;,
  0.963570;0.159600;,
  0.946010;0.296200;,
  0.970760;0.069940;,
  0.970070;0.082980;,
  0.968980;0.095040;,
  0.968230;0.042350;,
  0.963090;0.031550;,
  0.854660;0.202030;,
  0.853450;0.206480;,
  0.849360;0.194910;,
  0.860540;0.193960;,
  0.856260;0.188690;,
  0.871330;0.228050;,
  0.889890;0.245410;,
  0.880870;0.237140;,
  0.905370;0.262380;,
  0.898730;0.254190;,
  0.915400;0.274910;,
  0.924610;0.285600;,
  0.934000;0.294980;,
  0.942310;0.302280;,
  0.943810;0.301100;,
  0.971210;0.147780;,
  0.970630;0.160230;,
  0.937910;0.130510;,
  0.963270;0.133250;,
  0.970530;0.133710;,
  0.961960;0.117490;,
  0.969200;0.117880;,
  0.961000;0.107220;,
  0.968220;0.107390;,
  0.934660;0.111190;,
  0.714020;0.946420;,
  0.726660;0.946470;,
  0.740100;0.946300;,
  0.687720;0.945320;,
  0.671430;0.944330;,
  0.699820;0.946450;,
  0.526830;0.948920;,
  0.540240;0.948640;,
  0.552740;0.948230;,
  0.566720;0.947840;,
  0.578540;0.946150;,
  0.759440;0.946740;,
  0.619460;0.943880;,
  0.607950;0.944030;,
  0.635840;0.944040;,
  0.629530;0.944110;,
  0.967150;0.170920;,
  0.969070;0.170650;,
  0.968220;0.176860;,
  0.966420;0.176270;,
  0.645540;0.941680;,
  0.646330;0.943930;,
  0.658100;0.941900;,
  0.658330;0.943900;,
  0.594450;0.944950;,
  0.940210;0.208060;,
  0.939310;0.204650;,
  0.946090;0.203950;,
  0.947340;0.207210;,
  0.951520;0.202230;,
  0.952900;0.205950;,
  0.956700;0.214130;,
  0.951220;0.215840;,
  0.944020;0.217260;,
  0.930750;0.208410;,
  0.933980;0.218550;,
  0.915250;0.203200;,
  0.902210;0.198750;,
  0.930220;0.204830;,
  0.892300;0.194320;,
  0.928840;0.096850;,
  0.918650;0.112760;,
  0.916630;0.106920;,
  0.938300;0.081700;,
  0.922480;0.086000;,
  0.930060;0.073550;,
  0.943950;0.068220;,
  0.934680;0.063050;,
  0.927070;0.071150;,
  0.931410;0.061180;,
  0.920200;0.083280;,
  0.912020;0.097210;,
  0.910110;0.094550;,
  0.904990;0.103500;,
  0.908630;0.112630;,
  0.903390;0.100690;,
  0.897990;0.104900;,
  0.899310;0.107890;,
  0.902540;0.116570;,
  0.894430;0.110890;,
  0.897470;0.119210;,
  0.892870;0.107480;,
  0.946920;0.962460;,
  0.954670;0.964730;,
  0.950290;0.966500;,
  0.945370;0.965060;,
  0.936680;0.965150;,
  0.937400;0.962660;,
  0.954870;0.971880;,
  0.950310;0.970480;,
  0.884620;0.965050;,
  0.884580;0.962370;,
  0.903560;0.962230;,
  0.903450;0.964780;,
  0.869870;0.965550;,
  0.869670;0.962890;,
  0.924420;0.962910;,
  0.924020;0.965370;,
  0.885220;0.976400;,
  0.870510;0.976270;,
  0.870410;0.973380;,
  0.885070;0.973240;,
  0.904040;0.976270;,
  0.903780;0.973410;,
  0.924810;0.975290;,
  0.924250;0.972720;,
  0.936870;0.972490;,
  0.937780;0.975060;,
  0.947300;0.974770;,
  0.945520;0.972180;,
  0.913970;0.162790;,
  0.907680;0.162060;,
  0.902490;0.162140;,
  0.923190;0.164050;,
  0.938780;0.166170;,
  0.962150;0.169470;,
  0.825320;0.502080;,
  0.831700;0.503930;,
  0.831640;0.507280;,
  0.825120;0.508710;,
  0.833960;0.500230;,
  0.844150;0.500370;,
  0.844960;0.503080;,
  0.836230;0.502920;,
  0.859740;0.503300;,
  0.859370;0.500830;,
  0.880870;0.500730;,
  0.880830;0.502990;,
  0.906560;0.500550;,
  0.905700;0.502930;,
  0.913980;0.501550;,
  0.913700;0.509360;,
  0.911270;0.507400;,
  0.911460;0.503580;,
  0.833640;0.511210;,
  0.836120;0.508580;,
  0.844820;0.508800;,
  0.843850;0.511520;,
  0.859050;0.511430;,
  0.859570;0.508910;,
  0.880690;0.511520;,
  0.880720;0.509240;,
  0.906210;0.511100;,
  0.905490;0.508700;,
  0.905980;0.133350;,
  0.912620;0.132040;,
  0.900730;0.134650;,
  0.904960;0.127100;,
  0.899770;0.128920;,
  0.899310;0.126450;,
  0.904470;0.124440;,
  0.898640;0.123480;,
  0.903780;0.121230;,
  0.910060;0.117840;,
  0.910900;0.121520;,
  0.911500;0.124660;,
  0.920870;0.121490;,
  0.922170;0.131050;,
  0.936390;0.117810;,
  0.919950;0.117330;,
  0.954860;0.233620;,
  0.960510;0.230010;,
  0.965180;0.227350;,
  0.956900;0.224880;,
  0.961850;0.222530;,
  0.950540;0.227620;,
  0.958870;0.217930;,
  0.953610;0.219930;,
  0.946600;0.221780;,
  0.947380;0.239460;,
  0.941620;0.231600;,
  0.936510;0.223720;,
  0.939050;0.227790;,
  0.948670;0.224930;,
  0.955380;0.222660;,
  0.960460;0.220470;,
  0.670800;0.937320;,
  0.687000;0.937960;,
  0.357300;0.314560;,
  0.372860;0.310000;,
  0.388100;0.360110;,
  0.373200;0.366890;,
  0.578930;0.938860;,
  0.594760;0.937650;,
  0.713590;0.939450;,
  0.699320;0.938090;,
  0.383790;0.308820;,
  0.397620;0.354450;,
  0.566910;0.939500;,
  0.552780;0.941290;,
  0.393930;0.300650;,
  0.410510;0.355530;,
  0.949890;0.037450;,
  0.943220;0.036220;,
  0.953270;0.031770;,
  0.940900;0.034220;,
  0.835800;0.964710;,
  0.839970;0.967080;,
  0.949790;0.031590;,
  0.944560;0.031600;,
  0.861900;0.191030;,
  0.865530;0.184420;,
  0.867070;0.180110;,
  0.839960;0.972260;,
  0.836220;0.975040;,
  0.857710;0.186410;,
  0.861150;0.182120;,
  0.942510;0.030910;,
  0.870720;0.175440;,
  0.862460;0.179490;,
  0.868160;0.172550;,
  0.896970;0.153910;,
  0.896380;0.144660;,
  0.891410;0.154610;,
  0.890820;0.145560;,
  0.981170;0.238900;,
  0.986660;0.244670;,
  0.985610;0.235540;,
  0.990580;0.241160;,
  0.975220;0.231650;,
  0.979810;0.228480;,
  0.956740;0.200820;,
  0.958030;0.204090;,
  0.961620;0.198390;,
  0.962960;0.201450;,
  0.889470;0.113070;,
  0.892220;0.121070;,
  0.886730;0.122480;,
  0.884170;0.114740;,
  0.883080;0.111700;,
  0.888060;0.109920;,
  0.949810;0.197650;,
  0.954840;0.195640;,
  0.959680;0.193690;,
  0.896920;0.161490;,
  0.891560;0.161840;,
  0.902430;0.165950;,
  0.896810;0.166070;,
  0.891560;0.166070;,
  0.895310;0.135750;,
  0.889760;0.136820;,
  0.894380;0.130290;,
  0.893920;0.127940;,
  0.888820;0.131500;,
  0.888340;0.129190;,
  0.887730;0.126420;,
  0.893310;0.125130;,
  0.969820;0.224420;,
  0.974530;0.221400;,
  0.966650;0.219790;,
  0.971470;0.216840;,
  0.961790;0.211790;,
  0.966700;0.208920;,
  0.968740;0.212470;,
  0.963850;0.215400;,
  0.965350;0.217800;,
  0.970200;0.214870;,
  0.761270;0.942350;,
  0.779670;0.948040;,
  0.776920;0.951540;,
  0.460310;0.308830;,
  0.468650;0.311000;,
  0.471310;0.323680;,
  0.460680;0.332380;,
  0.405290;0.294800;,
  0.423350;0.354610;,
  0.740930;0.941620;,
  0.726440;0.940200;,
  0.540180;0.942360;,
  0.525830;0.944280;,
  0.448460;0.292100;,
  0.462070;0.293110;,
  0.466650;0.304240;,
  0.418990;0.289310;,
  0.437930;0.351980;,
  0.645130;0.938400;,
  0.657870;0.938810;,
  0.635200;0.935780;,
  0.628900;0.935840;,
  0.645850;0.936150;,
  0.618940;0.936250;,
  0.607670;0.936820;,
  0.658130;0.936840;,
  0.345820;0.322200;,
  0.359300;0.366950;,
  0.339710;0.333180;,
  0.347570;0.359500;,
  0.341040;0.350140;,
  0.339290;0.343950;;
 }
}
