xof 0302txt 0064
template Header {
 <3D82AB43-62DA-11cf-AB39-0020AF71E433>
 WORD major;
 WORD minor;
 DWORD flags;
}

template Vector {
 <3D82AB5E-62DA-11cf-AB39-0020AF71E433>
 FLOAT x;
 FLOAT y;
 FLOAT z;
}

template Coords2d {
 <F6F23F44-7686-11cf-8F52-0040333594A3>
 FLOAT u;
 FLOAT v;
}

template Matrix4x4 {
 <F6F23F45-7686-11cf-8F52-0040333594A3>
 array FLOAT matrix[16];
}

template ColorRGBA {
 <35FF44E0-6C7C-11cf-8F52-0040333594A3>
 FLOAT red;
 FLOAT green;
 FLOAT blue;
 FLOAT alpha;
}

template ColorRGB {
 <D3E16E81-7835-11cf-8F52-0040333594A3>
 FLOAT red;
 FLOAT green;
 FLOAT blue;
}

template IndexedColor {
 <1630B820-7842-11cf-8F52-0040333594A3>
 DWORD index;
 ColorRGBA indexColor;
}

template Boolean {
 <4885AE61-78E8-11cf-8F52-0040333594A3>
 WORD truefalse;
}

template Boolean2d {
 <4885AE63-78E8-11cf-8F52-0040333594A3>
 Boolean u;
 Boolean v;
}

template MaterialWrap {
 <4885AE60-78E8-11cf-8F52-0040333594A3>
 Boolean u;
 Boolean v;
}

template TextureFilename {
 <A42790E1-7810-11cf-8F52-0040333594A3>
 STRING filename;
}

template Material {
 <3D82AB4D-62DA-11cf-AB39-0020AF71E433>
 ColorRGBA faceColor;
 FLOAT power;
 ColorRGB specularColor;
 ColorRGB emissiveColor;
 [...]
}

template MeshFace {
 <3D82AB5F-62DA-11cf-AB39-0020AF71E433>
 DWORD nFaceVertexIndices;
 array DWORD faceVertexIndices[nFaceVertexIndices];
}

template MeshFaceWraps {
 <4885AE62-78E8-11cf-8F52-0040333594A3>
 DWORD nFaceWrapValues;
 Boolean2d faceWrapValues;
}

template MeshTextureCoords {
 <F6F23F40-7686-11cf-8F52-0040333594A3>
 DWORD nTextureCoords;
 array Coords2d textureCoords[nTextureCoords];
}

template MeshMaterialList {
 <F6F23F42-7686-11cf-8F52-0040333594A3>
 DWORD nMaterials;
 DWORD nFaceIndexes;
 array DWORD faceIndexes[nFaceIndexes];
 [Material]
}

template MeshNormals {
 <F6F23F43-7686-11cf-8F52-0040333594A3>
 DWORD nNormals;
 array Vector normals[nNormals];
 DWORD nFaceNormals;
 array MeshFace faceNormals[nFaceNormals];
}

template MeshVertexColors {
 <1630B821-7842-11cf-8F52-0040333594A3>
 DWORD nVertexColors;
 array IndexedColor vertexColors[nVertexColors];
}

template Mesh {
 <3D82AB44-62DA-11cf-AB39-0020AF71E433>
 DWORD nVertices;
 array Vector vertices[nVertices];
 DWORD nFaces;
 array MeshFace faces[nFaces];
 [...]
}

Header{
1;
0;
1;
}

Mesh {
 366;
 -7.29365;0.87160;3.85251;,
 -6.79112;2.84595;2.57412;,
 -7.76403;2.58062;2.83510;,
 -8.09906;1.25972;3.76996;,
 -9.05397;2.55831;2.87706;,
 -9.78749;1.53076;3.68609;,
 -7.49061;3.59138;1.41915;,
 -8.70594;3.19338;2.18090;,
 -12.10580;2.06739;3.00704;,
 -12.00289;1.53660;3.56169;,
 -9.56215;2.96359;2.45562;,
 -12.08214;2.58508;2.44883;,
 -6.02569;2.95163;2.43424;,
 -6.00768;3.61940;1.35887;,
 -6.00607;1.82681;3.29245;,
 -6.90889;0.41481;3.91954;,
 -6.10445;0.26257;3.76675;,
 -8.11266;0.29951;3.83209;,
 -10.18575;0.36846;3.84538;,
 -12.11163;0.29836;3.73557;,
 -6.91476;-0.73340;3.93346;,
 -6.15140;-0.48190;3.77198;,
 -8.22429;-0.91799;3.79290;,
 -10.35087;-1.22145;3.72933;,
 -12.23039;-1.06738;3.65709;,
 -7.30463;-1.50368;3.76658;,
 -6.20298;-1.49158;3.55048;,
 -8.34410;-2.29212;3.46013;,
 -10.47940;-2.59721;3.20288;,
 -12.37671;-2.41047;3.11352;,
 -5.26797;2.67974;2.25802;,
 -5.29825;3.34324;1.26731;,
 -5.24972;1.59072;3.06889;,
 -5.24683;0.73100;3.36875;,
 -5.27123;-0.42116;3.44416;,
 -5.24765;-1.42728;3.20368;,
 -6.44096;-2.81447;2.79486;,
 -5.28991;-2.70745;2.38426;,
 -9.00900;-3.10188;2.62787;,
 -12.40309;-2.87052;2.45203;,
 -6.07469;-3.61124;1.80556;,
 -5.26505;-3.35022;1.54436;,
 -5.83455;-4.10765;0.46352;,
 -5.19948;-3.77852;0.29483;,
 -12.42829;-3.33251;1.79678;,
 -9.01164;-3.61618;1.97651;,
 -5.96497;-4.07272;-1.19709;,
 -5.20884;-3.70965;-1.24594;,
 -9.11450;-4.17249;-0.74722;,
 -9.06861;-4.10531;0.84930;,
 -12.49097;-3.64400;1.01815;,
 -12.66622;-3.75439;-0.01816;,
 -12.66622;-3.75439;-0.01816;,
 -12.82320;-3.49581;-1.16367;,
 -9.67556;-3.71658;-2.01349;,
 -9.11450;-4.17249;-0.74722;,
 -10.46801;-3.12091;-2.90717;,
 -8.11687;-2.40867;-3.75237;,
 -7.48492;-2.86522;-3.26030;,
 -5.96497;-4.07272;-1.19709;,
 -5.94304;-3.56254;-2.42909;,
 -5.27445;-3.13887;-2.48797;,
 -5.20884;-3.70965;-1.24594;,
 -12.98375;-3.07554;-2.12950;,
 -5.87952;-2.65189;-3.45703;,
 -5.26551;-2.36866;-3.28565;,
 -7.57918;-1.35941;-4.25039;,
 -6.74043;-1.21799;-4.18246;,
 -5.90311;-1.01762;-4.25424;,
 -5.25986;-0.81149;-3.99305;,
 -8.02900;-0.31922;-4.40052;,
 -7.08017;0.15682;-4.30997;,
 -5.91281;0.42670;-4.32577;,
 -5.24755;0.53551;-4.02786;,
 -12.91437;-1.96354;-2.95792;,
 -10.74649;-2.02228;-3.51142;,
 -10.34738;-0.68678;-3.99129;,
 -12.55021;-0.69697;-3.51800;,
 -5.95015;1.79527;-3.87985;,
 -5.25086;1.75748;-3.59560;,
 -7.80921;1.49048;-3.89962;,
 -9.50384;0.40579;-4.26206;,
 -10.37126;0.39984;-4.12029;,
 -12.43358;0.47012;-3.67211;,
 -9.86042;1.41661;-3.78959;,
 -12.17378;1.41420;-3.32901;,
 -5.98848;2.88641;-3.04965;,
 -5.28066;2.72817;-2.81335;,
 -7.74101;2.94683;-2.85612;,
 -9.36807;2.19816;-3.37178;,
 -12.10082;1.81463;-3.04953;,
 -5.86483;3.76156;-1.64680;,
 -5.23621;3.54478;-1.32777;,
 -5.91676;3.93934;0.12231;,
 -7.08869;3.57360;-2.08814;,
 -6.90561;3.96178;-0.31627;,
 -5.25554;3.64167;0.27465;,
 -7.49061;3.59138;1.41915;,
 -7.65931;4.39292;0.86995;,
 -8.93921;4.07878;1.89293;,
 -8.70594;3.19338;2.18090;,
 -10.13978;3.72418;2.23385;,
 -9.56215;2.96359;2.45562;,
 -12.34060;3.53019;2.15047;,
 -12.08214;2.58508;2.44883;,
 -10.56353;4.30421;1.58616;,
 -12.35092;4.03171;1.61833;,
 -9.48498;4.39102;1.54709;,
 -8.28516;4.70645;0.54440;,
 -6.90561;3.96178;-0.31627;,
 -7.37347;4.55838;-0.00279;,
 -7.89153;4.77280;-0.48989;,
 -7.08869;3.57360;-2.08814;,
 -7.44543;4.22887;-1.96032;,
 -7.74101;2.94683;-2.85612;,
 -8.08081;3.60369;-2.84918;,
 -8.02474;4.43978;-1.90482;,
 -8.87685;3.97804;-2.65321;,
 -9.36807;2.19816;-3.37178;,
 -9.57751;3.14324;-3.27834;,
 -9.68342;3.74133;-2.85609;,
 -12.11559;2.69415;-2.94442;,
 -12.10082;1.81463;-3.04953;,
 -12.08527;3.40585;-2.60937;,
 -14.46346;2.56398;-2.26812;,
 -14.34003;3.21083;-1.93306;,
 -14.40373;1.76225;-2.28869;,
 -14.51038;1.25585;-2.61474;,
 -14.40373;1.76225;-2.28869;,
 -14.69183;0.38129;-2.96114;,
 -16.74607;2.71792;-1.11922;,
 -16.42094;3.20026;-0.93097;,
 -16.77762;1.84086;-1.16831;,
 -16.77762;1.84086;-1.16831;,
 -17.03654;1.15524;-1.65187;,
 -16.98881;-0.09042;-2.07046;,
 -14.67189;-0.76142;-2.79756;,
 -16.68896;-1.01982;-1.88853;,
 -14.58162;-2.00898;-2.27846;,
 -14.65323;-2.82680;-1.63119;,
 -14.45679;-3.24532;-0.58943;,
 -16.56075;-1.59086;-1.66059;,
 -16.82593;-2.09699;-1.31545;,
 -16.78586;-2.57845;-0.39420;,
 -14.27359;-3.40013;0.10273;,
 -16.51175;-2.87139;0.35925;,
 -14.27359;-3.40013;0.10273;,
 -14.17724;-3.32070;1.12376;,
 -16.23591;-2.89219;1.30483;,
 -16.51175;-2.87139;0.35925;,
 -14.13546;-3.08931;1.74971;,
 -15.74334;-2.59852;2.22497;,
 -14.01732;-2.66420;2.43222;,
 -13.97194;-2.11376;3.18156;,
 -15.29301;-2.17751;2.80008;,
 -14.81635;-1.83258;3.32113;,
 -13.43893;-1.01664;3.60973;,
 -13.20462;0.03522;3.74046;,
 -14.40323;-0.93848;3.59756;,
 -16.42739;-0.76334;3.74757;,
 -17.03518;-1.28808;3.35959;,
 -17.13517;-1.95173;2.84795;,
 -13.38208;1.44039;3.53766;,
 -14.75545;1.29300;3.55713;,
 -14.42059;-0.04529;3.70199;,
 -15.65521;-0.42568;3.67223;,
 -15.57938;0.00574;3.68449;,
 -15.79641;0.84603;3.72810;,
 -16.88260;0.51450;3.76784;,
 -16.90011;0.21829;3.81520;,
 -17.00976;-0.17117;3.82194;,
 -17.96438;-0.46911;3.67800;,
 -15.67448;2.02027;2.79107;,
 -16.67439;2.02244;2.74131;,
 -13.85877;2.05226;2.86109;,
 -14.05994;2.43577;2.30327;,
 -15.84794;2.44846;2.15129;,
 -16.87762;2.46171;1.98184;,
 -17.73733;2.53165;1.66565;,
 -18.13470;1.81767;3.03762;,
 -14.05994;2.43577;2.30327;,
 -13.98185;3.28891;2.17888;,
 -14.06663;3.75231;1.73180;,
 -15.72444;3.27845;2.06635;,
 -15.84794;2.44846;2.15129;,
 -16.80404;3.16413;1.91764;,
 -16.87762;2.46171;1.98184;,
 -17.44788;3.30143;1.57179;,
 -17.73733;2.53165;1.66565;,
 -15.59958;3.62803;1.68080;,
 -16.71616;3.58479;1.40974;,
 -17.21254;3.54553;1.15809;,
 -17.96592;2.01415;-0.40266;,
 -17.85553;2.95123;-0.17582;,
 -18.12324;1.14512;-1.18458;,
 -17.96592;2.01415;-0.40266;,
 -17.72008;-0.41052;-1.75836;,
 -17.75221;-0.97003;-1.57656;,
 -17.46284;-1.68771;-1.34733;,
 -17.56531;-2.31887;-0.35048;,
 -17.36280;3.31333;-0.14650;,
 -9.41384;4.44658;-1.52694;,
 -9.65234;4.68967;0.41704;,
 -11.64110;4.19017;-1.33602;,
 -14.03398;3.83569;-0.82262;,
 -11.40353;4.45239;0.23602;,
 -13.42826;4.19881;0.40598;,
 -15.55733;3.68190;-0.35776;,
 -15.20981;3.85903;0.68116;,
 -17.44839;3.47674;0.50466;,
 -17.84437;3.24737;0.56647;,
 -18.06234;2.50941;0.57634;,
 -17.48580;-2.65963;0.70894;,
 -17.48580;-2.65963;0.70894;,
 -17.29709;-2.61557;1.64330;,
 -20.97476;0.99841;-0.67981;,
 -21.12041;0.03978;-0.82979;,
 -21.48479;1.23534;-0.77278;,
 -21.30023;1.50778;-0.56904;,
 -21.36498;2.07838;-0.13815;,
 -22.08247;2.09613;-0.44086;,
 -21.25155;2.68561;1.09612;,
 -22.36111;2.68967;0.24573;,
 -22.63377;3.03109;0.88954;,
 -22.90800;2.81296;0.09863;,
 -23.14957;3.05029;0.47736;,
 -23.31743;3.31094;1.09984;,
 -21.08276;2.75939;1.96158;,
 -22.44307;3.16081;1.97774;,
 -23.29267;3.40643;1.63538;,
 -23.13853;3.38815;2.16621;,
 -20.53428;2.37754;2.96783;,
 -21.36191;2.65555;3.09860;,
 -22.35108;2.99194;3.26308;,
 -21.92209;2.75280;3.46924;,
 -22.85686;3.27489;2.72506;,
 -21.28222;2.38043;3.66793;,
 -19.93434;1.44827;3.75885;,
 -20.57863;1.55679;4.05995;,
 -20.06024;0.46308;4.15174;,
 -19.53481;1.47442;3.57137;,
 -23.21282;3.16678;0.40271;,
 -23.46841;3.42796;1.05277;,
 -23.40574;3.53215;1.57043;,
 -23.22107;3.53293;2.19391;,
 -22.96471;3.40518;2.79279;,
 -22.96844;2.90692;-0.02108;,
 -22.15644;2.22407;-0.57794;,
 -21.56464;1.32681;-0.94068;,
 -21.16735;0.09680;-0.97842;,
 -21.00958;-0.76492;-0.66632;,
 -21.08107;-0.74927;-0.83964;,
 -20.90933;-1.63342;-0.21859;,
 -21.03672;-1.80255;-0.27053;,
 -21.85515;-0.12261;-0.89699;,
 -22.25093;1.08878;-1.02488;,
 -21.75069;-1.06337;-0.66726;,
 -22.75176;1.92569;-0.85412;,
 -23.45284;2.65433;-0.36546;,
 -23.88480;3.04111;0.15399;,
 -24.16561;3.36698;0.86968;,
 -24.06701;3.53147;1.65672;,
 -23.88465;3.51983;2.41644;,
 -23.55672;3.33707;3.15026;,
 -22.49185;3.16967;3.27978;,
 -22.99195;3.02479;3.72219;,
 -22.04008;2.91735;3.59980;,
 -22.34675;2.64801;4.05727;,
 -21.23536;2.43217;3.87674;,
 -21.58474;1.95174;4.30421;,
 -20.60911;1.65629;4.19966;,
 -20.97951;0.99774;4.38944;,
 -20.10605;0.56297;4.31944;,
 -20.63635;0.07980;4.33574;,
 -19.90378;-0.46954;4.06313;,
 -19.94355;-0.36243;4.25336;,
 -20.63527;-0.81232;4.16305;,
 -19.93676;-1.19288;3.79584;,
 -19.99519;-1.25469;3.96221;,
 -20.73267;-1.51152;3.82999;,
 -20.86083;-2.16390;3.22021;,
 -20.10916;-1.99241;3.38198;,
 -20.03804;-1.92523;3.21774;,
 -20.18612;-2.32753;2.59638;,
 -20.21563;-2.42912;2.67343;,
 -20.98474;-2.51647;2.58394;,
 -21.19795;-2.66849;1.78769;,
 -20.51363;-2.67026;1.60293;,
 -20.47793;-2.51216;1.52124;,
 -21.62732;-1.94119;-0.07100;,
 -20.74968;-2.18226;0.44204;,
 -20.80324;-2.44048;0.58526;,
 -21.46397;-2.43808;0.65216;,
 -20.51363;-2.67026;1.60293;,
 -21.19795;-2.66849;1.78769;,
 -20.47793;-2.51216;1.52124;,
 -3.64171;2.16437;1.72794;,
 -3.66485;2.69189;0.97009;,
 -3.60385;1.28103;2.45494;,
 -3.60037;0.59289;2.69278;,
 -3.59685;-1.16287;2.57071;,
 -3.63440;-0.35356;2.73323;,
 -3.63663;-2.24208;1.89621;,
 -3.65085;-2.64208;1.23728;,
 -3.61782;-2.93730;0.20294;,
 -3.62047;-2.89307;-1.08430;,
 -3.67808;-2.45332;-2.05178;,
 -3.62047;-2.89307;-1.08430;,
 -3.66990;-1.89403;-2.61971;,
 -3.65582;-0.63518;-3.21921;,
 -3.62110;0.42732;-3.29248;,
 -3.60955;1.43741;-2.96521;,
 -3.65644;2.16678;-2.34074;,
 -3.62561;2.80485;-1.11560;,
 -3.62656;2.91229;0.22568;,
 0.20964;0.58743;2.67107;,
 0.20300;1.23583;2.45322;,
 0.13588;-0.37402;2.65194;,
 0.22496;-1.14801;2.58499;,
 0.17037;-2.32175;1.89590;,
 0.05884;-2.36932;1.31344;,
 0.03399;-2.51055;0.24053;,
 0.04540;-2.50024;-1.12762;,
 -0.02350;-2.13512;-1.96247;,
 0.04540;-2.50024;-1.12762;,
 -0.01286;-1.77267;-2.29465;,
 0.02788;-0.55073;-2.95524;,
 0.13217;0.40529;-3.15489;,
 0.18388;1.44907;-2.90037;,
 0.07343;1.99937;-2.31677;,
 0.08881;2.55582;-1.05873;,
 0.12967;2.74303;0.37381;,
 0.08182;2.58851;0.93100;,
 0.10045;2.10170;1.54400;,
 -27.03420;0.46501;3.52898;,
 -27.03420;-0.35670;3.35432;,
 -18.56804;-0.35670;3.35432;,
 -18.56804;0.46503;3.52898;,
 -27.03420;-1.03634;2.86054;,
 -18.56804;-1.03634;2.86054;,
 -27.03420;-1.45636;2.13302;,
 -18.56804;-1.45636;2.13302;,
 -27.03420;-1.54418;1.29755;,
 -18.56804;-1.54415;1.29755;,
 -27.03420;-1.28457;0.49860;,
 -18.56804;-1.28457;0.49860;,
 -27.03420;-0.72247;-0.12569;,
 -18.56804;-0.72247;-0.12569;,
 -27.03420;0.04498;-0.46738;,
 -18.56804;0.04498;-0.46738;,
 -27.03420;0.88505;-0.46738;,
 -18.56804;0.88505;-0.46738;,
 -27.03420;1.65249;-0.12569;,
 -18.56804;1.65249;-0.12569;,
 -27.03420;2.21460;0.49860;,
 -18.56804;2.21460;0.49860;,
 -27.03420;2.47418;1.29755;,
 -18.56804;2.47421;1.29755;,
 -27.03420;2.38638;2.13302;,
 -18.56804;2.38638;2.13302;,
 -27.03420;1.96635;2.86054;,
 -18.56804;1.96635;2.86054;,
 -27.03420;1.28672;3.35432;,
 -18.56804;1.28672;3.35432;,
 -27.03420;0.46501;3.52898;,
 -18.56804;0.46503;3.52898;;
 
 308;
 4;0,1,2,3;,
 4;4,5,3,2;,
 4;1,6,7,2;,
 4;5,4,8,9;,
 4;8,4,10,11;,
 4;10,4,2,7;,
 4;6,1,12,13;,
 4;1,0,14,12;,
 4;15,16,14,0;,
 4;17,15,0,3;,
 4;18,17,3,5;,
 4;19,18,5,9;,
 4;20,21,16,15;,
 4;22,20,15,17;,
 4;23,22,17,18;,
 4;24,23,18,19;,
 4;21,20,25,26;,
 4;20,22,27,25;,
 4;22,23,28,27;,
 4;23,24,29,28;,
 4;13,12,30,31;,
 4;14,32,30,12;,
 4;16,33,32,14;,
 4;34,21,26,35;,
 4;21,34,33,16;,
 4;27,36,26,25;,
 4;36,37,35,26;,
 4;28,38,36,27;,
 4;29,39,38,28;,
 4;36,40,41,37;,
 4;40,42,43,41;,
 4;44,45,38,39;,
 4;42,46,47,43;,
 4;48,49,50,51;,
 4;52,53,54,55;,
 4;56,57,58,54;,
 4;59,60,61,62;,
 4;54,53,63,56;,
 4;60,64,65,61;,
 4;57,66,67,58;,
 4;64,68,69,65;,
 4;66,70,71,67;,
 4;68,72,73,69;,
 4;63,74,75,56;,
 4;75,66,57,56;,
 4;75,76,70,66;,
 4;76,75,74,77;,
 4;72,78,79,73;,
 4;80,71,70,81;,
 4;81,70,76,82;,
 4;82,76,77,83;,
 4;82,84,80,81;,
 4;84,82,83,85;,
 4;78,86,87,79;,
 4;88,80,84,89;,
 4;89,84,85,90;,
 4;86,91,92,87;,
 4;93,91,94,95;,
 4;13,31,96,93;,
 4;91,86,88,94;,
 4;95,6,13,93;,
 4;91,93,96,92;,
 4;86,78,80,88;,
 4;78,72,71,80;,
 4;72,68,67,71;,
 4;68,64,58,67;,
 4;64,60,54,58;,
 4;60,59,55,54;,
 4;46,42,49,48;,
 4;45,40,36,38;,
 4;40,45,49,42;,
 4;45,44,50,49;,
 4;97,98,99,100;,
 4;99,101,102,100;,
 4;101,103,104,102;,
 4;103,101,105,106;,
 4;105,101,99,107;,
 4;107,99,98,108;,
 4;109,110,98,97;,
 4;110,111,108,98;,
 4;110,109,112,113;,
 4;113,112,114,115;,
 4;113,116,111,110;,
 4;116,113,115,117;,
 4;115,114,118,119;,
 4;119,120,117,115;,
 4;121,119,118,122;,
 4;119,121,123,120;,
 4;123,121,124,125;,
 4;124,121,122,126;,
 4;85,127,128,90;,
 4;127,85,83,129;,
 4;125,124,130,131;,
 4;126,132,130,124;,
 4;133,128,127,134;,
 4;129,135,134,127;,
 4;77,136,129,83;,
 4;136,137,135,129;,
 4;136,77,74,138;,
 4;63,139,138,74;,
 4;53,140,139,63;,
 4;138,141,137,136;,
 4;141,138,139,142;,
 4;140,143,142,139;,
 4;52,144,140,53;,
 4;144,145,143,140;,
 4;146,51,50,147;,
 4;147,148,149,146;,
 4;44,150,147,50;,
 4;150,151,148,147;,
 4;150,44,39,152;,
 4;152,39,29,153;,
 4;151,150,152,154;,
 4;154,152,153,155;,
 4;153,29,24,156;,
 4;156,24,19,157;,
 4;155,153,156,158;,
 4;155,159,160,154;,
 4;160,161,151,154;,
 4;9,162,157,19;,
 4;162,163,164,157;,
 4;164,158,156,157;,
 4;158,165,159,155;,
 4;165,158,164,166;,
 4;166,164,163,167;,
 4;167,168,169,166;,
 4;169,170,165,166;,
 4;170,171,159,165;,
 4;163,172,173,167;,
 4;8,174,162,9;,
 4;174,172,163,162;,
 4;11,175,174,8;,
 4;175,176,172,174;,
 4;176,177,173,172;,
 4;177,178,179,173;,
 4;180,104,103,181;,
 4;181,103,106,182;,
 4;181,183,184,180;,
 4;183,185,186,184;,
 4;185,187,188,186;,
 4;183,181,182,189;,
 4;189,190,185,183;,
 4;190,191,187,185;,
 4;130,132,192,193;,
 4;134,194,195,133;,
 4;194,134,135,196;,
 4;137,197,196,135;,
 3;197,137,198;,
 3;198,137,142;,
 3;137,141,142;,
 4;198,142,143,199;,
 4;193,200,131,130;,
 4;120,201,116,117;,
 4;201,202,111,116;,
 4;202,107,108,111;,
 4;201,120,123,203;,
 4;203,123,125,204;,
 4;202,201,203,205;,
 4;205,203,204,206;,
 4;204,125,131,207;,
 4;105,107,202,205;,
 4;106,105,205,206;,
 3;182,106,206;,
 4;189,182,206,208;,
 4;208,206,204,207;,
 4;190,189,208,207;,
 4;190,207,131,200;,
 4;191,190,200,209;,
 4;209,200,193,210;,
 4;210,193,192,211;,
 4;210,187,191,209;,
 4;187,210,211,188;,
 4;145,212,199,143;,
 4;213,149,148,214;,
 4;214,148,151,161;,
 4;215,216,217,218;,
 3;218,219,215;,
 4;219,218,217,220;,
 4;221,219,222,223;,
 4;222,219,220,224;,
 3;223,225,226;,
 4;227,221,223,228;,
 4;228,223,226,229;,
 3;228,229,230;,
 4;231,227,228,232;,
 4;232,228,233,234;,
 3;228,235,233;,
 3;235,228,230;,
 4;225,223,222,224;,
 4;231,232,234,236;,
 4;237,231,236,238;,
 3;237,239,240;,
 3;239,237,238;,
 4;225,241,242,226;,
 4;242,243,229,226;,
 4;243,244,230,229;,
 4;244,245,235,230;,
 4;241,225,224,246;,
 4;246,224,220,247;,
 4;247,220,217,248;,
 4;248,217,216,249;,
 4;249,216,250,251;,
 4;251,250,252,253;,
 4;248,249,254,255;,
 4;251,256,254,249;,
 4;247,248,255,257;,
 4;246,247,257,258;,
 4;241,246,258,259;,
 4;242,241,259,260;,
 4;243,242,260,261;,
 4;244,243,261,262;,
 4;245,244,262,263;,
 4;245,264,233,235;,
 4;264,245,263,265;,
 4;264,266,234,233;,
 4;266,264,265,267;,
 4;236,234,266,268;,
 4;268,266,267,269;,
 4;238,236,268,270;,
 4;269,271,270,268;,
 4;239,238,270,272;,
 4;272,270,271,273;,
 4;274,239,272,275;,
 4;275,272,273,276;,
 4;277,274,275,278;,
 4;278,275,276,279;,
 4;279,280,281,278;,
 4;281,282,277,278;,
 4;283,282,281,284;,
 4;284,281,280,285;,
 4;285,286,287,284;,
 4;287,288,283,284;,
 4;253,289,256,251;,
 4;253,252,290,291;,
 4;289,253,291,292;,
 4;291,293,294,292;,
 4;293,291,290,295;,
 4;30,296,297,31;,
 4;32,298,296,30;,
 4;33,299,298,32;,
 4;35,300,301,34;,
 4;34,301,299,33;,
 4;37,302,300,35;,
 4;41,303,302,37;,
 4;43,304,303,41;,
 4;47,305,304,43;,
 4;61,306,307,62;,
 4;65,308,306,61;,
 4;69,309,308,65;,
 4;73,310,309,69;,
 4;79,311,310,73;,
 4;87,312,311,79;,
 4;92,313,312,87;,
 4;31,297,314,96;,
 4;96,314,313,92;,
 4;299,315,316,298;,
 4;301,317,315,299;,
 4;300,318,317,301;,
 4;302,319,318,300;,
 4;303,320,319,302;,
 4;304,321,320,303;,
 4;305,322,321,304;,
 4;306,323,324,307;,
 4;308,325,323,306;,
 4;309,326,325,308;,
 4;310,327,326,309;,
 4;311,328,327,310;,
 4;312,329,328,311;,
 4;313,330,329,312;,
 4;314,331,330,313;,
 4;297,332,331,314;,
 4;296,333,332,297;,
 4;298,316,333,296;,
 4;334,335,336,337;,
 4;335,338,339,336;,
 4;338,340,341,339;,
 4;340,342,343,341;,
 4;342,344,345,343;,
 4;344,346,347,345;,
 4;346,348,349,347;,
 4;348,350,351,349;,
 4;350,352,353,351;,
 4;352,354,355,353;,
 4;354,356,357,355;,
 4;356,358,359,357;,
 4;358,360,361,359;,
 4;360,362,363,361;,
 4;362,364,365,363;,
 4;215,194,196,216;,
 4;196,197,250,216;,
 4;250,197,198,252;,
 4;252,198,199,290;,
 4;290,199,212,295;,
 4;214,283,295,213;,
 4;283,214,161,282;,
 4;282,161,160,277;,
 4;160,159,171,277;,
 4;171,170,274,277;,
 4;167,173,179,168;,
 3;170,169,168;,
 4;274,170,168,239;,
 4;239,168,179,240;,
 4;219,195,194,215;,
 4;221,211,195,219;,
 4;211,221,227,178;,
 4;178,227,231,179;,
 3;237,179,231;,
 3;179,237,240;;
 
 MeshMaterialList {
  9;
  308;
  8,
  8,
  8,
  8,
  8,
  8,
  8,
  8,
  8,
  8,
  8,
  8,
  8,
  8,
  8,
  8,
  8,
  8,
  8,
  8,
  8,
  8,
  8,
  8,
  8,
  8,
  8,
  8,
  8,
  8,
  8,
  8,
  8,
  8,
  8,
  8,
  8,
  8,
  8,
  8,
  8,
  8,
  8,
  8,
  8,
  8,
  8,
  8,
  8,
  8,
  8,
  8,
  8,
  8,
  8,
  8,
  8,
  8,
  8,
  8,
  8,
  8,
  8,
  8,
  8,
  8,
  8,
  8,
  8,
  8,
  8,
  8,
  8,
  8,
  8,
  8,
  8,
  8,
  8,
  8,
  8,
  8,
  8,
  8,
  8,
  8,
  8,
  8,
  8,
  8,
  8,
  8,
  8,
  8,
  8,
  8,
  8,
  8,
  8,
  8,
  8,
  8,
  8,
  8,
  8,
  8,
  8,
  8,
  8,
  8,
  8,
  8,
  8,
  8,
  8,
  8,
  8,
  8,
  8,
  8,
  8,
  8,
  8,
  8,
  8,
  8,
  8,
  8,
  8,
  8,
  8,
  8,
  8,
  8,
  8,
  8,
  8,
  8,
  8,
  8,
  8,
  8,
  8,
  8,
  8,
  8,
  8,
  8,
  8,
  8,
  8,
  8,
  8,
  8,
  8,
  8,
  8,
  8,
  8,
  8,
  8,
  8,
  8,
  8,
  8,
  8,
  8,
  8,
  8,
  8,
  8,
  8,
  8,
  8,
  8,
  8,
  8,
  8,
  8,
  8,
  8,
  8,
  8,
  8,
  8,
  8,
  8,
  8,
  8,
  8,
  8,
  8,
  8,
  8,
  8,
  8,
  8,
  8,
  8,
  8,
  8,
  8,
  8,
  8,
  8,
  8,
  8,
  8,
  8,
  8,
  8,
  8,
  8,
  8,
  8,
  8,
  8,
  8,
  8,
  8,
  8,
  8,
  8,
  8,
  8,
  8,
  8,
  8,
  8,
  8,
  8,
  8,
  8,
  8,
  8,
  8,
  8,
  8,
  8,
  8,
  8,
  8,
  8,
  8,
  8,
  8,
  8,
  8,
  8,
  8,
  8,
  8,
  8,
  8,
  8,
  8,
  8,
  8,
  8,
  8,
  8,
  8,
  8,
  8,
  8,
  8,
  8,
  8,
  8,
  8,
  8,
  8,
  8,
  0,
  0,
  0,
  0,
  0,
  0,
  0,
  0,
  0,
  0,
  0,
  0,
  0,
  0,
  0,
  8,
  8,
  8,
  8,
  8,
  8,
  8,
  8,
  8,
  8,
  8,
  8,
  8,
  8,
  8,
  8,
  8,
  8,
  8,
  8;;
  Material {
   0.765600;0.659200;0.241600;1.000000;;
   5.000000;
   0.000000;0.000000;0.000000;;
   0.000000;0.000000;0.000000;;
  }
  Material {
   0.000000;0.000000;0.000000;1.000000;;
   5.000000;
   0.000000;0.000000;0.000000;;
   0.000000;0.000000;0.000000;;
  }
  Material {
   0.800000;0.800000;0.800000;1.000000;;
   5.000000;
   0.000000;0.000000;0.000000;;
   0.000000;0.000000;0.000000;;
  }
  Material {
   0.800000;0.000000;0.060000;1.000000;;
   5.000000;
   0.000000;0.000000;0.000000;;
   0.000000;0.000000;0.000000;;
  }
  Material {
   0.000000;0.690400;0.251200;1.000000;;
   5.000000;
   0.000000;0.000000;0.000000;;
   0.000000;0.000000;0.000000;;
  }
  Material {
   0.800000;0.768800;0.000000;1.000000;;
   5.000000;
   0.000000;0.000000;0.000000;;
   0.000000;0.000000;0.000000;;
  }
  Material {
   0.000000;0.000000;0.000000;1.000000;;
   5.000000;
   0.000000;0.000000;0.000000;;
   0.000000;0.000000;0.000000;;
  }
  Material {
   0.743200;0.263200;0.094400;1.000000;;
   5.000000;
   0.000000;0.000000;0.000000;;
   0.000000;0.000000;0.000000;;
  }
  Material {
   0.721569;0.640000;0.043922;1.000000;;
   5.000000;
   0.000000;0.000000;0.000000;;
   0.000000;0.000000;0.000000;;
  }
 }
 MeshNormals {
  332;
  0.069582;0.378292;0.923067;,
  0.019721;0.333817;0.942432;,
  0.050690;0.674613;0.736429;,
  0.037971;0.707025;0.706168;,
  -0.024489;0.679086;0.733650;,
  -0.023757;0.395437;0.918186;,
  0.161821;0.620870;0.767030;,
  0.269878;0.790177;0.550261;,
  -0.053658;0.444555;0.894143;,
  -0.073892;0.718657;0.691428;,
  -0.074166;0.512526;0.855463;,
  0.011372;0.535797;0.844270;,
  0.181376;0.901451;0.393051;,
  0.197910;0.716320;0.669117;,
  0.235419;0.437516;0.867846;,
  0.060868;0.089705;0.994107;,
  0.278077;0.149190;0.948902;,
  -0.046393;0.028569;0.998515;,
  -0.032196;0.034080;0.998900;,
  -0.037087;0.035875;0.998668;,
  0.060368;-0.116941;0.991302;,
  0.290102;-0.114226;0.950154;,
  -0.056168;-0.138346;0.988790;,
  -0.039627;-0.193316;0.980336;,
  -0.043503;-0.219170;0.974716;,
  0.270409;-0.381821;0.883794;,
  0.099160;-0.331916;0.938083;,
  0.016055;-0.449197;0.893288;,
  -0.043921;-0.577898;0.814927;,
  -0.084761;-0.616427;0.782836;,
  0.389758;0.833155;0.392354;,
  0.394549;0.676300;0.622052;,
  0.375087;0.436764;0.817647;,
  0.370330;0.163230;0.914446;,
  0.377374;-0.086186;0.922042;,
  0.364922;-0.359798;0.858707;,
  0.186949;-0.661407;0.726355;,
  0.370362;-0.627921;0.684505;,
  -0.029015;-0.786513;0.616892;,
  -0.106649;-0.813674;0.571455;,
  0.418594;-0.791816;0.444754;,
  0.226965;-0.832933;0.504687;,
  0.457480;-0.878463;0.137893;,
  0.244586;-0.953272;0.177342;,
  -0.116084;-0.869321;0.480422;,
  -0.029500;-0.863995;0.502635;,
  0.452804;-0.865377;-0.214690;,
  0.227394;-0.952940;-0.200491;,
  -0.065732;-0.989615;-0.127830;,
  -0.169635;-0.984092;-0.052792;,
  -0.140975;-0.960238;0.240977;,
  -0.042971;-0.974898;0.218468;,
  -0.067618;-0.887346;-0.456120;,
  -0.191474;-0.938012;-0.288915;,
  -0.143606;-0.695518;-0.704011;,
  0.046151;-0.652831;-0.756096;,
  0.017693;-0.604474;-0.796429;,
  0.443920;-0.742489;-0.501643;,
  0.217512;-0.831442;-0.511265;,
  -0.246597;-0.759234;-0.602291;,
  0.443991;-0.527154;-0.724556;,
  0.220519;-0.597348;-0.771069;,
  0.072958;-0.293270;-0.953242;,
  0.007144;-0.332039;-0.943239;,
  0.430312;-0.216114;-0.876428;,
  0.206714;-0.248814;-0.946235;,
  0.005315;0.102904;-0.994677;,
  -0.049890;-0.045563;-0.997715;,
  0.401788;0.129559;-0.906521;,
  0.174644;0.125824;-0.976559;,
  -0.190573;-0.385953;-0.902620;,
  -0.273803;-0.444182;-0.853074;,
  -0.185404;-0.197750;-0.962559;,
  -0.266112;-0.223058;-0.937779;,
  0.382708;0.451239;-0.806175;,
  0.149809;0.460498;-0.874928;,
  -0.057640;0.421587;-0.904954;,
  -0.091523;0.182982;-0.978847;,
  -0.170242;0.138700;-0.975592;,
  -0.256437;0.142783;-0.955957;,
  -0.124273;0.473179;-0.872157;,
  -0.229350;0.483540;-0.844741;,
  0.400195;0.697830;-0.594034;,
  0.182504;0.719127;-0.670484;,
  0.150538;0.528642;-0.835389;,
  -0.027300;0.349049;-0.936707;,
  -0.226312;0.333891;-0.915041;,
  0.418177;0.868387;-0.266519;,
  0.213519;0.918433;-0.333001;,
  0.185574;0.980110;0.070332;,
  0.285491;0.957628;-0.037999;,
  0.394312;0.792390;-0.465443;,
  0.397707;0.911240;0.107101;,
  0.193602;0.635151;0.747731;,
  0.460042;0.734777;0.498462;,
  0.000593;0.539192;0.842183;,
  -0.072784;0.496999;0.864693;,
  -0.113159;0.868496;0.482606;,
  -0.091798;0.877375;0.470941;,
  0.003923;0.914955;0.403536;,
  0.147495;0.944726;0.292811;,
  0.629452;0.775025;0.055914;,
  0.150538;0.988601;-0.002558;,
  0.534250;0.697880;-0.477012;,
  0.275759;0.478395;-0.833724;,
  0.100848;0.916346;-0.387478;,
  0.037727;0.753802;-0.656017;,
  -0.007623;0.335942;-0.941852;,
  -0.107690;0.736579;-0.667723;,
  -0.228139;0.278182;-0.933042;,
  -0.216145;0.700747;-0.679879;,
  -0.280749;0.705163;-0.651095;,
  -0.355059;0.268682;-0.895401;,
  -0.344891;0.326405;-0.880062;,
  -0.314359;0.480924;-0.818468;,
  -0.341692;0.106722;-0.933733;,
  -0.327750;0.767212;-0.551331;,
  -0.472100;0.337889;-0.814219;,
  -0.430214;0.373158;-0.821991;,
  -0.366540;0.464911;-0.805919;,
  -0.371704;0.025894;-0.927990;,
  -0.330064;-0.271580;-0.904047;,
  -0.301175;-0.355817;-0.884697;,
  -0.320774;-0.455645;-0.830357;,
  -0.307953;-0.743707;-0.593350;,
  -0.261611;-0.926225;-0.271416;,
  -0.325271;-0.438249;-0.837936;,
  -0.326776;-0.630813;-0.703770;,
  -0.318349;-0.889190;-0.328626;,
  -0.223095;-0.973585;-0.048584;,
  -0.251067;-0.964349;-0.083643;,
  -0.180072;-0.956172;0.230888;,
  -0.186838;-0.953762;0.235434;,
  -0.134294;-0.870713;0.473101;,
  -0.122228;-0.837353;0.532822;,
  -0.120429;-0.802710;0.584083;,
  -0.076087;-0.595709;0.799588;,
  -0.115090;-0.731138;0.672452;,
  -0.060267;-0.510558;0.857729;,
  -0.017251;-0.226040;0.973965;,
  -0.020735;0.014999;0.999672;,
  0.008544;-0.183952;0.982898;,
  -0.029714;-0.585311;0.810264;,
  -0.020753;-0.337563;0.941074;,
  -0.014710;-0.784094;0.620468;,
  -0.043224;0.446284;0.893847;,
  0.008554;-0.004155;0.999955;,
  -0.022422;0.398629;0.916838;,
  0.040622;-0.106510;0.993481;,
  0.065264;0.001154;0.997867;,
  0.012031;0.339629;0.940482;,
  -0.122081;0.067099;0.990249;,
  -0.051486;0.277967;0.959210;,
  -0.033216;-0.117803;0.992481;,
  0.060019;-0.352049;0.934055;,
  -0.056467;0.743786;0.666029;,
  -0.058759;0.756059;0.651861;,
  0.067625;0.737626;0.671814;,
  -0.059945;0.755628;0.652252;,
  -0.067737;0.522399;0.850007;,
  -0.087300;0.525175;0.846505;,
  -0.179191;0.562044;0.807464;,
  -0.361639;0.689670;0.627354;,
  -0.071721;0.466100;0.881820;,
  -0.103025;0.867422;0.486790;,
  -0.124481;0.462115;0.878040;,
  -0.252442;0.517040;0.817889;,
  -0.577507;0.626085;0.523930;,
  -0.132693;0.899711;0.415827;,
  -0.153574;0.974307;0.164743;,
  -0.243880;0.955243;0.167433;,
  -0.696431;0.492551;-0.521898;,
  -0.462436;0.575674;-0.674354;,
  -0.274829;0.433664;-0.858140;,
  -0.308420;-0.013107;-0.951160;,
  -0.279177;-0.339597;-0.898184;,
  -0.280627;-0.590848;-0.756404;,
  -0.250598;-0.880414;-0.402581;,
  -0.305876;0.882424;-0.357446;,
  -0.125022;0.943508;-0.306858;,
  -0.088014;0.995958;0.017947;,
  -0.165244;0.937249;-0.307017;,
  -0.193161;0.933690;-0.301516;,
  -0.131227;0.990769;0.034001;,
  -0.144847;0.986589;0.075237;,
  -0.194367;0.961002;-0.196713;,
  -0.149606;0.987871;0.041572;,
  -0.353813;0.928539;-0.112392;,
  -0.800795;0.598938;0.000716;,
  -0.957038;0.277998;0.082438;,
  -0.171249;-0.980929;-0.091931;,
  -0.085918;-0.954471;0.285662;,
  0.340151;0.154993;0.927510;,
  0.198532;0.975871;0.090893;,
  0.156627;0.949665;-0.271302;,
  0.238384;0.732960;-0.637136;,
  0.288673;0.844767;0.450595;,
  0.406704;0.350776;0.843533;,
  0.159256;0.426836;-0.890196;,
  0.803603;0.228387;-0.549601;,
  0.887779;-0.092381;-0.450905;,
  0.772762;-0.330386;-0.541927;,
  0.810146;-0.398144;-0.430284;,
  0.897191;-0.359206;-0.256942;,
  0.924227;-0.377692;-0.056160;,
  0.920108;-0.360444;0.153238;,
  0.937300;-0.233914;0.258367;,
  0.976502;0.004831;0.215456;,
  0.463655;0.283621;0.839395;,
  0.403986;0.454347;-0.793955;,
  0.555722;0.410462;-0.722976;,
  0.600343;0.728652;-0.329628;,
  0.300123;0.912801;-0.276985;,
  0.302641;0.847026;-0.436984;,
  0.577540;0.800874;-0.158268;,
  0.540368;0.822276;-0.178506;,
  0.571920;0.806997;-0.147184;,
  0.329474;0.944039;0.015408;,
  0.559113;0.811947;-0.167735;,
  0.577019;0.806925;-0.126178;,
  0.341867;0.907916;0.242519;,
  0.512493;0.856506;-0.061221;,
  0.548126;0.826942;-0.125400;,
  0.570472;0.813382;-0.113890;,
  0.602640;0.793972;0.080206;,
  0.677598;0.530871;0.508957;,
  0.397446;0.890783;-0.220324;,
  0.583973;0.804448;-0.108807;,
  0.411851;0.895639;-0.167956;,
  0.453088;0.888947;-0.066962;,
  0.448515;0.893726;0.009438;,
  0.758620;0.630435;0.164458;,
  0.775969;0.622999;0.098718;,
  0.891010;0.437896;-0.119785;,
  0.943293;0.176837;-0.280939;,
  0.407596;-0.569863;-0.713528;,
  0.067878;0.164208;-0.984088;,
  -0.042522;-0.121707;-0.991655;,
  -0.085614;-0.372121;-0.924227;,
  0.112763;0.513866;-0.850427;,
  0.059313;0.751846;-0.656665;,
  0.007042;0.879402;-0.476028;,
  -0.015989;0.954574;-0.297546;,
  -0.019288;0.995350;-0.094370;,
  0.013600;0.993780;0.110529;,
  0.066157;0.952845;0.296157;,
  0.456686;0.888694;0.040760;,
  0.129366;0.881975;0.453194;,
  0.594466;0.700062;-0.395630;,
  0.204534;0.753587;0.624718;,
  0.687135;0.654116;-0.316191;,
  0.229692;0.520852;0.822164;,
  0.859645;0.484779;-0.161242;,
  0.164989;0.225332;0.960210;,
  0.955458;0.291176;0.048131;,
  0.078266;-0.024489;0.996632;,
  0.036711;-0.249975;0.967556;,
  0.036544;-0.520298;0.853202;,
  0.051936;-0.771077;0.634621;,
  0.066295;-0.936075;0.345498;,
  0.013339;-0.999888;-0.006782;,
  -0.055069;-0.684537;-0.726895;,
  0.448081;-0.756401;-0.476531;,
  -0.039028;-0.917436;-0.395963;,
  0.223878;0.875639;0.427944;,
  0.220814;0.723025;0.654580;,
  0.210244;0.488036;0.847124;,
  0.203752;0.174311;0.963380;,
  0.204194;-0.070947;0.976356;,
  0.198450;-0.350315;0.915367;,
  0.209647;-0.726274;0.654655;,
  0.246179;-0.908209;0.338454;,
  0.286365;-0.951706;0.110688;,
  0.290015;-0.930648;-0.223125;,
  0.277325;-0.786014;-0.552514;,
  0.272641;-0.559239;-0.782891;,
  0.258901;-0.264995;-0.928842;,
  0.234356;0.096905;-0.967309;,
  0.219967;0.483195;-0.847430;,
  0.229345;0.772108;-0.592663;,
  0.244119;0.931727;-0.268871;,
  0.233897;0.966991;0.101094;,
  0.017310;0.513554;0.857883;,
  0.009522;0.168831;0.985599;,
  0.011073;-0.065534;0.997789;,
  0.001134;-0.336550;0.941665;,
  0.005317;-0.783434;0.621452;,
  0.053017;-0.964990;0.256872;,
  0.101204;-0.990620;0.091813;,
  0.103207;-0.969983;-0.220183;,
  0.088603;-0.814282;-0.573668;,
  0.084534;-0.579134;-0.810838;,
  0.069877;-0.300386;-0.951255;,
  0.040983;0.067601;-0.996870;,
  0.024786;0.496120;-0.867900;,
  0.039074;0.808206;-0.587602;,
  0.057810;0.960155;-0.273422;,
  0.045822;0.995090;0.087734;,
  0.034141;0.895536;0.443677;,
  0.032582;0.745066;0.666194;,
  -0.000000;0.000002;1.000000;,
  0.000000;-0.406732;0.913547;,
  0.000000;-0.743147;0.669128;,
  0.000001;-0.951060;0.309007;,
  0.000002;-0.994521;-0.104532;,
  0.000001;-0.866028;-0.499995;,
  0.000000;-0.587790;-0.809014;,
  0.000000;-0.207911;-0.978148;,
  0.000000;0.207914;-0.978147;,
  0.000000;0.587788;-0.809015;,
  -0.000001;0.866026;-0.499999;,
  -0.000002;0.994522;-0.104527;,
  -0.000001;0.951056;0.309017;,
  0.000000;0.743146;0.669129;,
  -0.000000;0.406738;0.913545;,
  0.821449;0.440921;0.361676;,
  0.826744;0.562502;-0.009263;,
  0.016164;0.832627;-0.553598;,
  0.795968;0.542146;-0.269282;,
  0.906974;0.418193;-0.050135;,
  -0.247012;-0.011323;-0.968946;,
  -0.280359;-0.344915;-0.895786;,
  -0.239385;-0.633610;-0.735686;,
  -0.153658;-0.888991;-0.431374;,
  -0.078267;-0.993463;-0.083105;,
  0.014235;-0.948189;0.317387;,
  0.081229;-0.753912;0.651934;,
  0.087491;-0.518788;0.850414;,
  0.139322;-0.298395;0.944219;,
  0.016293;0.965075;-0.261466;,
  0.052151;0.996449;-0.066108;,
  0.410516;-0.401137;0.818880;;
  308;
  4;0,3,2,1;,
  4;4,5,1,2;,
  4;3,7,6,2;,
  4;5,4,9,8;,
  4;9,4,11,10;,
  4;11,4,2,6;,
  4;7,3,13,12;,
  4;3,0,14,13;,
  4;15,16,14,0;,
  4;17,15,0,1;,
  4;18,17,1,5;,
  4;19,18,5,8;,
  4;20,21,16,15;,
  4;22,20,15,17;,
  4;23,22,17,18;,
  4;24,23,18,19;,
  4;21,20,26,25;,
  4;20,22,27,26;,
  4;22,23,28,27;,
  4;23,24,29,28;,
  4;12,13,31,30;,
  4;14,32,31,13;,
  4;16,33,32,14;,
  4;34,21,25,35;,
  4;21,34,33,16;,
  4;27,36,25,26;,
  4;36,37,35,25;,
  4;28,38,36,27;,
  4;29,39,38,28;,
  4;36,41,40,37;,
  4;41,43,42,40;,
  4;44,45,38,39;,
  4;43,47,46,42;,
  4;48,51,50,49;,
  4;49,53,52,48;,
  4;54,56,55,52;,
  4;47,58,57,46;,
  4;52,53,59,54;,
  4;58,61,60,57;,
  4;56,63,62,55;,
  4;61,65,64,60;,
  4;63,67,66,62;,
  4;65,69,68,64;,
  4;59,71,70,54;,
  4;70,63,56,54;,
  4;70,72,67,63;,
  4;72,70,71,73;,
  4;69,75,74,68;,
  4;76,66,67,77;,
  4;77,67,72,78;,
  4;78,72,73,79;,
  4;78,80,76,77;,
  4;80,78,79,81;,
  4;75,83,82,74;,
  4;84,76,80,85;,
  4;85,80,81,86;,
  4;83,88,87,82;,
  4;89,88,91,90;,
  4;12,30,92,89;,
  4;88,83,84,91;,
  4;90,7,12,89;,
  4;88,89,92,87;,
  4;83,75,76,84;,
  4;75,69,66,76;,
  4;69,65,62,66;,
  4;65,61,55,62;,
  4;61,58,52,55;,
  4;58,47,48,52;,
  4;47,43,51,48;,
  4;45,41,36,38;,
  4;41,45,51,43;,
  4;45,44,50,51;,
  4;7,94,93,6;,
  4;93,95,11,6;,
  4;95,96,10,11;,
  4;96,95,98,97;,
  4;98,95,93,99;,
  4;99,93,94,100;,
  4;315,101,94,7;,
  4;101,102,100,94;,
  4;101,90,91,103;,
  4;103,91,84,104;,
  4;103,105,102,101;,
  4;105,103,104,106;,
  4;104,84,85,107;,
  4;107,108,106,104;,
  4;109,107,85,86;,
  4;107,109,110,108;,
  4;110,109,112,111;,
  4;112,109,86,113;,
  4;81,114,113,86;,
  4;114,81,79,115;,
  4;111,112,117,116;,
  4;113,118,117,112;,
  4;118,113,114,119;,
  4;115,120,119,114;,
  4;73,121,115,79;,
  4;121,122,120,115;,
  4;121,73,71,123;,
  4;59,124,123,71;,
  4;53,125,124,59;,
  4;123,126,122,121;,
  4;126,123,124,127;,
  4;125,128,127,124;,
  4;49,129,125,53;,
  4;129,130,128,125;,
  4;129,49,50,131;,
  4;131,132,130,129;,
  4;44,133,131,50;,
  4;133,134,132,131;,
  4;133,44,39,135;,
  4;135,39,29,136;,
  4;134,133,135,137;,
  4;137,135,136,138;,
  4;136,29,24,139;,
  4;139,24,19,140;,
  4;138,136,139,141;,
  4;138,143,142,137;,
  4;142,144,134,137;,
  4;8,145,140,19;,
  4;145,147,146,140;,
  4;146,141,139,140;,
  4;141,148,143,138;,
  4;148,141,146,149;,
  4;149,146,147,150;,
  4;150,152,151,149;,
  4;151,153,148,149;,
  4;153,154,143,148;,
  4;147,156,155,150;,
  4;9,158,145,8;,
  4;158,156,147,145;,
  4;10,159,158,9;,
  4;159,160,156,158;,
  4;160,161,155,156;,
  4;161,162,157,155;,
  4;159,10,96,163;,
  4;163,96,97,164;,
  4;163,165,160,159;,
  4;165,166,161,160;,
  4;166,167,162,161;,
  4;165,163,164,168;,
  4;168,169,166,165;,
  4;169,170,167,166;,
  4;117,118,172,171;,
  4;119,173,172,118;,
  4;173,119,120,174;,
  4;122,175,174,120;,
  3;175,122,176;,
  3;176,122,127;,
  3;122,126,127;,
  4;176,127,128,177;,
  4;171,178,116,117;,
  4;108,179,105,106;,
  4;179,180,102,105;,
  4;180,99,100,102;,
  4;179,108,110,181;,
  4;181,110,111,182;,
  4;180,179,181,183;,
  4;183,181,182,184;,
  4;182,111,116,185;,
  4;98,99,180,183;,
  4;97,98,183,184;,
  3;164,97,184;,
  4;168,164,184,186;,
  4;186,184,182,185;,
  4;169,168,186,185;,
  4;169,185,116,178;,
  4;170,169,178,187;,
  4;187,178,171,188;,
  4;188,171,172,189;,
  4;188,167,170,187;,
  4;167,188,189,162;,
  4;130,190,177,128;,
  4;190,130,132,191;,
  4;191,132,134,144;,
  4;198,199,210,209;,
  3;209,195,198;,
  4;195,209,210,211;,
  4;194,195,213,212;,
  4;213,195,211,214;,
  3;212,216,215;,
  4;193,194,212,217;,
  4;217,212,215,218;,
  3;217,218,219;,
  4;196,193,217,220;,
  4;220,217,222,221;,
  3;217,223,222;,
  3;223,217,219;,
  4;216,212,213,214;,
  4;196,220,221,224;,
  4;197,196,224,225;,
  3;197,208,192;,
  3;208,197,225;,
  4;216,227,226,215;,
  4;226,228,218,215;,
  4;228,229,219,218;,
  4;229,230,223,219;,
  4;227,216,214,231;,
  4;231,214,211,232;,
  4;232,211,316,233;,
  4;233,210,199,234;,
  4;234,199,200,200;,
  4;200,200,201,235;,
  4;236,237,237,236;,
  4;238,238,237,237;,
  4;239,236,236,239;,
  4;240,239,239,240;,
  4;317,240,240,241;,
  4;226,227,241,242;,
  4;228,226,242,243;,
  4;229,228,243,244;,
  4;230,229,244,245;,
  4;230,246,222,223;,
  4;246,230,245,247;,
  4;246,248,221,222;,
  4;249,246,247,249;,
  4;224,221,248,250;,
  4;251,249,249,251;,
  4;318,224,250,252;,
  4;251,253,253,251;,
  4;319,225,252,254;,
  4;255,253,253,255;,
  4;207,208,254,207;,
  4;256,255,255,256;,
  4;206,207,207,206;,
  4;257,256,256,257;,
  4;257,258,258,257;,
  4;205,205,206,206;,
  4;204,205,205,204;,
  4;259,258,258,259;,
  4;259,260,260,259;,
  4;203,203,204,204;,
  4;235,261,238,238;,
  4;235,201,202,262;,
  4;261,235,262,263;,
  4;262,260,260,263;,
  4;203,262,202,203;,
  4;31,265,264,30;,
  4;32,266,265,31;,
  4;33,267,266,32;,
  4;35,269,268,34;,
  4;34,268,267,33;,
  4;37,270,269,35;,
  4;40,271,270,37;,
  4;42,272,271,40;,
  4;46,273,272,42;,
  4;57,274,273,46;,
  4;60,275,274,57;,
  4;64,276,275,60;,
  4;68,277,276,64;,
  4;74,278,277,68;,
  4;82,279,278,74;,
  4;87,280,279,82;,
  4;30,264,281,92;,
  4;92,281,280,87;,
  4;267,283,282,266;,
  4;268,284,283,267;,
  4;269,285,284,268;,
  4;270,286,285,269;,
  4;271,287,286,270;,
  4;272,288,287,271;,
  4;273,289,288,272;,
  4;274,290,289,273;,
  4;275,291,290,274;,
  4;276,292,291,275;,
  4;277,293,292,276;,
  4;278,294,293,277;,
  4;279,295,294,278;,
  4;280,296,295,279;,
  4;281,297,296,280;,
  4;264,298,297,281;,
  4;265,299,298,264;,
  4;266,282,299,265;,
  4;300,301,301,300;,
  4;301,302,302,301;,
  4;302,303,303,302;,
  4;303,304,304,303;,
  4;304,305,305,304;,
  4;305,306,306,305;,
  4;306,307,307,306;,
  4;307,308,308,307;,
  4;308,309,309,308;,
  4;309,310,310,309;,
  4;310,311,311,310;,
  4;311,312,312,311;,
  4;312,313,313,312;,
  4;313,314,314,313;,
  4;314,300,300,314;,
  4;198,173,174,320;,
  4;174,175,321,320;,
  4;321,175,176,322;,
  4;322,176,177,323;,
  4;323,177,190,324;,
  4;191,325,324,190;,
  4;325,191,144,326;,
  4;326,144,142,327;,
  4;142,143,154,327;,
  4;154,153,328,327;,
  4;150,155,157,152;,
  3;153,151,152;,
  4;328,153,152,208;,
  4;208,152,157,192;,
  4;195,172,173,198;,
  4;194,329,172,195;,
  4;329,194,193,330;,
  4;162,193,196,157;,
  3;197,157,196;,
  3;331,197,192;;
 }
 MeshTextureCoords {
  366;
  0.646920;0.791890;,
  0.639330;0.817960;,
  0.652590;0.814130;,
  0.658020;0.796240;,
  0.668690;0.815740;,
  0.680550;0.800860;,
  0.649520;0.834910;,
  0.662770;0.827000;,
  0.708000;0.814030;,
  0.708780;0.804220;,
  0.672260;0.824080;,
  0.701550;0.823680;,
  0.629200;0.819190;,
  0.629310;0.832680;,
  0.628970;0.803760;,
  0.641670;0.786840;,
  0.629940;0.785670;,
  0.658390;0.785350;,
  0.686490;0.787260;,
  0.711750;0.788690;,
  0.641110;0.774240;,
  0.630200;0.777350;,
  0.659360;0.771480;,
  0.688830;0.768560;,
  0.713900;0.771530;,
  0.645580;0.765440;,
  0.629920;0.765470;,
  0.660000;0.755490;,
  0.690130;0.751560;,
  0.716010;0.753250;,
  0.618230;0.818270;,
  0.619030;0.832090;,
  0.617870;0.802530;,
  0.617610;0.792040;,
  0.617250;0.778470;,
  0.615970;0.766350;,
  0.631660;0.748090;,
  0.614960;0.748350;,
  0.669050;0.742520;,
  0.716310;0.743260;,
  0.626230;0.734700;,
  0.614150;0.735670;,
  0.623040;0.718890;,
  0.613260;0.719940;,
  0.715700;0.733220;,
  0.668580;0.733280;,
  0.623530;0.699190;,
  0.612410;0.701080;,
  0.665520;0.699180;,
  0.667760;0.719020;,
  0.714730;0.722620;,
  0.713120;0.709110;,
  0.714950;0.982100;,
  0.717130;0.967880;,
  0.674150;0.968490;,
  0.667810;0.983660;,
  0.684380;0.955340;,
  0.653580;0.945240;,
  0.645470;0.952010;,
  0.627540;0.977770;,
  0.625230;0.962770;,
  0.615380;0.957490;,
  0.616770;0.973900;,
  0.717710;0.955510;,
  0.623760;0.947540;,
  0.615030;0.945030;,
  0.646260;0.932860;,
  0.635000;0.931220;,
  0.624250;0.928260;,
  0.615150;0.925740;,
  0.650920;0.921630;,
  0.639020;0.916000;,
  0.624100;0.912610;,
  0.615080;0.910280;,
  0.715560;0.939690;,
  0.687540;0.941220;,
  0.681680;0.925940;,
  0.709680;0.924460;,
  0.624830;0.896830;,
  0.615540;0.895380;,
  0.647830;0.900830;,
  0.669570;0.914020;,
  0.680710;0.914060;,
  0.706570;0.911150;,
  0.673820;0.902250;,
  0.701360;0.899670;,
  0.626910;0.882310;,
  0.617220;0.881050;,
  0.650790;0.881330;,
  0.667590;0.891330;,
  0.696580;0.893710;,
  0.627580;0.864850;,
  0.618540;0.861770;,
  0.628700;0.846340;,
  0.644410;0.871080;,
  0.642870;0.852760;,
  0.619010;0.843810;,
  0.197690;0.033640;,
  0.204250;0.043000;,
  0.220080;0.030000;,
  0.214260;0.020430;,
  0.235510;0.024750;,
  0.226660;0.015160;,
  0.265080;0.027480;,
  0.262690;0.014810;,
  0.241360;0.035790;,
  0.263940;0.036710;,
  0.227650;0.035790;,
  0.212360;0.047810;,
  0.190460;0.057390;,
  0.200460;0.054320;,
  0.207080;0.059930;,
  0.190410;0.082010;,
  0.198610;0.078240;,
  0.197120;0.097800;,
  0.204060;0.092190;,
  0.206490;0.077410;,
  0.215280;0.088730;,
  0.217770;0.112950;,
  0.222250;0.101890;,
  0.224890;0.093230;,
  0.254990;0.104890;,
  0.254800;0.115910;,
  0.254760;0.094750;,
  0.285010;0.099560;,
  0.282620;0.090210;,
  0.287070;0.109390;,
  0.730440;0.897520;,
  0.724140;0.890610;,
  0.734720;0.908820;,
  0.314190;0.086350;,
  0.308430;0.080740;,
  0.319830;0.095530;,
  0.756450;0.884230;,
  0.762920;0.893850;,
  0.763200;0.911590;,
  0.736380;0.923100;,
  0.761640;0.924990;,
  0.737120;0.939830;,
  0.739370;0.952210;,
  0.738540;0.966330;,
  0.761380;0.933500;,
  0.765580;0.940930;,
  0.768530;0.953830;,
  0.736330;0.975730;,
  0.765790;0.964990;,
  0.735670;0.712500;,
  0.737360;0.725980;,
  0.764530;0.732120;,
  0.767250;0.719680;,
  0.738020;0.734980;,
  0.758650;0.744990;,
  0.737150;0.745760;,
  0.736450;0.758260;,
  0.753140;0.754770;,
  0.746850;0.762970;,
  0.729360;0.773350;,
  0.725790;0.786930;,
  0.741290;0.775630;,
  0.765880;0.779440;,
  0.773850;0.770400;,
  0.775520;0.758240;,
  0.726230;0.805800;,
  0.743410;0.806730;,
  0.741030;0.787900;,
  0.756400;0.783920;,
  0.755060;0.789970;,
  0.757050;0.802120;,
  0.770390;0.798080;,
  0.770900;0.793860;,
  0.772500;0.788330;,
  0.784120;0.783910;,
  0.751990;0.822550;,
  0.764960;0.824890;,
  0.728830;0.818420;,
  0.725940;0.827000;,
  0.749440;0.832070;,
  0.763620;0.836470;,
  0.775660;0.842990;,
  0.784440;0.820830;,
  0.290680;0.020430;,
  0.286400;0.030010;,
  0.285360;0.038260;,
  0.307710;0.037840;,
  0.314670;0.030070;,
  0.320550;0.043800;,
  0.327560;0.038790;,
  0.325890;0.051270;,
  0.335910;0.049990;,
  0.303810;0.043430;,
  0.315680;0.050540;,
  0.321070;0.055170;,
  0.335400;0.082570;,
  0.327490;0.074190;,
  0.776950;0.891970;,
  0.774560;0.877330;,
  0.772170;0.915030;,
  0.773940;0.923310;,
  0.772140;0.934380;,
  0.777850;0.949140;,
  0.320250;0.071920;,
  0.224230;0.074470;,
  0.229410;0.050300;,
  0.251220;0.075000;,
  0.280120;0.072700;,
  0.250590;0.053990;,
  0.274690;0.054550;,
  0.298290;0.070110;,
  0.296330;0.055240;,
  0.322540;0.063910;,
  0.328100;0.064500;,
  0.336810;0.066430;,
  0.780240;0.962570;,
  0.780690;0.726290;,
  0.778340;0.738860;,
  0.948770;0.629170;,
  0.959910;0.634860;,
  0.950170;0.622050;,
  0.945300;0.622230;,
  0.937270;0.617780;,
  0.943110;0.609770;,
  0.920040;0.613960;,
  0.933390;0.602720;,
  0.925520;0.597040;,
  0.936180;0.596100;,
  0.931680;0.591730;,
  0.924310;0.587480;,
  0.908770;0.613690;,
  0.911780;0.596510;,
  0.917740;0.586410;,
  0.911060;0.587190;,
  0.894470;0.619160;,
  0.895090;0.608310;,
  0.895840;0.595210;,
  0.891910;0.600550;,
  0.903660;0.589490;,
  0.887010;0.608800;,
  0.880080;0.628310;,
  0.877140;0.619680;,
  0.866840;0.631620;,
  0.882870;0.633210;,
  0.932710;0.590170;,
  0.925090;0.585140;,
  0.918660;0.584390;,
  0.910880;0.585140;,
  0.903110;0.587300;,
  0.937740;0.594740;,
  0.944740;0.607720;,
  0.951630;0.619830;,
  0.960790;0.632970;,
  0.966630;0.642910;,
  0.967640;0.640910;,
  0.973870;0.652860;,
  0.976490;0.652420;,
  0.968920;0.628370;,
  0.959320;0.613980;,
  0.976920;0.638480;,
  0.952300;0.602570;,
  0.944580;0.590420;,
  0.938150;0.582980;,
  0.929380;0.577260;,
  0.919320;0.576250;,
  0.909530;0.576670;,
  0.899610;0.579440;,
  0.895930;0.592400;,
  0.890760;0.585630;,
  0.890700;0.597760;,
  0.884070;0.593650;,
  0.884420;0.607890;,
  0.875750;0.604600;,
  0.876110;0.617600;,
  0.866020;0.616220;,
  0.866200;0.629110;,
  0.857040;0.626590;,
  0.857990;0.640090;,
  0.857870;0.637290;,
  0.847440;0.634800;,
  0.850800;0.646880;,
  0.849370;0.645060;,
  0.839650;0.642140;,
  0.832020;0.651230;,
  0.841620;0.653370;,
  0.842780;0.655430;,
  0.836890;0.662660;,
  0.835820;0.661500;,
  0.826610;0.659110;,
  0.820650;0.667810;,
  0.828000;0.672860;,
  0.829470;0.674370;,
  0.984400;0.650330;,
  0.978700;0.662680;,
  0.981910;0.664570;,
  0.989090;0.661010;,
  0.984180;0.677410;,
  0.993090;0.675450;,
  0.982070;0.676490;,
  0.596100;0.819810;,
  0.596630;0.832500;,
  0.595090;0.803910;,
  0.594580;0.793880;,
  0.592910;0.769340;,
  0.594230;0.780710;,
  0.591960;0.751410;,
  0.591140;0.740670;,
  0.589640;0.726100;,
  0.589680;0.709240;,
  0.592970;0.952860;,
  0.593890;0.966080;,
  0.592990;0.942330;,
  0.593790;0.923480;,
  0.593930;0.908760;,
  0.594450;0.893960;,
  0.595970;0.880700;,
  0.596850;0.861570;,
  0.596620;0.843070;,
  0.549010;0.800270;,
  0.549960;0.809670;,
  0.548860;0.787200;,
  0.546500;0.776750;,
  0.545180;0.758650;,
  0.545640;0.750560;,
  0.543780;0.736040;,
  0.540240;0.717760;,
  0.549630;0.942520;,
  0.546440;0.954220;,
  0.550510;0.936060;,
  0.552120;0.918150;,
  0.551850;0.905320;,
  0.551990;0.891350;,
  0.553940;0.880830;,
  0.554040;0.863190;,
  0.553120;0.844680;,
  0.553350;0.836670;,
  0.552440;0.826070;,
  0.000000;0.000000;,
  0.066670;0.000000;,
  0.066670;1.000000;,
  0.000000;1.000000;,
  0.133330;0.000000;,
  0.133330;1.000000;,
  0.200000;0.000000;,
  0.200000;1.000000;,
  0.266670;0.000000;,
  0.266670;1.000000;,
  0.333330;0.000000;,
  0.333330;1.000000;,
  0.400000;0.000000;,
  0.400000;1.000000;,
  0.466670;0.000000;,
  0.466670;1.000000;,
  0.533330;0.000000;,
  0.533330;1.000000;,
  0.600000;0.000000;,
  0.600000;1.000000;,
  0.666670;0.000000;,
  0.666670;1.000000;,
  0.733330;0.000000;,
  0.733330;1.000000;,
  0.800000;0.000000;,
  0.800000;1.000000;,
  0.866670;0.000000;,
  0.866670;1.000000;,
  0.933330;0.000000;,
  0.933330;1.000000;,
  1.000000;0.000000;,
  1.000000;1.000000;;
 }
}
