xof 0302txt 0064
template Header {
 <3D82AB43-62DA-11cf-AB39-0020AF71E433>
 WORD major;
 WORD minor;
 DWORD flags;
}

template Vector {
 <3D82AB5E-62DA-11cf-AB39-0020AF71E433>
 FLOAT x;
 FLOAT y;
 FLOAT z;
}

template Coords2d {
 <F6F23F44-7686-11cf-8F52-0040333594A3>
 FLOAT u;
 FLOAT v;
}

template Matrix4x4 {
 <F6F23F45-7686-11cf-8F52-0040333594A3>
 array FLOAT matrix[16];
}

template ColorRGBA {
 <35FF44E0-6C7C-11cf-8F52-0040333594A3>
 FLOAT red;
 FLOAT green;
 FLOAT blue;
 FLOAT alpha;
}

template ColorRGB {
 <D3E16E81-7835-11cf-8F52-0040333594A3>
 FLOAT red;
 FLOAT green;
 FLOAT blue;
}

template IndexedColor {
 <1630B820-7842-11cf-8F52-0040333594A3>
 DWORD index;
 ColorRGBA indexColor;
}

template Boolean {
 <4885AE61-78E8-11cf-8F52-0040333594A3>
 WORD truefalse;
}

template Boolean2d {
 <4885AE63-78E8-11cf-8F52-0040333594A3>
 Boolean u;
 Boolean v;
}

template MaterialWrap {
 <4885AE60-78E8-11cf-8F52-0040333594A3>
 Boolean u;
 Boolean v;
}

template TextureFilename {
 <A42790E1-7810-11cf-8F52-0040333594A3>
 STRING filename;
}

template Material {
 <3D82AB4D-62DA-11cf-AB39-0020AF71E433>
 ColorRGBA faceColor;
 FLOAT power;
 ColorRGB specularColor;
 ColorRGB emissiveColor;
 [...]
}

template MeshFace {
 <3D82AB5F-62DA-11cf-AB39-0020AF71E433>
 DWORD nFaceVertexIndices;
 array DWORD faceVertexIndices[nFaceVertexIndices];
}

template MeshFaceWraps {
 <4885AE62-78E8-11cf-8F52-0040333594A3>
 DWORD nFaceWrapValues;
 Boolean2d faceWrapValues;
}

template MeshTextureCoords {
 <F6F23F40-7686-11cf-8F52-0040333594A3>
 DWORD nTextureCoords;
 array Coords2d textureCoords[nTextureCoords];
}

template MeshMaterialList {
 <F6F23F42-7686-11cf-8F52-0040333594A3>
 DWORD nMaterials;
 DWORD nFaceIndexes;
 array DWORD faceIndexes[nFaceIndexes];
 [Material]
}

template MeshNormals {
 <F6F23F43-7686-11cf-8F52-0040333594A3>
 DWORD nNormals;
 array Vector normals[nNormals];
 DWORD nFaceNormals;
 array MeshFace faceNormals[nFaceNormals];
}

template MeshVertexColors {
 <1630B821-7842-11cf-8F52-0040333594A3>
 DWORD nVertexColors;
 array IndexedColor vertexColors[nVertexColors];
}

template Mesh {
 <3D82AB44-62DA-11cf-AB39-0020AF71E433>
 DWORD nVertices;
 array Vector vertices[nVertices];
 DWORD nFaces;
 array MeshFace faces[nFaces];
 [...]
}

Header{
1;
0;
1;
}

Mesh {
 434;
 -0.27783;-3.18579;-3.22637;,
 0.28844;-3.21437;-3.63055;,
 0.01995;-7.53734;-4.22757;,
 -0.81177;-7.38936;-3.62429;,
 0.56387;-3.23126;-3.78187;,
 0.71990;-3.22431;-3.74905;,
 0.60514;-7.64007;-4.39933;,
 0.39592;-7.64969;-4.45279;,
 0.41590;-3.21263;-3.72979;,
 0.18617;-7.61339;-4.39507;,
 1.56097;-3.36074;-3.23573;,
 2.08167;-3.41121;-3.03323;,
 2.32222;-7.55179;-3.36128;,
 1.68433;-7.52663;-3.62524;,
 0.82415;-3.23079;-3.65623;,
 0.76973;-7.57836;-4.23326;,
 2.57625;-3.41663;-3.01059;,
 3.01950;-3.42902;-2.55454;,
 3.57452;-7.55830;-2.61878;,
 2.96454;-7.55102;-3.30683;,
 2.98582;-3.43444;-2.06117;,
 3.31989;-3.35227;-0.62336;,
 4.07829;-7.48022;0.19257;,
 3.58227;-7.55281;-1.88669;,
 2.82895;-3.36844;0.67340;,
 3.59432;-7.41830;2.22468;,
 2.82991;-3.39413;1.22361;,
 2.42234;-3.23707;1.58267;,
 3.00029;-7.29778;3.54199;,
 3.58271;-7.38386;3.00791;,
 1.93591;-3.19436;1.60906;,
 0.73415;-2.94247;2.12219;,
 0.47765;-7.14236;4.24940;,
 2.31324;-7.29359;3.68682;,
 0.73415;-2.94247;2.12219;,
 -0.64812;-2.85697;1.75270;,
 -1.36888;-7.06961;3.77508;,
 0.47765;-7.14236;4.24940;,
 -1.17479;-2.83079;1.74088;,
 -1.62712;-2.82001;1.28370;,
 -2.69202;-7.04142;3.09586;,
 -2.08090;-7.04704;3.78522;,
 -1.55794;-2.83346;0.76752;,
 -1.78117;-2.86445;-0.61137;,
 -3.13893;-7.10363;0.20190;,
 -2.67678;-7.04887;2.28575;,
 -0.93355;-9.42222;-3.29557;,
 -0.05194;-9.56835;-3.86122;,
 -1.53466;-9.37115;-3.04803;,
 -1.39179;-7.35303;-3.36077;,
 0.55367;-9.65278;-4.01647;,
 0.34302;-9.65905;-4.06874;,
 0.12688;-9.62930;-4.01705;,
 2.25951;-9.53850;-3.04517;,
 1.62403;-9.53631;-3.29332;,
 0.71607;-9.60566;-3.86044;,
 2.89859;-9.56164;-2.97758;,
 3.51358;-9.57054;-2.31496;,
 3.55662;-9.52231;-1.61858;,
 4.07749;-9.49001;0.37465;,
 3.56319;-9.38606;2.30427;,
 3.52579;-9.38854;3.05381;,
 2.93885;-9.32260;3.52693;,
 2.23785;-9.30365;3.72299;,
 0.37212;-9.23030;4.27714;,
 0.37212;-9.23030;4.27714;,
 -1.47733;-9.13657;3.77049;,
 -2.18083;-9.13726;3.78012;,
 -2.79481;-9.13461;3.11605;,
 -2.83249;-9.10087;2.33136;,
 -3.35091;-9.17150;0.37916;,
 -2.53207;-12.83558;0.34928;,
 -2.36332;-12.35040;1.77397;,
 -2.81542;-9.24086;-1.61587;,
 -2.36331;-12.42117;-1.06742;,
 -0.76389;-13.20950;-2.40014;,
 -1.24484;-13.12174;-2.21315;,
 -0.05185;-13.32739;-2.84530;,
 0.41491;-13.35077;-2.99008;,
 0.25857;-13.34218;-3.03871;,
 0.09401;-13.33324;-2.99050;,
 2.63160;-13.47316;-1.44075;,
 2.20819;-13.24545;-2.08834;,
 3.01646;-13.07539;0.34864;,
 2.87595;-12.64624;-1.06823;,
 2.87865;-12.57449;1.76941;,
 2.22091;-13.13628;2.74754;,
 2.63617;-13.39833;2.12046;,
 0.24184;-13.16934;3.24260;,
 1.68872;-13.13178;2.89893;,
 -1.18642;-13.00600;2.89860;,
 0.24184;-13.16934;3.24260;,
 -2.18223;-13.20154;2.12513;,
 -1.74143;-12.97763;2.78567;,
 -0.71755;-14.48197;-2.09621;,
 -1.28881;-14.16978;-1.87871;,
 -0.05123;-14.53468;-2.52937;,
 0.37338;-14.55249;-2.66516;,
 0.23270;-14.54376;-2.71076;,
 0.08418;-14.53682;-2.66553;,
 1.64941;-14.29424;-1.88509;,
 1.12009;-14.56043;-2.09989;,
 1.22584;-13.29453;-2.39865;,
 1.71336;-13.24717;-2.21128;,
 0.48531;-14.55995;-2.52886;,
 0.53610;-13.35555;-2.84473;,
 2.43348;-14.32076;-1.23099;,
 2.05843;-13.99556;-1.82800;,
 2.77745;-14.52699;0.31429;,
 2.90056;-13.91268;0.32775;,
 2.43775;-14.26703;1.86117;,
 2.08462;-13.84049;2.46962;,
 -2.04088;-14.08257;1.86082;,
 -1.70856;-13.70113;2.45519;,
 0.07245;-16.13749;-2.31119;,
 0.07523;-15.74902;-2.37450;,
 0.20976;-15.75238;-2.41755;,
 0.20246;-16.13128;-2.35301;,
 0.33773;-15.76303;-2.37418;,
 0.32611;-16.15096;-2.31087;,
 2.31031;-15.85350;0.26977;,
 2.20107;-16.30183;0.25709;,
 1.84797;-16.30001;-0.98083;,
 1.95497;-15.85331;-1.01905;,
 1.90838;-16.88794;-1.10665;,
 1.84797;-16.30001;-0.98083;,
 2.20107;-16.30183;0.25709;,
 2.28164;-16.89532;0.23437;,
 0.82415;-3.23079;-3.65623;,
 0.76973;-7.57836;-4.23326;,
 0.71607;-9.60566;-3.86044;,
 0.53610;-13.35555;-2.84473;,
 0.48531;-14.55995;-2.52886;,
 0.28844;-3.21437;-3.63055;,
 0.01995;-7.53734;-4.22757;,
 -0.05194;-9.56835;-3.86122;,
 -0.05185;-13.32739;-2.84530;,
 -0.05123;-14.53468;-2.52937;,
 -0.59640;-15.73387;-1.90263;,
 -0.99560;-15.70833;-1.69769;,
 -0.05094;-15.75569;-2.24491;,
 -0.05094;-15.75569;-2.24491;,
 0.44419;-15.77828;-2.24447;,
 0.44419;-15.77828;-2.24447;,
 0.92864;-15.81227;-1.91092;,
 1.30350;-15.82807;-1.71062;,
 2.21928;-14.70775;-1.12688;,
 2.56047;-14.90548;0.30178;,
 -0.99510;-2.76959;1.77980;,
 -1.83077;-7.03280;3.83074;,
 -1.60227;-2.82548;1.09549;,
 -2.68268;-7.04175;2.77968;,
 -1.93658;-9.13532;3.82120;,
 -2.80736;-9.11209;2.80467;,
 -1.56010;-13.14450;-2.18705;,
 -1.92342;-9.36599;-3.06442;,
 -1.55478;-13.03017;2.87846;,
 -2.26408;-12.83676;1.94664;,
 -2.44286;-13.34410;0.33309;,
 -1.58571;-14.01645;-1.87512;,
 2.40103;-3.35782;-3.06384;,
 2.72451;-7.53988;-3.38848;,
 3.00248;-3.44012;-2.37130;,
 3.57439;-7.56167;-2.34337;,
 2.82837;-3.39733;1.02113;,
 3.58321;-7.40450;2.71625;,
 2.27040;-3.15574;1.60836;,
 2.77119;-7.28190;3.64274;,
 2.65896;-9.56013;-3.06260;,
 3.52905;-9.54806;-2.05394;,
 3.53657;-9.38425;2.77738;,
 2.70433;-9.32034;3.64867;,
 2.02774;-13.29374;-2.18576;,
 2.74292;-13.12009;-1.25090;,
 2.68580;-13.05472;1.92632;,
 2.04962;-13.18043;2.85659;,
 1.94596;-14.16328;-1.87764;,
 2.36597;-14.54099;-1.19787;,
 2.71585;-14.73747;0.31058;,
 2.87799;-13.56941;0.33293;,
 2.37058;-14.48909;1.82005;,
 2.22275;-14.65965;1.72982;,
 1.97428;-14.00714;2.51599;,
 1.64432;-14.13792;2.50461;,
 2.96711;-19.21273;-2.27474;,
 3.52839;-19.24391;0.12716;,
 3.70313;-19.62084;0.12910;,
 3.07036;-19.58453;-2.35779;,
 1.80167;-19.12551;-3.40811;,
 1.23092;-18.04364;-2.95301;,
 1.47498;-17.87100;-2.76244;,
 2.00271;-18.81627;-3.19512;,
 1.14214;-17.18113;-2.34081;,
 0.95218;-17.25485;-2.46781;,
 0.43010;-16.19387;-2.10486;,
 3.67555;-19.74453;0.12995;,
 3.03888;-19.70716;-2.33947;,
 3.60173;-19.82989;0.13063;,
 2.97495;-19.79228;-2.29800;,
 2.88955;-19.16069;-2.21183;,
 3.42104;-19.19141;0.12762;,
 2.45638;-19.53059;-3.15532;,
 2.39959;-19.65052;-3.14175;,
 2.33490;-19.73408;-3.09035;,
 1.64744;-19.29915;-3.33622;,
 1.71743;-19.22780;-3.39643;,
 1.13406;-18.10020;-2.92651;,
 1.05557;-18.13913;-2.85109;,
 2.50865;-19.16799;-2.99537;,
 -1.84218;-18.68546;-3.20604;,
 -1.26561;-17.77391;-2.76910;,
 -0.98460;-17.95278;-2.95700;,
 -1.62554;-18.98234;-3.41222;,
 -0.66367;-17.18930;-2.47103;,
 -0.88920;-17.10415;-2.34473;,
 -3.38875;-18.98358;0.12637;,
 -2.82433;-19.00152;-2.28727;,
 -2.92449;-19.33008;-2.36159;,
 -3.56009;-19.31144;0.12897;,
 -2.89657;-19.44794;-2.34088;,
 -2.30674;-19.32956;-3.15955;,
 -2.25349;-19.44723;-3.14349;,
 -1.54324;-19.08587;-3.39841;,
 -1.47948;-19.16189;-3.33680;,
 -2.19506;-19.53457;-3.09070;,
 -2.83830;-19.53624;-2.29809;,
 -0.81177;-18.05876;-2.85165;,
 -0.88527;-18.01427;-2.92881;,
 -0.46800;-16.94104;-2.28086;,
 -2.15178;-18.65614;-2.66883;,
 -1.80964;-18.41658;-2.79991;,
 -1.85804;-18.64274;-3.09206;,
 -2.33521;-18.95151;-2.91614;,
 -2.36482;-18.99698;-3.00861;,
 -2.74827;-18.95961;-2.22565;,
 -3.53529;-19.42968;0.12993;,
 -3.46616;-19.51859;0.13063;,
 -3.28263;-18.94326;0.12672;,
 -0.79859;-16.86191;-2.11545;,
 -1.30191;-17.74871;-2.65219;,
 3.03331;-19.22690;2.15229;,
 3.12042;-19.59697;2.26360;,
 2.36403;-18.85361;2.61209;,
 2.33909;-18.90499;2.73145;,
 2.73949;-19.23049;2.61989;,
 2.71497;-19.17324;2.52559;,
 2.95427;-19.17311;2.09246;,
 3.08285;-19.71908;2.25401;,
 3.01444;-19.80402;2.21759;,
 -2.97602;-19.33759;2.26761;,
 -2.88958;-19.00546;2.16776;,
 -2.87887;-19.54446;2.21759;,
 -2.94208;-19.45610;2.25516;,
 -2.81200;-18.96350;2.10762;,
 -2.48481;-19.35951;2.88088;,
 -2.42026;-19.47917;2.88327;,
 -2.35731;-19.56743;2.83714;,
 -1.71871;-19.20672;3.05612;,
 -1.78748;-19.12728;3.10846;,
 -1.88527;-19.01972;3.09524;,
 -2.59165;-19.01951;2.64996;,
 -2.57004;-18.97469;2.55116;,
 -2.17398;-18.71448;2.76865;,
 -2.20292;-18.67413;2.64165;,
 -1.15556;-17.95264;2.85175;,
 -1.48603;-17.77195;2.56607;,
 -0.98204;-17.07558;2.36583;,
 -0.73501;-17.15970;2.55115;,
 0.20008;-14.44839;2.86129;,
 -1.26265;-14.03363;2.48112;,
 0.20008;-14.44839;2.86129;,
 -1.59313;-13.87617;2.49719;,
 -1.96775;-14.31033;1.81441;,
 -1.82215;-14.49192;1.72045;,
 1.69354;-17.90867;2.54184;,
 1.36060;-18.06071;2.84673;,
 2.04610;-19.18985;3.08817;,
 0.97199;-17.23199;2.54827;,
 1.21988;-17.16945;2.35449;,
 2.63022;-19.57888;2.87465;,
 2.56124;-19.69660;2.88223;,
 1.94369;-19.28992;3.10769;,
 1.86978;-19.36477;3.05612;,
 2.49288;-19.78105;2.83714;,
 1.84285;-16.27300;1.46941;,
 1.91158;-16.86901;1.49952;,
 1.95082;-15.81995;1.54415;,
 1.84285;-16.27300;1.46941;,
 1.17527;-15.83481;2.17570;,
 -1.04071;-18.02075;2.85083;,
 -0.95750;-18.07371;2.78871;,
 -1.52338;-17.75228;2.43879;,
 0.15819;-15.68794;2.51971;,
 -0.86473;-15.74604;2.17463;,
 0.15819;-15.68794;2.51971;,
 -1.63610;-15.66344;1.54256;,
 1.15502;-18.16675;2.78871;,
 1.24226;-18.11947;2.85006;,
 0.30239;-16.32591;-2.26503;,
 0.19530;-16.35884;-2.29213;,
 0.08533;-16.31528;-2.26527;,
 -0.87184;-16.17630;-1.69440;,
 -0.51797;-16.19736;-1.88201;,
 -0.05061;-16.17222;-2.10529;,
 -0.51797;-16.19736;-1.88201;,
 -0.05061;-16.17222;-2.10529;,
 0.00833;-16.41448;-2.16894;,
 -0.44922;-16.59156;-2.04885;,
 -0.05061;-16.17222;-2.10529;,
 0.00833;-16.41448;-2.16894;,
 -0.24400;-16.96075;-2.21350;,
 2.71108;-17.93626;0.18754;,
 2.28035;-17.91823;-1.54715;,
 3.19051;-18.88240;0.14314;,
 2.69653;-18.85457;-2.01225;,
 2.30625;-18.81262;-2.65603;,
 2.47647;-19.11595;-2.90148;,
 2.01366;-18.77128;-3.08005;,
 1.97550;-18.54713;-2.78902;,
 1.59553;-17.86014;-2.45178;,
 1.50233;-17.84732;-2.64530;,
 -1.50480;-15.69071;-1.00857;,
 -1.42556;-16.14970;-0.94542;,
 -1.91944;-16.12035;0.25709;,
 -1.99525;-15.66584;0.26978;,
 -1.71351;-14.52512;-1.09152;,
 -2.16415;-14.70598;0.27113;,
 -2.32223;-14.52553;0.27989;,
 -1.84338;-14.34900;-1.23913;,
 -1.56010;-16.12312;1.46941;,
 0.74095;-16.95806;2.44287;,
 1.10167;-16.26332;2.03675;,
 0.55149;-16.97353;2.41315;,
 -0.49421;-16.90573;2.44373;,
 -0.79838;-16.76367;2.20443;,
 -0.82026;-16.17922;2.03673;,
 0.17031;-16.26466;2.35900;,
 -0.30751;-16.93570;2.41315;,
 0.17031;-16.26466;2.35900;,
 -0.84140;-16.67125;2.04898;,
 0.11812;-16.87518;2.40076;,
 0.12852;-16.58479;2.37849;,
 2.74908;-18.86099;1.97135;,
 2.51082;-18.85239;2.38311;,
 2.24330;-18.60175;2.45575;,
 2.30759;-17.91232;1.72026;,
 1.78597;-17.88666;2.29083;,
 1.72766;-17.88415;2.41998;,
 1.03107;-16.85452;2.19565;,
 1.09501;-16.75305;2.04735;,
 1.10167;-16.26332;2.03675;,
 0.17031;-16.26466;2.35900;,
 0.12852;-16.58479;2.37849;,
 0.11812;-16.87518;2.40076;,
 -2.35437;-18.67464;2.39806;,
 -2.59324;-18.66448;1.98270;,
 -2.07396;-18.43869;2.47418;,
 -1.58527;-17.75790;2.30057;,
 -1.66161;-16.71718;1.50103;,
 -1.56010;-16.12312;1.46941;,
 -1.91944;-16.12035;0.25709;,
 -2.03286;-16.71069;0.23426;,
 -2.10788;-17.73999;1.72631;,
 -0.82026;-16.17922;2.03673;,
 0.17031;-16.26466;2.35900;,
 -0.84531;-16.69263;-1.87424;,
 -1.39753;-17.75152;-2.45869;,
 -2.08181;-17.74814;-1.55399;,
 -1.66050;-16.73572;-1.10802;,
 -2.54147;-18.66323;-2.02424;,
 -0.87184;-16.17630;-1.69440;,
 -1.42556;-16.14970;-0.94542;,
 -3.03759;-18.64688;0.14236;,
 -2.51328;-17.72778;0.18710;,
 -0.61374;-3.14010;-2.96581;,
 -2.62086;-7.22075;-1.88480;,
 -1.78377;-7.33006;-3.37968;,
 -2.48496;-13.69037;0.32779;,
 -2.39750;-14.30851;0.28358;,
 -2.79280;-9.27813;-2.05219;,
 -2.26585;-12.90900;-1.25044;,
 -1.44935;-3.00031;-2.00845;,
 -1.50951;-3.08696;-2.31475;,
 -2.62904;-7.26056;-2.34171;,
 -0.92397;-3.12563;-2.96546;,
 -1.74578;-13.08379;-2.08882;,
 -2.17243;-9.35496;-2.97797;,
 -1.70145;-13.83942;-1.82776;,
 -2.25547;-13.27581;-1.44084;,
 -1.92693;-14.12466;-1.27327;,
 -2.57887;-7.32142;-2.60767;,
 -1.47279;-3.14931;-2.53766;,
 -1.15102;-3.24392;-2.88831;,
 -2.04738;-7.34775;-3.29132;,
 -2.71742;-9.29743;-2.29542;,
 0.78000;-0.57644;-3.78187;,
 0.93145;-0.61394;-3.74905;,
 0.63637;-0.54088;-3.72979;,
 1.74787;-0.81613;-3.23573;,
 2.25329;-0.94128;-3.03323;,
 3.13093;-1.15860;-2.06117;,
 3.45522;-1.23887;-0.62336;,
 3.15434;-1.16437;0.82418;,
 2.28748;-0.94968;1.75984;,
 0.94531;-0.61729;2.12219;,
 0.94531;-0.61729;2.12219;,
 -0.47784;-0.26489;1.89009;,
 -1.36099;-0.04621;0.90490;,
 -1.57605;0.00703;-0.61137;,
 1.03265;-0.63900;-3.65623;,
 1.03265;-0.63900;-3.65623;,
 -0.03702;-0.37414;-3.22637;,
 0.51264;-0.51024;-3.63055;,
 0.51264;-0.51024;-3.63055;,
 -1.24855;-0.07411;-2.06725;,
 -0.43746;-0.27498;-3.02460;,
 0.15661;-16.86316;-2.22041;,
 0.18445;-16.50221;-2.16336;,
 0.18445;-16.50221;-2.16336;,
 1.15397;-16.27841;-1.70237;,
 0.83020;-16.26391;-1.88715;,
 0.43010;-16.19387;-2.10486;,
 0.77941;-16.99187;-2.27855;,
 1.05482;-16.93543;-2.11304;,
 0.56259;-16.99394;-2.21315;,
 0.74825;-16.65069;-1.99760;,
 0.36322;-16.43035;-2.16863;,
 0.43010;-16.19387;-2.10486;,
 0.83020;-16.26391;-1.88715;,
 0.36322;-16.43035;-2.16863;,
 0.15661;-16.86316;-2.22041;,
 0.18445;-16.50221;-2.16336;,
 1.10211;-16.77630;-1.87426;,
 1.15397;-16.27841;-1.70237;;
 
 369;
 4;0,1,2,3;,
 4;4,5,6,7;,
 4;8,4,7,9;,
 4;10,11,12,13;,
 4;14,10,13,15;,
 4;16,17,18,19;,
 4;20,21,22,23;,
 4;21,24,25,22;,
 4;26,27,28,29;,
 4;30,31,32,33;,
 4;34,35,36,37;,
 4;38,39,40,41;,
 4;42,43,44,45;,
 4;46,3,2,47;,
 4;46,48,49,3;,
 4;6,50,51,7;,
 4;51,52,9,7;,
 4;12,53,54,13;,
 4;13,54,55,15;,
 4;56,19,18,57;,
 4;58,23,22,59;,
 4;59,22,25,60;,
 4;61,29,28,62;,
 4;63,33,32,64;,
 4;65,37,36,66;,
 4;67,41,40,68;,
 4;69,45,44,70;,
 4;69,70,71,72;,
 4;71,70,73,74;,
 4;48,46,75,76;,
 4;75,46,47,77;,
 4;78,79,51,50;,
 4;52,51,79,80;,
 4;56,57,81,82;,
 4;58,59,83,84;,
 4;83,59,60,85;,
 4;61,62,86,87;,
 4;88,89,63,64;,
 4;90,91,65,66;,
 4;67,68,92,93;,
 4;76,75,94,95;,
 4;94,75,77,96;,
 4;97,98,79,78;,
 4;80,79,98,99;,
 4;100,101,102,103;,
 4;102,101,104,105;,
 4;106,107,82,81;,
 4;108,106,81,109;,
 4;110,108,109,87;,
 4;111,110,87,86;,
 4;112,113,93,92;,
 4;114,115,116,117;,
 4;116,118,119,117;,
 4;120,121,122,123;,
 4;124,125,126,127;,
 4;54,102,105,55;,
 4;103,102,54,53;,
 4;6,5,128,129;,
 4;130,50,6,129;,
 4;78,50,130,131;,
 4;97,78,131,132;,
 4;133,8,9,134;,
 4;9,52,135,134;,
 4;52,80,136,135;,
 4;80,99,137,136;,
 4;95,94,138,139;,
 4;138,94,96,140;,
 4;115,141,137,99;,
 4;115,99,98,116;,
 4;118,116,98,97;,
 4;118,97,132,142;,
 4;143,104,101,144;,
 4;145,144,101,100;,
 4;123,145,100,146;,
 4;120,123,146,147;,
 4;148,38,41,149;,
 4;36,35,148,149;,
 4;150,42,45,151;,
 4;40,39,150,151;,
 4;41,67,152,149;,
 4;152,66,36,149;,
 4;45,69,153,151;,
 4;153,68,40,151;,
 4;48,76,154,155;,
 4;90,66,152,156;,
 4;67,93,156,152;,
 4;92,68,153,157;,
 4;69,72,157,153;,
 4;72,71,158,157;,
 4;76,95,159,154;,
 4;160,16,19,161;,
 4;12,11,160,161;,
 4;162,20,23,163;,
 4;18,17,162,163;,
 4;164,26,29,165;,
 4;25,24,164,165;,
 4;166,30,33,167;,
 4;28,27,166,167;,
 4;19,56,168,161;,
 4;168,53,12,161;,
 4;23,58,169,163;,
 4;169,57,18,163;,
 4;29,61,170,165;,
 4;170,60,25,165;,
 4;33,63,171,167;,
 4;171,62,28,167;,
 4;103,53,168,172;,
 4;56,82,172,168;,
 4;81,57,169,173;,
 4;58,84,173,169;,
 4;85,60,170,174;,
 4;61,87,174,170;,
 4;86,62,171,175;,
 4;63,89,175,171;,
 4;146,100,176,177;,
 4;107,106,177,176;,
 4;100,103,172,176;,
 4;82,107,176,172;,
 4;147,146,177,178;,
 4;106,108,178,177;,
 4;109,81,173,179;,
 4;84,83,179,173;,
 4;147,178,180,181;,
 4;108,110,180,178;,
 4;87,109,179,174;,
 4;83,85,174,179;,
 4;181,180,182,183;,
 4;110,111,182,180;,
 4;183,182,175,89;,
 4;111,86,175,182;,
 4;184,185,186,187;,
 4;188,189,190,191;,
 4;192,190,189,193;,
 4;119,118,142,194;,
 4;187,186,195,196;,
 4;197,198,196,195;,
 4;185,184,199,200;,
 4;201,187,196,202;,
 4;196,198,203,202;,
 4;203,204,205,202;,
 4;205,188,201,202;,
 4;189,188,205,206;,
 4;205,204,207,206;,
 4;188,191,208,201;,
 4;184,187,201,208;,
 4;209,210,211,212;,
 4;213,211,210,214;,
 4;215,216,217,218;,
 4;219,217,220,221;,
 4;220,212,222,221;,
 4;222,223,224,221;,
 4;224,225,219,221;,
 4;226,223,222,227;,
 4;222,212,211,227;,
 4;211,213,228,227;,
 4;229,230,231,232;,
 4;231,209,233,232;,
 4;233,216,234,232;,
 4;218,217,219,235;,
 4;225,236,235,219;,
 4;216,215,237,234;,
 4;238,214,210,239;,
 4;210,209,231,239;,
 4;213,214,238,228;,
 4;209,212,220,233;,
 4;217,216,233,220;,
 4;186,185,240,241;,
 4;242,243,244,245;,
 4;244,240,246,245;,
 4;186,241,247,195;,
 4;248,197,195,247;,
 4;240,185,200,246;,
 4;215,218,249,250;,
 4;236,251,252,235;,
 4;249,218,235,252;,
 4;215,250,253,237;,
 4;254,249,252,255;,
 4;252,251,256,255;,
 4;256,257,258,255;,
 4;258,259,254,255;,
 4;253,250,260,261;,
 4;260,262,263,261;,
 4;250,249,254,260;,
 4;262,260,254,259;,
 4;262,259,264,265;,
 4;266,265,264,267;,
 4;268,183,89,88;,
 4;269,270,91,90;,
 4;269,271,272,273;,
 4;113,112,272,271;,
 4;269,90,156,271;,
 4;93,113,271,156;,
 4;243,274,275,276;,
 4;277,275,274,278;,
 4;247,241,279,280;,
 4;279,276,281,280;,
 4;281,282,283,280;,
 4;283,248,247,280;,
 4;243,276,279,244;,
 4;241,240,244,279;,
 4;127,126,284,285;,
 4;286,287,121,120;,
 4;120,147,181,286;,
 4;288,286,181,183;,
 4;264,259,258,289;,
 4;258,257,290,289;,
 4;263,262,265,291;,
 4;288,183,268,292;,
 4;293,294,270,269;,
 4;293,269,273,295;,
 4;296,282,281,297;,
 4;281,276,275,297;,
 4;117,119,298,299;,
 4;117,299,300,114;,
 4;301,139,138,302;,
 4;302,138,140,303;,
 4;304,305,306,307;,
 4;141,115,114,308;,
 4;308,114,300,309;,
 4;228,310,226,227;,
 4;307,306,310,228;,
 4;124,127,311,312;,
 4;313,314,312,311;,
 4;314,313,200,199;,
 4;315,314,199,316;,
 4;316,199,184,208;,
 4;316,208,191,317;,
 4;317,318,315,316;,
 3;314,319,312;,
 4;320,319,318,317;,
 4;317,191,190,320;,
 4;318,319,314,315;,
 4;321,322,323,324;,
 4;325,321,324,326;,
 4;325,95,139,321;,
 4;273,272,327,326;,
 4;328,325,326,327;,
 4;328,159,95,325;,
 4;295,273,326,324;,
 4;322,321,139,301;,
 4;324,323,329,295;,
 4;297,275,277,330;,
 4;288,331,287,286;,
 4;330,332,296,297;,
 4;289,333,267,264;,
 4;334,266,267,333;,
 4;291,265,266,334;,
 4;293,295,329,335;,
 4;331,288,292,336;,
 4;290,337,333,289;,
 4;294,293,335,338;,
 4;339,337,340,341;,
 4;246,342,343,245;,
 4;343,344,242,245;,
 4;313,342,246,200;,
 4;342,313,311,345;,
 4;127,285,345,311;,
 3;346,342,345;,
 4;274,243,242,347;,
 4;347,242,344,346;,
 4;347,348,278,274;,
 4;277,278,348,330;,
 4;349,285,284,350;,
 4;285,349,346,345;,
 4;346,349,348,347;,
 4;348,349,332,330;,
 4;349,350,351,352;,
 4;332,349,352,353;,
 4;342,346,344,343;,
 4;354,355,253,261;,
 4;263,356,354,261;,
 4;357,355,354,356;,
 4;291,357,356,263;,
 4;358,359,360,361;,
 4;358,362,357,339;,
 4;334,339,357,291;,
 4;359,358,339,363;,
 3;337,339,333;,
 3;333,339,334;,
 4;341,364,363,339;,
 3;355,357,362;,
 4;365,366,367,368;,
 4;234,369,229,232;,
 4;366,365,238,239;,
 4;239,231,230,366;,
 4;304,307,365,370;,
 4;238,365,307,228;,
 4;368,371,370,365;,
 3;366,369,367;,
 4;371,368,361,360;,
 4;237,372,369,234;,
 4;355,372,237,253;,
 4;373,361,368,367;,
 4;372,373,367,369;,
 4;373,372,355,362;,
 4;362,358,361,373;,
 4;369,366,230,229;,
 4;374,0,3,49;,
 4;73,70,44,375;,
 4;49,48,155,376;,
 4;16,160,162,17;,
 4;160,11,20,162;,
 4;38,148,150,39;,
 4;148,35,42,150;,
 4;26,164,166,27;,
 4;164,24,30,166;,
 4;377,378,112,92;,
 4;379,380,74,73;,
 4;272,112,378,327;,
 4;158,377,92,157;,
 4;71,74,380,158;,
 4;43,381,375,44;,
 4;375,381,382,383;,
 4;384,374,49,376;,
 4;379,73,375,383;,
 4;385,386,155,154;,
 4;387,385,154,159;,
 4;377,388,389,378;,
 4;389,328,327,378;,
 4;380,388,377,158;,
 4;388,385,387,389;,
 4;328,389,387,159;,
 4;390,391,392,393;,
 4;386,394,390,393;,
 4;376,393,392,384;,
 4;393,376,155,386;,
 4;380,379,394,388;,
 4;383,390,394,379;,
 4;391,390,383,382;,
 4;394,386,385,388;,
 4;391,382,384,392;,
 4;374,384,382,381;,
 4;5,4,395,396;,
 4;4,8,397,395;,
 4;11,10,398,399;,
 4;21,20,400,401;,
 4;24,21,401,402;,
 4;31,30,403,404;,
 4;35,34,405,406;,
 4;43,42,407,408;,
 4;10,14,409,398;,
 4;128,5,396,410;,
 4;1,0,411,412;,
 4;8,133,413,397;,
 4;381,43,408,414;,
 4;0,374,415,411;,
 4;20,11,399,400;,
 4;42,35,406,407;,
 4;30,24,402,403;,
 4;374,381,414,415;,
 4;416,310,306,417;,
 4;309,300,299,418;,
 4;122,419,145,123;,
 4;144,145,419,420;,
 4;421,143,144,420;,
 4;206,422,193,189;,
 4;192,193,422,423;,
 4;320,190,192,423;,
 4;207,424,422,206;,
 4;425,426,427,428;,
 4;194,429,298,119;,
 4;299,298,429,418;,
 4;426,424,430,431;,
 4;432,124,312,319;,
 4;124,432,433,125;,
 4;428,433,432,425;,
 4;425,432,423,422;,
 4;423,432,319,320;,
 4;424,426,425,422;;
 
 MeshMaterialList {
  8;
  369;
  5,
  5,
  5,
  5,
  5,
  5,
  5,
  5,
  5,
  5,
  5,
  5,
  5,
  5,
  5,
  5,
  5,
  5,
  5,
  5,
  5,
  5,
  5,
  5,
  5,
  5,
  5,
  5,
  5,
  5,
  5,
  5,
  5,
  5,
  5,
  5,
  5,
  5,
  5,
  5,
  5,
  5,
  5,
  5,
  5,
  5,
  5,
  5,
  5,
  5,
  5,
  5,
  5,
  5,
  5,
  5,
  5,
  5,
  5,
  5,
  5,
  5,
  5,
  5,
  5,
  5,
  5,
  5,
  5,
  5,
  5,
  5,
  5,
  5,
  5,
  5,
  5,
  5,
  5,
  5,
  5,
  5,
  5,
  5,
  5,
  5,
  5,
  5,
  5,
  5,
  5,
  5,
  5,
  5,
  5,
  5,
  5,
  5,
  5,
  5,
  5,
  5,
  5,
  5,
  5,
  5,
  5,
  5,
  5,
  5,
  5,
  5,
  5,
  5,
  5,
  5,
  5,
  5,
  5,
  5,
  5,
  5,
  5,
  5,
  5,
  5,
  5,
  5,
  5,
  5,
  5,
  5,
  5,
  5,
  5,
  5,
  5,
  5,
  5,
  5,
  5,
  5,
  5,
  5,
  5,
  5,
  5,
  5,
  5,
  5,
  5,
  5,
  5,
  5,
  5,
  5,
  5,
  5,
  5,
  5,
  5,
  5,
  5,
  5,
  5,
  5,
  5,
  5,
  5,
  5,
  5,
  5,
  5,
  5,
  5,
  5,
  5,
  5,
  5,
  5,
  5,
  5,
  5,
  5,
  5,
  5,
  5,
  5,
  5,
  5,
  5,
  5,
  5,
  5,
  5,
  5,
  5,
  5,
  5,
  5,
  5,
  5,
  5,
  5,
  5,
  5,
  5,
  5,
  5,
  5,
  5,
  5,
  5,
  5,
  5,
  5,
  5,
  5,
  5,
  5,
  5,
  5,
  5,
  5,
  5,
  5,
  5,
  5,
  5,
  5,
  5,
  5,
  5,
  5,
  5,
  5,
  5,
  5,
  5,
  5,
  5,
  5,
  5,
  5,
  5,
  5,
  5,
  5,
  5,
  5,
  5,
  5,
  5,
  5,
  5,
  5,
  5,
  5,
  5,
  5,
  5,
  5,
  5,
  5,
  5,
  5,
  5,
  5,
  5,
  5,
  5,
  5,
  5,
  5,
  5,
  5,
  5,
  5,
  5,
  5,
  5,
  5,
  5,
  5,
  5,
  5,
  5,
  5,
  5,
  5,
  5,
  5,
  5,
  5,
  5,
  5,
  5,
  5,
  5,
  5,
  5,
  5,
  5,
  5,
  5,
  5,
  5,
  5,
  5,
  5,
  5,
  5,
  5,
  5,
  5,
  5,
  5,
  5,
  5,
  5,
  5,
  5,
  5,
  5,
  5,
  5,
  5,
  5,
  5,
  5,
  5,
  5,
  5,
  5,
  5,
  5,
  5,
  5,
  5,
  5,
  5,
  5,
  5,
  5,
  5,
  5,
  5,
  5,
  5,
  5,
  5,
  5,
  5,
  5,
  5,
  5,
  5,
  5,
  5,
  5,
  5,
  5,
  5,
  5,
  5,
  5,
  5,
  5,
  5;;
  Material {
   0.765600;0.659200;0.241600;1.000000;;
   5.000000;
   0.000000;0.000000;0.000000;;
   0.000000;0.000000;0.000000;;
  }
  Material {
   0.000000;0.000000;0.000000;1.000000;;
   5.000000;
   0.000000;0.000000;0.000000;;
   0.000000;0.000000;0.000000;;
  }
  Material {
   0.800000;0.800000;0.800000;1.000000;;
   5.000000;
   0.000000;0.000000;0.000000;;
   0.000000;0.000000;0.000000;;
  }
  Material {
   0.800000;0.000000;0.060000;1.000000;;
   5.000000;
   0.000000;0.000000;0.000000;;
   0.000000;0.000000;0.000000;;
  }
  Material {
   0.000000;0.690400;0.251200;1.000000;;
   5.000000;
   0.000000;0.000000;0.000000;;
   0.000000;0.000000;0.000000;;
  }
  Material {
   0.800000;0.768800;0.000000;1.000000;;
   5.000000;
   0.000000;0.000000;0.000000;;
   0.000000;0.000000;0.000000;;
  }
  Material {
   0.000000;0.000000;0.000000;1.000000;;
   5.000000;
   0.000000;0.000000;0.000000;;
   0.000000;0.000000;0.000000;;
  }
  Material {
   0.743200;0.263200;0.094400;1.000000;;
   5.000000;
   0.000000;0.000000;0.000000;;
   0.000000;0.000000;0.000000;;
  }
 }
 MeshNormals {
  394;
  -0.545280;0.097335;-0.832583;,
  -0.601728;0.098533;-0.792600;,
  -0.626990;0.019039;-0.778795;,
  -0.516211;0.020168;-0.856224;,
  -0.046660;0.078941;-0.995787;,
  0.459223;0.040419;-0.887401;,
  0.488186;-0.028177;-0.872284;,
  -0.020645;-0.017238;-0.999638;,
  -0.474172;0.096837;-0.875090;,
  -0.489800;0.006036;-0.871814;,
  0.442811;0.033370;-0.895994;,
  0.365551;0.024599;-0.930466;,
  0.154345;-0.038292;-0.987275;,
  0.458656;-0.030973;-0.888074;,
  0.595905;0.024611;-0.802678;,
  0.624963;-0.029328;-0.780103;,
  0.541905;0.108938;-0.833349;,
  0.931477;0.134308;-0.338100;,
  0.933828;0.024105;-0.356908;,
  0.547417;-0.020526;-0.836608;,
  0.955512;0.041604;-0.292002;,
  0.998119;0.054378;0.028328;,
  0.995687;0.091777;0.013575;,
  0.990587;0.053888;-0.125831;,
  0.940560;0.046922;0.336371;,
  0.982966;0.109069;0.147923;,
  0.785766;0.565934;0.249583;,
  0.538567;0.644447;0.542802;,
  0.554133;0.212544;0.804836;,
  0.910779;0.149815;0.384757;,
  0.376897;0.176571;0.909270;,
  0.069565;0.215590;0.974003;,
  0.051652;0.241591;0.969002;,
  0.205442;0.229808;0.951306;,
  -0.272929;0.235506;0.932763;,
  -0.049479;0.225878;0.972898;,
  -0.401372;0.700395;0.590210;,
  -0.713734;0.650198;0.260435;,
  -0.920962;0.203072;0.332551;,
  -0.488859;0.251578;0.835300;,
  -0.955885;0.166118;0.242257;,
  -0.982564;0.181593;-0.039903;,
  -0.981192;0.191450;-0.024678;,
  -0.979534;0.180900;0.088248;,
  -0.480589;-0.169700;-0.860369;,
  -0.631101;-0.156741;-0.759700;,
  -0.195522;-0.185337;-0.963027;,
  -0.217114;-0.005906;-0.976128;,
  0.507173;-0.210854;-0.835653;,
  -0.010029;-0.228240;-0.973553;,
  -0.498758;-0.186197;-0.846505;,
  0.169576;-0.202330;-0.964524;,
  0.453079;-0.206096;-0.867320;,
  0.635918;-0.192154;-0.747452;,
  0.564902;-0.222604;-0.794565;,
  0.910552;-0.182702;-0.370830;,
  0.980150;-0.138226;-0.142124;,
  0.989747;-0.142740;0.005060;,
  0.976237;-0.132206;0.171705;,
  0.905708;-0.148695;0.396968;,
  0.571902;-0.145921;0.807239;,
  0.196899;-0.116395;0.973490;,
  0.005621;-0.120400;0.992710;,
  -0.094013;-0.114706;0.988941;,
  -0.522573;-0.125208;0.843351;,
  -0.926439;-0.086763;0.366310;,
  -0.989081;-0.048310;0.139231;,
  -0.998245;-0.059166;-0.002582;,
  -0.983760;-0.179432;0.004442;,
  -0.973043;-0.172150;0.153466;,
  -0.988840;-0.049921;-0.140371;,
  -0.975151;-0.167759;-0.144699;,
  -0.476755;-0.226496;-0.849355;,
  -0.236795;-0.256846;-0.936994;,
  -0.622403;-0.200986;-0.756452;,
  0.524305;-0.242713;-0.816208;,
  -0.006579;-0.266937;-0.963691;,
  -0.501321;-0.224283;-0.835688;,
  0.904800;-0.244392;-0.348727;,
  0.628492;-0.315480;-0.710964;,
  0.963293;-0.268029;0.015072;,
  0.958981;-0.242523;-0.146757;,
  0.942955;-0.267367;0.198370;,
  0.630819;-0.318413;0.707588;,
  0.906301;-0.234272;0.351759;,
  -0.010519;-0.287858;0.957615;,
  0.177028;-0.293607;0.939391;,
  -0.148520;-0.291136;0.945083;,
  -0.918010;-0.191615;0.347191;,
  -0.611022;-0.294388;0.734839;,
  -0.488453;-0.206698;-0.847756;,
  -0.463101;-0.359570;-0.810091;,
  -0.623466;-0.186263;-0.759340;,
  0.539925;-0.224085;-0.811337;,
  -0.004500;-0.250070;-0.968217;,
  -0.511247;-0.208472;-0.833766;,
  0.428853;-0.354763;-0.830800;,
  0.491537;-0.228431;-0.840363;,
  0.465510;-0.252035;-0.848398;,
  0.220062;-0.270917;-0.937111;,
  0.654891;-0.205075;-0.727366;,
  0.644970;-0.224191;-0.730583;,
  0.848769;-0.298904;-0.436173;,
  0.688527;-0.326830;-0.647389;,
  0.962068;-0.272786;0.003462;,
  0.990164;-0.139912;-0.000324;,
  0.838034;-0.311918;0.447667;,
  0.684099;-0.345334;0.642459;,
  -0.849899;-0.297317;0.435055;,
  -0.683002;-0.326159;0.653550;,
  -0.571304;-0.171062;-0.802714;,
  -0.538106;-0.175902;-0.824318;,
  -0.002029;-0.201352;-0.979517;,
  -0.003111;-0.217919;-0.975962;,
  0.565720;-0.190725;-0.802237;,
  0.591743;-0.197225;-0.781628;,
  0.967149;-0.254151;0.005398;,
  0.998356;-0.057033;0.005670;,
  0.866184;-0.033759;-0.498584;,
  0.843919;-0.241518;-0.479030;,
  0.831522;0.327839;-0.448434;,
  0.962481;0.271297;0.005308;,
  -0.481464;-0.171138;-0.859596;,
  -0.643924;-0.185335;-0.742302;,
  -0.629815;-0.172900;-0.757258;,
  0.662897;-0.192113;-0.723644;,
  0.492056;-0.196188;-0.848170;,
  0.591060;-0.209189;-0.779031;,
  0.727294;-0.486870;-0.483737;,
  0.867712;-0.497012;0.007433;,
  -0.040305;0.853785;0.519063;,
  -0.042385;0.225266;0.973375;,
  -0.972299;0.220115;-0.078635;,
  -0.989428;0.141339;-0.032502;,
  -0.089976;-0.125250;0.988037;,
  -0.997908;-0.049572;0.041488;,
  -0.293192;-0.273295;-0.916160;,
  -0.183045;-0.192190;-0.964136;,
  -0.247978;-0.312126;0.917106;,
  -0.986080;-0.123216;0.111643;,
  -0.997913;-0.063272;0.012883;,
  -0.499486;-0.454826;-0.737324;,
  0.119539;0.086709;-0.989036;,
  0.127841;-0.038219;-0.991058;,
  0.989976;0.137289;0.033161;,
  0.998466;0.055360;-0.000310;,
  0.737546;0.673747;-0.045729;,
  0.996430;0.082721;0.016862;,
  0.272139;0.841089;0.467450;,
  0.248805;0.231283;0.940534;,
  0.173459;-0.210119;-0.962165;,
  0.990102;-0.129445;-0.054236;,
  0.990489;-0.128115;0.050175;,
  0.302208;-0.125675;0.944921;,
  0.293073;-0.300736;-0.907561;,
  0.974426;-0.194760;-0.112084;,
  0.974400;-0.190513;0.119368;,
  0.353114;-0.316003;0.880598;,
  0.478447;-0.432059;-0.764469;,
  0.720025;-0.516405;-0.463562;,
  0.854956;-0.518654;0.006920;,
  0.987954;-0.154485;0.008994;,
  0.695025;-0.529300;0.486602;,
  0.682103;-0.515465;0.518682;,
  0.460067;-0.457045;0.761215;,
  0.320474;-0.400374;0.858485;,
  0.716428;0.631165;-0.297256;,
  0.743817;0.668352;0.006468;,
  0.998297;0.057749;0.008308;,
  0.903425;0.004689;-0.428721;,
  0.158667;0.196060;-0.967670;,
  -0.072320;0.436827;-0.896634;,
  0.545245;0.591182;-0.594316;,
  0.574645;0.554722;-0.601719;,
  0.445309;0.642836;-0.623267;,
  0.034149;0.578355;-0.815070;,
  0.677501;-0.105133;-0.727969;,
  0.880294;-0.474373;0.007318;,
  0.769686;-0.499288;-0.397864;,
  0.748640;-0.662949;0.006034;,
  0.651073;-0.674234;-0.348587;,
  0.608993;0.761982;-0.220252;,
  0.648762;0.760971;0.005525;,
  0.608960;-0.019537;-0.792960;,
  0.390452;-0.495353;-0.775998;,
  0.265965;-0.661389;-0.701304;,
  -0.388379;-0.320854;-0.863837;,
  -0.239111;-0.176279;-0.954857;,
  -0.492513;0.208579;-0.844941;,
  -0.598978;0.127503;-0.790550;,
  0.649198;0.564987;-0.509247;,
  -0.525286;0.582252;-0.620530;,
  -0.474348;0.621313;-0.623670;,
  0.104322;0.431870;-0.895882;,
  -0.137083;0.191993;-0.971775;,
  0.017811;0.576167;-0.817138;,
  -0.363956;0.666418;-0.650710;,
  -0.697980;0.716096;0.005566;,
  -0.676011;0.670865;-0.304876;,
  -0.902915;0.017608;-0.429458;,
  -0.996595;0.082069;0.007927;,
  -0.789977;-0.474944;-0.387769;,
  -0.603436;-0.020493;-0.797148;,
  -0.415812;-0.493396;-0.763977;,
  0.231723;-0.206001;-0.950720;,
  0.371389;-0.360555;-0.855611;,
  -0.311618;-0.651511;-0.691684;,
  -0.691617;-0.636626;-0.341134;,
  0.618116;0.079539;-0.782053;,
  0.507369;0.177006;-0.843354;,
  0.088202;0.503616;-0.859414;,
  -0.625413;0.676616;-0.388651;,
  -0.653778;0.652342;-0.383437;,
  -0.655685;0.671776;-0.344666;,
  -0.558192;0.763541;-0.324695;,
  -0.610921;0.594599;-0.522712;,
  -0.552378;0.802789;-0.224518;,
  -0.895955;-0.444093;0.006764;,
  -0.784005;-0.620730;0.005544;,
  -0.591508;0.806286;0.004676;,
  -0.483196;0.661922;-0.573046;,
  -0.692547;0.615442;-0.376311;,
  0.709559;0.628852;0.317917;,
  0.896628;0.011504;0.442636;,
  0.712138;0.600108;0.364321;,
  0.625237;0.534628;0.568552;,
  0.645443;0.569528;0.508962;,
  0.631181;0.685115;0.363632;,
  0.621626;0.743723;0.245881;,
  0.765425;-0.498564;0.406889;,
  0.648240;-0.674423;0.353467;,
  -0.897513;0.022154;0.440431;,
  -0.668202;0.674147;0.314693;,
  -0.687821;-0.639016;0.344326;,
  -0.785950;-0.475361;0.395368;,
  -0.560483;0.793448;0.237277;,
  -0.619153;0.051370;0.783589;,
  -0.439473;-0.440245;0.782974;,
  -0.324849;-0.621952;0.712494;,
  0.263421;-0.347778;0.899811;,
  0.084707;-0.166377;0.982417;,
  -0.289152;0.233609;0.928341;,
  -0.615553;0.604706;0.505396;,
  -0.586563;0.737749;0.334170;,
  -0.592465;0.566752;0.572519;,
  -0.686812;0.647988;0.329242;,
  -0.152352;0.372671;0.915372;,
  -0.585781;0.568414;0.577725;,
  -0.497520;0.589985;0.635917;,
  -0.201413;0.479325;0.854213;,
  -0.013525;-0.294457;0.955569;,
  -0.346750;-0.387402;0.854215;,
  -0.452084;-0.457227;0.765874;,
  -0.705092;-0.532424;0.468370;,
  -0.717517;-0.477979;0.506660;,
  0.638706;0.536729;0.551340;,
  0.211965;0.374086;0.902846;,
  0.331708;0.246141;0.910705;,
  0.263707;0.479066;0.837230;,
  0.563798;0.572896;0.594913;,
  0.627816;0.062951;0.775812;,
  0.419297;-0.439780;0.794219;,
  -0.078334;-0.143340;0.986569;,
  -0.280775;-0.325437;0.902915;,
  0.282073;-0.631861;0.721932;,
  0.819419;-0.100577;0.564303;,
  0.808747;0.262678;0.526240;,
  0.802281;-0.286725;0.523578;,
  0.456323;-0.292973;0.840200;,
  0.295209;0.105499;0.949590;,
  0.463398;-0.019648;0.885932;,
  -0.719515;0.603325;0.343942;,
  -0.009655;-0.284761;0.958550;,
  -0.479727;-0.264446;0.836618;,
  -0.825117;-0.226084;0.517752;,
  -0.453742;0.006040;0.891113;,
  -0.266959;0.128162;0.955148;,
  0.504583;-0.371018;-0.779578;,
  -0.013515;-0.458954;-0.888357;,
  -0.507778;-0.331332;-0.795224;,
  -0.630768;0.070859;-0.772729;,
  -0.447946;0.049400;-0.892695;,
  -0.632302;-0.056109;-0.772688;,
  -0.339766;0.014064;-0.940405;,
  -0.305750;0.395136;-0.866248;,
  0.193616;0.265790;-0.944388;,
  0.902156;0.431370;0.005897;,
  0.788444;0.491144;-0.370315;,
  0.844754;0.535118;0.006267;,
  0.744572;0.583578;-0.324114;,
  0.667156;0.641820;-0.378114;,
  0.609832;0.726528;-0.316642;,
  0.704009;0.632065;-0.323828;,
  0.695875;0.615057;-0.370761;,
  0.698878;0.568285;-0.434306;,
  0.751781;0.566653;-0.337239;,
  -0.865083;-0.193158;-0.462949;,
  -0.866932;0.064188;-0.494276;,
  -0.998896;0.033023;-0.033415;,
  -0.981370;-0.187016;-0.044021;,
  -0.746018;-0.475521;-0.466194;,
  -0.888139;-0.458319;-0.033949;,
  -0.846391;-0.531860;-0.027330;,
  -0.712297;-0.551089;-0.434666;,
  -0.824995;-0.047343;0.563154;,
  -0.034513;0.538958;0.841625;,
  0.462053;-0.135920;0.876375;,
  -0.089448;0.495715;0.863867;,
  0.096420;0.618551;0.779806;,
  -0.464190;0.707750;0.532557;,
  -0.467681;-0.100791;0.878132;,
  0.000089;-0.134741;0.990881;,
  0.174115;0.500523;0.848033;,
  -0.350254;0.539570;0.765628;,
  0.012061;0.289021;0.957247;,
  0.009900;0.170096;0.985378;,
  0.754619;0.547278;0.361990;,
  0.686580;0.600103;0.410467;,
  0.710081;0.585605;0.390964;,
  0.782758;0.443091;0.436990;,
  0.691802;0.524673;0.496114;,
  0.745299;0.562418;0.358073;,
  0.493208;0.707252;0.506499;,
  0.441985;0.417715;0.793828;,
  -0.654309;0.642296;0.399169;,
  -0.722846;0.586680;0.365102;,
  -0.683593;0.628730;0.370675;,
  -0.671112;0.563737;0.481466;,
  -0.791238;0.305741;0.529589;,
  -0.936667;0.350156;-0.006793;,
  -0.755978;0.482221;0.442674;,
  -0.571742;0.496218;-0.653360;,
  -0.656718;0.606789;-0.447804;,
  -0.758411;0.531369;-0.377439;,
  -0.791937;0.419235;-0.443934;,
  -0.709753;0.621486;-0.331670;,
  -0.816730;0.576986;0.006275;,
  -0.879435;0.475980;0.006147;,
  -0.462333;0.083566;-0.882760;,
  -0.978231;0.169960;-0.119070;,
  -0.157239;-0.006366;-0.987540;,
  -0.995240;-0.097370;0.004082;,
  -0.957232;-0.288455;-0.022389;,
  -0.993451;-0.045382;-0.104857;,
  -0.990302;-0.095256;-0.101131;,
  -0.945931;0.161381;-0.281374;,
  -0.702053;0.669044;-0.243929;,
  -0.980236;0.162060;-0.113461;,
  -0.242637;0.598768;-0.763285;,
  -0.637759;-0.274481;-0.719669;,
  -0.590695;-0.167271;-0.789367;,
  -0.710990;-0.327878;-0.622085;,
  -0.921076;-0.184911;-0.342677;,
  -0.846175;-0.327853;-0.420119;,
  -0.885176;0.117929;-0.450062;,
  -0.748955;0.446017;-0.490036;,
  -0.538064;0.413028;-0.734775;,
  -0.574420;0.054292;-0.816759;,
  -0.908270;-0.099265;-0.406437;,
  -0.064742;0.005387;-0.997887;,
  0.451252;-0.036488;-0.891650;,
  -0.480050;0.039582;-0.876348;,
  0.430115;-0.032109;-0.902203;,
  0.562535;-0.038386;-0.825882;,
  0.882819;-0.057447;-0.466186;,
  0.995622;-0.088328;0.030569;,
  0.853781;-0.135418;0.502712;,
  0.523036;-0.116146;0.844360;,
  0.051215;-0.041732;0.997815;,
  -0.499724;0.003687;0.866177;,
  -0.901428;0.043083;0.430780;,
  -0.996911;0.067329;-0.040426;,
  0.583090;-0.046145;-0.811096;,
  -0.556053;0.039902;-0.830188;,
  -0.598488;0.049960;-0.799572;,
  -0.888630;0.052236;-0.455640;,
  -0.649556;0.033661;-0.759569;,
  0.019002;0.114925;-0.993192;,
  -0.000371;-0.269493;-0.963002;,
  0.596525;0.002118;-0.802591;,
  0.476789;-0.010604;-0.878954;,
  -0.030843;0.539060;-0.841703;,
  0.546846;0.644501;-0.534396;,
  -0.127670;0.300837;-0.945091;,
  0.372573;0.380842;-0.846256;,
  0.401120;-0.017206;-0.915864;,
  0.600670;0.451110;-0.660072;,
  0.173824;0.981536;-0.079828;,
  0.063421;0.997866;0.015561;,
  -0.048350;0.992687;0.110615;,
  -0.015011;0.999772;-0.015157;,
  0.132084;0.980609;-0.144776;,
  0.089114;0.975432;-0.201474;,
  -0.074756;0.982653;-0.169717;;
  369;
  4;0,1,2,3;,
  4;4,5,6,7;,
  4;8,4,7,9;,
  4;10,11,12,13;,
  4;14,10,13,15;,
  4;16,17,18,19;,
  4;20,21,22,23;,
  4;21,24,25,22;,
  4;26,27,28,29;,
  4;30,31,32,33;,
  4;31,34,35,32;,
  4;36,37,38,39;,
  4;40,41,42,43;,
  4;44,3,2,45;,
  4;44,46,47,3;,
  4;6,48,49,7;,
  4;49,50,9,7;,
  4;12,51,52,13;,
  4;13,52,53,15;,
  4;54,19,18,55;,
  4;56,23,22,57;,
  4;57,22,25,58;,
  4;59,29,28,60;,
  4;61,33,32,62;,
  4;62,32,35,63;,
  4;64,39,38,65;,
  4;66,43,42,67;,
  4;66,67,68,69;,
  4;68,67,70,71;,
  4;46,44,72,73;,
  4;72,44,45,74;,
  4;75,76,49,48;,
  4;50,49,76,77;,
  4;54,55,78,79;,
  4;56,57,80,81;,
  4;80,57,58,82;,
  4;59,60,83,84;,
  4;85,86,61,62;,
  4;87,85,62,63;,
  4;64,65,88,89;,
  4;73,72,90,91;,
  4;90,72,74,92;,
  4;93,94,76,75;,
  4;77,76,94,95;,
  4;96,97,98,99;,
  4;98,97,100,101;,
  4;102,103,79,78;,
  4;104,102,78,105;,
  4;106,104,105,84;,
  4;107,106,84,83;,
  4;108,109,89,88;,
  4;110,111,112,113;,
  4;112,114,115,113;,
  4;116,117,118,119;,
  4;120,118,117,121;,
  4;52,98,101,53;,
  4;99,98,52,51;,
  4;6,5,14,15;,
  4;53,48,6,15;,
  4;75,48,53,101;,
  4;93,75,101,100;,
  4;1,8,9,2;,
  4;9,50,45,2;,
  4;50,77,74,45;,
  4;77,95,92,74;,
  4;91,90,122,123;,
  4;122,90,92,124;,
  4;111,124,92,95;,
  4;111,95,94,112;,
  4;114,112,94,93;,
  4;114,93,100,125;,
  4;125,100,97,126;,
  4;127,126,97,96;,
  4;119,127,96,128;,
  4;116,119,128,129;,
  4;130,36,39,131;,
  4;35,34,130,131;,
  4;132,40,43,133;,
  4;38,37,132,133;,
  4;39,64,134,131;,
  4;134,63,35,131;,
  4;43,66,135,133;,
  4;135,65,38,133;,
  4;46,73,136,137;,
  4;87,63,134,138;,
  4;64,89,138,134;,
  4;88,65,135,139;,
  4;66,69,139,135;,
  4;69,68,140,139;,
  4;73,91,141,136;,
  4;142,16,19,143;,
  4;12,11,142,143;,
  4;144,20,23,145;,
  4;18,17,144,145;,
  4;146,26,29,147;,
  4;25,24,146,147;,
  4;148,30,33,149;,
  4;28,27,148,149;,
  4;19,54,150,143;,
  4;150,51,12,143;,
  4;23,56,151,145;,
  4;151,55,18,145;,
  4;29,59,152,147;,
  4;152,58,25,147;,
  4;33,61,153,149;,
  4;153,60,28,149;,
  4;99,51,150,154;,
  4;54,79,154,150;,
  4;78,55,151,155;,
  4;56,81,155,151;,
  4;82,58,152,156;,
  4;59,84,156,152;,
  4;83,60,153,157;,
  4;61,86,157,153;,
  4;128,96,158,159;,
  4;103,102,159,158;,
  4;96,99,154,158;,
  4;79,103,158,154;,
  4;129,128,159,160;,
  4;102,104,160,159;,
  4;105,78,155,161;,
  4;81,80,161,155;,
  4;129,160,162,163;,
  4;104,106,162,160;,
  4;84,105,161,156;,
  4;80,82,156,161;,
  4;163,162,164,165;,
  4;106,107,164,162;,
  4;165,164,157,86;,
  4;107,83,157,164;,
  4;166,167,168,169;,
  4;170,171,172,173;,
  4;174,172,171,175;,
  4;115,114,125,176;,
  4;169,168,177,178;,
  4;179,180,178,177;,
  4;167,166,181,182;,
  4;183,169,178,184;,
  4;178,180,185,184;,
  4;185,186,187,184;,
  4;187,170,183,184;,
  4;171,170,187,188;,
  4;187,186,189,188;,
  4;170,173,190,183;,
  4;166,169,183,190;,
  4;191,192,193,194;,
  4;195,193,192,196;,
  4;197,198,199,200;,
  4;201,199,202,203;,
  4;202,194,204,203;,
  4;204,205,206,203;,
  4;206,207,201,203;,
  4;208,205,204,209;,
  4;204,194,193,209;,
  4;193,195,210,209;,
  4;211,212,213,214;,
  4;213,191,215,214;,
  4;215,198,216,214;,
  4;200,199,201,217;,
  4;207,218,217,201;,
  4;198,197,219,216;,
  4;220,196,192,221;,
  4;192,191,213,221;,
  4;195,196,220,210;,
  4;191,194,202,215;,
  4;199,198,215,202;,
  4;168,167,222,223;,
  4;224,225,226,227;,
  4;226,222,228,227;,
  4;168,223,229,177;,
  4;230,179,177,229;,
  4;222,167,182,228;,
  4;197,200,231,232;,
  4;218,233,234,217;,
  4;231,200,217,234;,
  4;197,232,235,219;,
  4;236,231,234,237;,
  4;234,233,238,237;,
  4;238,239,240,237;,
  4;240,241,236,237;,
  4;235,232,242,243;,
  4;242,244,245,243;,
  4;232,231,236,242;,
  4;244,242,236,241;,
  4;244,241,246,247;,
  4;248,247,246,249;,
  4;250,165,86,85;,
  4;251,250,85,87;,
  4;251,252,253,254;,
  4;109,108,253,252;,
  4;251,87,138,252;,
  4;89,109,252,138;,
  4;225,255,256,257;,
  4;258,256,255,259;,
  4;229,223,260,261;,
  4;260,257,262,261;,
  4;262,263,264,261;,
  4;264,230,229,261;,
  4;225,257,260,226;,
  4;223,222,226,260;,
  4;121,117,265,266;,
  4;267,265,117,116;,
  4;116,129,163,267;,
  4;268,267,163,165;,
  4;246,241,240,269;,
  4;240,239,270,269;,
  4;245,244,247,271;,
  4;268,165,250,272;,
  4;273,272,250,251;,
  4;273,251,254,274;,
  4;275,263,262,276;,
  4;262,257,256,276;,
  4;113,115,277,278;,
  4;113,278,279,110;,
  4;280,123,122,281;,
  4;281,122,124,282;,
  4;281,282,283,284;,
  4;124,111,110,282;,
  4;282,110,279,283;,
  4;210,285,208,209;,
  4;284,283,285,210;,
  4;120,121,286,287;,
  4;288,289,287,286;,
  4;289,288,182,181;,
  4;290,289,181,291;,
  4;291,181,166,190;,
  4;291,190,173,292;,
  4;292,293,290,291;,
  3;289,294,287;,
  4;295,294,293,292;,
  4;292,173,172,295;,
  4;293,294,289,290;,
  4;296,297,298,299;,
  4;300,296,299,301;,
  4;300,91,123,296;,
  4;254,253,302,301;,
  4;303,300,301,302;,
  4;303,141,91,300;,
  4;274,254,301,299;,
  4;297,296,123,280;,
  4;299,298,304,274;,
  4;276,256,258,305;,
  4;268,306,265,267;,
  4;305,307,275,276;,
  4;269,308,249,246;,
  4;309,248,249,308;,
  4;271,247,248,309;,
  4;273,274,304,310;,
  4;306,268,272,311;,
  4;270,312,308,269;,
  4;272,273,310,311;,
  4;313,312,314,315;,
  4;228,316,317,227;,
  4;317,318,224,227;,
  4;288,316,228,182;,
  4;316,288,286,319;,
  4;121,266,319,286;,
  3;320,316,319;,
  4;255,225,224,321;,
  4;321,224,318,320;,
  4;321,322,259,255;,
  4;258,259,322,305;,
  4;323,266,265,306;,
  4;266,323,320,319;,
  4;320,323,322,321;,
  4;322,323,307,305;,
  4;323,306,311,315;,
  4;307,323,315,314;,
  4;316,320,318,317;,
  4;324,325,235,243;,
  4;245,326,324,243;,
  4;327,325,324,326;,
  4;271,327,326,245;,
  4;328,304,298,329;,
  4;328,330,327,313;,
  4;309,313,327,271;,
  4;304,328,313,310;,
  3;312,313,308;,
  3;308,313,309;,
  4;315,311,310,313;,
  3;325,327,330;,
  4;331,332,333,334;,
  4;216,335,211,214;,
  4;332,331,220,221;,
  4;221,213,212,332;,
  4;281,284,331,280;,
  4;220,331,284,210;,
  4;334,297,280,331;,
  3;332,335,333;,
  4;297,334,329,298;,
  4;219,336,335,216;,
  4;325,336,219,235;,
  4;337,329,334,333;,
  4;336,337,333,335;,
  4;337,336,325,330;,
  4;330,328,329,337;,
  4;335,332,212,211;,
  4;338,0,3,47;,
  4;70,67,42,339;,
  4;47,46,137,340;,
  4;387,388,388,387;,
  4;388,389,389,388;,
  4;36,130,390,37;,
  4;130,391,391,390;,
  4;26,146,148,27;,
  4;146,392,392,148;,
  4;341,342,108,88;,
  4;343,344,71,70;,
  4;253,108,342,302;,
  4;140,341,88,139;,
  4;68,71,344,140;,
  4;41,345,339,42;,
  4;339,345,346,347;,
  4;348,338,47,340;,
  4;343,70,339,347;,
  4;349,350,137,136;,
  4;351,349,136,141;,
  4;341,352,353,342;,
  4;353,303,302,342;,
  4;344,352,341,140;,
  4;352,349,351,353;,
  4;303,353,351,141;,
  4;354,355,356,357;,
  4;350,358,354,357;,
  4;340,357,356,348;,
  4;357,340,137,350;,
  4;344,343,358,352;,
  4;347,354,358,343;,
  4;355,354,347,346;,
  4;358,350,349,352;,
  4;355,346,348,356;,
  4;393,348,346,393;,
  4;5,4,359,360;,
  4;4,8,361,359;,
  4;11,10,362,363;,
  4;21,20,364,365;,
  4;24,21,365,366;,
  4;31,30,367,368;,
  4;34,31,368,369;,
  4;41,40,370,371;,
  4;10,14,372,362;,
  4;14,5,360,372;,
  4;1,0,373,374;,
  4;8,1,374,361;,
  4;345,41,371,375;,
  4;0,338,376,373;,
  4;20,11,363,364;,
  4;40,34,369,370;,
  4;30,24,366,367;,
  4;338,345,375,376;,
  4;377,285,283,378;,
  4;283,279,278,378;,
  4;118,379,127,119;,
  4;126,127,379,380;,
  4;176,125,126,380;,
  4;188,381,175,171;,
  4;174,175,381,382;,
  4;295,172,174,382;,
  4;189,383,381,188;,
  4;384,385,176,380;,
  4;176,385,277,115;,
  4;278,277,385,378;,
  4;385,383,377,378;,
  4;386,120,287,294;,
  4;120,386,379,118;,
  4;380,379,386,384;,
  4;384,386,382,381;,
  4;382,386,294,295;,
  4;383,385,384,381;;
 }
 MeshTextureCoords {
  434;
  0.435950;0.594560;,
  0.430070;0.599670;,
  0.387960;0.581680;,
  0.393770;0.572510;,
  0.684680;0.973680;,
  0.684360;0.976880;,
  0.641200;0.975000;,
  0.641450;0.972570;,
  0.684430;0.970560;,
  0.641500;0.970050;,
  0.960660;0.690530;,
  0.954230;0.689370;,
  0.958670;0.643490;,
  0.965200;0.643560;,
  0.970500;0.688840;,
  0.976310;0.642050;,
  0.949370;0.685360;,
  0.943830;0.684960;,
  0.941340;0.642850;,
  0.951750;0.642200;,
  0.938370;0.688760;,
  0.919150;0.690390;,
  0.913590;0.647330;,
  0.933980;0.645490;,
  0.900580;0.690550;,
  0.893920;0.644500;,
  0.894000;0.687000;,
  0.888840;0.688080;,
  0.877960;0.641270;,
  0.886330;0.641220;,
  0.884580;0.692150;,
  0.869460;0.691820;,
  0.851260;0.644520;,
  0.870660;0.641970;,
  0.490160;0.523420;,
  0.481110;0.537270;,
  0.447990;0.494900;,
  0.461660;0.481710;,
  0.475420;0.538340;,
  0.471820;0.542760;,
  0.437230;0.508590;,
  0.442610;0.500210;,
  0.471790;0.550500;,
  0.461400;0.565740;,
  0.426370;0.534770;,
  0.435750;0.517260;,
  0.375730;0.558010;,
  0.369260;0.566740;,
  0.379660;0.552500;,
  0.397150;0.567410;,
  0.617650;0.974900;,
  0.617350;0.972270;,
  0.618000;0.969580;,
  0.955950;0.620690;,
  0.962860;0.620330;,
  0.973620;0.618790;,
  0.949210;0.621580;,
  0.939650;0.622310;,
  0.932710;0.623370;,
  0.913410;0.624610;,
  0.894660;0.622350;,
  0.887220;0.620800;,
  0.879060;0.620670;,
  0.871090;0.620450;,
  0.850860;0.618780;,
  0.440650;0.465900;,
  0.429330;0.482550;,
  0.424880;0.488790;,
  0.419570;0.496830;,
  0.416530;0.504170;,
  0.407330;0.520770;,
  0.373260;0.497680;,
  0.385750;0.488020;,
  0.395460;0.535810;,
  0.368880;0.512810;,
  0.345200;0.526370;,
  0.349580;0.522970;,
  0.340700;0.535130;,
  0.576240;0.974990;,
  0.575780;0.972390;,
  0.576240;0.969690;,
  0.934580;0.579940;,
  0.943240;0.581630;,
  0.914930;0.583640;,
  0.929710;0.588640;,
  0.899760;0.588330;,
  0.886500;0.580980;,
  0.895340;0.579420;,
  0.865250;0.575640;,
  0.880690;0.578630;,
  0.389020;0.465960;,
  0.396030;0.451800;,
  0.380940;0.479050;,
  0.387580;0.472330;,
  0.336080;0.515610;,
  0.343520;0.512750;,
  0.331080;0.523670;,
  0.562210;0.974990;,
  0.561590;0.972450;,
  0.562150;0.969770;,
  0.944280;0.568330;,
  0.950140;0.564240;,
  0.953810;0.577710;,
  0.948540;0.579290;,
  0.959070;0.564550;,
  0.963110;0.578400;,
  0.933090;0.570670;,
  0.941020;0.573370;,
  0.915490;0.568500;,
  0.915240;0.574880;,
  0.897650;0.570210;,
  0.889320;0.573520;,
  0.372120;0.475580;,
  0.379430;0.470970;,
  0.538780;0.970330;,
  0.544720;0.970110;,
  0.544910;0.972440;,
  0.539170;0.972420;,
  0.544610;0.974650;,
  0.538660;0.974410;,
  0.916390;0.553640;,
  0.916760;0.548790;,
  0.931900;0.548300;,
  0.932110;0.553190;,
  0.430070;0.419090;,
  0.427670;0.424910;,
  0.413610;0.422610;,
  0.413970;0.416410;,
  0.675500;0.978980;,
  0.643030;0.978030;,
  0.617620;0.977850;,
  0.584010;0.977990;,
  0.564060;0.977530;,
  0.675730;0.967410;,
  0.643380;0.967020;,
  0.618000;0.966460;,
  0.584250;0.966510;,
  0.564290;0.966930;,
  0.326340;0.506370;,
  0.330350;0.502660;,
  0.321460;0.512000;,
  0.544210;0.967330;,
  0.544000;0.977210;,
  0.954880;0.550540;,
  0.948200;0.550950;,
  0.943270;0.551800;,
  0.932880;0.565710;,
  0.915700;0.563890;,
  0.477260;0.538040;,
  0.444710;0.498440;,
  0.471920;0.545340;,
  0.436630;0.512180;,
  0.426400;0.486560;,
  0.418270;0.499750;,
  0.352440;0.520930;,
  0.382350;0.549510;,
  0.387810;0.469870;,
  0.382780;0.483290;,
  0.368760;0.494800;,
  0.347490;0.512630;,
  0.950880;0.686600;,
  0.954600;0.642910;,
  0.942000;0.686410;,
  0.938410;0.643950;,
  0.896260;0.688350;,
  0.889270;0.642430;,
  0.887630;0.689300;,
  0.875320;0.641720;,
  0.951880;0.621210;,
  0.936990;0.622680;,
  0.890030;0.621220;,
  0.876200;0.620500;,
  0.945260;0.580370;,
  0.932100;0.583670;,
  0.897760;0.583080;,
  0.884470;0.579830;,
  0.941890;0.571240;,
  0.932920;0.568190;,
  0.915560;0.566250;,
  0.915130;0.578320;,
  0.898050;0.567740;,
  0.898350;0.565190;,
  0.888590;0.571410;,
  0.886190;0.568130;,
  0.440000;0.390370;,
  0.417620;0.387480;,
  0.418120;0.382690;,
  0.441150;0.385930;,
  0.455160;0.395740;,
  0.453190;0.409490;,
  0.449340;0.410430;,
  0.451430;0.397970;,
  0.446770;0.419360;,
  0.449220;0.419570;,
  0.537040;0.977680;,
  0.418390;0.381210;,
  0.441130;0.384410;,
  0.418810;0.379870;,
  0.440640;0.382960;,
  0.439430;0.391560;,
  0.417470;0.388830;,
  0.450610;0.388930;,
  0.451560;0.387790;,
  0.452350;0.386900;,
  0.457780;0.394960;,
  0.456460;0.395230;,
  0.454440;0.409440;,
  0.455570;0.409620;,
  0.447850;0.392390;,
  0.806610;0.033500;,
  0.806760;0.046230;,
  0.802750;0.044960;,
  0.803120;0.031070;,
  0.805110;0.055570;,
  0.807940;0.055530;,
  0.841630;0.028660;,
  0.819120;0.027960;,
  0.818690;0.023890;,
  0.841850;0.024330;,
  0.818940;0.022450;,
  0.808820;0.025230;,
  0.808070;0.024000;,
  0.801900;0.030370;,
  0.800640;0.029840;,
  0.807470;0.022980;,
  0.819670;0.021100;,
  0.800350;0.044650;,
  0.801480;0.044720;,
  0.805110;0.059500;,
  0.812830;0.033980;,
  0.809730;0.037510;,
  0.807600;0.034240;,
  0.811720;0.029550;,
  0.811040;0.028640;,
  0.819490;0.029150;,
  0.841810;0.022890;,
  0.841600;0.021490;,
  0.841570;0.029960;,
  0.809330;0.058990;,
  0.808000;0.046790;,
  0.398320;0.386570;,
  0.397700;0.382050;,
  0.390890;0.392170;,
  0.389730;0.391420;,
  0.392950;0.386810;,
  0.393650;0.387790;,
  0.398580;0.387830;,
  0.397850;0.380550;,
  0.398340;0.379220;,
  0.862080;0.026640;,
  0.860870;0.030600;,
  0.861820;0.023800;,
  0.862150;0.025180;,
  0.860420;0.031730;,
  0.869600;0.028710;,
  0.870530;0.027580;,
  0.871250;0.026610;,
  0.876690;0.033560;,
  0.875510;0.034100;,
  0.874100;0.034760;,
  0.866290;0.031710;,
  0.865390;0.032460;,
  0.868870;0.036730;,
  0.867540;0.037190;,
  0.874310;0.048790;,
  0.869070;0.049470;,
  0.869230;0.058700;,
  0.872590;0.058910;,
  0.871220;0.561190;,
  0.376650;0.465040;,
  0.380260;0.448150;,
  0.378100;0.469030;,
  0.369820;0.474400;,
  0.367490;0.473140;,
  0.387590;0.404180;,
  0.382460;0.402790;,
  0.384740;0.388670;,
  0.382560;0.413230;,
  0.385890;0.413480;,
  0.390030;0.383130;,
  0.389270;0.381890;,
  0.383440;0.387830;,
  0.382350;0.387130;,
  0.388680;0.380830;,
  0.399570;0.422770;,
  0.398560;0.416540;,
  0.900800;0.552620;,
  0.901890;0.547700;,
  0.889440;0.549460;,
  0.875810;0.048740;,
  0.877050;0.048850;,
  0.867610;0.049890;,
  0.877270;0.547210;,
  0.359700;0.456470;,
  0.364870;0.444990;,
  0.355830;0.467990;,
  0.379750;0.402420;,
  0.381000;0.402520;,
  0.535850;0.974080;,
  0.535540;0.972390;,
  0.535930;0.970620;,
  0.326070;0.499870;,
  0.322510;0.503130;,
  0.318310;0.507750;,
  0.810710;0.066870;,
  0.805280;0.069220;,
  0.803380;0.067000;,
  0.807460;0.063410;,
  0.537210;0.966900;,
  0.533830;0.969330;,
  0.803030;0.060050;,
  0.415190;0.404830;,
  0.434210;0.407560;,
  0.416750;0.393210;,
  0.437790;0.395940;,
  0.445230;0.397450;,
  0.447030;0.393260;,
  0.450350;0.398620;,
  0.447740;0.401480;,
  0.445760;0.410770;,
  0.448050;0.410870;,
  0.337290;0.494800;,
  0.333530;0.491500;,
  0.343310;0.479230;,
  0.347530;0.481720;,
  0.347360;0.502330;,
  0.356110;0.487340;,
  0.358220;0.488600;,
  0.349090;0.504470;,
  0.351110;0.466120;,
  0.381660;0.416930;,
  0.891310;0.544990;,
  0.379900;0.417850;,
  0.872920;0.062610;,
  0.868440;0.063130;,
  0.354910;0.455550;,
  0.880440;0.540900;,
  0.874530;0.063790;,
  0.357820;0.443210;,
  0.866590;0.064490;,
  0.878290;0.066780;,
  0.876750;0.069650;,
  0.398550;0.392300;,
  0.393720;0.392200;,
  0.391560;0.395520;,
  0.398270;0.404410;,
  0.390370;0.405120;,
  0.388890;0.404840;,
  0.385870;0.418040;,
  0.387530;0.419610;,
  0.389090;0.424560;,
  0.378100;0.427010;,
  0.376790;0.423560;,
  0.375620;0.420480;,
  0.864590;0.036710;,
  0.859770;0.036130;,
  0.866280;0.040320;,
  0.866020;0.049910;,
  0.856060;0.060100;,
  0.854170;0.066140;,
  0.840270;0.064030;,
  0.840890;0.057810;,
  0.858250;0.048140;,
  0.864410;0.069190;,
  0.875610;0.073140;,
  0.811870;0.060980;,
  0.810260;0.047040;,
  0.822170;0.045740;,
  0.824630;0.057690;,
  0.820380;0.033740;,
  0.815180;0.065740;,
  0.825870;0.064300;,
  0.841610;0.034410;,
  0.841420;0.046130;,
  0.439170;0.590820;,
  0.413120;0.550320;,
  0.399080;0.563950;,
  0.365780;0.492950;,
  0.360190;0.489860;,
  0.392320;0.538780;,
  0.363460;0.511820;,
  0.448810;0.579220;,
  0.444120;0.580320;,
  0.409040;0.552820;,
  0.439210;0.587420;,
  0.354800;0.519970;,
  0.384250;0.547430;,
  0.349800;0.513160;,
  0.359010;0.511680;,
  0.351210;0.506010;,
  0.406010;0.554160;,
  0.441560;0.581310;,
  0.438730;0.584820;,
  0.400280;0.561290;,
  0.390460;0.540570;,
  0.708650;0.974860;,
  0.708040;0.977620;,
  0.709260;0.972030;,
  0.956810;0.716660;,
  0.950420;0.714760;,
  0.935760;0.711770;,
  0.919120;0.710700;,
  0.902920;0.712210;,
  0.888580;0.715250;,
  0.872150;0.719350;,
  0.510040;0.540630;,
  0.502210;0.554020;,
  0.494020;0.567170;,
  0.484300;0.581190;,
  0.966480;0.719350;,
  0.707550;0.980350;,
  0.461600;0.609700;,
  0.456590;0.615890;,
  0.709810;0.969110;,
  0.473850;0.595160;,
  0.464720;0.606010;,
  0.799450;0.063180;,
  0.801110;0.067060;,
  0.532600;0.972300;,
  0.943490;0.546810;,
  0.947780;0.546060;,
  0.953150;0.545710;,
  0.448530;0.423410;,
  0.444950;0.422620;,
  0.450380;0.424240;,
  0.445690;0.427140;,
  0.449010;0.431030;,
  0.446950;0.433050;,
  0.442550;0.430180;,
  0.533740;0.975240;,
  0.453640;0.427930;,
  0.451210;0.431390;,
  0.442250;0.424260;,
  0.438650;0.428440;;
 }
}
