xof 0302txt 0064
template Header {
 <3D82AB43-62DA-11cf-AB39-0020AF71E433>
 WORD major;
 WORD minor;
 DWORD flags;
}

template Vector {
 <3D82AB5E-62DA-11cf-AB39-0020AF71E433>
 FLOAT x;
 FLOAT y;
 FLOAT z;
}

template Coords2d {
 <F6F23F44-7686-11cf-8F52-0040333594A3>
 FLOAT u;
 FLOAT v;
}

template Matrix4x4 {
 <F6F23F45-7686-11cf-8F52-0040333594A3>
 array FLOAT matrix[16];
}

template ColorRGBA {
 <35FF44E0-6C7C-11cf-8F52-0040333594A3>
 FLOAT red;
 FLOAT green;
 FLOAT blue;
 FLOAT alpha;
}

template ColorRGB {
 <D3E16E81-7835-11cf-8F52-0040333594A3>
 FLOAT red;
 FLOAT green;
 FLOAT blue;
}

template IndexedColor {
 <1630B820-7842-11cf-8F52-0040333594A3>
 DWORD index;
 ColorRGBA indexColor;
}

template Boolean {
 <4885AE61-78E8-11cf-8F52-0040333594A3>
 WORD truefalse;
}

template Boolean2d {
 <4885AE63-78E8-11cf-8F52-0040333594A3>
 Boolean u;
 Boolean v;
}

template MaterialWrap {
 <4885AE60-78E8-11cf-8F52-0040333594A3>
 Boolean u;
 Boolean v;
}

template TextureFilename {
 <A42790E1-7810-11cf-8F52-0040333594A3>
 STRING filename;
}

template Material {
 <3D82AB4D-62DA-11cf-AB39-0020AF71E433>
 ColorRGBA faceColor;
 FLOAT power;
 ColorRGB specularColor;
 ColorRGB emissiveColor;
 [...]
}

template MeshFace {
 <3D82AB5F-62DA-11cf-AB39-0020AF71E433>
 DWORD nFaceVertexIndices;
 array DWORD faceVertexIndices[nFaceVertexIndices];
}

template MeshFaceWraps {
 <4885AE62-78E8-11cf-8F52-0040333594A3>
 DWORD nFaceWrapValues;
 Boolean2d faceWrapValues;
}

template MeshTextureCoords {
 <F6F23F40-7686-11cf-8F52-0040333594A3>
 DWORD nTextureCoords;
 array Coords2d textureCoords[nTextureCoords];
}

template MeshMaterialList {
 <F6F23F42-7686-11cf-8F52-0040333594A3>
 DWORD nMaterials;
 DWORD nFaceIndexes;
 array DWORD faceIndexes[nFaceIndexes];
 [Material]
}

template MeshNormals {
 <F6F23F43-7686-11cf-8F52-0040333594A3>
 DWORD nNormals;
 array Vector normals[nNormals];
 DWORD nFaceNormals;
 array MeshFace faceNormals[nFaceNormals];
}

template MeshVertexColors {
 <1630B821-7842-11cf-8F52-0040333594A3>
 DWORD nVertexColors;
 array IndexedColor vertexColors[nVertexColors];
}

template Mesh {
 <3D82AB44-62DA-11cf-AB39-0020AF71E433>
 DWORD nVertices;
 array Vector vertices[nVertices];
 DWORD nFaces;
 array MeshFace faces[nFaces];
 [...]
}

Header{
1;
0;
1;
}

Mesh {
 653;
 -0.44615;-2.15090;2.39689;,
 -0.79479;-2.18493;2.39689;,
 -0.52255;-5.67325;2.39689;,
 -0.13001;-5.63783;2.39689;,
 -0.25032;-9.16156;2.39689;,
 0.18613;-9.12473;2.39689;,
 -0.43574;-2.17981;2.39689;,
 -0.77556;-2.15020;2.39689;,
 -1.05172;-5.64063;2.39689;,
 -0.66338;-5.67120;2.39689;,
 -1.32787;-9.13109;2.39689;,
 -0.89101;-9.16261;2.39689;,
 -0.29987;0.48249;-2.69551;,
 -0.66718;0.73778;-2.76938;,
 -0.67631;1.16850;-2.36885;,
 -0.34454;1.04587;-2.11153;,
 -3.78180;2.06541;-3.99174;,
 -5.01775;2.44306;-4.66205;,
 -4.66228;3.35055;-3.20070;,
 -3.50953;2.91866;-2.75954;,
 -0.91334;0.70512;-2.49541;,
 -0.66718;0.73778;-2.76938;,
 -0.59207;0.04142;-3.17917;,
 -0.94669;-0.18450;-2.98326;,
 -4.13944;-3.29430;-4.25873;,
 -5.14263;-4.08650;-4.04335;,
 -5.10763;-2.95937;-5.33105;,
 -3.33092;-2.09545;-4.65651;,
 -4.89929;-4.77512;-2.68475;,
 -3.97020;-4.42508;-2.25687;,
 -4.10595;-4.28880;1.71157;,
 -5.02824;-4.60290;1.82980;,
 -4.73341;-5.15694;-0.19189;,
 -4.04516;-4.81944;-0.11568;,
 -4.20010;-1.30691;3.61642;,
 -5.48148;-1.04261;3.86892;,
 -5.46053;-2.64597;3.49043;,
 -4.12689;-2.74004;3.16505;,
 -4.13228;1.55647;3.30210;,
 -5.10611;2.07299;3.35855;,
 -5.36520;0.67290;3.84883;,
 -4.18526;0.17305;3.67486;,
 -3.18466;3.12197;0.77173;,
 -4.13505;3.58240;0.92672;,
 -4.58689;3.12447;2.27425;,
 -3.52846;2.75658;1.97893;,
 -3.15861;3.18851;-1.46897;,
 -4.21780;3.68663;-1.60158;,
 -4.04002;3.71241;-0.47234;,
 -3.12201;3.26566;-0.37889;,
 -1.90249;1.34249;-2.84683;,
 -1.77087;1.95849;-2.30256;,
 -0.90009;1.07635;-2.07128;,
 -3.98259;1.08744;-4.86781;,
 -5.25410;1.63599;-5.35929;,
 -0.91485;1.40928;-1.36197;,
 -1.67242;2.09170;-1.75360;,
 -1.84520;2.23203;-0.40873;,
 -0.92656;1.69793;-0.46501;,
 -0.91161;1.61812;0.37473;,
 -1.95981;2.21510;0.52164;,
 -2.27723;1.85508;2.04373;,
 -0.97086;1.23752;1.45796;,
 -0.99722;0.49648;2.19673;,
 -2.18309;1.41442;2.43193;,
 -2.32475;-0.02577;3.03247;,
 -1.04251;-0.31594;2.54061;,
 -1.06354;-1.53987;2.51698;,
 -2.51168;-1.38145;3.04114;,
 -2.31126;-2.63436;2.74245;,
 -1.02058;-2.46635;2.03915;,
 -0.94323;-3.14713;1.23326;,
 -2.42854;-3.64564;1.41304;,
 -2.33191;-3.93508;0.17619;,
 -0.99137;-3.36369;0.20719;,
 -2.26777;-3.51379;-2.06528;,
 -2.21901;-2.23077;-3.65181;,
 -1.00238;-2.03561;-2.57483;,
 -0.95502;-2.71977;-1.80824;,
 -2.26425;-1.33768;-4.19320;,
 -1.00537;-1.49092;-2.90945;,
 -4.08173;-3.35224;2.78021;,
 -5.29145;-3.49912;3.04075;,
 -0.97643;-2.82631;1.74557;,
 -2.33115;-3.00644;2.30398;,
 -2.01050;-0.78292;-4.11075;,
 -0.92676;-0.77246;-3.05002;,
 -2.14290;-0.19829;-4.16089;,
 -3.95867;-4.76004;-1.02120;,
 -2.28719;-3.84404;-0.56278;,
 -4.73752;-5.13549;-1.24880;,
 -0.96672;-3.27375;-0.64353;,
 -0.27512;-0.21564;-3.03249;,
 -0.59207;0.04142;-3.17917;,
 -0.26048;-0.95234;-3.04276;,
 -0.60623;-0.79193;-3.28600;,
 -0.25311;-1.75660;-2.75800;,
 -0.62330;-1.77636;-2.95492;,
 -0.65852;-2.19095;-2.67384;,
 -0.32037;-2.22361;-2.31846;,
 -0.30885;-3.28819;-0.74398;,
 -0.65215;-3.53375;-0.65390;,
 -0.67691;-2.82146;-2.05159;,
 -0.34034;-2.67344;-1.80901;,
 -0.33983;-3.45988;0.26646;,
 -0.64038;-3.68316;0.27831;,
 -0.65215;-3.53375;-0.65390;,
 -0.30885;-3.28819;-0.74398;,
 -0.27345;-3.37131;1.40100;,
 -0.56477;-3.57797;1.35357;,
 -0.36182;-2.96183;1.88579;,
 -0.35703;-2.60560;2.22199;,
 -0.72228;-2.78940;2.30086;,
 -0.68824;-3.18177;1.92970;,
 -0.33667;-1.65318;2.66100;,
 -0.67812;-1.71965;2.82390;,
 -0.36664;-0.40244;2.58804;,
 -0.71532;-0.34342;2.81437;,
 -0.35597;0.42622;2.28704;,
 -0.63579;0.60192;2.48086;,
 -0.37380;1.23316;1.54891;,
 -0.71363;1.45690;1.65370;,
 -0.34167;1.63290;0.64372;,
 -0.64484;1.89753;0.43433;,
 -0.33722;1.67965;-0.57771;,
 -0.71877;1.88572;-0.52363;,
 -0.37545;1.44732;-1.28725;,
 -0.74378;1.64671;-1.40700;,
 -0.71877;1.88572;-0.52363;,
 -0.33722;1.67965;-0.57771;,
 -0.67631;1.16850;-2.36885;,
 -0.74378;1.64671;-1.40700;,
 -0.71877;1.88572;-0.52363;,
 -0.64484;1.89753;0.43433;,
 -0.71363;1.45690;1.65370;,
 -0.63579;0.60192;2.48086;,
 -0.71532;-0.34342;2.81437;,
 -0.67812;-1.71965;2.82390;,
 -0.72228;-2.78940;2.30086;,
 -0.68824;-3.18177;1.92970;,
 -0.64038;-3.68316;0.27831;,
 -0.56477;-3.57797;1.35357;,
 -0.96672;-3.27375;-0.64353;,
 -0.65215;-3.53375;-0.65390;,
 -0.65852;-2.19095;-2.67384;,
 -0.67691;-2.82146;-2.05159;,
 -0.62330;-1.77636;-2.95492;,
 -0.60623;-0.79193;-3.28600;,
 -2.28719;-3.84404;-0.56278;,
 -0.65215;-3.53375;-0.65390;,
 -3.95867;-4.76004;-1.02120;,
 -4.73752;-5.13549;-1.24880;,
 -3.18405;-0.09519;-3.13868;,
 -3.74783;0.17649;-3.08090;,
 -3.51331;1.10113;-2.42650;,
 -2.83228;1.28686;-2.24381;,
 -4.41627;1.08550;-2.45587;,
 -4.92974;0.36623;-3.02219;,
 -4.17266;1.53006;-1.96856;,
 -3.32192;1.80865;-1.43533;,
 -6.48052;0.37031;-2.93511;,
 -6.55256;0.74187;-2.54686;,
 -6.53600;1.10425;-2.15611;,
 -4.77200;1.36920;-2.16086;,
 -2.28387;1.82827;-1.39314;,
 -2.29647;1.36083;-2.14590;,
 -2.28274;0.57345;-2.74664;,
 -2.91472;-0.41494;-3.18561;,
 -2.35161;-0.52152;-3.07865;,
 -3.75736;-0.49565;-3.12439;,
 -5.20852;-0.44739;-3.13369;,
 -6.55663;-0.49645;-3.05683;,
 -2.91883;-1.21869;-3.19535;,
 -2.38447;-1.04264;-3.08231;,
 -3.83550;-1.34790;-3.09696;,
 -5.32411;-1.56032;-3.05246;,
 -6.63977;-1.45248;-3.00189;,
 -2.42059;-1.74942;-2.92726;,
 -3.19173;-1.75789;-3.07853;,
 -3.91937;-2.30979;-2.86402;,
 -5.41408;-2.52336;-2.68394;,
 -6.74219;-2.39264;-2.62139;,
 -1.78727;1.63495;-1.32904;,
 -1.76608;1.17050;-2.02254;,
 -1.75331;0.40819;-2.59015;,
 -1.75127;-0.19361;-2.80005;,
 -1.76835;-1.00012;-2.85284;,
 -1.75185;-1.70441;-2.68450;,
 -2.58717;-2.67544;-2.39833;,
 -1.78143;-2.60052;-2.11091;,
 -4.38480;-2.87663;-2.28144;,
 -6.76066;-2.71467;-2.15835;,
 -1.76403;-3.05046;-1.52298;,
 -2.33078;-3.23317;-1.70582;,
 -1.71813;-3.35027;-0.64831;,
 -2.16268;-3.58066;-0.76639;,
 -6.77830;-3.03806;-1.69967;,
 -4.38665;-3.23664;-1.82548;,
 -1.72469;-3.30206;0.43023;,
 -2.25398;-3.55621;0.39604;,
 -4.45864;-3.62605;0.08113;,
 -6.94485;-3.33339;-0.42922;,
 -6.82217;-3.25611;-1.15463;,
 -4.42652;-3.57902;-1.03644;,
 -6.94485;-3.33339;-0.42922;,
 -4.45864;-3.62605;0.08113;,
 -4.85139;-3.30691;0.96752;,
 -7.05473;-3.15237;0.37264;,
 -5.40611;-2.88994;1.59309;,
 -3.31794;-2.71096;1.84028;,
 -3.76031;-2.39137;2.18473;,
 -2.25398;-3.55621;0.39604;,
 -1.72469;-3.30206;0.43023;,
 -1.77061;-2.90252;1.29965;,
 -2.23862;-3.19910;1.25844;,
 -7.16712;-2.85819;1.04872;,
 -1.76435;-2.36337;1.85803;,
 -2.19417;-2.56163;1.97799;,
 -2.79680;-1.55791;2.48579;,
 -3.38392;-1.65689;2.53335;,
 -1.76040;-1.27336;2.35321;,
 -2.21067;-1.41764;2.53604;,
 -3.03462;-0.59553;2.57505;,
 -3.69880;-0.92876;2.63844;,
 -1.75179;-0.33045;2.37757;,
 -2.21746;-0.40662;2.58611;,
 -5.60104;-2.12091;2.01607;,
 -7.11856;-2.07978;1.62862;,
 -5.32167;-1.18605;2.35198;,
 -6.86365;-1.19319;2.02067;,
 -1.75409;0.52492;2.07499;,
 -2.24360;0.55138;2.27397;,
 -3.54494;0.33803;2.28781;,
 -4.73119;-0.42125;2.54151;,
 -5.33838;-0.42542;2.44228;,
 -6.78200;-0.37622;2.12855;,
 -4.98079;0.28632;2.21079;,
 -6.60015;0.28462;1.88838;,
 -1.77495;1.20441;1.52742;,
 -2.27043;1.31518;1.69283;,
 -3.49720;1.35748;1.55736;,
 -4.63614;0.83341;1.91832;,
 -6.54907;0.56493;1.69274;,
 -1.74384;1.77603;0.48751;,
 -2.18388;1.92778;0.71083;,
 -2.22023;2.05223;-0.52754;,
 -2.91243;2.06793;-0.22054;,
 -3.04058;1.79621;1.01977;,
 -1.75737;1.84386;-0.63418;,
 -3.32192;1.80865;-1.43533;,
 -4.17266;1.53006;-1.96856;,
 -4.33594;2.14984;-1.76698;,
 -3.44002;2.36974;-1.05089;,
 -4.77200;1.36920;-2.16086;,
 -5.17635;1.90162;-2.00562;,
 -6.53600;1.10425;-2.15611;,
 -6.71692;1.76583;-1.94726;,
 -6.72414;2.11689;-1.57476;,
 -5.47297;2.30763;-1.55224;,
 -4.71799;2.36840;-1.52489;,
 -3.87810;2.58920;-0.82301;,
 -2.91243;2.06793;-0.22054;,
 -3.23993;2.48555;-0.43997;,
 -3.60257;2.63565;-0.09900;,
 -3.29031;2.25490;0.93030;,
 -3.04058;1.79621;1.01977;,
 -3.73506;1.81728;1.55250;,
 -3.49720;1.35748;1.55736;,
 -3.69582;2.40254;0.89145;,
 -4.29230;2.07931;1.41532;,
 -4.78276;1.49496;1.85291;,
 -4.63614;0.83341;1.91832;,
 -4.85689;1.91362;1.55734;,
 -6.55941;1.18059;1.61917;,
 -6.54907;0.56493;1.69274;,
 -6.53818;1.67879;1.38463;,
 -8.11651;1.54227;0.91121;,
 -8.20292;1.08947;1.14576;,
 -8.16110;0.52826;1.16016;,
 -8.16110;0.52826;1.16016;,
 -8.23576;0.17377;1.38839;,
 -8.36278;-0.43840;1.63087;,
 -9.57316;1.53487;0.20975;,
 -9.80076;1.19724;0.34153;,
 -9.82284;0.58328;0.37589;,
 -9.82284;0.58328;0.37589;,
 -10.00408;0.10335;0.71438;,
 -9.97067;-0.76861;1.00739;,
 -8.34882;-1.23831;1.51636;,
 -9.76077;-1.41918;0.88004;,
 -8.28564;-2.11160;1.15299;,
 -8.33576;-2.68407;0.69991;,
 -8.19825;-2.97703;-0.02933;,
 -9.67102;-1.81891;0.72049;,
 -9.85665;-2.17320;0.47889;,
 -9.82861;-2.51022;-0.16599;,
 -8.07001;-3.08540;-0.51384;,
 -9.63672;-2.71529;-0.69340;,
 -8.07001;-3.08540;-0.51384;,
 -8.00256;-3.02980;-1.22856;,
 -9.63672;-2.71529;-0.69340;,
 -9.44363;-2.72985;-1.35531;,
 -7.97332;-2.86784;-1.66672;,
 -9.09883;-2.52428;-1.99941;,
 -7.89062;-2.57026;-2.14448;,
 -7.85885;-2.18495;-2.66902;,
 -8.78361;-2.22956;-2.40198;,
 -8.44994;-1.98811;-2.76672;,
 -7.48575;-1.41696;-2.96874;,
 -7.32173;-0.68066;-3.06025;,
 -8.16076;-1.36226;-2.96022;,
 -10.00313;-1.60697;-2.79364;,
 -9.57766;-1.23964;-3.06523;,
 -10.07312;-2.07152;-2.43549;,
 -7.44595;0.30295;-2.91829;,
 -8.17291;-0.73702;-3.03332;,
 -8.40731;0.19979;-2.93192;,
 -9.03714;-1.00328;-3.01249;,
 -8.98406;-0.70130;-3.02107;,
 -9.13598;-0.11308;-3.05160;,
 -9.90858;-0.55251;-3.11257;,
 -9.89631;-0.34516;-3.07942;,
 -9.98533;-0.82514;-3.11729;,
 -10.81184;-1.99986;-2.48256;,
 -10.71008;-1.49948;-2.86769;,
 -10.65356;-1.03368;-3.01653;,
 -10.63919;-0.40557;-3.04220;,
 -10.65809;-0.01643;-2.92442;,
 -10.69579;0.24990;-2.78595;,
 -9.75057;0.71040;-2.36084;,
 -9.05064;0.70888;-2.39568;,
 -10.77278;0.56706;-2.56826;,
 -7.77964;0.73128;-2.44469;,
 -7.92045;0.99973;-2.05422;,
 -9.17206;1.00861;-1.94783;,
 -9.89284;1.01788;-1.82922;,
 -10.49462;1.06684;-1.60788;,
 -10.96002;1.00520;-1.75985;,
 -7.92045;0.99973;-2.05422;,
 -7.86579;1.59693;-1.96714;,
 -7.92515;1.92130;-1.65419;,
 -9.17206;1.00861;-1.94783;,
 -9.08561;1.58961;-1.88837;,
 -9.89284;1.01788;-1.82922;,
 -9.84133;1.50958;-1.78428;,
 -10.49462;1.06684;-1.60788;,
 -10.29201;1.60569;-1.54218;,
 -8.99820;1.83430;-1.61849;,
 -9.77982;1.80405;-1.42875;,
 -10.12729;1.77656;-1.25259;,
 -10.57736;1.36055;-0.31885;,
 -10.65464;0.70460;-0.16007;,
 -10.65464;0.70460;-0.16007;,
 -10.76476;0.09627;0.38728;,
 -10.48255;-0.99267;0.78892;,
 -10.50504;-1.38433;0.66166;,
 -10.30248;-1.88670;0.50120;,
 -10.37421;-2.32852;-0.19659;,
 -11.42468;-1.27106;0.24038;,
 -11.40690;-1.72091;-0.00759;,
 -11.38807;-0.80763;0.34487;,
 -11.32823;-0.12344;0.27216;,
 -11.23580;0.64005;-0.24442;,
 -10.23246;1.61402;-0.33938;,
 -4.66818;2.40729;0.62693;,
 -4.83514;2.57746;-0.73386;,
 -6.22727;2.22780;0.49329;,
 -7.90229;1.97968;0.13391;,
 -6.06097;2.41136;-0.60714;,
 -7.47827;2.23386;-0.72611;,
 -8.96863;1.87202;-0.19150;,
 -8.72537;1.99601;-0.91874;,
 -10.29237;1.72840;-0.79519;,
 -10.56956;1.56785;-0.83846;,
 -10.72213;1.05128;-0.84537;,
 -10.72213;1.05128;-0.84537;,
 -11.13347;0.97164;-0.82695;,
 -11.29259;-2.16468;-0.47947;,
 -10.31856;-2.56705;-0.93819;,
 -11.11426;-2.43384;-1.22878;,
 -10.31856;-2.56705;-0.93819;,
 -10.18646;-2.53620;-1.59224;,
 -10.93177;-2.31220;-1.95492;,
 -11.11426;-2.43384;-1.22878;,
 -10.96002;1.00520;-1.75985;,
 -11.10178;1.25176;-1.90837;,
 -11.32867;1.29323;-0.98168;,
 -11.13347;0.97164;-0.82695;,
 -11.49346;0.77605;-0.02853;,
 -11.23580;0.64005;-0.24442;,
 -10.77278;0.56706;-2.56826;,
 -10.88942;0.80730;-2.67124;,
 -11.58056;0.01847;0.45876;,
 -11.32823;-0.12344;0.27216;,
 -10.69579;0.24990;-2.78595;,
 -10.79072;0.38161;-3.00889;,
 -10.65809;-0.01643;-2.92442;,
 -10.72800;0.08144;-3.13021;,
 -10.63919;-0.40557;-3.04220;,
 -10.70044;-0.25001;-3.23111;,
 -10.65356;-1.03368;-3.01653;,
 -10.73738;-0.90371;-3.31043;,
 -10.71008;-1.49948;-2.86769;,
 -10.82358;-1.66298;-3.09316;,
 -10.81184;-1.99986;-2.48256;,
 -10.91933;-2.16657;-2.69547;,
 -10.93177;-2.31220;-1.95492;,
 -11.06454;-2.54347;-2.09235;,
 -11.11426;-2.43384;-1.22878;,
 -11.26035;-2.67933;-1.29033;,
 -11.29259;-2.16468;-0.47947;,
 -11.50275;-2.41494;-0.40481;,
 -11.26035;-2.67933;-1.29033;,
 -11.11426;-2.43384;-1.22878;,
 -11.40690;-1.72091;-0.00759;,
 -11.60659;-1.97814;0.09249;,
 -11.42468;-1.27106;0.24038;,
 -11.66953;-1.42737;0.43020;,
 -11.38807;-0.80763;0.34487;,
 -11.63311;-0.77188;0.56867;,
 -11.94425;-0.76405;0.57341;,
 -11.88848;0.05717;0.45696;,
 -11.96071;-1.41807;0.43008;,
 -11.91022;-1.99373;0.10010;,
 -11.76006;0.85802;-0.07235;,
 -11.58222;1.34492;-1.01263;,
 -11.94906;1.30675;-1.08431;,
 -12.11326;0.84207;-0.18599;,
 -11.33162;1.31151;-2.00205;,
 -11.18156;0.88568;-2.78931;,
 -11.08702;0.44920;-3.15360;,
 -11.02218;0.12762;-3.31600;,
 -11.00503;-0.23323;-3.43050;,
 -11.03116;-0.92486;-3.47018;,
 -11.10371;-1.69935;-3.22826;,
 -11.21167;-2.22645;-2.81654;,
 -11.34785;-2.60912;-2.22267;,
 -11.54415;-2.75555;-1.36414;,
 -11.54415;-2.75555;-1.36414;,
 -11.78065;-2.47787;-0.45202;,
 -11.53385;-0.26428;-3.40283;,
 -11.69725;-0.35783;-3.20197;,
 -11.71071;-0.00127;-3.09851;,
 -11.52484;0.08453;-3.32025;,
 -11.75286;0.32679;-2.94189;,
 -11.57465;0.39973;-3.15301;,
 -11.85861;0.71428;-2.57816;,
 -11.65302;0.81038;-2.81517;,
 -11.99019;1.02349;-1.95217;,
 -11.76978;1.28302;-2.00573;,
 -11.51915;-0.92095;-3.44795;,
 -11.71229;-0.99044;-3.19865;,
 -11.55370;-1.64899;-3.23867;,
 -11.76643;-1.53841;-3.00524;,
 -11.67368;-2.13965;-2.84426;,
 -11.86640;-2.04322;-2.59259;,
 -11.78329;-2.49235;-2.33264;,
 -11.95274;-2.28701;-2.20963;,
 -11.95917;-2.67765;-1.48331;,
 -12.14069;-2.42605;-1.40217;,
 -12.17060;-2.42311;-0.59918;,
 -12.31281;-2.19607;-0.73099;,
 -12.14069;-2.42605;-1.40217;,
 -11.95917;-2.67765;-1.48331;,
 -12.32176;-1.89705;-0.03240;,
 -12.42758;-1.78865;-0.28139;,
 -12.34859;-1.34644;0.27642;,
 -12.45051;-1.17527;0.03701;,
 -12.35097;-0.74768;0.37934;,
 -12.42883;-0.59065;0.10009;,
 -12.29704;0.03907;0.26493;,
 -12.39683;-0.11757;0.02432;,
 -12.30970;0.59611;-0.33447;,
 -12.16448;1.02642;-1.15717;,
 -12.16448;1.02642;-1.15717;,
 -11.99019;1.02349;-1.95217;,
 -12.83643;1.22627;-1.81503;,
 -12.95459;1.17462;-1.20921;,
 -13.03398;0.74956;-0.34522;,
 -12.30970;0.59611;-0.33447;,
 -11.85861;0.71428;-2.57816;,
 -12.45249;0.95897;-2.51941;,
 -11.75286;0.32679;-2.94189;,
 -12.03254;0.30848;-3.07312;,
 -12.76083;-0.00642;0.03394;,
 -12.39683;-0.11757;0.02432;,
 -12.86279;-0.67747;0.13893;,
 -12.42883;-0.59065;0.10009;,
 -12.78521;-1.24076;0.02450;,
 -12.45051;-1.17527;0.03701;,
 -12.71503;-1.84871;-0.28891;,
 -12.42758;-1.78865;-0.28139;,
 -12.60327;-2.23289;-0.75136;,
 -12.31281;-2.19607;-0.73099;,
 -12.14069;-2.42605;-1.40217;,
 -12.41305;-2.46382;-1.50680;,
 -11.95274;-2.28701;-2.20963;,
 -12.14069;-2.42605;-1.40217;,
 -12.41305;-2.46382;-1.50680;,
 -12.20878;-2.33458;-2.25939;,
 -11.86640;-2.04322;-2.59259;,
 -12.10512;-2.05297;-2.69435;,
 -12.03423;-1.54034;-3.09902;,
 -11.76643;-1.53841;-3.00524;,
 -11.71229;-0.99044;-3.19865;,
 -12.01115;-1.03400;-3.28612;,
 -11.69725;-0.35783;-3.20197;,
 -12.12066;-0.38116;-3.34815;,
 -12.98866;0.35013;-0.04360;,
 -13.11785;0.15943;0.09902;,
 -13.53623;0.76198;-0.13333;,
 -13.92214;1.41645;-1.06461;,
 -13.73127;1.17746;-0.61394;,
 -14.11410;1.26377;-0.51097;,
 -14.40070;1.61235;-1.21182;,
 -14.28320;1.42989;-0.77608;,
 -13.78865;1.50725;-1.82635;,
 -14.38337;1.67919;-1.58669;,
 -14.27547;1.66639;-1.95827;,
 -13.03184;1.15358;-2.61095;,
 -13.42396;1.22165;-2.87040;,
 -13.72426;1.38905;-2.72608;,
 -14.07830;1.58712;-2.34947;,
 -12.97606;0.96099;-3.00948;,
 -12.48354;0.38444;-3.28389;,
 -11.71071;-0.00127;-3.09851;,
 -14.50639;1.69426;-1.17887;,
 -14.32747;1.51144;-0.72382;,
 -14.46252;1.76720;-1.54123;,
 -14.33325;1.76775;-1.97766;,
 -14.15380;1.67832;-2.39688;,
 -14.15641;1.32953;-0.42717;,
 -13.58801;0.85154;-0.03737;,
 -13.17375;0.22345;0.21655;,
 -12.89565;-0.63755;0.24297;,
 -12.83525;-1.22979;0.14582;,
 -12.80420;-1.96709;-0.25256;,
 -13.65415;0.05684;0.27549;,
 -13.37710;-0.79114;0.18597;,
 -13.30399;-1.44967;0.02515;,
 -14.00473;0.64267;0.15596;,
 -14.49549;1.15272;-0.18611;,
 -14.79786;1.42347;-0.54972;,
 -14.99442;1.65157;-1.05070;,
 -14.92541;1.76672;-1.60163;,
 -14.79775;1.75857;-2.13344;,
 -14.56820;1.63064;-2.64711;,
 -13.82280;1.51346;-2.73777;,
 -14.17286;1.41205;-3.04746;,
 -13.50656;1.33684;-2.96179;,
 -13.72123;1.14830;-3.28202;,
 -12.94325;0.99721;-3.15565;,
 -13.18782;0.66090;-3.45487;,
 -12.50487;0.45410;-3.38169;,
 -12.76416;-0.00689;-3.51454;,
 -12.15273;-0.31123;-3.46554;,
 -12.52394;-0.64945;-3.47695;,
 -12.03898;-0.95901;-3.41928;,
 -12.52319;-1.27394;-3.35606;,
 -12.07513;-1.58359;-3.21547;,
 -12.59137;-1.76338;-3.12292;,
 -12.15491;-2.10001;-2.80931;,
 -12.68108;-2.22004;-2.69607;,
 -12.22944;-2.40569;-2.31333;,
 -12.76782;-2.46684;-2.25069;,
 -12.43804;-2.57449;-1.56398;,
 -12.91707;-2.57326;-1.69331;,
 -13.21762;-2.06414;-0.39223;,
 -12.64077;-2.41365;-0.85161;,
 -13.10328;-2.41197;-0.89844;,
 -12.91707;-2.57326;-1.69331;,
 -12.43804;-2.57449;-1.56398;,
 -0.64389;1.17902;-1.12099;,
 -0.62769;0.80975;-1.65149;,
 -0.60119;0.19141;-2.16039;,
 -0.59875;-0.29029;-2.32687;,
 -0.62257;-0.95281;-2.35519;,
 -0.59629;-1.51932;-2.24142;,
 -0.62413;-2.27477;-1.76927;,
 -0.63409;-2.55477;-1.30802;,
 -0.61096;-2.76142;-0.58399;,
 -0.61283;-2.73046;0.31708;,
 -0.61283;-2.73046;0.31708;,
 -0.65315;-2.42264;0.99432;,
 -0.64742;-2.03113;1.39187;,
 -0.63757;-1.14994;1.81152;,
 -0.61326;-0.40618;1.86281;,
 -0.60518;0.30088;1.63372;,
 -0.63800;0.81144;1.19659;,
 -0.61642;1.25808;0.33899;,
 -0.61710;1.33329;-0.59990;,
 -10.97634;-0.37981;-2.91221;,
 -10.97634;-0.95500;-2.78995;,
 -16.90266;-0.95500;-2.78995;,
 -16.90266;-0.37980;-2.91221;,
 -10.97634;-1.43075;-2.44431;,
 -16.90266;-1.43075;-2.44431;,
 -10.97634;-1.72477;-1.93504;,
 -16.90266;-1.72477;-1.93504;,
 -10.97634;-1.78624;-1.35021;,
 -16.90266;-1.78623;-1.35021;,
 -10.97634;-1.60451;-0.79095;,
 -16.90266;-1.60451;-0.79095;,
 -10.97634;-1.21104;-0.35394;,
 -16.90266;-1.21104;-0.35394;,
 -10.97634;-0.67383;-0.11476;,
 -16.90266;-0.67383;-0.11476;,
 -10.97634;-0.08578;-0.11476;,
 -16.90266;-0.08578;-0.11476;,
 -10.97634;0.45143;-0.35394;,
 -16.90266;0.45143;-0.35394;,
 -10.97634;0.84491;-0.79095;,
 -16.90266;0.84491;-0.79095;,
 -10.97634;1.02661;-1.35021;,
 -16.90266;1.02663;-1.35021;,
 -10.97634;0.96515;-1.93504;,
 -16.90266;0.96515;-1.93504;,
 -10.97634;0.67113;-2.44431;,
 -16.90266;0.67113;-2.44431;,
 -10.97634;0.19539;-2.78995;,
 -16.90266;0.19539;-2.78995;,
 -10.97634;-0.37981;-2.91221;,
 -16.90266;-0.37980;-2.91221;,
 -10.97634;-0.37981;-1.49804;,
 -10.97634;-0.37981;-1.49804;,
 -10.97634;-0.37981;-1.49804;,
 -10.97634;-0.37981;-1.49804;,
 -10.97634;-0.37981;-1.49804;,
 -10.97634;-0.37981;-1.49804;,
 -10.97634;-0.37981;-1.49804;,
 -10.97634;-0.37981;-1.49804;,
 -10.97634;-0.37981;-1.49804;,
 -10.97634;-0.37981;-1.49804;,
 -10.97634;-0.37981;-1.49804;,
 -10.97634;-0.37981;-1.49804;,
 -10.97634;-0.37981;-1.49804;,
 -10.97634;-0.37981;-1.49804;,
 -10.97634;-0.37981;-1.49804;,
 -16.90266;-0.37980;-1.49804;,
 -16.90266;-0.37980;-1.49804;,
 -16.90266;-0.37980;-1.49804;,
 -16.90266;-0.37980;-1.49804;,
 -16.90266;-0.37980;-1.49804;,
 -16.90266;-0.37980;-1.49804;,
 -16.90266;-0.37980;-1.49804;,
 -16.90266;-0.37980;-1.49804;,
 -16.90266;-0.37980;-1.49804;,
 -16.90266;-0.37980;-1.49804;,
 -16.90266;-0.37980;-1.49804;,
 -16.90266;-0.37980;-1.49804;,
 -16.90266;-0.37980;-1.49804;,
 -16.90266;-0.37980;-1.49804;,
 -16.90266;-0.37980;-1.49804;;
 
 501;
 4;0,1,2,3;,
 4;3,2,4,5;,
 4;6,7,8,9;,
 4;9,8,10,11;,
 4;12,13,14,15;,
 4;16,17,18,19;,
 4;20,21,22,23;,
 4;24,25,26,27;,
 4;28,25,24,29;,
 4;30,31,32,33;,
 4;34,35,36,37;,
 4;38,39,40,41;,
 4;42,43,44,45;,
 4;46,47,48,49;,
 4;20,50,51,52;,
 4;17,16,53,54;,
 4;55,56,57,58;,
 4;59,60,61,62;,
 4;63,64,65,66;,
 4;67,68,69,70;,
 4;71,72,73,74;,
 4;75,76,77,78;,
 4;76,79,80,77;,
 4;49,48,43,42;,
 4;58,57,60,59;,
 4;81,37,36,82;,
 4;83,70,69,84;,
 4;66,65,68,67;,
 4;41,40,35,34;,
 4;52,51,56,55;,
 4;19,18,47,46;,
 4;80,79,85,86;,
 4;86,85,87,23;,
 4;62,61,64,63;,
 4;45,44,39,38;,
 4;87,53,16,50;,
 4;19,51,50,16;,
 4;46,56,51,19;,
 4;49,57,56,46;,
 4;42,60,57,49;,
 4;45,61,60,42;,
 4;38,64,61,45;,
 4;41,65,64,38;,
 4;34,68,65,41;,
 4;37,69,68,34;,
 4;84,69,37,81;,
 4;33,73,72,30;,
 4;29,24,76,75;,
 4;27,79,76,24;,
 4;88,29,75,89;,
 4;90,28,29,88;,
 4;89,75,78,91;,
 4;92,93,13,12;,
 4;94,95,93,92;,
 4;96,97,95,94;,
 4;98,97,96,99;,
 4;100,101,102,103;,
 4;104,105,106,107;,
 4;108,109,105,104;,
 4;110,111,112,113;,
 4;114,115,112,111;,
 4;116,117,115,114;,
 4;118,119,117,116;,
 4;120,121,119,118;,
 4;122,123,121,120;,
 4;124,125,123,122;,
 4;126,127,128,129;,
 4;15,14,127,126;,
 4;23,87,50,20;,
 4;52,130,21,20;,
 4;55,131,130,52;,
 4;58,132,131,55;,
 4;59,133,132,58;,
 4;62,134,133,59;,
 4;63,135,134,62;,
 4;66,136,135,63;,
 4;67,137,136,66;,
 4;70,138,137,67;,
 4;139,138,70,83;,
 4;74,140,141,71;,
 4;142,143,140,74;,
 4;78,77,144,145;,
 4;77,80,146,144;,
 4;86,147,146,80;,
 4;23,22,147,86;,
 4;99,103,102,98;,
 4;142,74,73,148;,
 4;145,149,91,78;,
 4;148,73,33,150;,
 4;150,33,32,151;,
 4;113,109,108,110;,
 4;83,71,141,139;,
 4;84,72,71,83;,
 4;81,30,72,84;,
 4;82,31,30,81;,
 4;152,153,154,155;,
 4;156,154,153,157;,
 4;155,154,158,159;,
 4;157,160,161,156;,
 4;161,162,163,156;,
 4;163,158,154,156;,
 4;159,164,165,155;,
 4;155,165,166,152;,
 4;167,152,166,168;,
 4;169,153,152,167;,
 4;170,157,153,169;,
 4;171,160,157,170;,
 4;172,167,168,173;,
 4;174,169,167,172;,
 4;175,170,169,174;,
 4;176,171,170,175;,
 4;173,177,178,172;,
 4;172,178,179,174;,
 4;174,179,180,175;,
 4;175,180,181,176;,
 4;164,182,183,165;,
 4;166,165,183,184;,
 4;168,166,184,185;,
 4;186,187,177,173;,
 4;173,168,185,186;,
 4;179,178,177,188;,
 4;188,177,187,189;,
 4;180,179,188,190;,
 4;181,180,190,191;,
 4;188,189,192,193;,
 4;193,192,194,195;,
 4;196,191,190,197;,
 4;195,194,198,199;,
 4;200,201,202,203;,
 4;204,205,206,207;,
 4;208,206,209,210;,
 4;211,212,213,214;,
 4;206,208,215,207;,
 4;214,213,216,217;,
 4;210,209,218,219;,
 4;217,216,220,221;,
 4;219,218,222,223;,
 4;221,220,224,225;,
 4;215,208,226,227;,
 4;226,208,210,219;,
 4;226,219,223,228;,
 4;228,229,227,226;,
 4;225,224,230,231;,
 4;232,233,223,222;,
 4;233,234,228,223;,
 4;234,235,229,228;,
 4;234,233,232,236;,
 4;236,237,235,234;,
 4;231,230,238,239;,
 4;240,241,236,232;,
 4;241,242,237,236;,
 4;239,238,243,244;,
 4;245,246,247,244;,
 4;164,245,248,182;,
 4;244,247,240,239;,
 4;246,245,164,159;,
 4;244,243,248,245;,
 4;239,240,232,231;,
 4;231,232,222,225;,
 4;225,222,218,221;,
 4;221,218,209,217;,
 4;217,209,206,214;,
 4;214,206,205,211;,
 4;199,200,203,195;,
 4;197,190,188,193;,
 4;193,195,203,197;,
 4;197,203,202,196;,
 4;249,250,251,252;,
 4;251,250,253,254;,
 4;254,253,255,256;,
 4;256,257,258,254;,
 4;258,259,251,254;,
 4;259,260,252,251;,
 4;261,249,252,262;,
 4;262,252,260,263;,
 4;262,264,265,261;,
 4;264,266,267,265;,
 4;264,262,263,268;,
 4;268,269,266,264;,
 4;266,270,271,267;,
 4;270,266,269,272;,
 4;273,274,271,270;,
 4;270,272,275,273;,
 4;275,276,277,273;,
 4;277,278,274,273;,
 4;237,242,279,280;,
 4;280,281,235,237;,
 4;276,282,283,277;,
 4;278,277,283,284;,
 4;285,286,280,279;,
 4;281,280,286,287;,
 4;229,235,281,288;,
 4;288,281,287,289;,
 4;288,290,227,229;,
 4;215,227,290,291;,
 4;207,215,291,292;,
 4;290,288,289,293;,
 4;293,294,291,290;,
 4;292,291,294,295;,
 4;204,207,292,296;,
 4;296,292,295,297;,
 4;298,299,202,201;,
 4;299,298,300,301;,
 4;196,202,299,302;,
 4;302,299,301,303;,
 4;302,304,191,196;,
 4;304,305,181,191;,
 4;303,306,304,302;,
 4;306,307,305,304;,
 4;305,308,176,181;,
 4;308,309,171,176;,
 4;307,310,308,305;,
 4;307,306,311,312;,
 4;311,306,303,313;,
 4;160,171,309,314;,
 4;314,309,315,316;,
 4;315,309,308,310;,
 4;310,307,312,317;,
 4;317,318,315,310;,
 4;318,319,316,315;,
 4;319,318,320,321;,
 4;320,318,317,322;,
 4;313,323,324,311;,
 4;324,325,312,311;,
 4;322,317,312,325;,
 4;321,320,326,327;,
 4;326,320,322,325;,
 4;327,328,319,321;,
 4;316,319,329,330;,
 4;329,319,328,331;,
 4;161,160,314,332;,
 4;332,314,316,330;,
 4;162,161,332,333;,
 4;333,332,330,334;,
 4;334,330,329,335;,
 4;335,329,331,336;,
 3;331,337,336;,
 4;338,339,256,255;,
 4;339,340,257,256;,
 4;339,338,341,342;,
 4;342,341,343,344;,
 4;344,343,345,346;,
 4;342,347,340,339;,
 4;347,342,344,348;,
 4;348,344,346,349;,
 4;283,350,351,284;,
 4;286,285,352,353;,
 4;353,354,287,286;,
 4;289,287,354,355;,
 3;293,289,294;,
 3;289,355,294;,
 3;355,356,294;,
 4;356,357,295,294;,
 4;356,355,358,359;,
 4;354,360,358,355;,
 4;353,361,360,354;,
 4;352,362,361,353;,
 4;350,283,282,363;,
 4;272,269,268,364;,
 4;364,268,263,365;,
 4;365,263,260,259;,
 4;364,366,275,272;,
 4;366,367,276,275;,
 4;365,368,366,364;,
 4;368,369,367,366;,
 4;367,370,282,276;,
 4;258,368,365,259;,
 4;257,369,368,258;,
 3;340,369,257;,
 4;347,371,369,340;,
 4;371,370,367,369;,
 4;348,370,371,347;,
 4;348,363,282,370;,
 4;349,372,363,348;,
 4;372,373,350,363;,
 4;373,374,351,350;,
 4;375,376,362,352;,
 4;373,372,349,346;,
 4;376,375,336,337;,
 4;346,345,374,373;,
 4;357,356,359,377;,
 4;297,295,357,378;,
 4;378,357,377,379;,
 4;380,381,301,300;,
 4;381,313,303,301;,
 4;381,382,323,313;,
 4;382,381,380,383;,
 4;384,385,386,387;,
 4;386,388,389,387;,
 4;385,384,390,391;,
 4;388,392,393,389;,
 4;394,395,391,390;,
 4;396,397,395,394;,
 4;398,399,397,396;,
 4;400,401,399,398;,
 4;402,403,401,400;,
 4;404,405,403,402;,
 4;406,407,405,404;,
 4;408,409,407,406;,
 4;410,411,412,413;,
 4;414,415,411,410;,
 4;416,417,415,414;,
 4;418,419,417,416;,
 4;392,419,418,393;,
 4;420,419,392,421;,
 4;422,417,419,420;,
 4;423,415,417,422;,
 4;421,392,388,424;,
 4;425,426,427,424;,
 4;425,386,385,428;,
 4;428,385,391,429;,
 4;429,391,395,430;,
 4;430,395,397,431;,
 4;431,397,399,432;,
 4;432,399,401,433;,
 4;433,401,403,434;,
 4;434,403,405,435;,
 4;435,405,407,436;,
 4;436,407,409,437;,
 4;438,412,411,439;,
 4;439,411,415,423;,
 4;440,441,442,443;,
 4;442,444,445,443;,
 4;444,446,447,445;,
 4;446,448,449,447;,
 4;450,451,441,440;,
 4;451,450,452,453;,
 4;454,455,453,452;,
 4;456,457,455,454;,
 4;458,459,457,456;,
 4;460,461,462,463;,
 4;461,460,464,465;,
 4;466,467,465,464;,
 4;467,466,468,469;,
 4;470,471,469,468;,
 4;427,472,471,470;,
 4;448,473,426,449;,
 4;473,472,427,426;,
 4;474,475,476,477;,
 4;477,478,479,474;,
 4;480,481,476,475;,
 4;481,480,482,483;,
 4;478,484,485,479;,
 4;484,486,487,485;,
 4;486,488,489,487;,
 4;488,490,491,489;,
 4;490,492,493,491;,
 4;494,493,492,495;,
 4;496,497,498,499;,
 4;500,496,499,501;,
 4;501,502,503,500;,
 4;504,503,502,505;,
 4;506,504,505,507;,
 4;484,508,509,486;,
 3;508,484,478;,
 4;478,510,509,508;,
 4;477,511,512,478;,
 4;512,513,510,478;,
 3;511,514,515;,
 4;476,516,511,477;,
 4;516,517,514,511;,
 3;516,518,517;,
 4;481,519,516,476;,
 4;519,520,521,516;,
 3;516,521,522;,
 3;522,518,516;,
 4;515,513,512,511;,
 4;481,523,520,519;,
 4;483,524,523,481;,
 3;506,507,525;,
 3;525,507,482;,
 3;507,483,482;,
 3;507,524,483;,
 4;424,388,386,425;,
 4;428,449,426,425;,
 4;429,447,449,428;,
 4;430,445,447,429;,
 4;431,443,445,430;,
 4;432,440,443,431;,
 4;433,450,440,432;,
 4;434,452,450,433;,
 4;435,454,452,434;,
 4;436,456,454,435;,
 4;437,458,456,436;,
 4;439,460,463,438;,
 4;423,464,460,439;,
 4;422,466,464,423;,
 4;420,468,466,422;,
 4;421,470,468,420;,
 4;424,427,470,421;,
 4;515,514,526,527;,
 4;526,514,517,528;,
 4;528,517,518,529;,
 4;529,518,522,530;,
 4;527,531,513,515;,
 4;531,532,510,513;,
 4;532,533,509,510;,
 4;533,534,486,509;,
 4;534,535,488,486;,
 4;535,536,490,488;,
 4;533,537,538,534;,
 4;535,534,538,539;,
 4;532,540,537,533;,
 4;531,541,540,532;,
 4;527,542,541,531;,
 4;526,543,542,527;,
 4;528,544,543,526;,
 4;529,545,544,528;,
 4;530,546,545,529;,
 4;530,522,521,547;,
 4;547,548,546,530;,
 4;547,521,520,549;,
 4;549,550,548,547;,
 4;523,551,549,520;,
 4;551,552,550,549;,
 4;524,553,551,523;,
 4;552,551,553,554;,
 4;507,555,553,524;,
 4;555,556,554,553;,
 4;505,557,555,507;,
 4;557,558,556,555;,
 4;502,559,557,505;,
 4;559,560,558,557;,
 4;560,559,561,562;,
 4;561,559,502,501;,
 4;499,563,561,501;,
 4;563,564,562,561;,
 4;564,563,565,566;,
 4;565,563,499,498;,
 4;536,535,539,567;,
 4;536,568,492,490;,
 4;567,569,568,536;,
 4;568,569,570,571;,
 4;571,495,492,568;,
 4;183,182,572,573;,
 4;184,183,573,574;,
 4;185,184,574,575;,
 4;187,186,576,577;,
 4;186,185,575,576;,
 4;189,187,577,578;,
 4;192,189,578,579;,
 4;194,192,579,580;,
 4;198,194,580,581;,
 4;213,212,582,583;,
 4;216,213,583,584;,
 4;220,216,584,585;,
 4;224,220,585,586;,
 4;230,224,586,587;,
 4;238,230,587,588;,
 4;243,238,588,589;,
 4;182,248,590,572;,
 4;248,243,589,590;,
 4;591,592,593,594;,
 4;592,595,596,593;,
 4;595,597,598,596;,
 4;597,599,600,598;,
 4;599,601,602,600;,
 4;601,603,604,602;,
 4;603,605,606,604;,
 4;605,607,608,606;,
 4;607,609,610,608;,
 4;609,611,612,610;,
 4;611,613,614,612;,
 4;613,615,616,614;,
 4;615,617,618,616;,
 4;617,619,620,618;,
 4;619,621,622,620;,
 3;623,592,591;,
 3;624,595,592;,
 3;625,597,595;,
 3;626,599,597;,
 3;627,601,599;,
 3;628,603,601;,
 3;629,605,603;,
 3;630,607,605;,
 3;631,609,607;,
 3;632,611,609;,
 3;633,613,611;,
 3;634,615,613;,
 3;635,617,615;,
 3;636,619,617;,
 3;637,621,619;,
 3;638,594,593;,
 3;639,593,596;,
 3;640,596,598;,
 3;641,598,600;,
 3;642,600,602;,
 3;643,602,604;,
 3;644,604,606;,
 3;645,606,608;,
 3;646,608,610;,
 3;647,610,612;,
 3;648,612,614;,
 3;649,614,616;,
 3;650,616,618;,
 3;651,618,620;,
 3;652,620,622;,
 4;3,2,1,0;,
 4;5,4,2,3;,
 4;9,8,7,6;,
 4;11,10,8,9;;
 
 MeshMaterialList {
  8;
  501;
  1,
  1,
  1,
  1,
  5,
  5,
  5,
  5,
  5,
  5,
  5,
  5,
  5,
  5,
  5,
  5,
  5,
  5,
  5,
  5,
  5,
  5,
  5,
  5,
  5,
  5,
  5,
  5,
  5,
  5,
  5,
  5,
  5,
  5,
  5,
  5,
  5,
  5,
  5,
  5,
  5,
  5,
  5,
  5,
  5,
  5,
  5,
  5,
  5,
  5,
  5,
  5,
  5,
  5,
  5,
  5,
  5,
  5,
  5,
  5,
  5,
  5,
  5,
  5,
  5,
  5,
  5,
  5,
  5,
  5,
  5,
  5,
  5,
  5,
  5,
  5,
  5,
  5,
  5,
  5,
  5,
  5,
  5,
  5,
  5,
  5,
  5,
  5,
  5,
  5,
  5,
  5,
  5,
  5,
  5,
  2,
  2,
  2,
  2,
  2,
  2,
  2,
  2,
  2,
  2,
  2,
  2,
  2,
  2,
  2,
  2,
  2,
  2,
  2,
  2,
  2,
  2,
  2,
  2,
  2,
  2,
  2,
  2,
  2,
  2,
  2,
  2,
  2,
  2,
  2,
  2,
  2,
  2,
  2,
  2,
  2,
  2,
  2,
  2,
  2,
  2,
  2,
  2,
  2,
  2,
  2,
  2,
  2,
  2,
  2,
  2,
  2,
  2,
  2,
  2,
  2,
  2,
  2,
  2,
  2,
  2,
  2,
  2,
  2,
  2,
  2,
  2,
  2,
  2,
  2,
  2,
  2,
  2,
  2,
  2,
  2,
  2,
  2,
  2,
  2,
  2,
  2,
  2,
  2,
  2,
  2,
  2,
  2,
  2,
  2,
  2,
  2,
  2,
  2,
  2,
  2,
  2,
  2,
  2,
  2,
  2,
  2,
  2,
  2,
  2,
  2,
  2,
  2,
  2,
  2,
  2,
  2,
  2,
  2,
  2,
  2,
  2,
  2,
  2,
  2,
  2,
  2,
  2,
  2,
  2,
  2,
  2,
  2,
  2,
  2,
  2,
  2,
  2,
  2,
  2,
  2,
  2,
  2,
  2,
  2,
  2,
  2,
  2,
  2,
  2,
  2,
  2,
  2,
  2,
  2,
  2,
  2,
  2,
  2,
  2,
  2,
  2,
  2,
  2,
  2,
  2,
  2,
  2,
  2,
  2,
  2,
  2,
  2,
  2,
  2,
  2,
  2,
  2,
  2,
  2,
  2,
  2,
  2,
  2,
  2,
  2,
  2,
  2,
  2,
  2,
  2,
  2,
  7,
  7,
  7,
  7,
  7,
  7,
  7,
  7,
  7,
  7,
  7,
  7,
  7,
  7,
  7,
  7,
  7,
  7,
  7,
  7,
  7,
  7,
  7,
  7,
  7,
  7,
  7,
  7,
  7,
  7,
  7,
  7,
  7,
  7,
  7,
  7,
  7,
  7,
  7,
  7,
  7,
  7,
  7,
  7,
  2,
  2,
  2,
  7,
  7,
  7,
  7,
  2,
  2,
  2,
  2,
  2,
  2,
  2,
  2,
  2,
  2,
  2,
  2,
  2,
  2,
  2,
  2,
  2,
  2,
  2,
  2,
  2,
  2,
  2,
  2,
  2,
  2,
  2,
  2,
  2,
  2,
  2,
  2,
  2,
  2,
  2,
  7,
  7,
  7,
  7,
  7,
  7,
  7,
  7,
  7,
  7,
  7,
  7,
  7,
  7,
  7,
  7,
  7,
  2,
  2,
  2,
  2,
  2,
  2,
  2,
  2,
  2,
  2,
  2,
  2,
  2,
  2,
  2,
  2,
  2,
  2,
  2,
  2,
  2,
  2,
  2,
  2,
  2,
  2,
  2,
  2,
  2,
  2,
  2,
  2,
  2,
  2,
  2,
  2,
  2,
  2,
  2,
  2,
  2,
  2,
  2,
  2,
  2,
  2,
  2,
  2,
  2,
  2,
  2,
  2,
  2,
  2,
  2,
  2,
  2,
  2,
  2,
  2,
  2,
  2,
  0,
  0,
  0,
  0,
  0,
  0,
  0,
  0,
  0,
  0,
  0,
  0,
  0,
  0,
  0,
  7,
  7,
  7,
  7,
  7,
  7,
  7,
  7,
  7,
  7,
  7,
  7,
  7,
  7,
  7,
  0,
  0,
  0,
  0,
  0,
  0,
  0,
  0,
  0,
  0,
  0,
  0,
  0,
  0,
  0,
  1,
  1,
  1,
  1;;
  Material {
   0.765600;0.659200;0.241600;1.000000;;
   5.000000;
   0.000000;0.000000;0.000000;;
   0.000000;0.000000;0.000000;;
  }
  Material {
   0.000000;0.000000;0.000000;1.000000;;
   5.000000;
   0.000000;0.000000;0.000000;;
   0.000000;0.000000;0.000000;;
  }
  Material {
   0.800000;0.800000;0.800000;1.000000;;
   5.000000;
   0.000000;0.000000;0.000000;;
   0.000000;0.000000;0.000000;;
  }
  Material {
   0.800000;0.000000;0.060000;1.000000;;
   5.000000;
   0.000000;0.000000;0.000000;;
   0.000000;0.000000;0.000000;;
  }
  Material {
   0.000000;0.690400;0.251200;1.000000;;
   5.000000;
   0.000000;0.000000;0.000000;;
   0.000000;0.000000;0.000000;;
  }
  Material {
   0.800000;0.768800;0.000000;1.000000;;
   5.000000;
   0.000000;0.000000;0.000000;;
   0.000000;0.000000;0.000000;;
  }
  Material {
   0.000000;0.000000;0.000000;1.000000;;
   5.000000;
   0.000000;0.000000;0.000000;;
   0.000000;0.000000;0.000000;;
  }
  Material {
   0.743200;0.263200;0.094400;1.000000;;
   5.000000;
   0.000000;0.000000;0.000000;;
   0.000000;0.000000;0.000000;;
  }
 }
 MeshNormals {
  542;
  0.000000;0.000000;1.000000;,
  0.574605;0.504805;-0.644206;,
  0.570828;0.680497;-0.459434;,
  0.553468;0.247570;-0.795225;,
  0.505413;-0.116134;-0.855027;,
  0.478096;-0.441427;-0.759320;,
  0.580834;-0.812605;-0.048006;,
  0.544704;-0.771552;0.328641;,
  0.563711;-0.671339;-0.481179;,
  0.557122;-0.783840;-0.274246;,
  0.538975;-0.588748;-0.602397;,
  0.447678;-0.503238;0.739146;,
  0.468672;-0.184415;0.863909;,
  0.549581;0.142367;0.823221;,
  0.624660;0.404185;0.668158;,
  0.590822;0.671372;0.447424;,
  0.558177;0.813107;0.165215;,
  0.525746;0.839096;-0.139672;,
  0.511126;0.802018;-0.309059;,
  0.528308;0.555911;-0.641758;,
  0.499988;0.588810;-0.635071;,
  0.465975;0.772030;-0.432246;,
  0.502008;0.736072;-0.454078;,
  -0.697595;0.429834;-0.573240;,
  -0.622971;0.227074;-0.748561;,
  0.507069;-0.647214;-0.569205;,
  0.481187;-0.687959;-0.543297;,
  0.469439;-0.628510;-0.620163;,
  0.514000;-0.557461;-0.651952;,
  0.477999;-0.802101;-0.357983;,
  0.490081;-0.795391;-0.356614;,
  0.351923;-0.821345;0.448935;,
  0.330013;-0.813506;0.478852;,
  0.409048;-0.902517;0.134699;,
  0.424998;-0.897226;0.119844;,
  0.234418;-0.137549;0.962356;,
  0.172180;-0.138299;0.975309;,
  0.195830;-0.363681;0.910707;,
  0.235700;-0.402762;0.884437;,
  0.342563;0.446974;0.826356;,
  0.306733;0.433374;0.847409;,
  0.197459;0.124858;0.972327;,
  0.275575;0.122660;0.953422;,
  0.518555;0.819039;0.245512;,
  0.435237;0.861596;0.261192;,
  0.409634;0.712926;0.569154;,
  0.444168;0.708490;0.548413;,
  0.507675;0.842047;-0.182271;,
  0.438961;0.877821;-0.191687;,
  0.438935;0.898288;0.020381;,
  0.530319;0.847345;0.027718;,
  0.573590;0.498743;-0.649808;,
  0.606792;0.645725;-0.463511;,
  0.671840;0.589208;-0.448849;,
  0.546316;0.483862;-0.683679;,
  0.507620;0.494691;-0.705410;,
  0.671917;0.712537;-0.202037;,
  0.624192;0.758483;-0.187319;,
  0.590046;0.807342;0.006634;,
  0.563219;0.826025;-0.021596;,
  0.509283;0.839139;0.190988;,
  0.554099;0.805606;0.209697;,
  0.509591;0.708089;0.488802;,
  0.539693;0.711537;0.449941;,
  0.491588;0.470884;0.732537;,
  0.435614;0.466353;0.769906;,
  0.367486;0.134532;0.920247;,
  0.382766;0.149400;0.911685;,
  0.377127;-0.158500;0.912498;,
  0.336624;-0.147504;0.930014;,
  0.343078;-0.455799;0.821307;,
  0.408474;-0.467872;0.783738;,
  0.344783;-0.862120;0.371312;,
  0.359164;-0.845496;0.395143;,
  0.409335;-0.908562;0.083425;,
  0.377252;-0.924047;0.061791;,
  0.502458;-0.772073;-0.389152;,
  0.562395;-0.563359;-0.605259;,
  0.591653;-0.520925;-0.615291;,
  0.502065;-0.754511;-0.422663;,
  0.631891;-0.362584;-0.685016;,
  0.665961;-0.299886;-0.683055;,
  0.278563;-0.645002;0.711601;,
  0.248488;-0.594122;0.765031;,
  0.362612;-0.715856;0.596710;,
  0.334924;-0.704268;0.625965;,
  0.459948;-0.631799;0.623921;,
  0.699298;-0.055640;-0.712661;,
  0.628317;0.337055;-0.701150;,
  0.470447;-0.872703;-0.130645;,
  0.458123;-0.875199;-0.155400;,
  0.453699;-0.880891;-0.134865;,
  0.428387;-0.884622;-0.184199;,
  -0.010881;-0.097960;-0.995131;,
  0.009978;-0.443011;-0.896461;,
  0.240492;-0.624284;-0.743258;,
  0.069584;0.378293;-0.923067;,
  0.019721;0.333818;-0.942431;,
  0.050689;0.674612;-0.736430;,
  0.037973;0.707025;-0.706168;,
  -0.024490;0.679084;-0.733652;,
  -0.023757;0.395435;-0.918187;,
  0.161819;0.620869;-0.767031;,
  0.269878;0.790179;-0.550257;,
  -0.053660;0.444550;-0.894145;,
  -0.073893;0.718654;-0.691430;,
  -0.074166;0.512529;-0.855461;,
  0.011370;0.535795;-0.844272;,
  0.181381;0.901450;-0.393051;,
  0.197919;0.716317;-0.669117;,
  0.235423;0.437515;-0.867846;,
  0.060870;0.089709;-0.994106;,
  0.278078;0.149193;-0.948901;,
  -0.046394;0.028572;-0.998514;,
  -0.032196;0.034080;-0.998900;,
  -0.037087;0.035875;-0.998668;,
  0.060372;-0.116944;-0.991302;,
  0.290102;-0.114228;-0.950154;,
  -0.056168;-0.138347;-0.988790;,
  -0.039627;-0.193316;-0.980336;,
  -0.043502;-0.219171;-0.974716;,
  0.270409;-0.381822;-0.883793;,
  0.099163;-0.331918;-0.938082;,
  0.016057;-0.449196;-0.893289;,
  -0.043921;-0.577897;-0.814927;,
  -0.084759;-0.616428;-0.782836;,
  0.389762;0.833153;-0.392353;,
  0.394553;0.676298;-0.622052;,
  0.375087;0.436764;-0.817647;,
  0.370328;0.163233;-0.914446;,
  0.377372;-0.086188;-0.922042;,
  0.364920;-0.359801;-0.858706;,
  0.186949;-0.661407;-0.726355;,
  0.370360;-0.627922;-0.684505;,
  -0.029016;-0.786514;-0.616890;,
  -0.106646;-0.813676;-0.571452;,
  0.418590;-0.791818;-0.444755;,
  0.226965;-0.832935;-0.504684;,
  0.457476;-0.878465;-0.137893;,
  0.244585;-0.953272;-0.177341;,
  -0.116081;-0.869324;-0.480418;,
  -0.029500;-0.863998;-0.502631;,
  0.452805;-0.865377;0.214686;,
  0.227398;-0.952940;0.200486;,
  -0.065731;-0.989616;0.127828;,
  -0.169636;-0.984092;0.052794;,
  -0.140972;-0.960237;-0.240979;,
  -0.042969;-0.974897;-0.218469;,
  -0.067620;-0.887344;0.456123;,
  -0.191473;-0.938011;0.288917;,
  -0.143605;-0.695520;0.704009;,
  0.046148;-0.652828;0.756099;,
  0.017692;-0.604476;0.796427;,
  0.443922;-0.742489;0.501640;,
  0.217514;-0.831441;0.511266;,
  -0.246595;-0.759237;0.602288;,
  0.443986;-0.527153;0.724559;,
  0.220513;-0.597344;0.771073;,
  0.072959;-0.293271;0.953241;,
  0.007147;-0.332041;0.943238;,
  0.430309;-0.216113;0.876430;,
  0.206712;-0.248815;0.946235;,
  0.005318;0.102904;0.994677;,
  -0.049886;-0.045561;0.997715;,
  0.401789;0.129560;0.906521;,
  0.174648;0.125822;0.976559;,
  -0.190573;-0.385956;0.902618;,
  -0.273803;-0.444182;0.853074;,
  -0.185404;-0.197748;0.962560;,
  -0.266114;-0.223057;0.937779;,
  0.382709;0.451235;0.806176;,
  0.149814;0.460494;0.874929;,
  -0.057638;0.421585;0.904955;,
  -0.091519;0.182982;0.978847;,
  -0.170240;0.138702;0.975592;,
  -0.256439;0.142786;0.955956;,
  -0.124274;0.473179;0.872157;,
  -0.229352;0.483541;0.844740;,
  0.400196;0.697831;0.594033;,
  0.182506;0.719128;0.670482;,
  0.150539;0.528646;0.835387;,
  -0.027303;0.349049;0.936707;,
  -0.226314;0.333886;0.915042;,
  0.418178;0.868387;0.266516;,
  0.213518;0.918435;0.332998;,
  0.185573;0.980110;-0.070332;,
  0.285485;0.957630;0.037998;,
  0.394311;0.792393;0.465437;,
  0.397710;0.911239;-0.107099;,
  0.193599;0.635154;-0.747729;,
  0.460043;0.734779;-0.498457;,
  0.000592;0.539195;-0.842181;,
  -0.072785;0.497003;-0.864691;,
  -0.113159;0.868498;-0.482603;,
  -0.091798;0.877377;-0.470937;,
  0.003920;0.914956;-0.403535;,
  0.147496;0.944727;-0.292808;,
  0.629455;0.775023;-0.055912;,
  0.150543;0.988600;0.002557;,
  0.534251;0.697882;0.477008;,
  0.275758;0.478400;0.833721;,
  0.100847;0.916347;0.387477;,
  0.037724;0.753804;0.656015;,
  -0.007624;0.335943;0.941851;,
  -0.107690;0.736581;0.667721;,
  -0.228140;0.278181;0.933042;,
  -0.216145;0.700749;0.679877;,
  -0.280747;0.705166;0.651093;,
  -0.355057;0.268685;0.895401;,
  -0.344891;0.326397;0.880065;,
  -0.314359;0.480924;0.818469;,
  -0.341692;0.106724;0.933733;,
  -0.327747;0.767216;0.551327;,
  -0.472101;0.337896;0.814215;,
  -0.430216;0.373152;0.821992;,
  -0.366539;0.464910;0.805920;,
  -0.371705;0.025893;0.927990;,
  -0.330065;-0.271579;0.904048;,
  -0.313736;-0.346614;0.883984;,
  -0.320774;-0.455642;0.830358;,
  -0.307952;-0.743710;0.593348;,
  -0.261610;-0.926225;0.271418;,
  -0.325281;-0.438242;0.837936;,
  -0.312741;-0.589193;0.745014;,
  -0.318351;-0.889188;0.328629;,
  -0.223094;-0.973585;0.048589;,
  -0.251069;-0.964348;0.083645;,
  -0.180069;-0.956173;-0.230885;,
  -0.186843;-0.953761;-0.235434;,
  -0.134290;-0.870714;-0.473100;,
  -0.122231;-0.837351;-0.532825;,
  -0.120429;-0.802708;-0.584086;,
  -0.076089;-0.595709;-0.799588;,
  -0.115092;-0.731133;-0.672457;,
  -0.060271;-0.510558;-0.857728;,
  -0.017250;-0.226040;-0.973965;,
  -0.020736;0.015000;-0.999672;,
  0.008543;-0.183952;-0.982898;,
  -0.066793;-0.589703;-0.804853;,
  -0.031876;-0.348492;-0.936770;,
  -0.067480;-0.779992;-0.622141;,
  -0.043225;0.446277;-0.893850;,
  0.008555;-0.004154;-0.999955;,
  -0.022420;0.398626;-0.916840;,
  0.040623;-0.106509;-0.993482;,
  0.065266;0.001153;-0.997867;,
  0.020534;0.366692;-0.930116;,
  0.001291;0.063843;-0.997959;,
  -0.003193;0.233549;-0.972340;,
  -0.000600;-0.046868;-0.998901;,
  -0.024137;-0.751147;-0.659693;,
  -0.024851;-0.509089;-0.860355;,
  -0.047934;-0.173748;-0.983623;,
  -0.090373;0.113845;-0.989380;,
  -0.047618;0.319505;-0.946387;,
  0.012876;0.518059;-0.855248;,
  -0.035860;0.755067;-0.654666;,
  -0.058760;0.756059;-0.651860;,
  0.012250;0.808881;-0.587845;,
  -0.059946;0.755626;-0.652255;,
  -0.067739;0.522404;-0.850003;,
  -0.087299;0.525179;-0.846502;,
  -0.179195;0.562046;-0.807461;,
  -0.350376;0.780942;-0.517075;,
  -0.062827;0.966885;-0.247359;,
  -0.071724;0.466107;-0.881816;,
  -0.103029;0.867423;-0.486788;,
  -0.124476;0.462121;-0.878038;,
  -0.252446;0.517038;-0.817889;,
  -0.577516;0.626078;-0.523929;,
  -0.132687;0.899712;-0.415828;,
  -0.153578;0.974306;-0.164744;,
  -0.243895;0.955239;-0.167430;,
  -0.696431;0.492555;0.521895;,
  -0.517043;0.567889;0.640444;,
  -0.355761;0.438612;0.825260;,
  -0.389818;-0.009755;0.920840;,
  -0.326071;-0.346434;0.879580;,
  -0.345572;-0.611115;0.712123;,
  -0.322598;-0.858215;0.399247;,
  -0.439090;-0.326184;0.837140;,
  -0.388445;-0.607038;0.693264;,
  -0.410108;-0.004736;0.912025;,
  -0.323399;0.419461;0.848213;,
  0.267568;0.701328;0.660717;,
  -0.305878;0.882425;0.357442;,
  -0.125024;0.943508;0.306857;,
  -0.088016;0.995957;-0.017949;,
  -0.165242;0.937249;0.307018;,
  -0.193162;0.933689;0.301518;,
  -0.131226;0.990769;-0.034000;,
  -0.144847;0.986589;-0.075240;,
  -0.194367;0.961003;0.196712;,
  -0.149603;0.987871;-0.041580;,
  -0.353817;0.928537;0.112395;,
  -0.800795;0.598937;-0.000715;,
  -0.957040;0.277990;-0.082441;,
  0.133910;0.930409;0.341184;,
  -0.300198;-0.852312;0.428306;,
  -0.237856;-0.967623;0.084442;,
  -0.213124;-0.974601;0.068780;,
  -0.144003;-0.946169;-0.289873;,
  -0.102765;-0.939088;-0.327953;,
  0.626894;0.776634;-0.061999;,
  0.498868;0.812105;0.302682;,
  0.420042;0.632016;0.651245;,
  0.711315;0.616621;-0.337358;,
  0.380305;0.289191;0.878485;,
  0.751274;0.452102;-0.480824;,
  0.790154;0.301138;-0.533828;,
  0.799005;0.119462;-0.589339;,
  0.767290;-0.129275;-0.628136;,
  0.731697;-0.395146;-0.555409;,
  0.698387;-0.607580;-0.378288;,
  0.641605;-0.755293;-0.133700;,
  0.554642;-0.808967;0.194795;,
  0.467504;-0.716129;0.518265;,
  0.412147;-0.538488;0.734959;,
  0.373464;-0.334483;0.865243;,
  0.356577;-0.062461;0.932176;,
  -0.212685;-0.022523;0.976861;,
  -0.180926;0.360186;0.915168;,
  -0.201625;-0.353655;0.913387;,
  -0.169455;-0.638669;0.750591;,
  -0.081364;0.743851;0.663374;,
  0.029882;0.972722;0.230040;,
  -0.508560;0.855095;0.100891;,
  -0.610054;0.642833;0.463248;,
  0.114691;0.964030;-0.239776;,
  0.178011;0.776451;-0.604514;,
  0.220564;0.561365;-0.797634;,
  0.252616;0.379221;-0.890155;,
  0.253472;0.174855;-0.951408;,
  0.236363;-0.123746;-0.963753;,
  0.204588;-0.474463;-0.856171;,
  0.160974;-0.747565;-0.644387;,
  0.100816;-0.932751;-0.346139;,
  0.012145;-0.998121;0.060063;,
  -0.092784;-0.878534;0.468581;,
  -0.462128;0.138630;-0.875911;,
  -0.791533;0.085725;-0.605084;,
  -0.788663;0.168173;-0.591379;,
  -0.458309;0.292285;-0.839358;,
  -0.313382;0.370380;-0.874420;,
  -0.458885;0.434496;-0.775008;,
  -0.762078;0.424210;-0.489166;,
  -0.454872;0.641866;-0.617332;,
  -0.755404;0.584783;-0.295625;,
  -0.457546;0.832495;-0.312416;,
  -0.451204;-0.096092;-0.887233;,
  -0.777917;-0.062768;-0.625224;,
  -0.456050;-0.364124;-0.812055;,
  -0.780101;-0.207815;-0.590132;,
  -0.485425;-0.583360;-0.651193;,
  -0.798651;-0.338182;-0.497785;,
  -0.519699;-0.744830;-0.418499;,
  -0.812232;-0.456627;-0.363003;,
  -0.562615;-0.822410;-0.084293;,
  -0.829363;-0.536841;-0.154786;,
  -0.623144;-0.737130;0.261401;,
  -0.858713;-0.506813;0.075843;,
  -0.697006;-0.509101;0.504974;,
  -0.916168;-0.323863;0.236111;,
  -0.738613;-0.239921;0.629992;,
  -0.946786;-0.113014;0.301370;,
  -0.747406;0.019182;0.664090;,
  -0.947444;0.042115;0.317136;,
  -0.708273;0.311641;0.633426;,
  -0.920153;0.221028;0.323212;,
  -0.858815;0.453006;0.239212;,
  -0.796938;0.604003;-0.008381;,
  0.265814;0.962032;-0.061938;,
  0.239622;0.930238;0.277917;,
  0.306933;0.701046;0.643682;,
  0.332605;0.844255;-0.420247;,
  0.395164;0.515774;-0.760147;,
  0.284862;0.362262;0.887480;,
  0.140640;0.087739;0.986166;,
  0.336736;-0.308360;0.889676;,
  0.465581;-0.509328;0.723754;,
  0.494831;-0.697460;0.518355;,
  0.128142;-0.986306;0.103831;,
  0.656477;-0.740931;-0.141629;,
  0.666029;-0.614097;-0.423428;,
  0.694354;-0.403652;-0.595766;,
  0.583637;-0.192547;-0.788856;,
  0.320442;0.258540;-0.911304;,
  0.403972;0.454347;0.793962;,
  0.555716;0.410460;0.722982;,
  0.600332;0.728652;0.329648;,
  0.300123;0.912802;0.276980;,
  0.302638;0.847030;0.436979;,
  0.577533;0.800877;0.158276;,
  0.540373;0.822273;0.178505;,
  0.571923;0.806996;0.147179;,
  0.329477;0.944038;-0.015403;,
  0.559121;0.811941;0.167737;,
  0.577025;0.806919;0.126187;,
  0.341864;0.907916;-0.242522;,
  0.512494;0.856505;0.061224;,
  0.548127;0.826941;0.125396;,
  0.570473;0.813381;0.113894;,
  0.602646;0.793969;-0.080190;,
  0.677602;0.530877;-0.508945;,
  0.397444;0.890784;0.220325;,
  0.583973;0.804449;0.108801;,
  0.411850;0.895638;0.167965;,
  0.453089;0.888947;0.066964;,
  0.448510;0.893728;-0.009445;,
  0.758615;0.630448;-0.164436;,
  0.775962;0.623013;-0.098682;,
  0.891004;0.437898;0.119821;,
  0.943288;0.176835;0.280957;,
  0.887771;-0.092385;0.450919;,
  0.407583;-0.569865;0.713534;,
  0.067881;0.164211;0.984087;,
  -0.042519;-0.121710;0.991655;,
  -0.085609;-0.372127;0.924225;,
  0.112763;0.513868;0.850426;,
  0.059313;0.751842;0.656671;,
  0.007040;0.879401;0.476030;,
  -0.015996;0.954573;0.297548;,
  -0.019299;0.995349;0.094377;,
  0.013588;0.993780;-0.110533;,
  0.066155;0.952845;-0.296159;,
  0.456683;0.888695;-0.040765;,
  0.129369;0.881978;-0.453187;,
  0.594468;0.700057;0.395636;,
  0.204534;0.753585;-0.624720;,
  0.687134;0.654098;0.316232;,
  0.229682;0.520845;-0.822172;,
  0.859643;0.484766;0.161296;,
  0.164980;0.225332;-0.960212;,
  0.955461;0.291171;-0.048094;,
  0.078268;-0.024492;-0.996631;,
  0.976506;0.004832;-0.215434;,
  0.036717;-0.249980;-0.967554;,
  0.937297;-0.233918;-0.258374;,
  0.036547;-0.520298;-0.853202;,
  0.051933;-0.771078;-0.634620;,
  0.924215;-0.377720;0.056152;,
  0.066300;-0.936075;-0.345497;,
  0.013351;-0.999888;0.006782;,
  -0.055067;-0.684533;0.726899;,
  0.448076;-0.756402;0.476534;,
  -0.039023;-0.917434;0.395969;,
  0.404010;0.824194;-0.396837;,
  0.402121;0.674556;-0.619091;,
  0.393336;0.444523;-0.804789;,
  0.389555;0.173143;-0.904582;,
  0.390222;-0.073687;-0.917767;,
  0.386862;-0.350176;-0.853062;,
  0.395397;-0.640636;-0.658215;,
  0.428771;-0.807842;-0.404409;,
  0.462347;-0.877751;-0.125650;,
  0.465642;-0.857712;0.217964;,
  0.454461;-0.729340;0.511398;,
  0.451178;-0.518780;0.726158;,
  0.438410;-0.219614;0.871531;,
  0.417373;0.122264;0.900473;,
  0.404028;0.452164;0.795179;,
  0.410534;0.707247;0.575556;,
  0.422607;0.869798;0.254666;,
  0.412776;0.904075;-0.110746;,
  1.000000;0.000000;0.000000;,
  0.000000;0.000000;-1.000000;,
  -0.000000;-0.406728;-0.913549;,
  0.000000;-0.743143;-0.669133;,
  -0.000000;-0.951059;-0.309010;,
  -0.000001;-0.994521;0.104539;,
  -0.000000;-0.866026;0.499999;,
  0.000000;-0.587793;0.809012;,
  0.000000;-0.207911;0.978148;,
  0.000000;0.207911;0.978148;,
  0.000000;0.587787;0.809016;,
  0.000001;0.866029;0.499994;,
  0.000002;0.994522;0.104523;,
  0.000001;0.951058;-0.309014;,
  0.000000;0.743146;-0.669129;,
  0.000000;0.406732;-0.913547;,
  -1.000000;0.000000;0.000000;,
  0.591220;0.474906;-0.651861;,
  0.645632;0.265736;-0.715921;,
  -0.744157;0.536693;-0.397732;,
  -0.760087;0.601702;-0.245404;,
  -0.731822;0.678769;-0.060906;,
  -0.712933;0.689468;0.127905;,
  -0.718782;0.590692;0.366655;,
  -0.659235;0.414308;0.627502;,
  -0.634924;0.158685;0.756102;,
  -0.693034;-0.159749;0.702983;,
  -0.775265;-0.374286;0.508797;,
  -0.800746;-0.499330;0.330870;,
  -0.691533;-0.722007;0.022065;,
  -0.758149;-0.618852;0.205504;,
  -0.624935;-0.745522;-0.231630;,
  -0.579124;-0.670371;-0.463915;,
  -0.502178;-0.546264;-0.670383;,
  -0.556269;-0.607746;-0.566754;,
  -0.458835;-0.339765;-0.820994;,
  -0.521660;-0.052011;-0.851567;,
  0.821450;0.440925;-0.361671;,
  -0.162172;0.958700;0.233653;,
  0.853838;0.515667;0.071054;,
  0.804865;0.568304;0.170946;,
  0.906771;0.407304;-0.108951;,
  0.677239;0.194560;0.709573;,
  0.928831;0.310362;-0.202356;,
  0.953185;0.199916;-0.226874;,
  0.961082;0.055489;-0.270635;,
  0.940502;-0.116739;-0.319104;,
  0.922617;-0.275654;-0.269803;,
  0.903478;-0.404548;-0.141665;,
  0.863649;-0.503691;0.020159;,
  0.804368;-0.541031;0.245516;,
  0.751999;-0.475378;0.456633;,
  0.722978;-0.363179;0.587711;,
  0.683739;-0.259471;0.682038;,
  0.657619;-0.080109;0.749079;,
  0.185637;0.942079;0.279331;,
  0.236809;0.964495;-0.116926;,
  0.144814;0.692759;0.706480;,
  0.256936;0.827479;-0.499261;,
  0.247211;0.704921;-0.664810;,
  0.094621;0.303825;0.948017;,
  0.062000;-0.002976;0.998072;,
  0.060879;-0.308638;0.949229;,
  0.079279;-0.607675;0.790219;,
  0.075883;-0.860672;0.503473;,
  0.223550;-0.925198;-0.306651;,
  0.273338;-0.744297;-0.609350;,
  0.306849;-0.492402;-0.814484;,
  0.313050;-0.187670;-0.931010;,
  0.307017;0.125701;-0.943366;,
  0.217595;0.361076;-0.906795;,
  0.826738;0.562510;0.009296;,
  0.942504;0.051116;0.330263;,
  0.016168;0.832618;0.553612;,
  0.795962;0.542123;0.269345;,
  0.977061;0.155959;-0.145015;,
  0.920095;-0.360467;-0.153256;,
  0.897186;-0.359221;0.256938;;
  501;
  4;0,0,0,0;,
  4;0,0,0,0;,
  4;0,0,0,0;,
  4;0,0,0,0;,
  4;1,1,2,2;,
  4;19,20,21,22;,
  4;23,23,24,24;,
  4;25,26,27,28;,
  4;29,26,25,30;,
  4;31,32,33,34;,
  4;35,36,37,38;,
  4;39,40,41,42;,
  4;43,44,45,46;,
  4;47,48,49,50;,
  4;481,51,52,53;,
  4;20,19,54,55;,
  4;56,57,58,59;,
  4;60,61,62,63;,
  4;64,65,66,67;,
  4;68,69,70,71;,
  4;72,73,74,75;,
  4;76,77,78,79;,
  4;77,80,81,78;,
  4;50,49,44,43;,
  4;59,58,61,60;,
  4;82,38,37,83;,
  4;84,71,70,85;,
  4;67,66,69,68;,
  4;42,41,36,35;,
  4;53,52,57,56;,
  4;22,21,48,47;,
  4;81,80,87,87;,
  4;87,87,88,482;,
  4;63,62,65,64;,
  4;46,45,40,39;,
  4;88,54,19,51;,
  4;22,52,51,19;,
  4;47,57,52,22;,
  4;50,58,57,47;,
  4;43,61,58,50;,
  4;46,62,61,43;,
  4;39,65,62,46;,
  4;42,66,65,39;,
  4;35,69,66,42;,
  4;38,70,69,35;,
  4;85,70,38,82;,
  4;34,74,73,31;,
  4;30,25,77,76;,
  4;28,80,77,25;,
  4;89,30,76,90;,
  4;91,29,30,89;,
  4;90,76,79,92;,
  4;3,3,1,1;,
  4;4,93,3,3;,
  4;5,94,93,4;,
  4;95,94,5,10;,
  4;9,9,8,8;,
  4;6,6,9,9;,
  4;7,7,6,6;,
  4;86,11,11,86;,
  4;12,12,11,11;,
  4;13,13,12,12;,
  4;14,14,13,13;,
  4;15,15,14,14;,
  4;16,16,15,15;,
  4;17,17,16,16;,
  4;18,18,17,17;,
  4;2,2,18,18;,
  4;482,88,51,481;,
  4;483,483,23,23;,
  4;484,484,483,483;,
  4;485,485,484,484;,
  4;486,486,485,485;,
  4;487,487,486,486;,
  4;488,488,487,487;,
  4;489,489,488,488;,
  4;490,490,489,489;,
  4;491,491,490,490;,
  4;492,491,491,492;,
  4;493,493,494,494;,
  4;495,495,493,493;,
  4;496,497,498,496;,
  4;497,499,94,95;,
  4;500,93,94,499;,
  4;24,24,93,500;,
  4;10,8,8,95;,
  4;92,75,74,90;,
  4;496,495,495,496;,
  4;90,74,34,89;,
  4;89,34,33,91;,
  4;86,7,7,86;,
  4;492,494,494,492;,
  4;85,73,72,84;,
  4;82,31,73,85;,
  4;83,32,31,82;,
  4;96,97,98,99;,
  4;100,98,97,101;,
  4;99,98,102,103;,
  4;101,104,105,100;,
  4;105,106,107,100;,
  4;107,102,98,100;,
  4;103,108,109,99;,
  4;99,109,110,96;,
  4;111,96,110,112;,
  4;113,97,96,111;,
  4;114,101,97,113;,
  4;115,104,101,114;,
  4;116,111,112,117;,
  4;118,113,111,116;,
  4;119,114,113,118;,
  4;120,115,114,119;,
  4;117,121,122,116;,
  4;116,122,123,118;,
  4;118,123,124,119;,
  4;119,124,125,120;,
  4;108,126,127,109;,
  4;110,109,127,128;,
  4;112,110,128,129;,
  4;130,131,121,117;,
  4;117,112,129,130;,
  4;123,122,121,132;,
  4;132,121,131,133;,
  4;124,123,132,134;,
  4;125,124,134,135;,
  4;132,133,136,137;,
  4;137,136,138,139;,
  4;140,135,134,141;,
  4;139,138,142,143;,
  4;144,145,146,147;,
  4;145,144,148,149;,
  4;150,148,151,152;,
  4;143,142,153,154;,
  4;148,150,155,149;,
  4;154,153,156,157;,
  4;152,151,158,159;,
  4;157,156,160,161;,
  4;159,158,162,163;,
  4;161,160,164,165;,
  4;155,150,166,167;,
  4;166,150,152,159;,
  4;166,159,163,168;,
  4;168,169,167,166;,
  4;165,164,170,171;,
  4;172,173,163,162;,
  4;173,174,168,163;,
  4;174,175,169,168;,
  4;174,173,172,176;,
  4;176,177,175,174;,
  4;171,170,178,179;,
  4;180,181,176,172;,
  4;181,182,177,176;,
  4;179,178,183,184;,
  4;185,186,187,184;,
  4;108,185,188,126;,
  4;184,187,180,179;,
  4;186,185,108,103;,
  4;184,183,188,185;,
  4;179,180,172,171;,
  4;171,172,162,165;,
  4;165,162,158,161;,
  4;161,158,151,157;,
  4;157,151,148,154;,
  4;154,148,144,143;,
  4;143,144,147,139;,
  4;141,134,132,137;,
  4;137,139,147,141;,
  4;141,147,146,140;,
  4;103,102,189,190;,
  4;189,102,107,191;,
  4;191,107,106,192;,
  4;192,193,194,191;,
  4;194,195,189,191;,
  4;195,196,190,189;,
  4;501,103,190,197;,
  4;197,190,196,198;,
  4;197,199,187,186;,
  4;199,200,180,187;,
  4;199,197,198,201;,
  4;201,202,200,199;,
  4;200,203,181,180;,
  4;203,200,202,204;,
  4;205,182,181,203;,
  4;203,204,206,205;,
  4;206,207,208,205;,
  4;208,209,182,205;,
  4;177,182,209,210;,
  4;210,211,175,177;,
  4;207,212,213,208;,
  4;209,208,213,214;,
  4;214,215,210,209;,
  4;211,210,215,216;,
  4;169,175,211,217;,
  4;217,211,216,218;,
  4;217,219,167,169;,
  4;155,167,219,220;,
  4;149,155,220,221;,
  4;219,217,218,222;,
  4;222,223,220,219;,
  4;221,220,223,224;,
  4;145,149,221,225;,
  4;225,221,224,226;,
  4;225,227,146,145;,
  4;227,225,226,228;,
  4;140,146,227,229;,
  4;229,227,228,230;,
  4;229,231,135,140;,
  4;231,232,125,135;,
  4;230,233,231,229;,
  4;233,234,232,231;,
  4;232,235,120,125;,
  4;235,236,115,120;,
  4;234,237,235,232;,
  4;234,233,238,239;,
  4;238,233,230,240;,
  4;104,115,236,241;,
  4;241,236,242,243;,
  4;242,236,235,237;,
  4;237,234,239,244;,
  4;244,245,242,237;,
  4;245,246,243,242;,
  4;246,245,247,248;,
  4;247,245,244,249;,
  4;240,250,251,238;,
  4;251,252,239,238;,
  4;249,244,239,252;,
  4;248,247,253,254;,
  4;253,247,249,252;,
  4;254,255,246,248;,
  4;243,246,256,257;,
  4;256,246,255,258;,
  4;105,104,241,259;,
  4;259,241,243,257;,
  4;106,105,259,260;,
  4;260,259,257,261;,
  4;261,257,256,262;,
  4;262,256,258,263;,
  3;258,264,263;,
  4;260,265,192,106;,
  4;265,266,193,192;,
  4;265,260,261,267;,
  4;267,261,262,268;,
  4;268,262,263,269;,
  4;267,270,266,265;,
  4;270,267,268,271;,
  4;271,268,269,272;,
  4;213,273,274,214;,
  4;215,214,274,275;,
  4;275,276,216,215;,
  4;218,216,276,277;,
  3;222,218,223;,
  3;218,277,223;,
  3;277,278,223;,
  4;278,279,224,223;,
  4;278,277,280,281;,
  4;276,282,280,277;,
  4;275,283,282,276;,
  4;274,284,283,275;,
  4;273,213,212,285;,
  4;204,202,201,286;,
  4;286,201,198,287;,
  4;287,198,196,195;,
  4;286,288,206,204;,
  4;288,289,207,206;,
  4;287,290,288,286;,
  4;290,291,289,288;,
  4;289,292,212,207;,
  4;194,290,287,195;,
  4;193,291,290,194;,
  3;266,291,193;,
  4;270,293,291,266;,
  4;293,292,289,291;,
  4;271,292,293,270;,
  4;271,285,212,292;,
  4;272,294,285,271;,
  4;294,295,273,285;,
  4;295,296,274,273;,
  4;502,297,284,274;,
  4;295,294,272,269;,
  4;297,502,263,264;,
  4;269,263,296,295;,
  4;279,278,281,298;,
  4;226,224,279,299;,
  4;299,279,298,300;,
  4;299,301,228,226;,
  4;301,240,230,228;,
  4;301,302,250,240;,
  4;302,301,299,300;,
  4;503,303,304,504;,
  4;304,305,284,297;,
  4;303,503,505,306;,
  4;305,307,506,284;,
  4;507,308,306,505;,
  4;508,309,308,507;,
  4;509,310,309,508;,
  4;510,311,310,509;,
  4;511,312,311,510;,
  4;512,313,312,511;,
  4;513,314,313,512;,
  4;514,315,314,513;,
  4;515,316,315,514;,
  4;516,317,316,515;,
  4;517,318,317,516;,
  4;518,319,318,517;,
  4;307,319,518,506;,
  4;320,319,307,321;,
  4;322,318,319,320;,
  4;323,317,318,322;,
  4;321,307,305,324;,
  4;325,326,327,324;,
  4;325,304,303,328;,
  4;328,303,306,329;,
  4;329,306,308,330;,
  4;330,308,309,331;,
  4;331,309,310,332;,
  4;332,310,311,333;,
  4;333,311,312,334;,
  4;334,312,313,335;,
  4;335,313,314,336;,
  4;336,314,315,337;,
  4;337,315,316,338;,
  4;338,316,317,323;,
  4;339,340,341,342;,
  4;341,343,344,342;,
  4;343,345,346,344;,
  4;345,347,348,346;,
  4;349,350,340,339;,
  4;350,349,351,352;,
  4;353,354,352,351;,
  4;355,356,354,353;,
  4;357,358,356,355;,
  4;359,360,358,357;,
  4;360,359,361,362;,
  4;363,364,362,361;,
  4;364,363,365,366;,
  4;367,368,366,365;,
  4;327,369,368,367;,
  4;347,370,326,348;,
  4;370,369,327,326;,
  4;519,520,371,372;,
  4;372,373,521,519;,
  4;522,374,371,520;,
  4;374,522,523,375;,
  4;373,376,524,521;,
  4;376,377,525,524;,
  4;377,378,526,525;,
  4;378,379,527,526;,
  4;379,380,528,527;,
  4;381,528,380,381;,
  4;529,381,381,382;,
  4;530,529,382,383;,
  4;383,384,531,530;,
  4;532,531,384,385;,
  4;533,532,385,386;,
  4;376,387,388,377;,
  3;387,376,373;,
  4;373,389,388,387;,
  4;372,390,391,373;,
  4;391,392,389,373;,
  3;390,393,394;,
  4;371,395,390,372;,
  4;395,396,393,390;,
  3;395,397,396;,
  4;374,398,395,371;,
  4;398,399,400,395;,
  3;395,400,401;,
  3;401,397,395;,
  4;394,392,391,390;,
  4;374,402,399,398;,
  4;375,403,402,374;,
  3;533,386,534;,
  3;534,386,343;,
  3;386,375,343;,
  3;386,403,375;,
  4;324,305,304,325;,
  4;328,348,326,325;,
  4;329,346,348,328;,
  4;330,344,346,329;,
  4;331,342,344,330;,
  4;332,339,342,331;,
  4;333,349,339,332;,
  4;334,351,349,333;,
  4;335,353,351,334;,
  4;336,355,353,335;,
  4;337,357,355,336;,
  4;338,359,357,337;,
  4;323,361,359,338;,
  4;322,363,361,323;,
  4;320,365,363,322;,
  4;321,367,365,320;,
  4;324,327,367,321;,
  4;394,393,404,405;,
  4;404,393,396,406;,
  4;406,396,397,407;,
  4;407,397,401,408;,
  4;405,409,392,394;,
  4;409,410,389,392;,
  4;410,411,535,389;,
  4;411,412,412,388;,
  4;412,413,536,412;,
  4;413,414,379,378;,
  4;415,415,416,416;,
  4;417,416,416,417;,
  4;418,418,415,415;,
  4;419,419,418,418;,
  4;537,420,419,419;,
  4;404,421,420,405;,
  4;406,422,421,404;,
  4;407,423,422,406;,
  4;408,424,423,407;,
  4;408,401,400,425;,
  4;425,426,424,408;,
  4;425,400,399,427;,
  4;428,428,426,425;,
  4;402,429,427,399;,
  4;430,430,428,428;,
  4;538,431,429,402;,
  4;430,430,432,432;,
  4;433,433,431,403;,
  4;434,434,432,432;,
  4;539,435,433,433;,
  4;436,436,434,434;,
  4;384,437,435,385;,
  4;438,438,436,436;,
  4;438,438,439,439;,
  4;540,437,384,383;,
  4;382,440,540,383;,
  4;441,441,439,439;,
  4;441,441,442,442;,
  4;541,440,382,541;,
  4;414,417,417,443;,
  4;414,444,380,379;,
  4;443,445,444,414;,
  4;444,445,442,442;,
  4;541,541,380,444;,
  4;127,126,446,447;,
  4;128,127,447,448;,
  4;129,128,448,449;,
  4;131,130,450,451;,
  4;130,129,449,450;,
  4;133,131,451,452;,
  4;136,133,452,453;,
  4;138,136,453,454;,
  4;142,138,454,455;,
  4;153,142,455,456;,
  4;156,153,456,457;,
  4;160,156,457,458;,
  4;164,160,458,459;,
  4;170,164,459,460;,
  4;178,170,460,461;,
  4;183,178,461,462;,
  4;126,188,463,446;,
  4;188,183,462,463;,
  4;465,466,466,465;,
  4;466,467,467,466;,
  4;467,468,468,467;,
  4;468,469,469,468;,
  4;469,470,470,469;,
  4;470,471,471,470;,
  4;471,472,472,471;,
  4;472,473,473,472;,
  4;473,474,474,473;,
  4;474,475,475,474;,
  4;475,476,476,475;,
  4;476,477,477,476;,
  4;477,478,478,477;,
  4;478,479,479,478;,
  4;479,465,465,479;,
  3;464,464,464;,
  3;464,464,464;,
  3;464,464,464;,
  3;464,464,464;,
  3;464,464,464;,
  3;464,464,464;,
  3;464,464,464;,
  3;464,464,464;,
  3;464,464,464;,
  3;464,464,464;,
  3;464,464,464;,
  3;464,464,464;,
  3;464,464,464;,
  3;464,464,464;,
  3;464,464,464;,
  3;480,480,480;,
  3;480,480,480;,
  3;480,480,480;,
  3;480,480,480;,
  3;480,480,480;,
  3;480,480,480;,
  3;480,480,480;,
  3;480,480,480;,
  3;480,480,480;,
  3;480,480,480;,
  3;480,480,480;,
  3;480,480,480;,
  3;480,480,480;,
  3;480,480,480;,
  3;480,480,480;,
  4;465,465,465,465;,
  4;465,465,465,465;,
  4;465,465,465,465;,
  4;465,465,465,465;;
 }
 MeshTextureCoords {
  653;
  0.038200;0.861880;,
  0.043730;0.861920;,
  0.044430;0.917200;,
  0.038200;0.917210;,
  0.045120;0.972490;,
  0.038200;0.972530;,
  0.075060;0.854670;,
  0.080450;0.854550;,
  0.081210;0.909870;,
  0.075060;0.909960;,
  0.081980;0.965200;,
  0.075060;0.965240;,
  0.893480;0.417820;,
  0.900010;0.421920;,
  0.898820;0.432490;,
  0.891190;0.434560;,
  0.156500;0.517010;,
  0.171880;0.520040;,
  0.161540;0.533450;,
  0.147830;0.529300;,
  0.123340;0.504090;,
  0.120490;0.501540;,
  0.121410;0.493480;,
  0.126520;0.492470;,
  0.165740;0.463370;,
  0.175160;0.454100;,
  0.179190;0.470410;,
  0.159600;0.476450;,
  0.167770;0.440860;,
  0.156740;0.442790;,
  0.047320;0.614080;,
  0.050300;0.624950;,
  0.028500;0.628220;,
  0.028330;0.619520;,
  0.081490;0.598230;,
  0.091630;0.609970;,
  0.076560;0.617730;,
  0.067480;0.604750;,
  0.107050;0.583410;,
  0.118040;0.590240;,
  0.106500;0.600420;,
  0.094700;0.591040;,
  0.123510;0.556470;,
  0.133500;0.563340;,
  0.126940;0.576740;,
  0.117480;0.567680;,
  0.137360;0.538610;,
  0.149310;0.544290;,
  0.141380;0.552020;,
  0.130520;0.547280;,
  0.132970;0.510740;,
  0.129400;0.519210;,
  0.120430;0.510420;,
  0.164090;0.505380;,
  0.177170;0.510910;,
  0.116340;0.518690;,
  0.125110;0.523910;,
  0.116610;0.536430;,
  0.109470;0.528020;,
  0.102420;0.535050;,
  0.110680;0.544860;,
  0.101350;0.559010;,
  0.092180;0.544880;,
  0.082220;0.553200;,
  0.095790;0.561770;,
  0.082220;0.571930;,
  0.073160;0.559950;,
  0.059910;0.567700;,
  0.070310;0.580880;,
  0.057190;0.586130;,
  0.048130;0.573440;,
  0.035330;0.577860;,
  0.040870;0.594190;,
  0.027390;0.597880;,
  0.023730;0.582790;,
  0.139060;0.452460;,
  0.143750;0.472380;,
  0.127450;0.470260;,
  0.124860;0.458880;,
  0.147240;0.482010;,
  0.128070;0.477780;,
  0.060570;0.607730;,
  0.066880;0.620650;,
  0.042520;0.575460;,
  0.051430;0.588530;,
  0.144000;0.487170;,
  0.127110;0.485850;,
  0.144970;0.492950;,
  0.151580;0.431230;,
  0.133370;0.437620;,
  0.159940;0.428460;,
  0.121420;0.445370;,
  0.897080;0.401530;,
  0.902300;0.407370;,
  0.902000;0.386900;,
  0.907090;0.392740;,
  0.908920;0.370460;,
  0.914690;0.375030;,
  0.919350;0.367690;,
  0.916070;0.359370;,
  0.936380;0.328820;,
  0.944470;0.329750;,
  0.928740;0.354840;,
  0.924120;0.348620;,
  0.779960;0.507180;,
  0.777300;0.501520;,
  0.796690;0.497950;,
  0.800790;0.505560;,
  0.755100;0.512910;,
  0.754750;0.507190;,
  0.740170;0.513860;,
  0.729160;0.515220;,
  0.730110;0.508400;,
  0.740320;0.507670;,
  0.706230;0.517980;,
  0.706360;0.511720;,
  0.679110;0.519230;,
  0.679040;0.512360;,
  0.660260;0.519410;,
  0.659990;0.512910;,
  0.636400;0.517170;,
  0.636750;0.510580;,
  0.614910;0.515730;,
  0.610450;0.509150;,
  0.590690;0.514870;,
  0.592310;0.506710;,
  0.889320;0.452140;,
  0.896850;0.452420;,
  0.895110;0.468610;,
  0.887750;0.466100;,
  0.118460;0.506820;,
  0.113920;0.517150;,
  0.108350;0.524690;,
  0.100530;0.531400;,
  0.089840;0.541510;,
  0.078980;0.549430;,
  0.070370;0.556520;,
  0.056390;0.563390;,
  0.044640;0.569110;,
  0.039500;0.570930;,
  0.022060;0.577790;,
  0.032220;0.572250;,
  0.014200;0.585850;,
  0.012930;0.581840;,
  0.123370;0.469530;,
  0.121630;0.460760;,
  0.123660;0.474440;,
  0.123030;0.485110;,
  0.019350;0.600220;,
  0.117440;0.445340;,
  0.018350;0.620780;,
  0.017600;0.630100;,
  0.646920;0.791890;,
  0.658020;0.796240;,
  0.652590;0.814130;,
  0.639330;0.817960;,
  0.668690;0.815740;,
  0.680550;0.800860;,
  0.662770;0.827000;,
  0.649520;0.834910;,
  0.708780;0.804220;,
  0.708000;0.814030;,
  0.701550;0.823680;,
  0.672260;0.824080;,
  0.629310;0.832680;,
  0.629200;0.819190;,
  0.628970;0.803760;,
  0.641670;0.786840;,
  0.629940;0.785670;,
  0.658390;0.785350;,
  0.686490;0.787260;,
  0.711750;0.788690;,
  0.641110;0.774240;,
  0.630200;0.777350;,
  0.659360;0.771480;,
  0.688830;0.768560;,
  0.713900;0.771530;,
  0.629920;0.765470;,
  0.645580;0.765440;,
  0.660000;0.755490;,
  0.690130;0.751560;,
  0.716010;0.753250;,
  0.619030;0.832090;,
  0.618230;0.818270;,
  0.617870;0.802530;,
  0.617610;0.792040;,
  0.617250;0.778470;,
  0.615970;0.766350;,
  0.631660;0.748090;,
  0.614960;0.748350;,
  0.669050;0.742520;,
  0.716310;0.743260;,
  0.614150;0.735670;,
  0.626230;0.734700;,
  0.613260;0.719940;,
  0.623040;0.718890;,
  0.715700;0.733220;,
  0.668580;0.733280;,
  0.612410;0.701080;,
  0.623530;0.699190;,
  0.665520;0.699180;,
  0.713120;0.709110;,
  0.714730;0.722620;,
  0.667760;0.719020;,
  0.714950;0.982100;,
  0.667810;0.983660;,
  0.674150;0.968490;,
  0.717130;0.967880;,
  0.684380;0.955340;,
  0.645470;0.952010;,
  0.653580;0.945240;,
  0.627540;0.977770;,
  0.616770;0.973900;,
  0.615380;0.957490;,
  0.625230;0.962770;,
  0.717710;0.955510;,
  0.615030;0.945030;,
  0.623760;0.947540;,
  0.635000;0.931220;,
  0.646260;0.932860;,
  0.615150;0.925740;,
  0.624250;0.928260;,
  0.639020;0.916000;,
  0.650920;0.921630;,
  0.615080;0.910280;,
  0.624100;0.912610;,
  0.687540;0.941220;,
  0.715560;0.939690;,
  0.681680;0.925940;,
  0.709680;0.924460;,
  0.615540;0.895380;,
  0.624830;0.896830;,
  0.647830;0.900830;,
  0.669570;0.914020;,
  0.680710;0.914060;,
  0.706570;0.911150;,
  0.673820;0.902250;,
  0.701360;0.899670;,
  0.617220;0.881050;,
  0.626910;0.882310;,
  0.650790;0.881330;,
  0.667590;0.891330;,
  0.696580;0.893710;,
  0.618540;0.861770;,
  0.627580;0.864850;,
  0.628700;0.846340;,
  0.642870;0.852760;,
  0.644410;0.871080;,
  0.619010;0.843810;,
  0.197690;0.033640;,
  0.214260;0.020430;,
  0.220080;0.030000;,
  0.204250;0.043000;,
  0.226660;0.015160;,
  0.235510;0.024750;,
  0.262690;0.014810;,
  0.265080;0.027480;,
  0.263940;0.036710;,
  0.241360;0.035790;,
  0.227650;0.035790;,
  0.212360;0.047810;,
  0.190460;0.057390;,
  0.200460;0.054320;,
  0.207080;0.059930;,
  0.198610;0.078240;,
  0.190410;0.082010;,
  0.204060;0.092190;,
  0.197120;0.097800;,
  0.206490;0.077410;,
  0.215280;0.088730;,
  0.222250;0.101890;,
  0.217770;0.112950;,
  0.224890;0.093230;,
  0.254990;0.104890;,
  0.254800;0.115910;,
  0.254760;0.094750;,
  0.282620;0.090210;,
  0.285010;0.099560;,
  0.287070;0.109390;,
  0.724140;0.890610;,
  0.730440;0.897520;,
  0.734720;0.908820;,
  0.308430;0.080740;,
  0.314190;0.086350;,
  0.319830;0.095530;,
  0.756450;0.884230;,
  0.762920;0.893850;,
  0.763200;0.911590;,
  0.736380;0.923100;,
  0.761640;0.924990;,
  0.737120;0.939830;,
  0.739370;0.952210;,
  0.738540;0.966330;,
  0.761380;0.933500;,
  0.765580;0.940930;,
  0.768530;0.953830;,
  0.736330;0.975730;,
  0.765790;0.964990;,
  0.735670;0.712500;,
  0.737360;0.725980;,
  0.767250;0.719680;,
  0.764530;0.732120;,
  0.738020;0.734980;,
  0.758650;0.744990;,
  0.737150;0.745760;,
  0.736450;0.758260;,
  0.753140;0.754770;,
  0.746850;0.762970;,
  0.729360;0.773350;,
  0.725790;0.786930;,
  0.741290;0.775630;,
  0.773850;0.770400;,
  0.765880;0.779440;,
  0.775520;0.758240;,
  0.726230;0.805800;,
  0.741030;0.787900;,
  0.743410;0.806730;,
  0.756400;0.783920;,
  0.755060;0.789970;,
  0.757050;0.802120;,
  0.770900;0.793860;,
  0.770390;0.798080;,
  0.772500;0.788330;,
  0.788350;0.760910;,
  0.785820;0.773800;,
  0.784120;0.783910;,
  0.783210;0.797240;,
  0.783050;0.805950;,
  0.783270;0.812430;,
  0.764960;0.824890;,
  0.751990;0.822550;,
  0.784440;0.820830;,
  0.728830;0.818420;,
  0.725940;0.827000;,
  0.749440;0.832070;,
  0.763620;0.836470;,
  0.775660;0.842990;,
  0.786360;0.841100;,
  0.290680;0.020430;,
  0.286400;0.030010;,
  0.285360;0.038260;,
  0.314670;0.030070;,
  0.307710;0.037840;,
  0.327560;0.038790;,
  0.320550;0.043800;,
  0.335910;0.049990;,
  0.325890;0.051270;,
  0.303810;0.043430;,
  0.315680;0.050540;,
  0.321070;0.055170;,
  0.327490;0.074190;,
  0.335400;0.082570;,
  0.774560;0.877330;,
  0.776950;0.891970;,
  0.772170;0.915030;,
  0.773940;0.923310;,
  0.772140;0.934380;,
  0.777850;0.949140;,
  0.789420;0.920990;,
  0.791290;0.931090;,
  0.787610;0.911580;,
  0.786590;0.897680;,
  0.786990;0.878360;,
  0.320250;0.071920;,
  0.224230;0.074470;,
  0.229410;0.050300;,
  0.251220;0.075000;,
  0.280120;0.072700;,
  0.250590;0.053990;,
  0.274690;0.054550;,
  0.298290;0.070110;,
  0.296330;0.055240;,
  0.322540;0.063910;,
  0.328100;0.064500;,
  0.336810;0.066430;,
  0.777860;0.860920;,
  0.787020;0.863120;,
  0.793390;0.943970;,
  0.780240;0.962570;,
  0.796990;0.959730;,
  0.780690;0.726290;,
  0.778340;0.738860;,
  0.791280;0.748550;,
  0.796230;0.734030;,
  0.667960;0.645070;,
  0.666920;0.639160;,
  0.682840;0.638650;,
  0.686150;0.645030;,
  0.701120;0.639730;,
  0.698880;0.645500;,
  0.649930;0.645650;,
  0.651500;0.640510;,
  0.715850;0.640800;,
  0.716310;0.647240;,
  0.641930;0.646750;,
  0.641760;0.641440;,
  0.635700;0.646920;,
  0.635940;0.642360;,
  0.627560;0.646730;,
  0.629810;0.642620;,
  0.615340;0.647080;,
  0.618350;0.641850;,
  0.605820;0.646840;,
  0.604690;0.641640;,
  0.593460;0.647370;,
  0.593730;0.641880;,
  0.581290;0.647870;,
  0.581230;0.642400;,
  0.566790;0.649280;,
  0.565960;0.643730;,
  0.763560;0.648120;,
  0.764350;0.641730;,
  0.782680;0.643810;,
  0.780190;0.649350;,
  0.750150;0.647510;,
  0.752520;0.641420;,
  0.739540;0.647370;,
  0.741030;0.640940;,
  0.729980;0.647350;,
  0.729390;0.641320;,
  0.729560;0.635930;,
  0.715880;0.635620;,
  0.740800;0.635820;,
  0.752110;0.636060;,
  0.700510;0.635030;,
  0.683080;0.634260;,
  0.683460;0.627890;,
  0.700360;0.628840;,
  0.666430;0.634830;,
  0.651430;0.634900;,
  0.641830;0.635560;,
  0.635700;0.636300;,
  0.629360;0.636320;,
  0.617930;0.636140;,
  0.604520;0.636330;,
  0.593520;0.636390;,
  0.581590;0.636880;,
  0.565360;0.637780;,
  0.783550;0.637660;,
  0.764900;0.636600;,
  0.628930;0.627080;,
  0.627690;0.621880;,
  0.635500;0.621470;,
  0.635400;0.627500;,
  0.643270;0.621550;,
  0.641870;0.626960;,
  0.654280;0.621300;,
  0.651380;0.626690;,
  0.668390;0.621170;,
  0.667780;0.627490;,
  0.617290;0.627840;,
  0.614960;0.622240;,
  0.604150;0.628710;,
  0.603250;0.622590;,
  0.593340;0.628460;,
  0.590310;0.623120;,
  0.582420;0.628910;,
  0.581090;0.623670;,
  0.565810;0.629010;,
  0.564620;0.622830;,
  0.765440;0.629100;,
  0.764910;0.623610;,
  0.779440;0.623290;,
  0.783430;0.628510;,
  0.751430;0.628340;,
  0.752540;0.622730;,
  0.740360;0.628430;,
  0.738700;0.622780;,
  0.729790;0.628130;,
  0.726920;0.622710;,
  0.715940;0.628020;,
  0.717530;0.622890;,
  0.702280;0.622990;,
  0.684350;0.621420;,
  0.917850;0.628030;,
  0.903810;0.628410;,
  0.908770;0.613690;,
  0.920040;0.613960;,
  0.937270;0.617780;,
  0.933960;0.630680;,
  0.891750;0.630240;,
  0.894470;0.619160;,
  0.882870;0.633210;,
  0.880080;0.628310;,
  0.948770;0.629170;,
  0.946880;0.635780;,
  0.959910;0.634860;,
  0.953980;0.640000;,
  0.966630;0.642910;,
  0.961740;0.646290;,
  0.973870;0.652860;,
  0.969450;0.655300;,
  0.978700;0.662680;,
  0.973960;0.665000;,
  0.977220;0.676990;,
  0.982070;0.676490;,
  0.840860;0.664910;,
  0.833530;0.677420;,
  0.829470;0.674370;,
  0.836890;0.662660;,
  0.845820;0.658810;,
  0.842780;0.655430;,
  0.850800;0.646880;,
  0.853900;0.650680;,
  0.861850;0.644230;,
  0.857990;0.640090;,
  0.871320;0.638480;,
  0.866840;0.631620;,
  0.945300;0.622230;,
  0.950170;0.622050;,
  0.943110;0.609770;,
  0.925520;0.597040;,
  0.933390;0.602720;,
  0.936180;0.596100;,
  0.924310;0.587480;,
  0.931680;0.591730;,
  0.911780;0.596510;,
  0.917740;0.586410;,
  0.911060;0.587190;,
  0.895090;0.608310;,
  0.891910;0.600550;,
  0.895840;0.595210;,
  0.903660;0.589490;,
  0.887010;0.608800;,
  0.877140;0.619680;,
  0.877090;0.635700;,
  0.925090;0.585140;,
  0.932710;0.590170;,
  0.918660;0.584390;,
  0.910880;0.585140;,
  0.903110;0.587300;,
  0.937740;0.594740;,
  0.944740;0.607720;,
  0.951630;0.619830;,
  0.960790;0.632970;,
  0.967640;0.640910;,
  0.976490;0.652420;,
  0.959320;0.613980;,
  0.968920;0.628370;,
  0.976920;0.638480;,
  0.952300;0.602570;,
  0.944580;0.590420;,
  0.938150;0.582980;,
  0.929380;0.577260;,
  0.919320;0.576250;,
  0.909530;0.576670;,
  0.899610;0.579440;,
  0.895930;0.592400;,
  0.890760;0.585630;,
  0.890700;0.597760;,
  0.884070;0.593650;,
  0.884420;0.607890;,
  0.875750;0.604600;,
  0.876110;0.617600;,
  0.866020;0.616220;,
  0.866200;0.629110;,
  0.857040;0.626590;,
  0.857870;0.637290;,
  0.847440;0.634800;,
  0.849370;0.645060;,
  0.839650;0.642140;,
  0.841620;0.653370;,
  0.832020;0.651230;,
  0.835820;0.661500;,
  0.826610;0.659110;,
  0.828000;0.672860;,
  0.820650;0.667810;,
  0.984400;0.650330;,
  0.981910;0.664570;,
  0.989090;0.661010;,
  0.993090;0.675450;,
  0.984180;0.677410;,
  0.596630;0.832500;,
  0.596100;0.819810;,
  0.595090;0.803910;,
  0.594580;0.793880;,
  0.594230;0.780710;,
  0.592910;0.769340;,
  0.591960;0.751410;,
  0.591140;0.740670;,
  0.589640;0.726100;,
  0.589680;0.709240;,
  0.593890;0.966080;,
  0.592970;0.952860;,
  0.592990;0.942330;,
  0.593790;0.923480;,
  0.593930;0.908760;,
  0.594450;0.893960;,
  0.595970;0.880700;,
  0.596850;0.861570;,
  0.596620;0.843070;,
  0.000000;0.000000;,
  0.066670;0.000000;,
  0.066670;1.000000;,
  0.000000;1.000000;,
  0.133330;0.000000;,
  0.133330;1.000000;,
  0.200000;0.000000;,
  0.200000;1.000000;,
  0.266670;0.000000;,
  0.266670;1.000000;,
  0.333330;0.000000;,
  0.333330;1.000000;,
  0.400000;0.000000;,
  0.400000;1.000000;,
  0.466670;0.000000;,
  0.466670;1.000000;,
  0.533330;0.000000;,
  0.533330;1.000000;,
  0.600000;0.000000;,
  0.600000;1.000000;,
  0.666670;0.000000;,
  0.666670;1.000000;,
  0.733330;0.000000;,
  0.733330;1.000000;,
  0.800000;0.000000;,
  0.800000;1.000000;,
  0.866670;0.000000;,
  0.866670;1.000000;,
  0.933330;0.000000;,
  0.933330;1.000000;,
  1.000000;0.000000;,
  1.000000;1.000000;,
  0.033330;0.000000;,
  0.100000;0.000000;,
  0.166670;0.000000;,
  0.233330;0.000000;,
  0.300000;0.000000;,
  0.366670;0.000000;,
  0.433330;0.000000;,
  0.500000;0.000000;,
  0.566670;0.000000;,
  0.633330;0.000000;,
  0.700000;0.000000;,
  0.766670;0.000000;,
  0.833330;0.000000;,
  0.900000;0.000000;,
  0.966670;0.000000;,
  0.033330;1.000000;,
  0.100000;1.000000;,
  0.166670;1.000000;,
  0.233330;1.000000;,
  0.300000;1.000000;,
  0.366670;1.000000;,
  0.433330;1.000000;,
  0.500000;1.000000;,
  0.566670;1.000000;,
  0.633330;1.000000;,
  0.700000;1.000000;,
  0.766670;1.000000;,
  0.833330;1.000000;,
  0.900000;1.000000;,
  0.966670;1.000000;;
 }
}
