xof 0302txt 0064
template Header {
 <3D82AB43-62DA-11cf-AB39-0020AF71E433>
 WORD major;
 WORD minor;
 DWORD flags;
}

template Vector {
 <3D82AB5E-62DA-11cf-AB39-0020AF71E433>
 FLOAT x;
 FLOAT y;
 FLOAT z;
}

template Coords2d {
 <F6F23F44-7686-11cf-8F52-0040333594A3>
 FLOAT u;
 FLOAT v;
}

template Matrix4x4 {
 <F6F23F45-7686-11cf-8F52-0040333594A3>
 array FLOAT matrix[16];
}

template ColorRGBA {
 <35FF44E0-6C7C-11cf-8F52-0040333594A3>
 FLOAT red;
 FLOAT green;
 FLOAT blue;
 FLOAT alpha;
}

template ColorRGB {
 <D3E16E81-7835-11cf-8F52-0040333594A3>
 FLOAT red;
 FLOAT green;
 FLOAT blue;
}

template IndexedColor {
 <1630B820-7842-11cf-8F52-0040333594A3>
 DWORD index;
 ColorRGBA indexColor;
}

template Boolean {
 <4885AE61-78E8-11cf-8F52-0040333594A3>
 WORD truefalse;
}

template Boolean2d {
 <4885AE63-78E8-11cf-8F52-0040333594A3>
 Boolean u;
 Boolean v;
}

template MaterialWrap {
 <4885AE60-78E8-11cf-8F52-0040333594A3>
 Boolean u;
 Boolean v;
}

template TextureFilename {
 <A42790E1-7810-11cf-8F52-0040333594A3>
 STRING filename;
}

template Material {
 <3D82AB4D-62DA-11cf-AB39-0020AF71E433>
 ColorRGBA faceColor;
 FLOAT power;
 ColorRGB specularColor;
 ColorRGB emissiveColor;
 [...]
}

template MeshFace {
 <3D82AB5F-62DA-11cf-AB39-0020AF71E433>
 DWORD nFaceVertexIndices;
 array DWORD faceVertexIndices[nFaceVertexIndices];
}

template MeshFaceWraps {
 <4885AE62-78E8-11cf-8F52-0040333594A3>
 DWORD nFaceWrapValues;
 Boolean2d faceWrapValues;
}

template MeshTextureCoords {
 <F6F23F40-7686-11cf-8F52-0040333594A3>
 DWORD nTextureCoords;
 array Coords2d textureCoords[nTextureCoords];
}

template MeshMaterialList {
 <F6F23F42-7686-11cf-8F52-0040333594A3>
 DWORD nMaterials;
 DWORD nFaceIndexes;
 array DWORD faceIndexes[nFaceIndexes];
 [Material]
}

template MeshNormals {
 <F6F23F43-7686-11cf-8F52-0040333594A3>
 DWORD nNormals;
 array Vector normals[nNormals];
 DWORD nFaceNormals;
 array MeshFace faceNormals[nFaceNormals];
}

template MeshVertexColors {
 <1630B821-7842-11cf-8F52-0040333594A3>
 DWORD nVertexColors;
 array IndexedColor vertexColors[nVertexColors];
}

template Mesh {
 <3D82AB44-62DA-11cf-AB39-0020AF71E433>
 DWORD nVertices;
 array Vector vertices[nVertices];
 DWORD nFaces;
 array MeshFace faces[nFaces];
 [...]
}

Header{
1;
0;
1;
}

Mesh {
 413;
 -5.70900;-24.65576;9.51360;,
 -6.43393;-24.61121;9.25566;,
 -6.82886;-25.23008;10.25873;,
 -6.10393;-25.27462;10.51667;,
 -5.31407;-24.03688;8.51054;,
 -6.03900;-23.99233;8.25259;,
 -4.91913;-23.41800;7.50747;,
 -5.64407;-23.37346;7.24953;,
 -5.24914;-22.75458;6.24646;,
 -4.52420;-22.79912;6.50441;,
 -2.26605;-25.39966;10.21321;,
 -2.64767;-24.78950;9.19971;,
 -3.33280;-24.66764;9.53106;,
 -2.95118;-25.27780;10.54455;,
 -3.02930;-24.17934;8.18620;,
 -3.71442;-24.05748;8.51756;,
 -3.41092;-23.56916;7.17271;,
 -4.09606;-23.44731;7.50405;,
 -3.79254;-22.95901;6.15921;,
 -4.47767;-22.83714;6.49056;,
 -5.21077;2.98109;-3.05141;,
 -5.03627;2.94978;-3.27699;,
 -3.19656;6.85383;-2.39572;,
 -3.37105;6.88513;-2.17014;,
 -5.21077;2.98109;-3.05141;,
 -5.83471;2.52225;-2.39330;,
 -4.63013;2.30612;-3.95054;,
 -5.03627;2.94978;-3.27699;,
 -10.79072;-21.86736;-2.56304;,
 -10.28386;-22.65614;-3.39984;,
 -10.09245;-22.69048;-3.64728;,
 -9.31934;-22.13136;-4.46519;,
 -10.49461;-24.72631;-3.67582;,
 -10.09245;-22.69048;-3.64728;,
 -10.28386;-22.65614;-3.39984;,
 -10.68602;-24.69197;-3.42837;,
 -11.09151;-26.74470;-3.45715;,
 -11.28207;-27.63508;-2.72870;,
 -10.37119;-27.79850;-3.90625;,
 -10.90010;-26.77904;-3.70459;,
 -10.99571;-30.10607;-3.86098;,
 -11.70756;-29.97836;-2.94073;,
 -5.11085;2.96535;-3.33683;,
 -5.28534;2.99666;-3.11124;,
 -3.43674;6.92810;-2.22691;,
 -3.26224;6.89679;-2.45250;,
 -5.90928;2.53781;-2.45314;,
 -5.28534;2.99666;-3.11124;,
 -5.11085;2.96535;-3.33683;,
 -4.70470;2.32169;-4.01038;,
 -10.35842;-22.64057;-3.45968;,
 -10.86529;-21.85180;-2.62288;,
 -9.39390;-22.11579;-4.52503;,
 -10.16702;-22.67491;-3.70712;,
 -12.04391;-27.47603;-3.34009;,
 -11.16608;-26.72914;-3.51699;,
 -10.97467;-26.76348;-3.76443;,
 -11.13304;-27.63946;-4.51764;,
 -11.85307;-30.97233;-4.06284;,
 -12.56236;-34.46576;-3.73190;,
 -12.57043;-34.46433;-3.72147;,
 -12.23869;-30.90314;-3.56433;,
 -3.43674;6.92810;-2.22691;,
 -3.37105;6.88513;-2.17014;,
 -3.26224;6.89679;-2.45250;,
 -5.11085;2.96535;-3.33683;,
 -5.03627;2.94978;-3.27699;,
 -4.63013;2.30612;-3.95054;,
 -9.31934;-22.13136;-4.46519;,
 -10.09245;-22.69048;-3.64728;,
 -10.28386;-22.65614;-3.39984;,
 -10.16702;-22.67491;-3.70712;,
 -10.56918;-24.71075;-3.73566;,
 -10.28386;-22.65614;-3.39984;,
 -10.35842;-22.64057;-3.45968;,
 -10.76059;-24.67641;-3.48821;,
 -10.68602;-24.69197;-3.42837;,
 -11.28207;-27.63508;-2.72870;,
 -11.09151;-26.74470;-3.45715;,
 -11.63146;-29.97335;-4.37117;,
 -12.34330;-29.84562;-3.45092;,
 -11.70756;-29.97836;-2.94073;,
 -12.54296;-34.46982;-3.71633;,
 -11.49511;-31.04706;-3.77557;,
 -12.55103;-34.46838;-3.70590;,
 -12.57043;-34.46433;-3.72147;,
 -12.56236;-34.46576;-3.73190;,
 -12.55103;-34.46838;-3.70590;,
 -11.88073;-30.97788;-3.27707;,
 -11.88073;-30.97788;-3.27707;,
 -8.27745;-16.29746;-4.40250;,
 -9.68531;-16.04488;-2.58247;,
 -8.20288;-16.31304;-4.34265;,
 -9.61074;-16.06044;-2.52263;,
 -8.20288;-16.31304;-4.34265;,
 -7.14499;-10.39573;-4.27821;,
 -8.48842;-10.15469;-2.54148;,
 -7.07042;-10.41130;-4.21836;,
 -8.41384;-10.17027;-2.48163;,
 -7.07042;-10.41130;-4.21836;,
 -6.02302;-4.54869;-4.15507;,
 -7.30261;-4.31910;-2.50086;,
 -5.94845;-4.56425;-4.09523;,
 -7.22804;-4.33467;-2.44102;,
 -5.94845;-4.56425;-4.09523;,
 3.74517;-1.70370;-4.58428;,
 3.74517;-2.57903;-3.74676;,
 3.47113;-2.55461;-3.84936;,
 3.32534;-1.67302;-4.68532;,
 -6.56387;-6.24873;-1.94198;,
 -6.99706;-6.05156;0.12360;,
 -6.06443;-2.45705;-0.04278;,
 -5.74390;-2.67090;-1.93624;,
 -5.30640;-6.44016;-4.05694;,
 -4.53850;-2.75674;-3.82650;,
 -3.57415;-6.75640;-4.85092;,
 -3.01999;-3.26654;-5.02449;,
 -2.09005;-7.16739;-5.07382;,
 -1.11981;-3.40136;-5.26131;,
 -0.54961;-7.27555;-4.61300;,
 0.78952;-3.69315;-4.86546;,
 1.79845;-4.17216;-3.80873;,
 0.75680;-7.68073;-3.58862;,
 3.21156;-4.89691;0.92932;,
 3.10286;-4.84297;-0.85177;,
 3.33410;-4.18391;-0.52764;,
 3.36234;-4.22442;0.82528;,
 3.49510;-3.86783;-0.65898;,
 3.42684;-4.02331;0.83023;,
 3.20924;-3.83917;2.41195;,
 3.02504;-4.38857;2.44053;,
 3.10125;-2.72601;-3.88110;,
 2.39226;-1.56158;-5.07863;,
 -5.08163;-0.45068;-2.11134;,
 -3.86450;-0.60020;-3.99220;,
 2.44329;-3.01653;-4.04471;,
 1.34168;-1.63904;-5.50731;,
 3.62201;-3.72504;-0.79903;,
 3.36174;-3.35616;-2.51573;,
 3.56086;-3.14653;-2.80194;,
 -2.60634;-0.87455;-5.01267;,
 -5.39111;-0.25323;-0.10803;,
 2.95810;-3.23465;3.60763;,
 2.22791;-2.35578;4.90247;,
 1.76203;-3.52442;4.96190;,
 2.65733;-4.03059;3.81247;,
 3.25691;-2.81906;3.83592;,
 3.20924;-3.83917;2.41195;,
 3.36891;-3.54701;2.42847;,
 3.59109;-3.79660;0.44370;,
 3.55686;-3.40726;2.36263;,
 3.36891;-3.54701;2.42847;,
 3.55686;-3.40726;2.36263;,
 3.52122;-2.67778;3.78084;,
 3.74517;-3.36621;2.23277;,
 3.74517;-2.64705;3.72155;,
 3.74517;-3.36621;2.23277;,
 3.74517;-3.74569;0.37495;,
 3.02504;-4.38857;2.44053;,
 3.74517;-3.69548;-0.90364;,
 -0.76489;-1.46966;-5.48941;,
 3.74517;-3.07931;-2.89467;,
 2.45807;-4.42929;-2.64987;,
 2.97915;-3.74927;-2.45002;,
 -6.71505;-5.92846;1.87762;,
 -5.85868;-2.62947;1.74044;,
 -5.76391;-5.92066;3.75226;,
 -4.65718;-2.54106;3.89994;,
 -3.86784;-5.87325;5.40875;,
 -3.29324;-2.57964;5.01689;,
 -2.05130;-5.99059;6.04295;,
 -1.96945;-2.76215;5.64962;,
 -0.97705;-6.14883;6.27463;,
 -0.91212;-2.98155;5.87209;,
 0.17903;-6.34885;5.92237;,
 0.57486;-3.12670;5.74961;,
 1.49074;-6.56686;5.29793;,
 2.24910;-7.02059;3.81844;,
 2.61742;-7.41341;2.58647;,
 2.61742;-7.41341;2.58647;,
 2.75262;-7.94863;0.96213;,
 2.51146;-8.00661;-0.91198;,
 1.79604;-7.77790;-2.76043;,
 -1.87851;-13.99644;-4.41641;,
 -3.46083;-13.64674;-4.71292;,
 -4.93460;-13.28078;-4.38367;,
 -6.24858;-13.11006;-3.46075;,
 -7.51331;-13.12504;-1.66499;,
 -7.92198;-13.14819;0.23649;,
 -7.53174;-13.02102;2.43005;,
 -6.46003;-13.09408;4.32417;,
 -4.79379;-13.08820;5.81593;,
 -2.90703;-13.01654;6.74409;,
 -1.39505;-13.31233;6.63626;,
 -0.34379;-13.64331;6.29975;,
 0.70114;-13.99994;5.29086;,
 1.35546;-14.57826;3.76846;,
 1.64250;-15.12932;1.92610;,
 1.64250;-15.12932;1.92610;,
 1.65258;-15.00963;0.39617;,
 1.39484;-14.70275;-1.20382;,
 0.57068;-14.44700;-2.99417;,
 -0.42247;-14.38443;-3.56927;,
 -4.15262;-17.59339;-4.90301;,
 -6.08260;-17.43364;-4.44665;,
 -7.33801;-17.18898;-3.50111;,
 -8.77439;-17.78132;-1.81542;,
 -9.61623;-17.57110;0.57303;,
 -9.06586;-16.74198;2.70757;,
 -7.59776;-15.92354;5.02517;,
 -5.52566;-16.30791;6.98545;,
 -3.74964;-16.70292;7.65037;,
 -1.81114;-16.54397;7.51266;,
 -0.51733;-17.00794;6.61610;,
 0.43627;-17.18947;5.67362;,
 1.25528;-17.61550;4.36969;,
 1.58215;-17.96887;2.33948;,
 1.58215;-17.96887;2.33948;,
 1.56217;-17.81835;0.71617;,
 1.25462;-17.75016;-1.31253;,
 0.59673;-17.81052;-2.55474;,
 -4.36996;-20.12559;-4.66059;,
 -6.29872;-20.04479;-4.17566;,
 -7.95746;-19.38486;-3.04652;,
 -9.16093;-19.20195;-1.46807;,
 -9.66606;-19.40703;1.73204;,
 -9.30244;-18.96771;3.22589;,
 -8.02083;-18.91362;6.54650;,
 -6.00310;-18.11410;8.24969;,
 -3.70101;-18.49535;8.41303;,
 -1.57603;-19.33401;7.72768;,
 -0.37342;-19.77847;6.60749;,
 0.37615;-20.20761;5.48951;,
 1.28308;-20.43573;4.43087;,
 1.81615;-20.90463;2.54383;,
 1.81615;-20.90463;2.54383;,
 1.62467;-20.84230;0.21293;,
 1.07052;-20.65848;-1.22498;,
 -5.86994;-22.28955;-1.92068;,
 -6.10565;-21.08695;-3.13517;,
 -4.30696;-21.38141;-3.76702;,
 -4.18220;-22.59125;-2.37206;,
 -7.21952;-21.85257;-1.10094;,
 -7.89582;-20.72664;-2.37573;,
 -8.11252;-21.70757;0.07007;,
 -8.83496;-20.44074;-0.82257;,
 -8.49075;-21.64627;2.29978;,
 -9.14935;-20.45178;1.99993;,
 -8.66589;-21.25016;4.21491;,
 -9.22109;-20.13120;3.70560;,
 -7.23215;-21.26855;6.36710;,
 -7.71692;-20.01935;6.51256;,
 -5.66737;-21.21552;7.84573;,
 -5.79729;-19.41474;8.09615;,
 -3.67304;-21.40051;7.69379;,
 -3.69204;-19.76274;8.24623;,
 -1.91981;-21.78484;6.83271;,
 -1.79636;-20.43948;7.18336;,
 -0.93370;-22.09750;5.99273;,
 -0.54968;-20.89598;6.40692;,
 -0.20854;-22.41964;5.13121;,
 0.34633;-21.33394;5.52695;,
 0.31283;-22.55335;4.35696;,
 1.07283;-21.51982;4.52582;,
 0.71047;-22.95943;2.76384;,
 1.52509;-21.94472;2.66430;,
 0.39972;-23.08660;0.95663;,
 1.28505;-21.98526;0.50366;,
 1.52509;-21.94472;2.66430;,
 0.71047;-22.95943;2.76384;,
 -0.13571;-23.11390;-0.34771;,
 0.72443;-21.90546;-0.92052;,
 -0.96700;-24.04146;1.58439;,
 -1.54078;-24.01906;0.59750;,
 -0.48232;-23.94523;2.85340;,
 -0.56785;-23.74544;4.16034;,
 -0.48232;-23.94523;2.85340;,
 -0.85891;-23.66791;4.66509;,
 -1.41874;-23.45481;5.45643;,
 -2.19516;-23.20395;6.13064;,
 -3.75552;-22.71152;6.83804;,
 -5.53705;-22.56821;6.85605;,
 -6.58316;-22.66736;6.11870;,
 -7.38585;-22.62597;4.35065;,
 -7.43607;-22.84647;2.64865;,
 -7.05970;-23.00351;1.16769;,
 -6.45394;-23.17100;0.35948;,
 -5.46801;-23.42989;-0.31923;,
 -3.99162;-23.76768;-0.57697;,
 -4.29280;-24.51848;0.03785;,
 -5.00961;-24.38929;0.17144;,
 -5.88657;-24.12986;0.92601;,
 -6.39708;-23.94686;1.64263;,
 -6.81768;-23.72393;2.88750;,
 -6.93628;-23.60116;4.50359;,
 -6.33767;-23.45662;6.08322;,
 -5.24790;-23.47001;6.73585;,
 -3.27313;-23.92784;6.57200;,
 -2.26262;-24.07527;5.91879;,
 -1.56320;-24.35670;5.32519;,
 -1.19250;-24.52998;4.45497;,
 -1.06795;-24.63400;3.67099;,
 -1.13060;-24.74730;2.89684;,
 -1.13060;-24.74730;2.89684;,
 -1.38219;-24.77628;1.94496;,
 -2.08064;-24.85338;0.91295;,
 -4.32129;-24.80901;-0.19102;,
 -4.81248;-24.71104;-0.14426;,
 -5.00961;-24.38929;0.17144;,
 -4.29280;-24.51848;0.03785;,
 -5.34683;-25.13993;-0.43538;,
 -5.88657;-24.12986;0.92601;,
 -6.05353;-25.95889;-0.89551;,
 -6.67260;-25.59183;-0.11475;,
 -6.44906;-24.82082;0.79857;,
 -9.07348;-27.30964;0.83708;,
 -7.90853;-25.28337;1.82090;,
 -8.12718;-27.63580;-1.07289;,
 -9.70735;-27.10193;3.95873;,
 -8.05775;-25.18535;4.28599;,
 -10.21237;-27.84034;3.84938;,
 -9.93732;-27.69153;6.90961;,
 -9.48430;-26.95017;6.75176;,
 -8.58636;-27.64473;9.37461;,
 -8.04761;-26.86060;9.06080;,
 -5.72160;-27.76519;10.97041;,
 -5.33372;-27.11696;10.46547;,
 -3.35345;-27.96707;11.15714;,
 -2.98996;-27.34947;10.56249;,
 -0.75762;-28.30920;10.26571;,
 -0.80674;-27.69380;9.68243;,
 0.90708;-28.69693;8.49452;,
 0.63102;-27.98486;7.91540;,
 1.71084;-29.05334;6.14413;,
 1.41852;-28.37419;5.78779;,
 1.67824;-29.25316;3.69697;,
 1.28771;-28.50754;3.55300;,
 1.28771;-28.50754;3.55300;,
 1.67824;-29.25316;3.69697;,
 1.22854;-29.32407;1.61533;,
 0.87225;-28.48089;1.60867;,
 -7.93342;-28.20084;-2.27196;,
 -7.20299;-24.58319;2.39614;,
 -6.81768;-23.72393;2.88750;,
 -6.39708;-23.94686;1.64263;,
 -7.47601;-24.41788;4.39125;,
 -6.93628;-23.60116;4.50359;,
 -6.95840;-24.27349;6.27579;,
 -6.33767;-23.45662;6.08322;,
 -5.83042;-24.17096;7.44199;,
 -5.24790;-23.47001;6.73585;,
 -3.56571;-24.61684;7.51502;,
 -3.27313;-23.92784;6.57200;,
 -2.16935;-24.84593;6.83336;,
 -2.26262;-24.07527;5.91879;,
 -1.23541;-25.03720;6.64508;,
 -1.56320;-24.35670;5.32519;,
 -0.78949;-25.37719;5.59465;,
 -1.19250;-24.52998;4.45497;,
 -0.49964;-25.50981;4.09202;,
 -1.06795;-24.63400;3.67099;,
 -0.54188;-25.62166;3.16589;,
 -1.13060;-24.74730;2.89684;,
 -0.89850;-25.63795;1.86977;,
 -1.38219;-24.77628;1.94496;,
 -1.13060;-24.74730;2.89684;,
 -0.54188;-25.62166;3.16589;,
 -1.58926;-25.74424;0.63695;,
 -2.08064;-24.85338;0.91295;,
 -0.36212;-26.14827;6.18619;,
 0.16598;-26.27917;4.77603;,
 -0.01522;-26.50792;3.17742;,
 -0.01522;-26.50792;3.17742;,
 -0.32866;-26.39482;1.45211;,
 -1.42771;-25.86561;7.47338;,
 -2.10668;-25.55470;8.24559;,
 -4.17189;-25.27898;8.38469;,
 -6.30002;-25.02205;7.85636;,
 -7.99917;-25.04183;6.23520;,
 -9.46416;-28.04413;0.49837;,
 -0.69326;-18.30312;-3.52602;,
 -2.38365;-18.12386;-4.75970;,
 -2.39611;-20.31431;-4.71044;,
 -2.67866;-22.83397;-2.22789;,
 -2.97050;-23.92225;-0.23370;,
 -1.87563;-22.86970;-1.64157;,
 -2.64346;-23.96069;-0.06855;,
 -1.07261;-22.90544;-1.05525;,
 -2.24546;-24.00748;0.13243;,
 -2.38498;-24.88958;0.66257;,
 -2.91595;-24.74832;0.47118;,
 -3.44693;-24.60706;0.27980;,
 -3.44693;-24.60706;0.27980;,
 -3.92322;-25.37391;-0.55573;,
 0.35412;-20.59500;-2.50528;,
 -0.75732;-20.37607;-3.75313;,
 -0.12327;-21.83360;-1.99847;,
 -2.49118;-21.55523;-3.68377;,
 -1.34205;-21.69031;-2.86591;,
 -2.91595;-24.74832;0.47118;,
 -3.09140;-25.50988;-0.20201;,
 -1.11112;-28.22427;-1.05543;,
 -1.17703;-28.96768;-1.53288;,
 -2.63584;-28.69727;-2.66886;,
 -1.82747;-28.12321;-1.65360;,
 0.00483;-29.18676;-0.61254;,
 -0.16357;-28.35795;-0.26421;,
 -2.44391;-25.61575;0.07332;,
 -2.38498;-24.88958;0.66257;,
 -0.86630;-26.50685;0.61757;,
 -2.38782;-26.39672;-0.50452;,
 -3.57327;-26.27007;-1.09594;,
 -2.92115;-26.33973;-0.77060;;
 
 309;
 4;0,1,2,3;,
 4;4,5,1,0;,
 4;6,7,5,4;,
 4;8,7,6,9;,
 4;10,11,12,13;,
 4;11,14,15,12;,
 4;14,16,17,15;,
 4;16,18,19,17;,
 4;20,21,22,23;,
 4;24,25,26,27;,
 4;28,29,30,31;,
 4;32,33,34,35;,
 4;36,37,38,39;,
 4;40,38,37,41;,
 4;42,43,44,45;,
 4;46,47,48,49;,
 4;50,51,52,53;,
 4;54,55,56,57;,
 4;58,59,60,61;,
 4;43,20,23,44;,
 4;62,63,22,64;,
 4;21,65,64,22;,
 4;48,66,67,49;,
 4;46,25,24,47;,
 4;52,68,69,53;,
 4;50,70,28,51;,
 4;71,33,32,72;,
 4;73,74,75,76;,
 4;56,39,38,57;,
 4;54,77,78,55;,
 4;57,38,40,79;,
 4;77,54,80,81;,
 4;82,59,58,83;,
 4;84,85,86,82;,
 4;60,87,88,61;,
 4;82,83,89,84;,
 4;61,80,79,58;,
 4;40,83,58,79;,
 4;41,89,83,40;,
 4;88,81,80,61;,
 4;57,79,80,54;,
 4;72,56,55,75;,
 4;39,56,72,32;,
 4;55,78,76,75;,
 4;39,32,35,36;,
 4;71,72,75,74;,
 4;90,52,51,91;,
 4;68,52,90,92;,
 4;51,28,93,91;,
 4;31,94,93,28;,
 4;95,90,91,96;,
 4;92,90,95,97;,
 4;91,93,98,96;,
 4;94,99,98,93;,
 4;100,95,96,101;,
 4;97,95,100,102;,
 4;96,98,103,101;,
 4;99,104,103,98;,
 4;49,100,101,46;,
 4;102,100,49,67;,
 4;101,103,25,46;,
 4;104,26,25,103;,
 4;105,106,107,108;,
 4;109,110,111,112;,
 4;113,109,112,114;,
 4;115,113,114,116;,
 4;117,115,116,118;,
 4;119,117,118,120;,
 4;121,122,119,120;,
 4;123,124,125,126;,
 4;126,125,127,128;,
 4;126,129,130,123;,
 4;108,107,131,132;,
 4;114,112,133,134;,
 4;135,121,120,136;,
 4;137,127,138,139;,
 4;134,140,116,114;,
 4;141,133,112,111;,
 4;142,143,144,145;,
 4;146,142,147,148;,
 4;128,149,150,151;,
 4;128,151,129,126;,
 4;152,153,146,148;,
 4;154,155,153,152;,
 4;156,150,149,157;,
 4;147,142,145,158;,
 4;149,128,127,137;,
 4;159,157,149,137;,
 4;140,160,118,116;,
 4;139,161,159,137;,
 4;160,136,120,118;,
 4;135,136,132,131;,
 4;162,163,125,124;,
 4;163,138,127,125;,
 4;163,162,121,135;,
 4;131,138,163,135;,
 4;107,139,138,131;,
 4;106,161,139,107;,
 4;110,164,165,111;,
 4;164,166,167,165;,
 4;166,168,169,167;,
 4;168,170,171,169;,
 4;170,172,173,171;,
 4;172,174,175,173;,
 4;174,176,144,175;,
 4;176,177,145,144;,
 4;177,178,158,145;,
 4;179,180,123,130;,
 4;180,181,124,123;,
 4;182,122,121,162;,
 4;119,183,184,117;,
 4;184,185,115,117;,
 4;185,186,113,115;,
 4;186,187,109,113;,
 4;187,188,110,109;,
 4;188,189,164,110;,
 4;189,190,166,164;,
 4;168,166,190,191;,
 4;170,168,191,192;,
 4;172,170,192,193;,
 4;174,172,193,194;,
 4;176,174,194,195;,
 4;177,176,195,196;,
 4;178,177,196,197;,
 4;180,179,198,199;,
 4;181,180,199,200;,
 4;182,181,200,201;,
 4;122,202,183,119;,
 4;202,122,182,201;,
 4;184,203,204,185;,
 4;186,185,204,205;,
 4;187,186,205,206;,
 4;188,187,206,207;,
 4;189,188,207,208;,
 4;190,189,208,209;,
 4;191,190,209,210;,
 4;192,191,210,211;,
 4;193,192,211,212;,
 4;194,193,212,213;,
 4;195,194,213,214;,
 4;196,195,214,215;,
 4;197,196,215,216;,
 4;199,198,217,218;,
 4;200,199,218,219;,
 4;201,200,219,220;,
 4;203,221,222,204;,
 4;222,223,205,204;,
 4;223,224,206,205;,
 4;224,225,207,206;,
 4;225,226,208,207;,
 4;226,227,209,208;,
 4;227,228,210,209;,
 4;228,229,211,210;,
 4;229,230,212,211;,
 4;230,231,213,212;,
 4;231,232,214,213;,
 4;232,233,215,214;,
 4;233,234,216,215;,
 4;235,236,218,217;,
 4;236,237,219,218;,
 4;238,239,240,241;,
 4;242,243,239,238;,
 4;244,245,243,242;,
 4;246,247,245,244;,
 4;248,249,247,246;,
 4;250,251,249,248;,
 4;252,253,251,250;,
 4;254,255,253,252;,
 4;256,257,255,254;,
 4;258,259,257,256;,
 4;260,261,259,258;,
 4;262,263,261,260;,
 4;264,265,263,262;,
 4;266,267,268,269;,
 4;270,271,267,266;,
 4;239,222,221,240;,
 4;243,223,222,239;,
 4;245,224,223,243;,
 4;247,225,224,245;,
 4;249,226,225,247;,
 4;251,227,226,249;,
 4;253,228,227,251;,
 4;255,229,228,253;,
 4;257,230,229,255;,
 4;259,231,230,257;,
 4;261,232,231,259;,
 4;263,233,232,261;,
 4;265,234,233,263;,
 4;267,236,235,268;,
 4;271,237,236,267;,
 4;266,272,273,270;,
 4;269,274,272,266;,
 4;262,275,276,264;,
 4;260,277,275,262;,
 4;258,278,277,260;,
 4;256,279,278,258;,
 4;254,280,279,256;,
 4;252,281,280,254;,
 4;250,282,281,252;,
 4;248,283,282,250;,
 4;246,284,283,248;,
 4;244,285,284,246;,
 4;242,286,285,244;,
 4;238,287,286,242;,
 4;241,288,287,238;,
 4;288,289,290,287;,
 4;286,287,290,291;,
 4;291,292,285,286;,
 4;292,293,284,285;,
 4;283,284,293,294;,
 4;294,295,282,283;,
 4;281,282,295,296;,
 4;280,281,296,297;,
 4;279,280,297,298;,
 4;278,279,298,299;,
 4;277,278,299,300;,
 4;275,277,300,301;,
 4;276,275,301,302;,
 4;272,274,303,304;,
 4;273,272,304,305;,
 4;306,307,308,309;,
 4;307,310,311,308;,
 4;310,312,313,314;,
 4;315,316,313,317;,
 4;318,319,316,315;,
 4;318,320,321,322;,
 4;322,321,323,324;,
 4;324,323,325,326;,
 4;326,325,327,328;,
 4;328,327,329,330;,
 4;330,329,331,332;,
 4;332,331,333,334;,
 4;334,333,335,336;,
 4;337,338,339,340;,
 4;312,341,317,313;,
 4;342,343,344,314;,
 4;345,346,343,342;,
 4;347,348,346,345;,
 4;349,350,348,347;,
 4;351,352,350,349;,
 4;353,354,352,351;,
 4;355,356,354,353;,
 4;357,358,356,355;,
 4;359,360,358,357;,
 4;361,362,360,359;,
 4;363,364,365,366;,
 4;367,368,364,363;,
 4;357,369,370,359;,
 4;359,370,371,361;,
 4;366,372,373,363;,
 4;355,374,369,357;,
 4;353,375,374,355;,
 4;351,376,375,353;,
 4;349,377,376,351;,
 4;347,378,377,349;,
 4;345,319,378,347;,
 4;342,316,319,345;,
 4;314,313,316,342;,
 4;314,344,311,310;,
 4;315,379,320,318;,
 4;322,378,319,318;,
 4;324,377,378,322;,
 4;326,376,377,324;,
 4;328,375,376,326;,
 4;330,374,375,328;,
 4;332,369,374,330;,
 4;334,370,369,332;,
 4;336,371,370,334;,
 4;340,373,372,337;,
 4;317,341,379,315;,
 4;202,201,220,380;,
 4;381,183,202,380;,
 4;183,381,203,184;,
 4;381,382,221,203;,
 4;383,384,288,241;,
 4;385,386,384,383;,
 4;387,270,273,388;,
 4;388,273,305,389;,
 4;386,390,391,384;,
 4;391,289,288,384;,
 4;392,393,306,309;,
 4;237,394,220,219;,
 4;394,395,380,220;,
 4;380,395,382,381;,
 4;387,396,271,270;,
 4;383,397,398,385;,
 4;240,221,382,397;,
 4;396,394,237,271;,
 4;241,240,397,383;,
 4;397,382,395,398;,
 4;398,395,394,396;,
 4;385,398,396,387;,
 4;386,385,387,388;,
 4;390,386,388,389;,
 4;392,399,400,393;,
 4;401,402,403,404;,
 4;340,339,405,406;,
 4;367,407,408,368;,
 4;363,373,409,367;,
 4;367,409,410,407;,
 4;411,412,404,403;,
 4;400,412,411,393;,
 4;406,409,373,340;,
 4;407,400,399,408;,
 4;410,412,400,407;,
 4;410,401,404,412;,
 4;401,410,409,406;,
 4;402,401,406,405;,
 4;124,181,182,162;;
 
 MeshMaterialList {
  8;
  309;
  1,
  1,
  1,
  1,
  1,
  1,
  1,
  1,
  5,
  5,
  5,
  5,
  5,
  5,
  5,
  5,
  5,
  5,
  5,
  5,
  5,
  5,
  5,
  5,
  5,
  5,
  5,
  5,
  5,
  5,
  5,
  5,
  5,
  5,
  5,
  5,
  5,
  5,
  5,
  5,
  5,
  5,
  5,
  5,
  5,
  5,
  5,
  5,
  5,
  5,
  5,
  5,
  5,
  5,
  5,
  5,
  5,
  5,
  5,
  5,
  5,
  5,
  2,
  2,
  2,
  2,
  2,
  2,
  2,
  2,
  2,
  2,
  2,
  2,
  2,
  2,
  2,
  2,
  2,
  2,
  2,
  2,
  2,
  2,
  2,
  2,
  2,
  2,
  2,
  2,
  2,
  2,
  2,
  2,
  2,
  2,
  2,
  2,
  2,
  2,
  2,
  2,
  2,
  2,
  2,
  2,
  2,
  2,
  2,
  2,
  2,
  2,
  2,
  2,
  2,
  2,
  2,
  2,
  2,
  2,
  2,
  2,
  2,
  2,
  2,
  2,
  2,
  2,
  2,
  2,
  2,
  2,
  2,
  2,
  2,
  2,
  2,
  2,
  2,
  2,
  2,
  2,
  2,
  2,
  2,
  2,
  2,
  2,
  2,
  2,
  2,
  2,
  2,
  2,
  2,
  2,
  2,
  2,
  2,
  2,
  2,
  2,
  2,
  2,
  2,
  2,
  2,
  2,
  2,
  2,
  2,
  2,
  2,
  2,
  2,
  2,
  2,
  2,
  2,
  2,
  2,
  2,
  2,
  2,
  2,
  2,
  2,
  2,
  2,
  2,
  2,
  2,
  2,
  2,
  2,
  2,
  2,
  2,
  2,
  2,
  2,
  2,
  2,
  2,
  2,
  2,
  2,
  2,
  2,
  2,
  2,
  2,
  2,
  2,
  2,
  2,
  2,
  2,
  2,
  2,
  2,
  2,
  2,
  2,
  2,
  2,
  2,
  2,
  2,
  2,
  2,
  2,
  2,
  2,
  2,
  2,
  2,
  2,
  2,
  2,
  2,
  2,
  2,
  2,
  2,
  2,
  2,
  2,
  2,
  2,
  2,
  2,
  2,
  2,
  2,
  2,
  2,
  2,
  2,
  2,
  2,
  2,
  2,
  2,
  2,
  2,
  2,
  2,
  2,
  2,
  2,
  2,
  2,
  2,
  2,
  2,
  2,
  2,
  2,
  2,
  2,
  2,
  2,
  2,
  2,
  2,
  2,
  2,
  2,
  2,
  2,
  2,
  2,
  2,
  2,
  2,
  2,
  2,
  2,
  2,
  2,
  2,
  2,
  2,
  2,
  2,
  2,
  2,
  2;;
  Material {
   0.765600;0.659200;0.241600;1.000000;;
   5.000000;
   0.000000;0.000000;0.000000;;
   0.000000;0.000000;0.000000;;
  }
  Material {
   0.000000;0.000000;0.000000;1.000000;;
   5.000000;
   0.000000;0.000000;0.000000;;
   0.000000;0.000000;0.000000;;
  }
  Material {
   0.800000;0.800000;0.800000;1.000000;;
   5.000000;
   0.000000;0.000000;0.000000;;
   0.000000;0.000000;0.000000;;
  }
  Material {
   0.800000;0.000000;0.060000;1.000000;;
   5.000000;
   0.000000;0.000000;0.000000;;
   0.000000;0.000000;0.000000;;
  }
  Material {
   0.000000;0.690400;0.251200;1.000000;;
   5.000000;
   0.000000;0.000000;0.000000;;
   0.000000;0.000000;0.000000;;
  }
  Material {
   0.800000;0.768800;0.000000;1.000000;;
   5.000000;
   0.000000;0.000000;0.000000;;
   0.000000;0.000000;0.000000;;
  }
  Material {
   0.000000;0.000000;0.000000;1.000000;;
   5.000000;
   0.000000;0.000000;0.000000;;
   0.000000;0.000000;0.000000;;
  }
  Material {
   0.743200;0.263200;0.094400;1.000000;;
   5.000000;
   0.000000;0.000000;0.000000;;
   0.000000;0.000000;0.000000;;
  }
 }
 MeshNormals {
  352;
  -0.119982;0.865321;0.486646;,
  -0.119981;0.865324;0.486640;,
  -0.119985;0.865319;0.486649;,
  -0.119990;0.865319;0.486647;,
  -0.119993;0.865318;0.486647;,
  0.339939;0.856767;0.387804;,
  0.339941;0.856767;0.387801;,
  0.339941;0.856766;0.387804;,
  0.339938;0.856766;0.387808;,
  0.339938;0.856766;0.387806;,
  0.731022;-0.309031;0.608365;,
  0.675029;-0.450063;0.584619;,
  0.769772;-0.160713;0.617756;,
  0.769770;-0.160720;0.617756;,
  0.769769;-0.160720;0.617758;,
  0.769770;-0.160719;0.617757;,
  0.793676;0.067305;0.604606;,
  0.793336;0.050266;0.606705;,
  0.745271;-0.262476;0.612926;,
  -0.731193;0.308542;-0.608406;,
  -0.675464;0.449157;-0.584814;,
  -0.769781;0.160707;-0.617747;,
  -0.769776;0.160722;-0.617749;,
  -0.769774;0.160719;-0.617752;,
  -0.711421;0.364437;-0.600888;,
  -0.705267;0.380263;-0.598329;,
  -0.787285;0.043616;-0.615045;,
  -0.780258;0.099929;-0.617423;,
  0.608178;-0.109118;-0.786265;,
  -0.608191;0.109121;0.786254;,
  0.568692;-0.266849;-0.778062;,
  -0.631575;-0.051497;0.773602;,
  0.589055;-0.193914;-0.784482;,
  0.565990;-0.275601;-0.776981;,
  -0.193324;-0.981025;-0.014670;,
  -0.632407;-0.060584;0.772264;,
  -0.769773;0.160718;-0.617754;,
  0.609913;-0.100479;-0.786073;,
  -0.606449;0.117759;0.786354;,
  -0.769772;0.160719;-0.617754;,
  0.609904;-0.100478;-0.786079;,
  -0.606445;0.117758;0.786357;,
  -0.769773;0.160719;-0.617753;,
  0.609876;-0.100471;-0.786102;,
  -0.606445;0.117758;0.786357;,
  0.165716;-0.674631;-0.719313;,
  0.129008;-0.776932;-0.616225;,
  0.342941;-0.839245;0.421970;,
  0.353197;-0.883444;0.307862;,
  0.305941;-0.949198;0.073648;,
  0.173981;-0.970691;-0.165803;,
  0.093291;-0.913976;-0.394897;,
  0.224444;-0.757485;-0.613059;,
  0.230172;-0.648352;-0.725714;,
  -0.911979;0.161052;-0.377303;,
  -0.981892;0.186874;-0.031072;,
  -0.963036;0.255757;-0.084557;,
  -0.900560;0.231261;-0.368117;,
  -0.685104;0.100793;-0.721438;,
  -0.701904;0.158132;-0.694496;,
  -0.336503;0.016991;-0.941529;,
  -0.367749;0.044122;-0.928878;,
  0.031290;-0.065821;-0.997341;,
  -0.008326;-0.098935;-0.995059;,
  0.403460;-0.147773;-0.902986;,
  0.371014;-0.262368;-0.890793;,
  0.659437;-0.337577;-0.671703;,
  0.609053;-0.162040;-0.776400;,
  0.977909;-0.204019;0.045505;,
  0.947765;-0.241214;-0.208705;,
  0.896504;-0.412413;-0.161853;,
  0.943491;-0.323861;0.070281;,
  0.765536;-0.627521;-0.142026;,
  0.853395;-0.515430;0.077775;,
  0.885554;-0.377397;0.270860;,
  0.951694;-0.195221;0.236995;,
  0.390046;-0.683465;-0.617041;,
  0.339498;-0.573661;-0.745422;,
  -0.897262;0.245872;-0.366699;,
  -0.719530;0.164383;-0.674725;,
  -0.275304;0.138456;0.951335;,
  0.004849;0.099554;0.995020;,
  -0.944099;0.274961;-0.181859;,
  0.555988;-0.544370;-0.628123;,
  0.342179;-0.399588;-0.850437;,
  -0.409653;0.049932;-0.910874;,
  0.434811;-0.886234;-0.159776;,
  0.546948;-0.751990;-0.367910;,
  0.273085;-0.881542;-0.385108;,
  -0.919998;0.255919;0.296830;,
  -0.759276;0.223956;0.611018;,
  -0.504882;0.172044;0.845869;,
  0.348899;0.044972;0.936081;,
  0.710910;-0.080703;0.698637;,
  0.755471;-0.194944;0.625508;,
  0.813908;-0.354544;0.460274;,
  0.874029;-0.164932;0.457024;,
  0.646027;-0.648507;0.402600;,
  0.755999;-0.585097;0.293473;,
  0.458238;-0.786450;0.414144;,
  0.562138;-0.823279;0.078814;,
  0.525463;-0.793766;0.306307;,
  -0.061879;-0.121719;-0.990634;,
  0.831413;-0.303275;-0.465592;,
  0.736353;-0.552537;-0.390496;,
  -0.931427;0.193530;0.308204;,
  -0.769258;0.176695;0.614021;,
  -0.516121;0.148078;0.843619;,
  -0.249052;0.121110;0.960888;,
  0.065576;0.078604;0.994747;,
  0.394218;0.022457;0.918743;,
  0.716260;-0.044264;0.696428;,
  0.913447;-0.102973;0.393713;,
  0.972405;-0.132261;0.192186;,
  0.988780;-0.149075;-0.009559;,
  0.953692;-0.156829;-0.256662;,
  0.800374;-0.151306;-0.580093;,
  0.369762;-0.045300;-0.928022;,
  -0.008391;0.003113;-0.999960;,
  -0.371864;0.059659;-0.926368;,
  -0.687192;0.124004;-0.715814;,
  -0.894775;0.183315;-0.407152;,
  -0.970689;0.234513;-0.052592;,
  -0.916354;0.264324;0.300714;,
  -0.754308;0.271144;0.597914;,
  -0.508619;0.252598;0.823105;,
  -0.180837;0.201027;0.962749;,
  0.206157;0.121804;0.970908;,
  0.518890;0.039133;0.853945;,
  0.778493;-0.020082;0.627332;,
  0.940818;-0.051775;0.334935;,
  0.990193;-0.075181;0.117753;,
  0.993722;-0.091540;-0.064313;,
  0.951545;-0.093749;-0.292872;,
  0.755372;-0.090047;-0.649080;,
  0.548478;-0.075377;-0.832760;,
  -0.074930;-0.003996;-0.997181;,
  -0.409468;0.036910;-0.911577;,
  -0.690847;0.112469;-0.714200;,
  -0.883706;0.163125;-0.438696;,
  -0.973601;0.221569;-0.054853;,
  -0.908814;0.298471;0.291500;,
  -0.740653;0.393280;0.544761;,
  -0.427348;0.447849;0.785370;,
  -0.040450;0.341889;0.938870;,
  0.358645;0.177292;0.916483;,
  0.653106;0.055213;0.755251;,
  0.795095;0.007353;0.606441;,
  0.932309;0.015977;0.361309;,
  0.996788;0.018701;0.077872;,
  0.993229;-0.004616;-0.116083;,
  0.940724;-0.038442;-0.336988;,
  0.771356;-0.051948;-0.634280;,
  -0.148426;-0.366140;-0.918646;,
  -0.430769;-0.338011;-0.836771;,
  -0.702385;-0.224088;-0.675603;,
  -0.904787;-0.168890;-0.390944;,
  -0.993748;-0.111007;-0.011896;,
  -0.953736;0.023586;0.299719;,
  -0.796252;0.125385;0.591829;,
  -0.384999;0.186869;0.903801;,
  0.080699;0.085117;0.993098;,
  0.422463;-0.085173;0.902369;,
  0.672810;-0.100823;0.732912;,
  0.773264;-0.046494;0.632378;,
  0.896419;-0.052086;0.440137;,
  0.990987;-0.097934;0.091402;,
  0.969607;-0.148252;-0.194638;,
  0.884783;-0.211340;-0.415325;,
  -0.389055;-0.759115;-0.521900;,
  -0.396424;-0.660818;-0.637312;,
  -0.176086;-0.686962;-0.705037;,
  -0.169771;-0.795885;-0.581158;,
  -0.552602;-0.728651;-0.404598;,
  -0.620036;-0.592124;-0.514727;,
  -0.714094;-0.662890;-0.225047;,
  -0.818708;-0.504591;-0.274052;,
  -0.810390;-0.585288;-0.026581;,
  -0.913762;-0.405892;-0.017064;,
  -0.827714;-0.496095;0.262256;,
  -0.920744;-0.270753;0.280934;,
  -0.702000;-0.382816;0.600539;,
  -0.753080;-0.205178;0.625118;,
  -0.321461;-0.395480;0.860383;,
  -0.348977;-0.207578;0.913853;,
  0.153875;-0.406796;0.900466;,
  0.140444;-0.241569;0.960167;,
  0.404247;-0.401311;0.821909;,
  0.408746;-0.319232;0.854996;,
  0.527135;-0.448382;0.721860;,
  0.568615;-0.324126;0.756055;,
  0.611477;-0.521234;0.595324;,
  0.694407;-0.303726;0.652341;,
  0.690454;-0.596716;0.408905;,
  0.809400;-0.357446;0.465944;,
  0.712984;-0.693827;0.101285;,
  0.888299;-0.444543;0.115358;,
  0.634893;-0.752229;-0.176245;,
  0.842608;-0.494211;-0.213935;,
  0.470785;-0.784356;-0.403915;,
  0.707001;-0.545132;-0.450533;,
  0.637013;-0.731021;-0.244586;,
  0.496428;-0.730071;-0.469633;,
  0.729233;-0.684254;0.004071;,
  0.749026;-0.589369;0.302662;,
  0.720333;-0.473838;0.506555;,
  0.628637;-0.382941;0.676884;,
  0.456353;-0.339344;0.822550;,
  0.185957;-0.359016;0.914619;,
  -0.282966;-0.376184;0.882279;,
  -0.699123;-0.393768;0.596803;,
  -0.830167;-0.508052;0.229577;,
  -0.788656;-0.613861;-0.034594;,
  -0.703914;-0.669925;-0.236021;,
  -0.594406;-0.690001;-0.413014;,
  -0.414494;-0.699852;-0.581723;,
  -0.107679;-0.743728;-0.659753;,
  -0.056282;-0.615374;-0.786224;,
  -0.429959;-0.589086;-0.684188;,
  -0.638908;-0.625007;-0.448512;,
  -0.739024;-0.624923;-0.251626;,
  -0.831679;-0.552256;-0.057654;,
  -0.986539;0.083745;0.140458;,
  -0.788605;0.214388;0.576316;,
  -0.264609;-0.211373;0.940906;,
  0.307846;0.312434;0.898674;,
  0.546691;0.320573;0.773539;,
  0.702065;-0.272259;0.658012;,
  0.798988;-0.409047;0.440792;,
  0.807077;-0.546993;0.222317;,
  0.798234;-0.598412;-0.068739;,
  0.733316;-0.600138;-0.319502;,
  0.611924;-0.565952;-0.552492;,
  0.142129;0.638641;-0.756265;,
  -0.110436;0.671386;-0.732834;,
  -0.400990;0.661091;-0.634166;,
  -0.443548;0.697591;-0.562701;,
  -0.513169;0.696689;-0.501280;,
  -0.570834;0.647395;-0.505003;,
  -0.733119;0.605078;-0.310511;,
  -0.677732;0.677912;-0.284807;,
  -0.606060;0.636701;-0.476764;,
  -0.805224;0.588195;-0.075104;,
  -0.749783;0.659634;-0.052037;,
  -0.829118;0.552917;-0.082739;,
  -0.788577;0.572615;0.224184;,
  -0.743720;0.629147;0.225953;,
  -0.538603;0.622561;0.567736;,
  -0.462204;0.681885;0.566922;,
  -0.162826;0.648628;0.743484;,
  -0.101277;0.701246;0.705689;,
  0.186651;0.635277;0.749390;,
  0.257570;0.686272;0.680212;,
  0.520064;0.600061;0.607833;,
  0.554178;0.642913;0.528724;,
  0.764841;0.540044;0.351241;,
  0.737738;0.591869;0.324707;,
  0.885857;0.457076;0.079614;,
  0.860635;0.505489;0.061549;,
  0.903448;0.408771;-0.129180;,
  0.880261;0.455437;-0.133110;,
  0.868973;0.378775;-0.318457;,
  0.842411;0.436605;-0.315785;,
  -0.593789;0.642142;-0.484838;,
  -0.732274;0.626240;-0.267576;,
  -0.777713;0.628618;0.001163;,
  -0.651698;0.676810;0.342372;,
  -0.230433;0.707333;0.668267;,
  0.211945;0.722824;0.657728;,
  0.400251;0.747569;0.530037;,
  0.638232;0.665399;0.387175;,
  0.790827;0.581182;0.191885;,
  0.823057;0.567937;-0.004884;,
  0.833779;0.526532;-0.166062;,
  0.755569;0.561730;-0.337010;,
  0.601330;0.552932;-0.576774;,
  0.744806;0.606272;0.278745;,
  0.817426;0.575430;0.026351;,
  0.838752;0.524993;-0.144489;,
  0.768744;0.558707;-0.311254;,
  0.621525;0.640092;0.451652;,
  0.348869;0.742213;0.572199;,
  0.038949;0.743024;0.668131;,
  -0.342922;0.702463;0.623659;,
  -0.674912;0.689772;0.262123;,
  -0.749034;0.581569;-0.317373;,
  0.586091;-0.020255;-0.809992;,
  0.323172;-0.002526;-0.946337;,
  0.246762;-0.344623;-0.905728;,
  0.125964;-0.816222;-0.563839;,
  0.136739;-0.765106;-0.629218;,
  0.286701;-0.801591;-0.524647;,
  0.225001;-0.737109;-0.637217;,
  0.314635;-0.788989;-0.527732;,
  0.317164;-0.710405;-0.628277;,
  0.381713;-0.552384;-0.741058;,
  0.217099;-0.599289;-0.770532;,
  0.174023;-0.643793;-0.745149;,
  0.358596;0.580206;-0.731280;,
  0.732267;-0.275395;-0.622850;,
  0.562543;-0.305318;-0.768327;,
  0.515676;-0.622370;-0.588840;,
  0.166522;-0.698182;-0.696285;,
  0.399331;-0.672828;-0.622766;,
  0.405757;0.561889;-0.720862;,
  0.572942;0.478183;-0.665641;,
  0.616048;0.388001;-0.685521;,
  0.522814;0.493216;-0.695273;,
  0.513240;0.525570;-0.678499;,
  0.732052;0.379300;-0.565891;,
  0.696816;0.445612;-0.562029;,
  0.465485;0.539217;-0.701832;,
  0.617356;0.554153;-0.558378;,
  0.496087;0.556107;-0.666815;,
  0.410930;0.587442;-0.697171;,
  0.430741;0.582973;-0.688915;,
  -0.444277;0.559926;0.699358;,
  -0.608136;0.109081;0.786303;,
  0.412677;0.889592;0.195765;,
  0.627525;0.367637;-0.686335;,
  0.608195;-0.109120;-0.786252;,
  0.626994;0.371672;-0.684645;,
  -0.442274;0.563518;0.697740;,
  0.444628;-0.559396;-0.699558;,
  0.442578;-0.562968;-0.697991;,
  -0.627094;-0.371048;0.684892;,
  -0.627602;-0.367019;0.686596;,
  0.638194;0.176549;-0.749359;,
  0.637437;0.143178;-0.757083;,
  -0.539196;0.354294;0.764031;,
  -0.527168;0.385642;0.757215;,
  -0.622738;0.023501;0.782077;,
  0.756368;-0.220895;0.615722;,
  0.741467;-0.275564;0.611793;,
  -0.785824;0.057193;-0.615799;,
  -0.769774;0.160720;-0.617752;,
  0.769772;-0.160719;0.617754;,
  0.769773;-0.160719;0.617753;,
  0.769774;-0.160718;0.617752;,
  -0.408230;0.631489;-0.659219;,
  -0.814046;0.516784;-0.265075;,
  -0.673345;0.543232;-0.501503;,
  -0.157661;0.745075;0.648078;,
  0.610967;0.726614;0.314248;,
  0.798050;0.589762;0.123678;,
  0.843063;0.537472;-0.019168;,
  0.844874;0.503836;-0.179826;,
  0.786349;0.499715;-0.363236;,
  0.626329;0.506987;-0.592179;,
  0.334582;0.581386;-0.741650;,
  0.405009;0.551741;-0.729074;,
  0.463418;0.530510;-0.709791;;
  309;
  4;0,0,1,1;,
  4;2,2,0,0;,
  4;3,3,2,2;,
  4;4,3,3,4;,
  4;5,6,6,5;,
  4;6,7,7,6;,
  4;7,8,8,7;,
  4;8,9,9,8;,
  4;10,10,11,11;,
  4;10,12,12,10;,
  4;13,14,14,13;,
  4;15,14,14,15;,
  4;16,17,17,16;,
  4;18,17,17,18;,
  4;19,19,20,20;,
  4;21,19,19,21;,
  4;22,23,23,22;,
  4;24,25,25,24;,
  4;26,27,27,26;,
  4;316,316,317,317;,
  4;318,318,318,318;,
  4;319,319,320,320;,
  4;319,319,321,321;,
  4;322,322,316,316;,
  4;323,323,324,324;,
  4;325,325,326,326;,
  4;324,324,28,28;,
  4;325,325,29,29;,
  4;327,327,328,328;,
  4;329,329,330,330;,
  4;328,328,30,30;,
  4;329,329,31,31;,
  4;32,32,33,33;,
  4;34,34,34,34;,
  4;331,331,35,35;,
  4;332,333,333,332;,
  4;26,334,334,26;,
  4;30,33,33,30;,
  4;18,333,333,18;,
  4;35,31,31,35;,
  4;24,334,334,24;,
  4;335,25,25,335;,
  4;327,327,28,28;,
  4;330,330,29,29;,
  4;16,15,15,16;,
  4;22,335,335,22;,
  4;36,23,23,36;,
  4;323,323,37,37;,
  4;326,326,38,38;,
  4;13,336,336,13;,
  4;39,36,36,39;,
  4;37,37,40,40;,
  4;38,38,41,41;,
  4;336,337,337,336;,
  4;42,39,39,42;,
  4;40,40,43,43;,
  4;41,41,44,44;,
  4;337,338,338,337;,
  4;21,42,42,21;,
  4;43,43,321,321;,
  4;44,44,322,322;,
  4;338,12,12,338;,
  4;45,46,52,53;,
  4;54,55,56,57;,
  4;58,54,57,59;,
  4;60,58,59,61;,
  4;62,60,61,63;,
  4;64,62,63,65;,
  4;66,67,64,65;,
  4;68,69,70,71;,
  4;71,70,72,73;,
  4;71,74,75,68;,
  4;53,52,76,77;,
  4;59,57,78,79;,
  4;83,66,65,84;,
  4;86,72,87,88;,
  4;79,85,61,59;,
  4;82,78,57,56;,
  4;95,94,93,96;,
  4;97,95,74,98;,
  4;73,100,101,98;,
  4;73,98,74,71;,
  4;101,99,97,98;,
  4;48,47,99,101;,
  4;48,101,100,49;,
  4;74,95,96,75;,
  4;100,73,72,86;,
  4;50,49,100,86;,
  4;85,102,63,61;,
  4;88,51,50,86;,
  4;102,84,65,63;,
  4;83,84,77,76;,
  4;103,104,70,69;,
  4;104,87,72,70;,
  4;104,103,66,83;,
  4;76,87,104,83;,
  4;52,88,87,76;,
  4;46,51,88,52;,
  4;55,105,89,56;,
  4;105,106,90,89;,
  4;106,107,91,90;,
  4;107,108,80,91;,
  4;108,109,81,80;,
  4;109,110,92,81;,
  4;110,111,93,92;,
  4;111,112,96,93;,
  4;112,113,75,96;,
  4;113,114,68,75;,
  4;114,115,69,68;,
  4;116,67,66,103;,
  4;64,117,118,62;,
  4;118,119,60,62;,
  4;119,120,58,60;,
  4;120,121,54,58;,
  4;121,122,55,54;,
  4;122,123,105,55;,
  4;123,124,106,105;,
  4;107,106,124,125;,
  4;108,107,125,126;,
  4;109,108,126,127;,
  4;110,109,127,128;,
  4;111,110,128,129;,
  4;112,111,129,130;,
  4;113,112,130,131;,
  4;114,113,131,132;,
  4;115,114,132,133;,
  4;116,115,133,134;,
  4;67,135,117,64;,
  4;135,67,116,134;,
  4;118,136,137,119;,
  4;120,119,137,138;,
  4;121,120,138,139;,
  4;122,121,139,140;,
  4;123,122,140,141;,
  4;124,123,141,142;,
  4;125,124,142,143;,
  4;126,125,143,144;,
  4;127,126,144,145;,
  4;128,127,145,146;,
  4;129,128,146,147;,
  4;130,129,147,148;,
  4;131,130,148,149;,
  4;132,131,149,150;,
  4;133,132,150,151;,
  4;134,133,151,152;,
  4;136,153,154,137;,
  4;154,155,138,137;,
  4;155,156,139,138;,
  4;156,157,140,139;,
  4;157,158,141,140;,
  4;158,159,142,141;,
  4;159,160,143,142;,
  4;160,161,144,143;,
  4;161,162,145,144;,
  4;162,163,146,145;,
  4;163,164,147,146;,
  4;164,165,148,147;,
  4;165,166,149,148;,
  4;166,167,150,149;,
  4;167,168,151,150;,
  4;169,170,171,172;,
  4;173,174,170,169;,
  4;175,176,174,173;,
  4;177,178,176,175;,
  4;179,180,178,177;,
  4;181,182,180,179;,
  4;183,184,182,181;,
  4;185,186,184,183;,
  4;187,188,186,185;,
  4;189,190,188,187;,
  4;191,192,190,189;,
  4;193,194,192,191;,
  4;195,196,194,193;,
  4;197,198,196,195;,
  4;199,200,198,197;,
  4;170,154,153,171;,
  4;174,155,154,170;,
  4;176,156,155,174;,
  4;178,157,156,176;,
  4;180,158,157,178;,
  4;182,159,158,180;,
  4;184,160,159,182;,
  4;186,161,160,184;,
  4;188,162,161,186;,
  4;190,163,162,188;,
  4;192,164,163,190;,
  4;194,165,164,192;,
  4;196,166,165,194;,
  4;198,167,166,196;,
  4;200,168,167,198;,
  4;197,201,202,199;,
  4;195,203,201,197;,
  4;193,204,203,195;,
  4;191,205,204,193;,
  4;189,206,205,191;,
  4;187,207,206,189;,
  4;185,208,207,187;,
  4;183,209,208,185;,
  4;181,210,209,183;,
  4;179,211,210,181;,
  4;177,212,211,179;,
  4;175,213,212,177;,
  4;173,214,213,175;,
  4;169,215,214,173;,
  4;172,216,215,169;,
  4;216,217,218,215;,
  4;214,215,218,219;,
  4;219,220,213,214;,
  4;220,221,212,213;,
  4;211,212,221,222;,
  4;222,223,210,211;,
  4;209,210,223,224;,
  4;208,209,224,225;,
  4;207,208,225,226;,
  4;206,207,226,227;,
  4;205,206,227,228;,
  4;204,205,228,229;,
  4;203,204,229,230;,
  4;201,203,230,231;,
  4;202,201,231,232;,
  4;233,234,234,233;,
  4;234,235,339,234;,
  4;235,236,237,238;,
  4;239,240,237,241;,
  4;242,243,240,239;,
  4;242,244,245,246;,
  4;246,245,247,248;,
  4;248,247,249,250;,
  4;250,249,251,252;,
  4;252,251,253,254;,
  4;254,253,255,256;,
  4;256,255,257,258;,
  4;258,257,259,260;,
  4;260,259,261,262;,
  4;236,263,241,237;,
  4;264,340,341,238;,
  4;265,222,340,264;,
  4;266,223,222,265;,
  4;267,342,223,266;,
  4;268,225,342,267;,
  4;269,226,225,268;,
  4;270,343,226,269;,
  4;271,344,343,270;,
  4;272,345,344,271;,
  4;273,346,345,272;,
  4;274,347,346,273;,
  4;275,348,347,274;,
  4;271,276,277,272;,
  4;272,277,278,273;,
  4;273,278,279,274;,
  4;270,280,276,271;,
  4;269,281,280,270;,
  4;268,282,281,269;,
  4;267,283,282,268;,
  4;266,284,283,267;,
  4;265,243,284,266;,
  4;264,240,243,265;,
  4;238,237,240,264;,
  4;238,341,339,235;,
  4;239,285,244,242;,
  4;246,284,243,242;,
  4;248,283,284,246;,
  4;250,282,283,248;,
  4;252,281,282,250;,
  4;254,280,281,252;,
  4;256,276,280,254;,
  4;258,277,276,256;,
  4;260,278,277,258;,
  4;262,279,278,260;,
  4;241,263,285,239;,
  4;135,134,152,286;,
  4;287,117,135,286;,
  4;117,287,136,118;,
  4;287,288,153,136;,
  4;289,290,216,172;,
  4;291,292,290,289;,
  4;293,199,202,294;,
  4;294,202,232,295;,
  4;292,296,297,290;,
  4;297,217,216,290;,
  4;349,298,233,233;,
  4;168,299,152,151;,
  4;299,300,286,152;,
  4;286,300,288,287;,
  4;293,301,200,199;,
  4;289,302,303,291;,
  4;171,153,288,302;,
  4;301,299,168,200;,
  4;172,171,302,289;,
  4;302,288,300,303;,
  4;303,300,299,301;,
  4;291,303,301,293;,
  4;292,291,293,294;,
  4;296,292,294,295;,
  4;349,350,304,298;,
  4;305,306,307,308;,
  4;262,261,309,310;,
  4;275,311,351,348;,
  4;274,279,312,275;,
  4;275,312,313,311;,
  4;314,315,308,307;,
  4;304,315,314,298;,
  4;310,312,279,262;,
  4;311,304,350,351;,
  4;313,315,304,311;,
  4;313,305,308,315;,
  4;305,313,312,310;,
  4;306,305,310,309;,
  4;69,115,116,103;;
 }
 MeshTextureCoords {
  413;
  0.040620;0.795990;,
  0.028440;0.795990;,
  0.028440;0.815640;,
  0.040620;0.815640;,
  0.040620;0.776350;,
  0.028440;0.776350;,
  0.040620;0.756710;,
  0.028440;0.756710;,
  0.028440;0.737070;,
  0.040620;0.737070;,
  0.073640;0.733540;,
  0.073640;0.753180;,
  0.085820;0.753180;,
  0.085820;0.733540;,
  0.073640;0.772820;,
  0.085820;0.772820;,
  0.073640;0.792460;,
  0.085820;0.792460;,
  0.073640;0.812110;,
  0.085820;0.812110;,
  0.764970;0.342930;,
  0.769500;0.342940;,
  0.769430;0.412540;,
  0.764900;0.412540;,
  0.750050;0.546970;,
  0.748010;0.559330;,
  0.718190;0.530420;,
  0.745250;0.540400;,
  0.715560;0.957090;,
  0.698060;0.967780;,
  0.692930;0.967620;,
  0.676110;0.955910;,
  0.561990;0.908450;,
  0.561610;0.955860;,
  0.554440;0.955860;,
  0.554440;0.908590;,
  0.552630;0.859140;,
  0.526950;0.841790;,
  0.550550;0.830780;,
  0.560870;0.856800;,
  0.548440;0.792510;,
  0.523200;0.790310;,
  0.758970;0.342460;,
  0.763510;0.342470;,
  0.763360;0.412520;,
  0.758830;0.412520;,
  0.749620;0.560130;,
  0.752520;0.547560;,
  0.759430;0.545440;,
  0.783190;0.551300;,
  0.738390;0.977810;,
  0.718660;0.959030;,
  0.768080;0.961910;,
  0.746110;0.977310;,
  0.585210;0.831970;,
  0.573590;0.856560;,
  0.564560;0.857060;,
  0.564290;0.828770;,
  0.563000;0.768390;,
  0.563640;0.678580;,
  0.571010;0.678210;,
  0.579450;0.767760;,
  0.770990;0.417060;,
  0.769460;0.417080;,
  0.770960;0.412530;,
  0.770960;0.342480;,
  0.760210;0.543050;,
  0.785240;0.551240;,
  0.771120;0.960950;,
  0.747710;0.979360;,
  0.736430;0.979640;,
  0.565680;0.955780;,
  0.565550;0.908400;,
  0.576850;0.955750;,
  0.572770;0.955820;,
  0.573050;0.908340;,
  0.577060;0.908380;,
  0.602210;0.838190;,
  0.577410;0.857350;,
  0.563570;0.792530;,
  0.585020;0.791170;,
  0.602320;0.788990;,
  0.556260;0.678320;,
  0.551000;0.768490;,
  0.548900;0.677580;,
  0.550300;0.663600;,
  0.557660;0.664340;,
  0.578340;0.677370;,
  0.591140;0.766100;,
  0.535200;0.765780;,
  0.779120;0.867380;,
  0.727410;0.862090;,
  0.781150;0.868120;,
  0.725920;0.861810;,
  0.679860;0.859330;,
  0.782560;0.759680;,
  0.734940;0.756260;,
  0.784480;0.759240;,
  0.732680;0.756030;,
  0.687380;0.752990;,
  0.786900;0.658860;,
  0.738590;0.663410;,
  0.789460;0.650850;,
  0.736480;0.662840;,
  0.697360;0.646150;,
  0.131470;0.624800;,
  0.144950;0.616160;,
  0.146330;0.619320;,
  0.133210;0.629500;,
  0.203430;0.758200;,
  0.204840;0.786190;,
  0.164750;0.786050;,
  0.164510;0.759850;,
  0.201600;0.725150;,
  0.161400;0.729370;,
  0.201820;0.699050;,
  0.163790;0.701990;,
  0.204500;0.677850;,
  0.162140;0.676140;,
  0.205080;0.655860;,
  0.164050;0.648900;,
  0.171510;0.628070;,
  0.212160;0.633440;,
  0.198360;0.560760;,
  0.188880;0.583540;,
  0.182390;0.577900;,
  0.190130;0.559350;,
  0.177620;0.578730;,
  0.187980;0.558480;,
  0.197200;0.538420;,
  0.204700;0.541330;,
  0.150330;0.621680;,
  0.134470;0.641700;,
  0.139300;0.758870;,
  0.136800;0.729160;,
  0.156030;0.627050;,
  0.137700;0.654100;,
  0.174690;0.580300;,
  0.163330;0.602840;,
  0.157620;0.606240;,
  0.136680;0.707400;,
  0.139630;0.786230;,
  0.171740;0.961820;,
  0.160920;0.941880;,
  0.175740;0.938880;,
  0.181830;0.957930;,
  0.164620;0.961680;,
  0.182500;0.975970;,
  0.178220;0.976910;,
  0.182560;0.563270;,
  0.189510;0.536280;,
  0.192950;0.536410;,
  0.175700;0.979080;,
  0.161490;0.963750;,
  0.174480;0.982000;,
  0.159370;0.965250;,
  0.186400;0.537340;,
  0.180640;0.564200;,
  0.189970;0.974480;,
  0.171770;0.582390;,
  0.139880;0.680760;,
  0.154380;0.606980;,
  0.177570;0.609530;,
  0.169410;0.604250;,
  0.205900;0.809450;,
  0.168650;0.810040;,
  0.207930;0.836580;,
  0.169180;0.842530;,
  0.208660;0.868290;,
  0.169860;0.865690;,
  0.210220;0.892510;,
  0.172020;0.885280;,
  0.211630;0.906250;,
  0.173890;0.899930;,
  0.212600;0.921000;,
  0.173130;0.919590;,
  0.214130;0.938060;,
  0.220770;0.957100;,
  0.229990;0.972030;,
  0.243040;0.553790;,
  0.235740;0.571170;,
  0.226020;0.592240;,
  0.215920;0.616200;,
  0.280990;0.667570;,
  0.275290;0.687880;,
  0.271950;0.707900;,
  0.272570;0.729330;,
  0.276580;0.757780;,
  0.280840;0.783110;,
  0.284370;0.811630;,
  0.289280;0.839090;,
  0.292860;0.867040;,
  0.295650;0.892650;,
  0.301150;0.911230;,
  0.306990;0.924500;,
  0.313880;0.941300;,
  0.324750;0.960030;,
  0.333060;0.980830;,
  0.339850;0.588530;,
  0.324990;0.601550;,
  0.309460;0.615620;,
  0.295390;0.635280;,
  0.290360;0.647970;,
  0.322110;0.696070;,
  0.320810;0.717230;,
  0.320630;0.734170;,
  0.332830;0.756360;,
  0.336290;0.781650;,
  0.331300;0.804830;,
  0.325990;0.834810;,
  0.335380;0.865420;,
  0.343510;0.885700;,
  0.344150;0.905870;,
  0.351940;0.922440;,
  0.356350;0.936290;,
  0.364550;0.952350;,
  0.371960;0.974500;,
  0.378840;0.597450;,
  0.364440;0.610800;,
  0.348370;0.628030;,
  0.341120;0.640980;,
  0.355260;0.701870;,
  0.354390;0.720360;,
  0.349880;0.739810;,
  0.351830;0.758820;,
  0.362560;0.788800;,
  0.361920;0.804280;,
  0.368780;0.837500;,
  0.364510;0.863500;,
  0.370640;0.884810;,
  0.383440;0.905700;,
  0.391850;0.920730;,
  0.398790;0.933500;,
  0.403220;0.947630;,
  0.412160;0.967460;,
  0.416070;0.615870;,
  0.398420;0.632990;,
  0.386570;0.643800;,
  0.394510;0.728940;,
  0.373390;0.724140;,
  0.375450;0.705380;,
  0.398240;0.710170;,
  0.390700;0.746380;,
  0.368800;0.742900;,
  0.390390;0.762580;,
  0.369870;0.761150;,
  0.395190;0.786170;,
  0.377890;0.787850;,
  0.393440;0.807870;,
  0.377820;0.805430;,
  0.400680;0.834620;,
  0.383840;0.836270;,
  0.403190;0.858200;,
  0.381190;0.862510;,
  0.409770;0.879140;,
  0.388070;0.883340;,
  0.418000;0.899110;,
  0.400230;0.903210;,
  0.424180;0.912460;,
  0.407190;0.917500;,
  0.430050;0.924110;,
  0.413730;0.929620;,
  0.433080;0.934490;,
  0.417320;0.942390;,
  0.440940;0.951680;,
  0.425920;0.961320;,
  0.429380;0.653310;,
  0.413310;0.640930;,
  0.428390;0.624800;,
  0.441120;0.637900;,
  0.420170;0.664820;,
  0.402730;0.652520;,
  0.446330;0.669600;,
  0.437160;0.681080;,
  0.454610;0.655250;,
  0.450230;0.925060;,
  0.458070;0.938980;,
  0.447410;0.917900;,
  0.441960;0.906080;,
  0.436290;0.893590;,
  0.427290;0.872840;,
  0.420370;0.849410;,
  0.418040;0.831660;,
  0.414350;0.806590;,
  0.413740;0.784020;,
  0.412690;0.764210;,
  0.413920;0.750940;,
  0.416390;0.734880;,
  0.421880;0.715230;,
  0.430560;0.722500;,
  0.428370;0.732890;,
  0.426750;0.750190;,
  0.425870;0.763250;,
  0.425060;0.782420;,
  0.425900;0.805250;,
  0.426420;0.828880;,
  0.429640;0.846400;,
  0.440450;0.872930;,
  0.445270;0.889330;,
  0.451260;0.901400;,
  0.457230;0.913430;,
  0.463000;0.922870;,
  0.470000;0.931160;,
  0.463450;0.666690;,
  0.453880;0.676630;,
  0.444760;0.691530;,
  0.438350;0.087980;,
  0.442750;0.091140;,
  0.442740;0.096440;,
  0.436480;0.091500;,
  0.450300;0.088440;,
  0.449020;0.107560;,
  0.461480;0.082530;,
  0.464820;0.093250;,
  0.458080;0.104830;,
  0.497060;0.101210;,
  0.474320;0.115950;,
  0.490090;0.079190;,
  0.504520;0.134430;,
  0.478060;0.141870;,
  0.513890;0.132050;,
  0.515690;0.164810;,
  0.506250;0.164160;,
  0.510530;0.194400;,
  0.500010;0.192200;,
  0.493630;0.224970;,
  0.484900;0.220720;,
  0.475720;0.243110;,
  0.467150;0.238210;,
  0.450240;0.258020;,
  0.445130;0.250560;,
  0.424670;0.264000;,
  0.421080;0.254370;,
  0.397880;0.262720;,
  0.396640;0.254000;,
  0.372450;0.255540;,
  0.374040;0.246440;,
  0.361230;0.049700;,
  0.356150;0.042050;,
  0.377690;0.034160;,
  0.381440;0.043150;,
  0.491490;0.064910;,
  0.464260;0.123200;,
  0.455550;0.130480;,
  0.452460;0.116530;,
  0.467950;0.144780;,
  0.457930;0.147780;,
  0.466680;0.165960;,
  0.455420;0.165900;,
  0.460170;0.182040;,
  0.448730;0.177930;,
  0.444080;0.200600;,
  0.433270;0.193520;,
  0.429010;0.208250;,
  0.421040;0.198290;,
  0.421120;0.214650;,
  0.411290;0.202280;,
  0.408570;0.216040;,
  0.400860;0.202400;,
  0.392420;0.212980;,
  0.392310;0.200980;,
  0.382850;0.210360;,
  0.384130;0.198630;,
  0.394730;0.076710;,
  0.398480;0.086560;,
  0.388490;0.090090;,
  0.380910;0.081180;,
  0.409630;0.072870;,
  0.411680;0.083920;,
  0.411400;0.227100;,
  0.395390;0.225740;,
  0.379000;0.220830;,
  0.375920;0.071280;,
  0.393710;0.065760;,
  0.429440;0.223870;,
  0.440280;0.220210;,
  0.456760;0.205240;,
  0.470620;0.186000;,
  0.480010;0.162610;,
  0.505200;0.096190;,
  0.339710;0.657680;,
  0.330740;0.678150;,
  0.358940;0.683870;,
  0.403540;0.694640;,
  0.428410;0.702260;,
  0.409210;0.685790;,
  0.430570;0.697650;,
  0.414220;0.676170;,
  0.432960;0.692040;,
  0.442800;0.696620;,
  0.439090;0.703720;,
  0.435330;0.710870;,
  0.427460;0.088480;,
  0.437310;0.079630;,
  0.377540;0.655160;,
  0.366590;0.667850;,
  0.394980;0.663800;,
  0.379890;0.688150;,
  0.387820;0.676610;,
  0.421690;0.086040;,
  0.427900;0.076880;,
  0.417410;0.041110;,
  0.421020;0.032350;,
  0.440930;0.035200;,
  0.427350;0.042020;,
  0.404800;0.030290;,
  0.404230;0.040030;,
  0.420570;0.074720;,
  0.415920;0.083620;,
  0.404030;0.063190;,
  0.424170;0.064920;,
  0.438110;0.067780;,
  0.430440;0.066230;;
 }
}
