xof 0302txt 0064
template Header {
 <3D82AB43-62DA-11cf-AB39-0020AF71E433>
 WORD major;
 WORD minor;
 DWORD flags;
}

template Vector {
 <3D82AB5E-62DA-11cf-AB39-0020AF71E433>
 FLOAT x;
 FLOAT y;
 FLOAT z;
}

template Coords2d {
 <F6F23F44-7686-11cf-8F52-0040333594A3>
 FLOAT u;
 FLOAT v;
}

template Matrix4x4 {
 <F6F23F45-7686-11cf-8F52-0040333594A3>
 array FLOAT matrix[16];
}

template ColorRGBA {
 <35FF44E0-6C7C-11cf-8F52-0040333594A3>
 FLOAT red;
 FLOAT green;
 FLOAT blue;
 FLOAT alpha;
}

template ColorRGB {
 <D3E16E81-7835-11cf-8F52-0040333594A3>
 FLOAT red;
 FLOAT green;
 FLOAT blue;
}

template IndexedColor {
 <1630B820-7842-11cf-8F52-0040333594A3>
 DWORD index;
 ColorRGBA indexColor;
}

template Boolean {
 <4885AE61-78E8-11cf-8F52-0040333594A3>
 WORD truefalse;
}

template Boolean2d {
 <4885AE63-78E8-11cf-8F52-0040333594A3>
 Boolean u;
 Boolean v;
}

template MaterialWrap {
 <4885AE60-78E8-11cf-8F52-0040333594A3>
 Boolean u;
 Boolean v;
}

template TextureFilename {
 <A42790E1-7810-11cf-8F52-0040333594A3>
 STRING filename;
}

template Material {
 <3D82AB4D-62DA-11cf-AB39-0020AF71E433>
 ColorRGBA faceColor;
 FLOAT power;
 ColorRGB specularColor;
 ColorRGB emissiveColor;
 [...]
}

template MeshFace {
 <3D82AB5F-62DA-11cf-AB39-0020AF71E433>
 DWORD nFaceVertexIndices;
 array DWORD faceVertexIndices[nFaceVertexIndices];
}

template MeshFaceWraps {
 <4885AE62-78E8-11cf-8F52-0040333594A3>
 DWORD nFaceWrapValues;
 Boolean2d faceWrapValues;
}

template MeshTextureCoords {
 <F6F23F40-7686-11cf-8F52-0040333594A3>
 DWORD nTextureCoords;
 array Coords2d textureCoords[nTextureCoords];
}

template MeshMaterialList {
 <F6F23F42-7686-11cf-8F52-0040333594A3>
 DWORD nMaterials;
 DWORD nFaceIndexes;
 array DWORD faceIndexes[nFaceIndexes];
 [Material]
}

template MeshNormals {
 <F6F23F43-7686-11cf-8F52-0040333594A3>
 DWORD nNormals;
 array Vector normals[nNormals];
 DWORD nFaceNormals;
 array MeshFace faceNormals[nFaceNormals];
}

template MeshVertexColors {
 <1630B821-7842-11cf-8F52-0040333594A3>
 DWORD nVertexColors;
 array IndexedColor vertexColors[nVertexColors];
}

template Mesh {
 <3D82AB44-62DA-11cf-AB39-0020AF71E433>
 DWORD nVertices;
 array Vector vertices[nVertices];
 DWORD nFaces;
 array MeshFace faces[nFaces];
 [...]
}

Header{
1;
0;
1;
}

Mesh {
 672;
 3.49217;-2.06514;4.04438;,
 3.04054;-7.04645;4.04438;,
 3.60131;-7.09706;4.04438;,
 3.99023;-2.11375;4.04438;,
 2.58891;-12.02775;4.04438;,
 3.21240;-12.08035;4.04438;,
 3.47729;-2.10643;4.04438;,
 3.80249;-7.09414;4.04438;,
 4.35726;-7.05048;4.04438;,
 3.96275;-2.06412;4.04438;,
 4.12768;-12.08186;4.04438;,
 4.75177;-12.03683;4.04438;,
 3.28320;1.69686;-3.23049;,
 3.34701;2.50170;-2.39623;,
 3.82097;2.67687;-2.76383;,
 3.80791;2.06156;-3.33601;,
 8.25737;3.95818;-5.08224;,
 7.86842;5.17711;-3.32196;,
 9.51521;5.79408;-3.95219;,
 10.02301;4.49767;-6.03982;,
 4.15957;2.01492;-2.94463;,
 4.20723;0.74402;-3.64155;,
 3.70062;1.06676;-3.92142;,
 3.80791;2.06156;-3.33601;,
 8.76828;-3.69855;-5.46366;,
 7.61327;-1.98591;-6.03191;,
 10.15142;-3.22008;-6.99554;,
 10.20142;-4.83027;-5.15597;,
 9.85380;-5.81401;-3.21511;,
 8.52652;-5.31396;-2.60385;,
 8.72044;-5.11926;3.06534;,
 8.63360;-5.87733;0.45499;,
 9.61681;-6.35947;0.34612;,
 10.03801;-5.56798;3.23425;,
 8.85495;-0.85943;5.78656;,
 8.75037;-2.90675;5.14174;,
 10.65556;-2.77236;5.60658;,
 10.68549;-0.48185;6.14727;,
 8.75807;3.23112;5.33753;,
 8.83375;1.25480;5.87004;,
 10.51938;1.96887;6.11857;,
 10.14924;3.96900;5.41818;,
 7.40432;5.46755;1.72271;,
 7.89547;4.94556;3.44729;,
 9.40751;5.47112;3.86917;,
 8.76202;6.12530;1.94413;,
 7.36711;5.56261;-1.47829;,
 7.31482;5.67282;0.07897;,
 8.62626;6.31103;-0.05452;,
 8.88023;6.27421;-1.66773;,
 4.14066;2.54523;-2.33872;,
 5.38463;3.80544;-2.66912;,
 5.57265;2.92543;-3.44665;,
 10.36066;3.34473;-7.03588;,
 8.54423;2.56108;-6.33377;,
 4.16173;3.02085;-1.32543;,
 4.17847;3.43321;-0.04406;,
 5.49081;4.19621;0.03635;,
 5.24398;3.99574;-1.88490;,
 4.15711;3.31919;1.15558;,
 4.24174;2.77547;2.70304;,
 6.10800;3.65770;3.53986;,
 5.65453;4.17202;1.36545;,
 4.27942;1.71685;3.75843;,
 4.34412;0.55625;4.24969;,
 6.17588;0.97077;4.95234;,
 5.97351;3.02819;4.09443;,
 4.37415;-1.19223;4.21593;,
 4.31278;-2.51575;3.53332;,
 6.15660;-2.75578;4.53803;,
 6.44292;-0.96591;4.96473;,
 4.20227;-3.48831;2.38204;,
 4.27104;-3.79768;0.91623;,
 6.18611;-4.61395;0.87194;,
 6.32415;-4.20046;2.63887;,
 6.09449;-4.01210;-2.33015;,
 4.21913;-2.87778;-1.96295;,
 4.28678;-1.90043;-3.05809;,
 6.02483;-2.17923;-4.59662;,
 4.29105;-1.12229;-3.53611;,
 6.08944;-0.90338;-5.37004;,
 8.68586;-3.78132;4.59198;,
 10.41401;-3.99115;4.96418;,
 4.24970;-3.02999;3.11391;,
 6.18503;-3.28732;3.91164;,
 4.17875;-0.09592;-3.73692;,
 5.72694;-0.11086;-5.25226;,
 5.91609;0.72432;-5.32389;,
 8.51004;-5.79247;-0.83861;,
 6.12223;-4.48389;-0.18372;,
 9.62269;-6.32883;-1.16375;,
 4.23583;-3.66918;-0.29908;,
 3.24784;0.69954;-3.71188;,
 3.70062;1.06676;-3.92142;,
 3.22693;-0.35289;-3.72656;,
 3.72086;-0.12374;-4.07404;,
 3.21639;-1.50184;-3.31976;,
 3.74524;-1.53007;-3.60107;,
 3.79556;-2.12233;-3.19952;,
 3.31248;-2.16900;-2.69184;,
 3.29602;-3.68981;-0.44259;,
 3.34101;-2.81160;-1.96406;,
 3.82183;-3.02305;-2.31060;,
 3.78645;-4.04061;-0.31390;,
 3.34027;-3.93508;1.00090;,
 3.29602;-3.68981;-0.44259;,
 3.78645;-4.04061;-0.31390;,
 3.76964;-4.25405;1.01783;,
 3.24544;-3.80856;2.62168;,
 3.66161;-4.10379;2.55391;,
 3.37169;-3.22359;3.31423;,
 3.83800;-3.53779;3.37696;,
 3.88663;-2.97727;3.90719;,
 3.36486;-2.71470;3.79451;,
 3.33577;-1.35408;4.42167;,
 3.82356;-1.44905;4.65439;,
 3.37858;0.43267;4.31744;,
 3.87669;0.51699;4.64077;,
 3.36333;1.61647;3.88745;,
 3.76308;1.86747;4.16433;,
 3.38880;2.76926;2.83298;,
 3.87427;3.08888;2.98268;,
 3.34292;3.34030;1.53984;,
 3.77600;3.71835;1.24072;,
 3.33655;3.40709;-0.20505;,
 3.88162;3.70148;-0.12780;,
 3.39117;3.07519;-1.21869;,
 3.33655;3.40709;-0.20505;,
 3.88162;3.70148;-0.12780;,
 3.91735;3.36004;-1.38976;,
 3.82097;2.67687;-2.76383;,
 3.91735;3.36004;-1.38976;,
 3.88162;3.70148;-0.12780;,
 3.77600;3.71835;1.24072;,
 3.87427;3.08888;2.98268;,
 3.76308;1.86747;4.16433;,
 3.87669;0.51699;4.64077;,
 3.82356;-1.44905;4.65439;,
 3.88663;-2.97727;3.90719;,
 3.83800;-3.53779;3.37696;,
 3.66161;-4.10379;2.55391;,
 3.76964;-4.25405;1.01783;,
 4.23583;-3.66918;-0.29908;,
 3.78645;-4.04061;-0.31390;,
 3.82183;-3.02305;-2.31060;,
 3.79556;-2.12233;-3.19952;,
 3.74524;-1.53007;-3.60107;,
 3.72086;-0.12374;-4.07404;,
 6.12223;-4.48389;-0.18372;,
 3.78645;-4.04061;-0.31390;,
 8.51004;-5.79247;-0.83861;,
 9.62269;-6.32883;-1.16375;,
 7.40345;0.87160;-3.86359;,
 6.90092;2.84595;-2.58520;,
 7.87383;2.58062;-2.84618;,
 8.20886;1.25972;-3.78104;,
 9.16377;2.55831;-2.88814;,
 9.89729;1.53076;-3.69717;,
 7.60041;3.59138;-1.43023;,
 8.81574;3.19338;-2.19198;,
 12.21560;2.06739;-3.01812;,
 12.11269;1.53660;-3.57277;,
 9.67195;2.96359;-2.46670;,
 12.19194;2.58508;-2.45991;,
 6.13549;2.95163;-2.44532;,
 6.11748;3.61940;-1.36995;,
 6.11587;1.82681;-3.30353;,
 7.01869;0.41481;-3.93062;,
 6.21425;0.26257;-3.77783;,
 8.22246;0.29951;-3.84317;,
 10.29555;0.36846;-3.85646;,
 12.22143;0.29836;-3.74665;,
 7.02456;-0.73340;-3.94454;,
 6.26120;-0.48190;-3.78306;,
 8.33409;-0.91799;-3.80398;,
 10.46067;-1.22145;-3.74041;,
 12.34019;-1.06738;-3.66817;,
 7.41443;-1.50368;-3.77766;,
 6.31278;-1.49158;-3.56156;,
 8.45390;-2.29212;-3.47121;,
 10.58920;-2.59721;-3.21396;,
 12.48651;-2.41047;-3.12460;,
 5.37777;2.67974;-2.26910;,
 5.40805;3.34324;-1.27839;,
 5.35952;1.59072;-3.07997;,
 5.35663;0.73100;-3.37983;,
 5.38103;-0.42116;-3.45524;,
 5.35745;-1.42728;-3.21476;,
 6.55076;-2.81447;-2.80594;,
 5.39971;-2.70745;-2.39534;,
 9.11880;-3.10188;-2.63895;,
 12.51289;-2.87052;-2.46311;,
 6.18449;-3.61124;-1.81664;,
 5.37485;-3.35022;-1.55544;,
 5.94435;-4.10765;-0.47460;,
 5.30928;-3.77852;-0.30591;,
 12.53809;-3.33251;-1.80786;,
 9.12144;-3.61618;-1.98759;,
 6.07477;-4.07272;1.18601;,
 5.31864;-3.70965;1.23486;,
 9.22430;-4.17249;0.73614;,
 9.17841;-4.10531;-0.86038;,
 12.60077;-3.64400;-1.02923;,
 12.77602;-3.75439;0.00708;,
 12.77602;-3.75439;0.00708;,
 12.93300;-3.49581;1.15259;,
 9.78536;-3.71658;2.00241;,
 9.22430;-4.17249;0.73614;,
 10.57781;-3.12091;2.89609;,
 8.22667;-2.40867;3.74129;,
 7.59472;-2.86522;3.24922;,
 6.07477;-4.07272;1.18601;,
 6.05284;-3.56254;2.41801;,
 5.38425;-3.13887;2.47689;,
 5.31864;-3.70965;1.23486;,
 13.09355;-3.07554;2.11842;,
 5.98932;-2.65189;3.44595;,
 5.37531;-2.36866;3.27457;,
 7.68898;-1.35941;4.23931;,
 6.85023;-1.21799;4.17138;,
 6.01291;-1.01762;4.24316;,
 5.36966;-0.81149;3.98197;,
 8.13880;-0.31922;4.38944;,
 7.18997;0.15682;4.29889;,
 6.02261;0.42670;4.31469;,
 5.35735;0.53551;4.01678;,
 13.02417;-1.96354;2.94684;,
 10.85629;-2.02228;3.50034;,
 10.45718;-0.68678;3.98021;,
 12.66001;-0.69697;3.50692;,
 6.05995;1.79527;3.86877;,
 5.36066;1.75748;3.58452;,
 7.91901;1.49048;3.88854;,
 9.61364;0.40579;4.25098;,
 10.48106;0.39984;4.10921;,
 12.54338;0.47012;3.66103;,
 9.97022;1.41661;3.77851;,
 12.28358;1.41420;3.31793;,
 6.09828;2.88641;3.03857;,
 5.39046;2.72817;2.80227;,
 7.85081;2.94683;2.84504;,
 9.47787;2.19816;3.36070;,
 12.21062;1.81463;3.03845;,
 5.97463;3.76156;1.63572;,
 5.34601;3.54478;1.31669;,
 6.02656;3.93934;-0.13339;,
 7.19849;3.57360;2.07706;,
 7.01541;3.96178;0.30519;,
 5.36534;3.64167;-0.28573;,
 7.60041;3.59138;-1.43023;,
 7.76911;4.39292;-0.88103;,
 9.04901;4.07878;-1.90401;,
 8.81574;3.19338;-2.19198;,
 10.24958;3.72418;-2.24493;,
 9.67195;2.96359;-2.46670;,
 12.45040;3.53019;-2.16155;,
 12.19194;2.58508;-2.45991;,
 10.67333;4.30421;-1.59724;,
 12.46072;4.03171;-1.62941;,
 9.59478;4.39102;-1.55817;,
 8.39496;4.70645;-0.55548;,
 7.01541;3.96178;0.30519;,
 7.48327;4.55838;-0.00829;,
 8.00133;4.77280;0.47881;,
 7.19849;3.57360;2.07706;,
 7.55523;4.22887;1.94924;,
 7.85081;2.94683;2.84504;,
 8.19061;3.60369;2.83810;,
 8.13454;4.43978;1.89374;,
 8.98665;3.97804;2.64213;,
 9.47787;2.19816;3.36070;,
 9.68731;3.14324;3.26726;,
 9.79322;3.74133;2.84501;,
 12.22539;2.69415;2.93334;,
 12.21062;1.81463;3.03845;,
 12.19507;3.40585;2.59829;,
 14.57326;2.56398;2.25704;,
 14.44983;3.21083;1.92198;,
 14.51353;1.76225;2.27761;,
 14.62018;1.25585;2.60366;,
 14.51353;1.76225;2.27761;,
 14.80163;0.38129;2.95006;,
 16.85587;2.71792;1.10814;,
 16.53074;3.20026;0.91989;,
 16.88742;1.84086;1.15723;,
 16.88742;1.84086;1.15723;,
 17.14634;1.15524;1.64079;,
 17.09861;-0.09042;2.05938;,
 14.78169;-0.76142;2.78648;,
 16.79876;-1.01982;1.87745;,
 14.69142;-2.00898;2.26738;,
 14.76303;-2.82680;1.62011;,
 14.56659;-3.24532;0.57835;,
 16.67055;-1.59086;1.64951;,
 16.93573;-2.09699;1.30437;,
 16.89566;-2.57845;0.38312;,
 14.38339;-3.40013;-0.11381;,
 16.62155;-2.87139;-0.37033;,
 14.38339;-3.40013;-0.11381;,
 14.28704;-3.32070;-1.13484;,
 16.34571;-2.89219;-1.31591;,
 16.62155;-2.87139;-0.37033;,
 14.24526;-3.08931;-1.76079;,
 15.85314;-2.59852;-2.23605;,
 14.12712;-2.66420;-2.44330;,
 14.08174;-2.11376;-3.19264;,
 15.40281;-2.17751;-2.81116;,
 14.92615;-1.83258;-3.33221;,
 13.54873;-1.01664;-3.62081;,
 13.31442;0.03522;-3.75154;,
 14.51303;-0.93848;-3.60864;,
 16.53719;-0.76334;-3.75865;,
 17.14498;-1.28808;-3.37067;,
 17.24497;-1.95173;-2.85903;,
 13.49188;1.44039;-3.54874;,
 14.86525;1.29300;-3.56821;,
 14.53039;-0.04529;-3.71307;,
 15.76501;-0.42568;-3.68331;,
 15.68918;0.00574;-3.69557;,
 15.90621;0.84603;-3.73918;,
 16.99240;0.51450;-3.77892;,
 17.00991;0.21829;-3.82628;,
 17.11956;-0.17117;-3.83302;,
 18.15492;-1.13453;-3.47646;,
 18.30030;-1.84935;-2.92627;,
 18.07418;-0.46911;-3.68908;,
 18.08064;0.98411;-3.55750;,
 18.05365;0.42820;-3.72576;,
 18.13450;1.36458;-3.35968;,
 15.78428;2.02027;-2.80215;,
 16.78419;2.02244;-2.75239;,
 18.24450;1.81767;-3.04870;,
 13.96857;2.05226;-2.87217;,
 14.16974;2.43577;-2.31435;,
 15.95774;2.44846;-2.16237;,
 16.98742;2.46171;-1.99292;,
 17.84713;2.53165;-1.67673;,
 18.51198;2.44358;-1.89383;,
 14.16974;2.43577;-2.31435;,
 14.09165;3.28891;-2.18996;,
 14.17643;3.75231;-1.74288;,
 15.83424;3.27845;-2.07743;,
 15.95774;2.44846;-2.16237;,
 16.91384;3.16413;-1.92872;,
 16.98742;2.46171;-1.99292;,
 17.55768;3.30143;-1.58287;,
 17.84713;2.53165;-1.67673;,
 15.70938;3.62803;-1.69188;,
 16.82596;3.58479;-1.42082;,
 17.32234;3.54553;-1.16917;,
 18.07572;2.01415;0.39158;,
 17.96533;2.95123;0.16474;,
 18.23304;1.14512;1.17350;,
 18.07572;2.01415;0.39158;,
 17.82988;-0.41052;1.74728;,
 17.86201;-0.97003;1.56548;,
 17.57264;-1.68771;1.33625;,
 17.67511;-2.31887;0.33940;,
 19.15038;-1.45086;0.60940;,
 19.17578;-0.80822;0.96365;,
 19.12348;-0.14617;1.11291;,
 19.03799;0.83123;1.00904;,
 18.90595;1.92194;0.27107;,
 17.47260;3.31333;0.13542;,
 9.52364;4.44658;1.51586;,
 9.76214;4.68967;-0.42812;,
 11.75090;4.19017;1.32494;,
 14.14378;3.83569;0.81154;,
 11.51333;4.45239;-0.24710;,
 13.53806;4.19881;-0.41706;,
 15.66713;3.68190;0.34668;,
 15.31961;3.85903;-0.69224;,
 17.55819;3.47674;-0.51574;,
 17.95417;3.24737;-0.57755;,
 18.17214;2.50941;-0.58742;,
 18.17214;2.50941;-0.58742;,
 18.75976;2.39564;-0.56111;,
 18.98707;-2.08482;-0.06471;,
 17.59560;-2.65963;-0.72002;,
 18.73231;-2.46933;-1.13515;,
 17.59560;-2.65963;-0.72002;,
 17.40689;-2.61557;-1.65438;,
 18.47161;-2.29555;-2.17250;,
 18.73231;-2.46933;-1.13515;,
 18.51198;2.44358;-1.89383;,
 18.75976;2.39564;-0.56111;,
 19.03861;2.85505;-0.78216;,
 18.71449;2.79581;-2.10600;,
 18.90595;1.92194;0.27107;,
 19.27404;2.11623;0.57949;,
 18.41112;2.16087;-3.19581;,
 18.24450;1.81767;-3.04870;,
 19.03799;0.83123;1.00904;,
 19.39846;1.03397;1.27562;,
 18.13450;1.36458;-3.35968;,
 18.27012;1.55275;-3.67817;,
 18.08064;0.98411;-3.55750;,
 18.18051;1.12393;-3.85148;,
 18.05365;0.42820;-3.72576;,
 18.14114;0.65043;-3.99563;,
 18.07418;-0.46911;-3.68908;,
 18.19393;-0.28344;-4.10894;,
 18.15492;-1.13453;-3.47646;,
 18.31707;-1.36810;-3.79856;,
 18.30030;-1.84935;-2.92627;,
 18.45385;-2.08752;-3.23043;,
 18.47161;-2.29555;-2.17250;,
 18.66130;-2.62594;-2.36882;,
 18.73231;-2.46933;-1.13515;,
 18.94101;-2.82004;-1.22309;,
 18.98707;-2.08482;-0.06471;,
 18.73231;-2.46933;-1.13515;,
 18.94101;-2.82004;-1.22309;,
 19.28731;-2.44233;0.04195;,
 19.15038;-1.45086;0.60940;,
 19.43564;-1.81834;0.75237;,
 19.17578;-0.80822;0.96365;,
 19.52556;-1.03152;1.23482;,
 19.12348;-0.14617;1.11291;,
 19.47354;-0.09509;1.43263;,
 19.91802;-0.08392;1.43940;,
 19.83835;1.08925;1.27305;,
 19.94153;-1.01823;1.23464;,
 19.86941;-1.84059;0.76325;,
 19.65489;2.23333;0.51689;,
 19.40084;2.92890;-0.82637;,
 20.15945;2.21055;0.35454;,
 19.92488;2.87437;-0.92877;,
 19.04282;2.88118;-2.23983;,
 18.82847;2.27285;-3.36448;,
 18.69340;1.64929;-3.88490;,
 18.60078;1.18989;-4.11690;,
 18.57628;0.67440;-4.28047;,
 18.61361;-0.31365;-4.33715;,
 18.71725;-1.42007;-3.99156;,
 18.87148;-2.17305;-3.40339;,
 19.06602;-2.71973;-2.55499;,
 19.34645;-2.92892;-1.32852;,
 19.34645;-2.92892;-1.32852;,
 19.68430;-2.53223;-0.02550;,
 19.33174;0.63004;-4.24094;,
 19.31885;1.12834;-4.12297;,
 19.58439;1.00576;-3.80620;,
 19.56516;0.49639;-3.95400;,
 19.39002;1.57863;-3.88406;,
 19.64461;1.47442;-3.58245;,
 19.50197;2.16528;-3.40142;,
 19.79568;2.02800;-3.06284;,
 19.66878;2.84047;-2.24508;,
 19.98364;2.46973;-2.16857;,
 19.31074;-0.30806;-4.30540;,
 19.58665;-0.40732;-3.94925;,
 19.66398;-1.19014;-3.67295;,
 19.36009;-1.34811;-4.00643;,
 19.53148;-2.04905;-3.44298;,
 19.80680;-1.91130;-3.08346;,
 19.68807;-2.55292;-2.71210;,
 19.93015;-2.25958;-2.53637;,
 19.93934;-2.81763;-1.49877;,
 20.19865;-2.45820;-1.38285;,
 20.24138;-2.45401;-0.23573;,
 19.93934;-2.81763;-1.49877;,
 20.19865;-2.45820;-1.38285;,
 20.44453;-2.12966;-0.42402;,
 20.60848;-1.54764;0.21826;,
 20.45731;-1.70248;0.57396;,
 20.49564;-0.91591;1.01513;,
 20.64123;-0.67137;0.67312;,
 20.61028;0.16380;0.76323;,
 20.49903;-0.06053;1.16216;,
 20.42201;1.06340;0.99872;,
 20.56456;0.83963;0.65499;,
 20.44009;1.85917;0.14243;,
 20.23264;2.47390;-1.03286;,
 20.23264;2.47390;-1.03286;,
 21.36135;2.68561;-1.10720;,
 21.19256;2.75939;-1.97266;,
 19.98364;2.46973;-2.16857;,
 20.44009;1.85917;0.14243;,
 21.47478;2.07838;0.12707;,
 19.79568;2.02800;-3.06284;,
 20.64408;2.37754;-2.97891;,
 20.04414;1.44827;-3.76993;,
 19.64461;1.47442;-3.58245;,
 20.56456;0.83963;0.65499;,
 21.08456;0.99841;0.66873;,
 20.61028;0.16380;0.76323;,
 21.23021;0.03978;0.81871;,
 20.64123;-0.67137;0.67312;,
 21.11938;-0.76492;0.65524;,
 20.60848;-1.54764;0.21826;,
 21.01913;-1.63342;0.20751;,
 20.44453;-2.12966;-0.42402;,
 20.85948;-2.18226;-0.45312;,
 20.19865;-2.45820;-1.38285;,
 20.58773;-2.51216;-1.53232;,
 19.93015;-2.25958;-2.53637;,
 20.29592;-2.32753;-2.60746;,
 20.58773;-2.51216;-1.53232;,
 20.19865;-2.45820;-1.38285;,
 19.80680;-1.91130;-3.08346;,
 20.14784;-1.92523;-3.22882;,
 19.66398;-1.19014;-3.67295;,
 20.04656;-1.19288;-3.80692;,
 19.58665;-0.40732;-3.94925;,
 20.01358;-0.46954;-4.07421;,
 19.56516;0.49639;-3.95400;,
 20.17004;0.46308;-4.16282;,
 21.59459;1.23534;0.76170;,
 21.41003;1.50778;0.55796;,
 22.19227;2.09613;0.42978;,
 22.47091;2.68967;-0.25681;,
 22.74357;3.03109;-0.90062;,
 23.01780;2.81296;-0.10971;,
 23.25937;3.05029;-0.48844;,
 23.42723;3.31094;-1.11092;,
 22.55287;3.16081;-1.98882;,
 23.40247;3.40643;-1.64646;,
 23.24833;3.38815;-2.17729;,
 21.47171;2.65555;-3.10968;,
 22.46088;2.99194;-3.27416;,
 22.03189;2.75280;-3.48032;,
 22.96666;3.27489;-2.73614;,
 21.39202;2.38043;-3.67901;,
 20.68843;1.55679;-4.07103;,
 19.58439;1.00576;-3.80620;,
 23.32262;3.16678;-0.41379;,
 23.57821;3.42796;-1.06385;,
 23.51554;3.53215;-1.58151;,
 23.33087;3.53293;-2.20499;,
 23.07451;3.40518;-2.80387;,
 23.07824;2.90692;0.01000;,
 22.26624;2.22407;0.56686;,
 21.67444;1.32681;0.92960;,
 21.27715;0.09680;0.96734;,
 21.19087;-0.74927;0.82856;,
 21.14652;-1.80255;0.25945;,
 21.96495;-0.12261;0.88591;,
 22.36073;1.08878;1.01380;,
 21.86049;-1.06337;0.65618;,
 22.86156;1.92569;0.84304;,
 23.56264;2.65433;0.35438;,
 23.99460;3.04111;-0.16507;,
 24.27541;3.36698;-0.88076;,
 24.17681;3.53147;-1.66780;,
 23.99445;3.51983;-2.42752;,
 23.66652;3.33707;-3.16134;,
 22.60165;3.16967;-3.29086;,
 23.10175;3.02479;-3.73327;,
 22.14988;2.91735;-3.61088;,
 22.45655;2.64801;-4.06835;,
 21.34516;2.43217;-3.88782;,
 21.69454;1.95174;-4.31529;,
 20.71891;1.65629;-4.21074;,
 21.08931;0.99774;-4.40052;,
 20.21585;0.56297;-4.33052;,
 20.74615;0.07980;-4.34682;,
 20.05335;-0.36243;-4.26444;,
 20.74507;-0.81232;-4.17413;,
 20.10499;-1.25469;-3.97329;,
 20.84247;-1.51152;-3.84107;,
 20.97063;-2.16390;-3.23129;,
 20.21896;-1.99241;-3.39306;,
 20.32543;-2.42912;-2.68451;,
 21.09454;-2.51647;-2.59502;,
 21.30775;-2.66849;-1.79877;,
 20.62343;-2.67026;-1.61401;,
 21.73712;-1.94119;0.05992;,
 20.91304;-2.44048;-0.59634;,
 21.57377;-2.43808;-0.66324;,
 20.62343;-2.67026;-1.61401;,
 21.30775;-2.66849;-1.79877;,
 3.75151;2.16437;-1.73902;,
 3.77465;2.69189;-0.98117;,
 3.71365;1.28103;-2.46602;,
 3.71017;0.59289;-2.70386;,
 3.70665;-1.16287;-2.58179;,
 3.74420;-0.35356;-2.74431;,
 3.74643;-2.24208;-1.90729;,
 3.76065;-2.64208;-1.24836;,
 3.72762;-2.93730;-0.21402;,
 3.73027;-2.89307;1.07322;,
 3.78788;-2.45332;2.04070;,
 3.73027;-2.89307;1.07322;,
 3.77970;-1.89403;2.60863;,
 3.76562;-0.63518;3.20813;,
 3.73090;0.42732;3.28140;,
 3.71935;1.43741;2.95413;,
 3.76624;2.16678;2.32966;,
 3.73541;2.80485;1.10452;,
 3.73636;2.91229;-0.23676;,
 -0.09984;0.58743;-2.68215;,
 -0.09320;1.23583;-2.46430;,
 -0.02608;-0.37402;-2.66302;,
 -0.11516;-1.14801;-2.59607;,
 -0.06057;-2.32175;-1.90698;,
 0.05096;-2.36932;-1.32452;,
 0.07581;-2.51055;-0.25161;,
 0.06440;-2.50024;1.11654;,
 0.13330;-2.13512;1.95139;,
 0.06440;-2.50024;1.11654;,
 0.12266;-1.77267;2.28357;,
 0.08192;-0.55073;2.94416;,
 -0.02237;0.40529;3.14381;,
 -0.07408;1.44907;2.88929;,
 0.03637;1.99937;2.30569;,
 0.02099;2.55582;1.04765;,
 -0.01987;2.74303;-0.38489;,
 0.02798;2.58851;-0.94208;,
 0.00935;2.10170;-1.55508;,
 27.14401;0.46501;-3.54006;,
 27.14401;-0.35670;-3.36540;,
 18.67784;-0.35670;-3.36540;,
 18.67784;0.46503;-3.54006;,
 27.14401;-1.03634;-2.87162;,
 18.67784;-1.03634;-2.87162;,
 27.14401;-1.45636;-2.14410;,
 18.67784;-1.45636;-2.14410;,
 27.14401;-1.54418;-1.30863;,
 18.67784;-1.54415;-1.30863;,
 27.14401;-1.28457;-0.50968;,
 18.67784;-1.28457;-0.50968;,
 27.14401;-0.72247;0.11461;,
 18.67784;-0.72247;0.11461;,
 27.14401;0.04498;0.45630;,
 18.67784;0.04498;0.45630;,
 27.14401;0.88505;0.45630;,
 18.67784;0.88505;0.45630;,
 27.14401;1.65249;0.11461;,
 18.67784;1.65249;0.11461;,
 27.14401;2.21460;-0.50968;,
 18.67784;2.21460;-0.50968;,
 27.14401;2.47418;-1.30863;,
 18.67784;2.47421;-1.30863;,
 27.14401;2.38638;-2.14410;,
 18.67784;2.38638;-2.14410;,
 27.14401;1.96635;-2.87162;,
 18.67784;1.96635;-2.87162;,
 27.14401;1.28672;-3.36540;,
 18.67784;1.28672;-3.36540;,
 27.14401;0.46501;-3.54006;,
 18.67784;0.46503;-3.54006;,
 27.14401;0.46501;-1.51981;,
 27.14401;0.46501;-1.51981;,
 27.14401;0.46501;-1.51981;,
 27.14401;0.46501;-1.51981;,
 27.14401;0.46501;-1.51981;,
 27.14401;0.46501;-1.51981;,
 27.14401;0.46501;-1.51981;,
 27.14401;0.46501;-1.51981;,
 27.14401;0.46501;-1.51981;,
 27.14401;0.46501;-1.51981;,
 27.14401;0.46501;-1.51981;,
 27.14401;0.46501;-1.51981;,
 27.14401;0.46501;-1.51981;,
 27.14401;0.46501;-1.51981;,
 27.14401;0.46501;-1.51981;,
 18.67784;0.46503;-1.51981;,
 18.67784;0.46503;-1.51981;,
 18.67784;0.46503;-1.51981;,
 18.67784;0.46503;-1.51981;,
 18.67784;0.46503;-1.51981;,
 18.67784;0.46503;-1.51981;,
 18.67784;0.46503;-1.51981;,
 18.67784;0.46503;-1.51981;,
 18.67784;0.46503;-1.51981;,
 18.67784;0.46503;-1.51981;,
 18.67784;0.46503;-1.51981;,
 18.67784;0.46503;-1.51981;,
 18.67784;0.46503;-1.51981;,
 18.67784;0.46503;-1.51981;,
 18.67784;0.46503;-1.51981;;
 
 519;
 4;0,1,2,3;,
 4;1,4,5,2;,
 4;6,7,8,9;,
 4;7,10,11,8;,
 4;12,13,14,15;,
 4;16,17,18,19;,
 4;20,21,22,23;,
 4;24,25,26,27;,
 4;28,29,24,27;,
 4;30,31,32,33;,
 4;34,35,36,37;,
 4;38,39,40,41;,
 4;42,43,44,45;,
 4;46,47,48,49;,
 4;20,50,51,52;,
 4;19,53,54,16;,
 4;55,56,57,58;,
 4;59,60,61,62;,
 4;63,64,65,66;,
 4;67,68,69,70;,
 4;71,72,73,74;,
 4;75,76,77,78;,
 4;78,77,79,80;,
 4;47,42,45,48;,
 4;56,59,62,57;,
 4;81,82,36,35;,
 4;83,84,69,68;,
 4;64,67,70,65;,
 4;39,34,37,40;,
 4;50,55,58,51;,
 4;17,46,49,18;,
 4;79,85,86,80;,
 4;85,21,87,86;,
 4;60,63,66,61;,
 4;43,38,41,44;,
 4;87,52,16,54;,
 4;17,16,52,51;,
 4;46,17,51,58;,
 4;47,46,58,57;,
 4;42,47,57,62;,
 4;43,42,62,61;,
 4;38,43,61,66;,
 4;39,38,66,65;,
 4;34,39,65,70;,
 4;35,34,70,69;,
 4;84,81,35,69;,
 4;31,30,74,73;,
 4;29,75,78,24;,
 4;25,24,78,80;,
 4;88,89,75,29;,
 4;90,88,29,28;,
 4;89,91,76,75;,
 4;92,12,15,93;,
 4;94,92,93,95;,
 4;96,94,95,97;,
 4;98,99,96,97;,
 4;100,101,102,103;,
 4;104,105,106,107;,
 4;108,104,107,109;,
 4;110,111,112,113;,
 4;114,113,112,115;,
 4;116,114,115,117;,
 4;118,116,117,119;,
 4;120,118,119,121;,
 4;122,120,121,123;,
 4;124,122,123,125;,
 4;126,127,128,129;,
 4;13,126,129,14;,
 4;21,20,52,87;,
 4;50,20,23,130;,
 4;55,50,130,131;,
 4;56,55,131,132;,
 4;59,56,132,133;,
 4;60,59,133,134;,
 4;63,60,134,135;,
 4;64,63,135,136;,
 4;67,64,136,137;,
 4;68,67,137,138;,
 4;139,83,68,138;,
 4;72,71,140,141;,
 4;142,72,141,143;,
 4;76,144,145,77;,
 4;77,145,146,79;,
 4;85,79,146,147;,
 4;21,85,147,22;,
 4;99,98,102,101;,
 4;142,148,73,72;,
 4;144,76,91,149;,
 4;148,150,31,73;,
 4;150,151,32,31;,
 4;111,110,108,109;,
 4;83,139,140,71;,
 4;84,83,71,74;,
 4;81,84,74,30;,
 4;82,81,30,33;,
 4;152,153,154,155;,
 4;156,157,155,154;,
 4;153,158,159,154;,
 4;157,156,160,161;,
 4;160,156,162,163;,
 4;162,156,154,159;,
 4;158,153,164,165;,
 4;153,152,166,164;,
 4;167,168,166,152;,
 4;169,167,152,155;,
 4;170,169,155,157;,
 4;171,170,157,161;,
 4;172,173,168,167;,
 4;174,172,167,169;,
 4;175,174,169,170;,
 4;176,175,170,171;,
 4;173,172,177,178;,
 4;172,174,179,177;,
 4;174,175,180,179;,
 4;175,176,181,180;,
 4;165,164,182,183;,
 4;166,184,182,164;,
 4;168,185,184,166;,
 4;186,173,178,187;,
 4;173,186,185,168;,
 4;179,188,178,177;,
 4;188,189,187,178;,
 4;180,190,188,179;,
 4;181,191,190,180;,
 4;188,192,193,189;,
 4;192,194,195,193;,
 4;196,197,190,191;,
 4;194,198,199,195;,
 4;200,201,202,203;,
 4;204,205,206,207;,
 4;208,209,210,206;,
 4;211,212,213,214;,
 4;206,205,215,208;,
 4;212,216,217,213;,
 4;209,218,219,210;,
 4;216,220,221,217;,
 4;218,222,223,219;,
 4;220,224,225,221;,
 4;215,226,227,208;,
 4;227,218,209,208;,
 4;227,228,222,218;,
 4;228,227,226,229;,
 4;224,230,231,225;,
 4;232,223,222,233;,
 4;233,222,228,234;,
 4;234,228,229,235;,
 4;234,236,232,233;,
 4;236,234,235,237;,
 4;230,238,239,231;,
 4;240,232,236,241;,
 4;241,236,237,242;,
 4;238,243,244,239;,
 4;245,243,246,247;,
 4;165,183,248,245;,
 4;243,238,240,246;,
 4;247,158,165,245;,
 4;243,245,248,244;,
 4;238,230,232,240;,
 4;230,224,223,232;,
 4;224,220,219,223;,
 4;220,216,210,219;,
 4;216,212,206,210;,
 4;212,211,207,206;,
 4;198,194,201,200;,
 4;197,192,188,190;,
 4;192,197,201,194;,
 4;197,196,202,201;,
 4;249,250,251,252;,
 4;251,253,254,252;,
 4;253,255,256,254;,
 4;255,253,257,258;,
 4;257,253,251,259;,
 4;259,251,250,260;,
 4;261,262,250,249;,
 4;262,263,260,250;,
 4;262,261,264,265;,
 4;265,264,266,267;,
 4;265,268,263,262;,
 4;268,265,267,269;,
 4;267,266,270,271;,
 4;271,272,269,267;,
 4;273,271,270,274;,
 4;271,273,275,272;,
 4;275,273,276,277;,
 4;276,273,274,278;,
 4;237,279,280,242;,
 4;279,237,235,281;,
 4;277,276,282,283;,
 4;278,284,282,276;,
 4;285,280,279,286;,
 4;281,287,286,279;,
 4;229,288,281,235;,
 4;288,289,287,281;,
 4;288,229,226,290;,
 4;215,291,290,226;,
 4;205,292,291,215;,
 4;290,293,289,288;,
 4;293,290,291,294;,
 4;292,295,294,291;,
 4;204,296,292,205;,
 4;296,297,295,292;,
 4;298,203,202,299;,
 4;299,300,301,298;,
 4;196,302,299,202;,
 4;302,303,300,299;,
 4;302,196,191,304;,
 4;304,191,181,305;,
 4;303,302,304,306;,
 4;306,304,305,307;,
 4;305,181,176,308;,
 4;308,176,171,309;,
 4;307,305,308,310;,
 4;307,311,312,306;,
 4;312,313,303,306;,
 4;161,314,309,171;,
 4;314,315,316,309;,
 4;316,310,308,309;,
 4;310,317,311,307;,
 4;317,310,316,318;,
 4;318,316,315,319;,
 4;319,320,321,318;,
 4;321,322,317,318;,
 4;313,312,323,324;,
 4;323,312,311,325;,
 4;322,325,311,317;,
 4;320,326,327,321;,
 4;327,325,322,321;,
 4;326,320,319,328;,
 4;315,329,330,319;,
 4;330,331,328,319;,
 4;160,332,314,161;,
 4;332,329,315,314;,
 4;163,333,332,160;,
 4;333,334,329,332;,
 4;334,335,330,329;,
 4;335,336,331,330;,
 3;331,336,337;,
 4;338,256,255,339;,
 4;339,255,258,340;,
 4;339,341,342,338;,
 4;341,343,344,342;,
 4;343,345,346,344;,
 4;341,339,340,347;,
 4;347,348,343,341;,
 4;348,349,345,343;,
 4;282,284,350,351;,
 4;286,352,353,285;,
 4;352,286,287,354;,
 4;289,355,354,287;,
 3;355,289,356;,
 3;356,289,294;,
 3;289,293,294;,
 4;356,294,295,357;,
 4;356,358,359,355;,
 4;354,355,359,360;,
 4;352,354,360,361;,
 4;353,352,361,362;,
 4;351,363,283,282;,
 4;272,364,268,269;,
 4;364,365,263,268;,
 4;365,259,260,263;,
 4;364,272,275,366;,
 4;366,275,277,367;,
 4;365,364,366,368;,
 4;368,366,367,369;,
 4;367,277,283,370;,
 4;257,259,365,368;,
 4;258,257,368,369;,
 3;340,258,369;,
 4;347,340,369,371;,
 4;371,369,367,370;,
 4;348,347,371,370;,
 4;348,370,283,363;,
 4;349,348,363,372;,
 4;372,363,351,373;,
 4;373,351,350,374;,
 4;375,353,362,376;,
 4;373,345,349,372;,
 4;376,337,336,375;,
 4;345,373,374,346;,
 4;357,377,358,356;,
 4;297,378,357,295;,
 4;378,379,377,357;,
 4;380,301,300,381;,
 4;381,300,303,313;,
 4;381,313,324,382;,
 4;382,383,380,381;,
 4;384,385,386,387;,
 4;386,385,388,389;,
 4;387,390,391,384;,
 4;389,388,392,393;,
 4;394,391,390,395;,
 4;396,394,395,397;,
 4;398,396,397,399;,
 4;400,398,399,401;,
 4;402,400,401,403;,
 4;404,402,403,405;,
 4;406,404,405,407;,
 4;408,406,407,409;,
 4;410,411,412,413;,
 4;414,410,413,415;,
 4;416,414,415,417;,
 4;418,416,417,419;,
 4;393,392,418,419;,
 4;420,421,393,419;,
 4;422,420,419,417;,
 4;423,422,417,415;,
 4;421,424,389,393;,
 4;425,424,426,427;,
 4;425,428,387,386;,
 4;428,429,390,387;,
 4;429,430,395,390;,
 4;430,431,397,395;,
 4;431,432,399,397;,
 4;432,433,401,399;,
 4;433,434,403,401;,
 4;434,435,405,403;,
 4;435,436,407,405;,
 4;436,437,409,407;,
 4;438,439,413,412;,
 4;439,423,415,413;,
 4;440,441,442,443;,
 4;442,441,444,445;,
 4;445,444,446,447;,
 4;447,446,448,449;,
 4;450,440,443,451;,
 4;451,452,453,450;,
 4;454,453,452,455;,
 4;456,454,455,457;,
 4;458,456,457,459;,
 4;460,461,462,463;,
 4;463,464,465,460;,
 4;466,465,464,467;,
 4;467,468,469,466;,
 4;470,469,468,471;,
 4;426,470,471,472;,
 4;449,448,427,473;,
 4;473,427,426,472;,
 4;474,475,476,477;,
 4;475,474,478,479;,
 4;480,477,476,481;,
 4;481,482,483,480;,
 4;479,478,484,485;,
 4;485,484,486,487;,
 4;487,486,488,489;,
 4;489,488,490,491;,
 4;491,490,492,493;,
 4;494,495,493,492;,
 4;496,497,498,499;,
 4;500,501,497,496;,
 4;501,500,502,503;,
 4;504,505,503,502;,
 4;506,507,505,504;,
 4;485,487,508,509;,
 3;509,479,485;,
 4;479,509,508,510;,
 4;475,479,511,512;,
 4;511,479,510,513;,
 3;512,514,515;,
 4;476,475,512,516;,
 4;516,512,515,517;,
 3;516,517,518;,
 4;481,476,516,519;,
 4;519,516,520,521;,
 3;516,522,520;,
 3;522,516,518;,
 4;514,512,511,513;,
 4;481,519,521,523;,
 4;482,481,523,524;,
 3;482,507,483;,
 3;483,507,525;,
 3;507,506,525;,
 3;507,482,524;,
 4;424,425,386,389;,
 4;428,425,427,448;,
 4;429,428,448,446;,
 4;430,429,446,444;,
 4;431,430,444,441;,
 4;432,431,441,440;,
 4;433,432,440,450;,
 4;434,433,450,453;,
 4;435,434,453,454;,
 4;436,435,454,456;,
 4;437,436,456,458;,
 4;439,438,461,460;,
 4;423,439,460,465;,
 4;422,423,465,466;,
 4;420,422,466,469;,
 4;421,420,469,470;,
 4;424,421,470,426;,
 4;514,526,527,515;,
 4;527,528,517,515;,
 4;528,529,518,517;,
 4;529,530,522,518;,
 4;526,514,513,531;,
 4;531,513,510,532;,
 4;532,510,508,533;,
 4;533,508,487,534;,
 4;534,487,489,535;,
 4;535,489,491,536;,
 4;533,534,537,538;,
 4;535,539,537,534;,
 4;532,533,538,540;,
 4;531,532,540,541;,
 4;526,531,541,542;,
 4;527,526,542,543;,
 4;528,527,543,544;,
 4;529,528,544,545;,
 4;530,529,545,546;,
 4;530,547,520,522;,
 4;547,530,546,548;,
 4;547,549,521,520;,
 4;549,547,548,550;,
 4;523,521,549,551;,
 4;551,549,550,552;,
 4;524,523,551,553;,
 4;552,554,553,551;,
 4;507,524,553,555;,
 4;555,553,554,556;,
 4;505,507,555,557;,
 4;557,555,556,558;,
 4;503,505,557,559;,
 4;559,557,558,560;,
 4;560,561,562,559;,
 4;562,501,503,559;,
 4;497,501,562,563;,
 4;563,562,561,564;,
 4;564,565,566,563;,
 4;566,498,497,563;,
 4;536,567,539,535;,
 4;536,491,493,568;,
 4;567,536,568,569;,
 4;568,570,571,569;,
 4;570,568,493,495;,
 4;182,572,573,183;,
 4;184,574,572,182;,
 4;185,575,574,184;,
 4;187,576,577,186;,
 4;186,577,575,185;,
 4;189,578,576,187;,
 4;193,579,578,189;,
 4;195,580,579,193;,
 4;199,581,580,195;,
 4;213,582,583,214;,
 4;217,584,582,213;,
 4;221,585,584,217;,
 4;225,586,585,221;,
 4;231,587,586,225;,
 4;239,588,587,231;,
 4;244,589,588,239;,
 4;183,573,590,248;,
 4;248,590,589,244;,
 4;575,591,592,574;,
 4;577,593,591,575;,
 4;576,594,593,577;,
 4;578,595,594,576;,
 4;579,596,595,578;,
 4;580,597,596,579;,
 4;581,598,597,580;,
 4;582,599,600,583;,
 4;584,601,599,582;,
 4;585,602,601,584;,
 4;586,603,602,585;,
 4;587,604,603,586;,
 4;588,605,604,587;,
 4;589,606,605,588;,
 4;590,607,606,589;,
 4;573,608,607,590;,
 4;572,609,608,573;,
 4;574,592,609,572;,
 4;610,611,612,613;,
 4;611,614,615,612;,
 4;614,616,617,615;,
 4;616,618,619,617;,
 4;618,620,621,619;,
 4;620,622,623,621;,
 4;622,624,625,623;,
 4;624,626,627,625;,
 4;626,628,629,627;,
 4;628,630,631,629;,
 4;630,632,633,631;,
 4;632,634,635,633;,
 4;634,636,637,635;,
 4;636,638,639,637;,
 4;638,640,641,639;,
 3;642,611,610;,
 3;643,614,611;,
 3;644,616,614;,
 3;645,618,616;,
 3;646,620,618;,
 3;647,622,620;,
 3;648,624,622;,
 3;649,626,624;,
 3;650,628,626;,
 3;651,630,628;,
 3;652,632,630;,
 3;653,634,632;,
 3;654,636,634;,
 3;655,638,636;,
 3;656,640,638;,
 3;657,613,612;,
 3;658,612,615;,
 3;659,615,617;,
 3;660,617,619;,
 3;661,619,621;,
 3;662,621,623;,
 3;663,623,625;,
 3;664,625,627;,
 3;665,627,629;,
 3;666,629,631;,
 3;667,631,633;,
 3;668,633,635;,
 3;669,635,637;,
 3;670,637,639;,
 3;671,639,641;,
 4;3,2,1,0;,
 4;2,5,4,1;,
 4;9,8,7,6;,
 4;8,11,10,7;;
 
 MeshMaterialList {
  8;
  519;
  1,
  1,
  1,
  1,
  5,
  5,
  5,
  5,
  5,
  5,
  5,
  5,
  5,
  5,
  5,
  5,
  5,
  5,
  5,
  5,
  5,
  5,
  5,
  5,
  5,
  5,
  5,
  5,
  5,
  5,
  5,
  5,
  5,
  5,
  5,
  5,
  5,
  5,
  5,
  5,
  5,
  5,
  5,
  5,
  5,
  5,
  5,
  5,
  5,
  5,
  5,
  5,
  5,
  5,
  5,
  5,
  5,
  5,
  5,
  5,
  5,
  5,
  5,
  5,
  5,
  5,
  5,
  5,
  5,
  5,
  5,
  5,
  5,
  5,
  5,
  5,
  5,
  5,
  5,
  5,
  5,
  5,
  5,
  5,
  5,
  5,
  5,
  5,
  5,
  5,
  5,
  5,
  5,
  5,
  5,
  2,
  2,
  2,
  2,
  2,
  2,
  2,
  2,
  2,
  2,
  2,
  2,
  2,
  2,
  2,
  2,
  2,
  2,
  2,
  2,
  2,
  2,
  2,
  2,
  2,
  2,
  2,
  2,
  2,
  2,
  2,
  2,
  2,
  2,
  2,
  2,
  2,
  2,
  2,
  2,
  2,
  2,
  2,
  2,
  2,
  2,
  2,
  2,
  2,
  2,
  2,
  2,
  2,
  2,
  2,
  2,
  2,
  2,
  2,
  2,
  2,
  2,
  2,
  2,
  2,
  2,
  2,
  2,
  2,
  2,
  2,
  2,
  2,
  2,
  2,
  2,
  2,
  2,
  2,
  2,
  2,
  2,
  2,
  2,
  2,
  2,
  2,
  2,
  2,
  2,
  2,
  2,
  2,
  2,
  2,
  2,
  2,
  2,
  2,
  2,
  2,
  2,
  2,
  2,
  2,
  2,
  2,
  2,
  2,
  2,
  2,
  2,
  2,
  2,
  2,
  2,
  2,
  2,
  2,
  2,
  2,
  2,
  2,
  2,
  2,
  2,
  2,
  2,
  2,
  2,
  2,
  2,
  2,
  2,
  2,
  2,
  2,
  2,
  2,
  2,
  2,
  2,
  2,
  2,
  2,
  2,
  2,
  2,
  2,
  2,
  2,
  2,
  2,
  2,
  2,
  2,
  2,
  2,
  2,
  2,
  2,
  2,
  2,
  2,
  2,
  2,
  2,
  2,
  2,
  2,
  2,
  2,
  2,
  2,
  2,
  2,
  2,
  2,
  2,
  2,
  2,
  2,
  2,
  2,
  2,
  2,
  2,
  2,
  2,
  2,
  2,
  2,
  7,
  7,
  7,
  7,
  7,
  7,
  7,
  7,
  7,
  7,
  7,
  7,
  7,
  7,
  7,
  7,
  7,
  7,
  7,
  7,
  7,
  7,
  7,
  7,
  7,
  7,
  7,
  7,
  7,
  7,
  7,
  7,
  7,
  7,
  7,
  7,
  7,
  7,
  7,
  7,
  7,
  7,
  7,
  2,
  7,
  7,
  7,
  7,
  7,
  7,
  7,
  2,
  2,
  2,
  2,
  2,
  2,
  2,
  2,
  2,
  2,
  2,
  2,
  2,
  2,
  2,
  2,
  2,
  2,
  2,
  2,
  2,
  2,
  2,
  2,
  2,
  2,
  2,
  2,
  2,
  2,
  2,
  2,
  2,
  2,
  2,
  7,
  7,
  7,
  7,
  7,
  7,
  7,
  7,
  7,
  7,
  7,
  7,
  7,
  7,
  7,
  7,
  2,
  2,
  2,
  2,
  2,
  2,
  2,
  2,
  2,
  2,
  2,
  2,
  2,
  2,
  2,
  2,
  2,
  2,
  2,
  2,
  2,
  2,
  2,
  2,
  2,
  2,
  2,
  2,
  2,
  2,
  2,
  2,
  2,
  2,
  2,
  2,
  2,
  2,
  2,
  2,
  2,
  2,
  2,
  2,
  2,
  2,
  2,
  2,
  2,
  2,
  2,
  2,
  2,
  2,
  2,
  2,
  2,
  2,
  2,
  2,
  2,
  2,
  2,
  2,
  2,
  2,
  2,
  2,
  2,
  2,
  2,
  2,
  2,
  2,
  2,
  2,
  2,
  2,
  2,
  2,
  2,
  0,
  0,
  0,
  0,
  0,
  0,
  0,
  0,
  0,
  0,
  0,
  0,
  0,
  0,
  0,
  0,
  0,
  0,
  0,
  0,
  0,
  0,
  0,
  0,
  0,
  0,
  0,
  0,
  0,
  0,
  7,
  7,
  7,
  7,
  7,
  7,
  7,
  7,
  7,
  7,
  7,
  7,
  7,
  7,
  7,
  1,
  1,
  1,
  1;;
  Material {
   0.765600;0.659200;0.241600;1.000000;;
   5.000000;
   0.000000;0.000000;0.000000;;
   0.000000;0.000000;0.000000;;
  }
  Material {
   0.000000;0.000000;0.000000;1.000000;;
   5.000000;
   0.000000;0.000000;0.000000;;
   0.000000;0.000000;0.000000;;
  }
  Material {
   0.800000;0.800000;0.800000;1.000000;;
   5.000000;
   0.000000;0.000000;0.000000;;
   0.000000;0.000000;0.000000;;
  }
  Material {
   0.800000;0.000000;0.060000;1.000000;;
   5.000000;
   0.000000;0.000000;0.000000;;
   0.000000;0.000000;0.000000;;
  }
  Material {
   0.000000;0.690400;0.251200;1.000000;;
   5.000000;
   0.000000;0.000000;0.000000;;
   0.000000;0.000000;0.000000;;
  }
  Material {
   0.800000;0.768800;0.000000;1.000000;;
   5.000000;
   0.000000;0.000000;0.000000;;
   0.000000;0.000000;0.000000;;
  }
  Material {
   0.000000;0.000000;0.000000;1.000000;;
   5.000000;
   0.000000;0.000000;0.000000;;
   0.000000;0.000000;0.000000;;
  }
  Material {
   0.743200;0.263200;0.094400;1.000000;;
   5.000000;
   0.000000;0.000000;0.000000;;
   0.000000;0.000000;0.000000;;
  }
 }
 MeshNormals {
  561;
  0.000000;0.000000;1.000000;,
  -0.574602;0.504806;-0.644208;,
  -0.570824;0.680499;-0.459435;,
  -0.553465;0.247569;-0.795227;,
  -0.505408;-0.116131;-0.855030;,
  -0.478084;-0.441433;-0.759324;,
  -0.580828;-0.812610;-0.048010;,
  -0.544701;-0.771556;0.328639;,
  -0.563698;-0.671347;-0.481185;,
  -0.557114;-0.783845;-0.274248;,
  -0.538957;-0.588760;-0.602401;,
  -0.447692;-0.503233;0.739141;,
  -0.468682;-0.184412;0.863904;,
  -0.549582;0.142365;0.823220;,
  -0.624654;0.404183;0.668165;,
  -0.590824;0.671371;0.447424;,
  -0.558189;0.813099;0.165210;,
  -0.525759;0.839089;-0.139670;,
  -0.511130;0.802015;-0.309059;,
  -0.528298;0.555917;-0.641761;,
  -0.502006;0.736072;-0.454079;,
  -0.465971;0.772032;-0.432247;,
  -0.499986;0.588811;-0.635071;,
  0.697584;0.429838;-0.573250;,
  0.622967;0.227078;-0.748564;,
  -0.507070;-0.647215;-0.569204;,
  -0.513999;-0.557460;-0.651953;,
  -0.469438;-0.628508;-0.620166;,
  -0.481185;-0.687959;-0.543299;,
  -0.477996;-0.802102;-0.357983;,
  -0.490082;-0.795390;-0.356614;,
  -0.351925;-0.821344;0.448936;,
  -0.425000;-0.897225;0.119845;,
  -0.409048;-0.902516;0.134701;,
  -0.330015;-0.813505;0.478853;,
  -0.234418;-0.137549;0.962356;,
  -0.235701;-0.402761;0.884437;,
  -0.195833;-0.363678;0.910707;,
  -0.172180;-0.138298;0.975309;,
  -0.342564;0.446973;0.826357;,
  -0.275576;0.122659;0.953422;,
  -0.197459;0.124857;0.972328;,
  -0.306735;0.433373;0.847409;,
  -0.518554;0.819039;0.245512;,
  -0.444168;0.708490;0.548413;,
  -0.409634;0.712926;0.569154;,
  -0.435236;0.861597;0.261192;,
  -0.507674;0.842048;-0.182271;,
  -0.530318;0.847345;0.027719;,
  -0.438934;0.898288;0.020383;,
  -0.438959;0.877822;-0.191686;,
  -0.671843;0.589201;-0.448852;,
  -0.606795;0.645721;-0.463513;,
  -0.573581;0.498751;-0.649810;,
  -0.507620;0.494691;-0.705410;,
  -0.546297;0.483874;-0.683686;,
  -0.671924;0.712527;-0.202047;,
  -0.563219;0.826025;-0.021594;,
  -0.590046;0.807342;0.006635;,
  -0.624195;0.758478;-0.187325;,
  -0.509284;0.839138;0.190990;,
  -0.539693;0.711536;0.449942;,
  -0.509590;0.708089;0.488803;,
  -0.554100;0.805606;0.209698;,
  -0.491587;0.470884;0.732537;,
  -0.382766;0.149401;0.911685;,
  -0.367486;0.134533;0.920247;,
  -0.435614;0.466353;0.769906;,
  -0.377128;-0.158500;0.912498;,
  -0.408476;-0.467874;0.783736;,
  -0.343078;-0.455801;0.821305;,
  -0.336624;-0.147504;0.930014;,
  -0.344780;-0.862121;0.371315;,
  -0.377250;-0.924048;0.061787;,
  -0.409336;-0.908562;0.083423;,
  -0.359163;-0.845495;0.395145;,
  -0.502461;-0.772072;-0.389150;,
  -0.502064;-0.754513;-0.422661;,
  -0.591652;-0.520929;-0.615289;,
  -0.562395;-0.563361;-0.605257;,
  -0.665962;-0.299887;-0.683054;,
  -0.631891;-0.362585;-0.685015;,
  -0.278565;-0.645001;0.711600;,
  -0.248492;-0.594120;0.765032;,
  -0.362611;-0.715856;0.596710;,
  -0.334924;-0.704269;0.625964;,
  -0.459953;-0.631797;0.623920;,
  -0.699302;-0.055637;-0.712657;,
  -0.628305;0.337065;-0.701156;,
  -0.470449;-0.872702;-0.130647;,
  -0.458126;-0.875197;-0.155404;,
  -0.453698;-0.880891;-0.134867;,
  -0.428387;-0.884621;-0.184205;,
  0.010890;-0.097957;-0.995131;,
  -0.009968;-0.443013;-0.896460;,
  -0.240480;-0.624290;-0.743257;,
  -0.069582;0.378292;-0.923067;,
  -0.019721;0.333817;-0.942432;,
  -0.050690;0.674613;-0.736429;,
  -0.037971;0.707025;-0.706168;,
  0.024489;0.679086;-0.733650;,
  0.023757;0.395437;-0.918186;,
  -0.161821;0.620870;-0.767030;,
  -0.269878;0.790177;-0.550261;,
  0.053658;0.444555;-0.894143;,
  0.073892;0.718656;-0.691428;,
  0.074166;0.512526;-0.855463;,
  -0.011372;0.535797;-0.844270;,
  -0.181376;0.901451;-0.393051;,
  -0.197910;0.716320;-0.669117;,
  -0.235419;0.437516;-0.867846;,
  -0.060868;0.089705;-0.994107;,
  -0.278077;0.149190;-0.948902;,
  0.046393;0.028569;-0.998515;,
  0.032196;0.034080;-0.998900;,
  0.037087;0.035875;-0.998668;,
  -0.060368;-0.116941;-0.991302;,
  -0.290102;-0.114226;-0.950154;,
  0.056168;-0.138346;-0.988790;,
  0.039627;-0.193316;-0.980336;,
  0.043503;-0.219170;-0.974716;,
  -0.270409;-0.381821;-0.883794;,
  -0.099159;-0.331916;-0.938083;,
  -0.016055;-0.449197;-0.893288;,
  0.043921;-0.577898;-0.814927;,
  0.084761;-0.616427;-0.782836;,
  -0.389758;0.833155;-0.392354;,
  -0.394550;0.676300;-0.622052;,
  -0.375087;0.436765;-0.817647;,
  -0.370330;0.163230;-0.914446;,
  -0.377374;-0.086186;-0.922042;,
  -0.364922;-0.359798;-0.858707;,
  -0.186949;-0.661407;-0.726355;,
  -0.370362;-0.627921;-0.684505;,
  0.029015;-0.786513;-0.616892;,
  0.106649;-0.813674;-0.571455;,
  -0.418594;-0.791816;-0.444754;,
  -0.226965;-0.832933;-0.504687;,
  -0.457480;-0.878463;-0.137893;,
  -0.244586;-0.953272;-0.177342;,
  0.116084;-0.869321;-0.480422;,
  0.029500;-0.863995;-0.502635;,
  -0.452821;-0.865368;0.214687;,
  -0.227394;-0.952940;0.200491;,
  0.065732;-0.989615;0.127830;,
  0.169635;-0.984092;0.052792;,
  0.140975;-0.960238;-0.240977;,
  0.042971;-0.974898;-0.218468;,
  0.067618;-0.887346;0.456120;,
  0.191474;-0.938012;0.288915;,
  0.143606;-0.695518;0.704011;,
  -0.046151;-0.652831;0.756096;,
  -0.017693;-0.604474;0.796429;,
  -0.443937;-0.742480;0.501641;,
  -0.217512;-0.831442;0.511265;,
  0.246597;-0.759234;0.602291;,
  -0.443991;-0.527154;0.724556;,
  -0.220519;-0.597347;0.771069;,
  -0.072958;-0.293270;0.953242;,
  -0.007144;-0.332039;0.943239;,
  -0.430312;-0.216114;0.876428;,
  -0.206714;-0.248814;0.946235;,
  -0.005315;0.102904;0.994677;,
  0.049890;-0.045563;0.997715;,
  -0.401788;0.129559;0.906521;,
  -0.174644;0.125824;0.976559;,
  0.190573;-0.385953;0.902619;,
  0.273803;-0.444182;0.853074;,
  0.185404;-0.197750;0.962559;,
  0.266112;-0.223058;0.937779;,
  -0.382708;0.451239;0.806175;,
  -0.149809;0.460498;0.874928;,
  0.057640;0.421588;0.904954;,
  0.091523;0.182982;0.978847;,
  0.170242;0.138701;0.975592;,
  0.256437;0.142783;0.955957;,
  0.124273;0.473179;0.872157;,
  0.229350;0.483539;0.844742;,
  -0.400195;0.697830;0.594034;,
  -0.182504;0.719127;0.670484;,
  -0.150538;0.528642;0.835390;,
  0.027300;0.349049;0.936707;,
  0.226312;0.333891;0.915041;,
  -0.418177;0.868387;0.266519;,
  -0.213519;0.918433;0.333001;,
  -0.185574;0.980110;-0.070332;,
  -0.285491;0.957628;0.037999;,
  -0.394312;0.792390;0.465443;,
  -0.397707;0.911240;-0.107101;,
  -0.193602;0.635151;-0.747731;,
  -0.460042;0.734777;-0.498462;,
  -0.000593;0.539192;-0.842183;,
  0.072784;0.496999;-0.864693;,
  0.113159;0.868496;-0.482606;,
  0.091798;0.877376;-0.470941;,
  -0.003923;0.914955;-0.403536;,
  -0.147495;0.944726;-0.292811;,
  -0.629452;0.775025;-0.055914;,
  -0.150538;0.988601;0.002558;,
  -0.534250;0.697880;0.477012;,
  -0.275759;0.478395;0.833724;,
  -0.100848;0.916346;0.387478;,
  -0.037727;0.753802;0.656017;,
  0.007623;0.335942;0.941852;,
  0.107690;0.736579;0.667723;,
  0.228139;0.278182;0.933042;,
  0.216145;0.700747;0.679879;,
  0.280749;0.705163;0.651095;,
  0.355059;0.268682;0.895401;,
  0.344891;0.326405;0.880062;,
  0.314359;0.480924;0.818468;,
  0.341692;0.106722;0.933733;,
  0.327750;0.767212;0.551331;,
  0.472100;0.337889;0.814219;,
  0.430214;0.373158;0.821991;,
  0.366540;0.464911;0.805919;,
  0.371704;0.025894;0.927990;,
  0.330064;-0.271580;0.904047;,
  0.301175;-0.355817;0.884697;,
  0.320774;-0.455645;0.830357;,
  0.307953;-0.743707;0.593350;,
  0.261611;-0.926225;0.271416;,
  0.325272;-0.438249;0.837936;,
  0.326776;-0.630813;0.703770;,
  0.318349;-0.889190;0.328626;,
  0.223095;-0.973585;0.048584;,
  0.251067;-0.964349;0.083643;,
  0.180072;-0.956172;-0.230888;,
  0.186838;-0.953762;-0.235434;,
  0.134294;-0.870713;-0.473101;,
  0.122228;-0.837353;-0.532822;,
  0.120429;-0.802710;-0.584083;,
  0.076087;-0.595709;-0.799588;,
  0.115090;-0.731138;-0.672452;,
  0.060267;-0.510558;-0.857729;,
  0.017251;-0.226040;-0.973965;,
  0.020735;0.014999;-0.999672;,
  -0.008544;-0.183952;-0.982898;,
  0.066784;-0.589702;-0.804855;,
  0.031875;-0.348490;-0.936770;,
  0.067469;-0.779991;-0.622143;,
  0.043224;0.446284;-0.893847;,
  -0.008554;-0.004155;-0.999955;,
  0.022422;0.398629;-0.916838;,
  -0.040622;-0.106510;-0.993482;,
  -0.065264;0.001154;-0.997867;,
  -0.020535;0.366693;-0.930115;,
  -0.001294;0.063844;-0.997959;,
  0.003188;0.233558;-0.972338;,
  0.000598;-0.046871;-0.998901;,
  0.024120;-0.751142;-0.659700;,
  0.024829;-0.509084;-0.860359;,
  0.047930;-0.173748;-0.983623;,
  0.090365;0.113845;-0.989380;,
  0.047609;0.319513;-0.946385;,
  -0.012879;0.518059;-0.855248;,
  0.035859;0.755064;-0.654670;,
  0.058759;0.756058;-0.651861;,
  -0.012245;0.808877;-0.587850;,
  0.059945;0.755628;-0.652252;,
  0.067737;0.522398;-0.850007;,
  0.087300;0.525175;-0.846505;,
  0.179192;0.562044;-0.807463;,
  0.350377;0.780942;-0.517074;,
  0.062841;0.966884;-0.247359;,
  0.071721;0.466101;-0.881820;,
  0.103025;0.867422;-0.486790;,
  0.124481;0.462115;-0.878040;,
  0.252442;0.517040;-0.817889;,
  0.577507;0.626085;-0.523930;,
  0.132693;0.899711;-0.415827;,
  0.153574;0.974307;-0.164743;,
  0.243880;0.955243;-0.167433;,
  0.696430;0.492552;0.521898;,
  0.517044;0.567890;0.640442;,
  0.355766;0.438613;0.825257;,
  0.389820;-0.009752;0.920839;,
  0.359666;-0.331490;0.872213;,
  0.340950;-0.580490;0.739448;,
  0.322595;-0.858217;0.399245;,
  0.439094;-0.326181;0.837139;,
  0.388446;-0.607041;0.693261;,
  0.410114;-0.004731;0.912022;,
  0.323409;0.419460;0.848210;,
  -0.267568;0.701327;0.660718;,
  0.305876;0.882424;0.357446;,
  0.125022;0.943508;0.306858;,
  0.088014;0.995958;-0.017947;,
  0.165244;0.937249;0.307017;,
  0.193161;0.933690;0.301516;,
  0.131227;0.990769;-0.034001;,
  0.144847;0.986589;-0.075237;,
  0.194367;0.961002;0.196713;,
  0.149606;0.987871;-0.041572;,
  0.353813;0.928539;0.112392;,
  0.800795;0.598938;-0.000716;,
  0.957038;0.277998;-0.082439;,
  -0.133905;0.930409;0.341187;,
  0.300197;-0.852313;0.428304;,
  0.237854;-0.967623;0.084444;,
  0.213128;-0.974600;0.068781;,
  0.144001;-0.946170;-0.289871;,
  0.102774;-0.939087;-0.327954;,
  -0.626909;0.776622;-0.061993;,
  -0.498878;0.812098;0.302684;,
  -0.420047;0.632015;0.651244;,
  -0.711322;0.616617;-0.337350;,
  -0.380309;0.289188;0.878485;,
  -0.751272;0.452107;-0.480821;,
  -0.790152;0.301141;-0.533830;,
  -0.799003;0.119456;-0.589342;,
  -0.767286;-0.129279;-0.628140;,
  -0.731698;-0.395143;-0.555409;,
  -0.698388;-0.607581;-0.378285;,
  -0.641601;-0.755295;-0.133707;,
  -0.554638;-0.808970;0.194792;,
  -0.467503;-0.716129;0.518266;,
  -0.412150;-0.538488;0.734957;,
  -0.373463;-0.334480;0.865245;,
  -0.356577;-0.062460;0.932176;,
  0.212690;-0.022526;0.976860;,
  0.180929;0.360184;0.915168;,
  0.201631;-0.353654;0.913386;,
  0.169454;-0.638669;0.750591;,
  0.081364;0.743852;0.663373;,
  -0.029887;0.972722;0.230042;,
  0.508555;0.855098;0.100894;,
  0.610051;0.642837;0.463247;,
  -0.114699;0.964030;-0.239772;,
  -0.178014;0.776450;-0.604513;,
  -0.220563;0.561363;-0.797636;,
  -0.252611;0.379220;-0.890157;,
  -0.253468;0.174854;-0.951410;,
  -0.236363;-0.123746;-0.963753;,
  -0.204588;-0.474463;-0.856171;,
  -0.160971;-0.747567;-0.644385;,
  -0.100816;-0.932750;-0.346142;,
  -0.012145;-0.998121;0.060061;,
  0.092780;-0.878533;0.468584;,
  0.462131;0.138633;-0.875908;,
  0.791538;0.085730;-0.605076;,
  0.788662;0.168172;-0.591381;,
  0.458307;0.292284;-0.839360;,
  0.539026;0.351184;-0.765585;,
  0.458881;0.434492;-0.775013;,
  0.762070;0.424219;-0.489170;,
  0.454868;0.641869;-0.617332;,
  0.755392;0.584799;-0.295624;,
  0.457542;0.832498;-0.312413;,
  0.451212;-0.096091;-0.887228;,
  0.777931;-0.062767;-0.625207;,
  0.456060;-0.364125;-0.812048;,
  0.780109;-0.207816;-0.590121;,
  0.485424;-0.583360;-0.651195;,
  0.798645;-0.338185;-0.497792;,
  0.519693;-0.744830;-0.418506;,
  0.812225;-0.456631;-0.363012;,
  0.562617;-0.822409;-0.084296;,
  0.829367;-0.536834;-0.154790;,
  0.623149;-0.737126;0.261403;,
  0.858720;-0.506801;0.075842;,
  0.697009;-0.509097;0.504975;,
  0.916172;-0.323855;0.236109;,
  0.738613;-0.239921;0.629991;,
  0.946786;-0.113015;0.301370;,
  0.747404;0.019176;0.664093;,
  0.947442;0.042109;0.317145;,
  0.708274;0.311639;0.633426;,
  0.920152;0.221027;0.323214;,
  0.858810;0.453015;0.239215;,
  0.796927;0.604017;-0.008374;,
  -0.265812;0.962033;-0.061940;,
  -0.239623;0.930238;0.277919;,
  -0.306940;0.701048;0.643676;,
  -0.332606;0.844255;-0.420245;,
  -0.395178;0.515765;-0.760145;,
  -0.284869;0.362262;0.887477;,
  -0.140630;0.087735;0.986167;,
  -0.336731;-0.308359;0.889678;,
  -0.465581;-0.509326;0.723755;,
  -0.494834;-0.697457;0.518357;,
  -0.128140;-0.986306;0.103832;,
  -0.656484;-0.740925;-0.141630;,
  -0.666031;-0.614091;-0.423431;,
  -0.694352;-0.403651;-0.595769;,
  -0.583632;-0.192549;-0.788859;,
  -0.320445;0.258537;-0.911303;,
  -0.403986;0.454347;0.793955;,
  -0.555721;0.410462;0.722977;,
  -0.600343;0.728652;0.329628;,
  -0.300123;0.912801;0.276985;,
  -0.302641;0.847026;0.436984;,
  -0.577541;0.800874;0.158267;,
  -0.540369;0.822276;0.178505;,
  -0.571921;0.806997;0.147183;,
  -0.329474;0.944039;-0.015408;,
  -0.559114;0.811946;0.167735;,
  -0.577019;0.806925;0.126178;,
  -0.341867;0.907916;-0.242519;,
  -0.512493;0.856506;0.061222;,
  -0.548126;0.826942;0.125400;,
  -0.570471;0.813383;0.113889;,
  -0.602640;0.793972;-0.080206;,
  -0.677598;0.530871;-0.508957;,
  -0.397447;0.890783;0.220324;,
  -0.583974;0.804447;0.108806;,
  -0.411852;0.895639;0.167956;,
  -0.453088;0.888947;0.066962;,
  -0.448514;0.893726;-0.009438;,
  -0.758621;0.630434;-0.164460;,
  -0.775969;0.622998;-0.098717;,
  -0.891010;0.437896;0.119788;,
  -0.943292;0.176836;0.280944;,
  -0.887777;-0.092382;0.450907;,
  -0.407597;-0.569862;0.713528;,
  -0.067878;0.164208;0.984088;,
  0.042522;-0.121707;0.991655;,
  0.085614;-0.372121;0.924227;,
  -0.112762;0.513865;0.850427;,
  -0.059313;0.751846;0.656665;,
  -0.007042;0.879402;0.476028;,
  0.015989;0.954574;0.297546;,
  0.019288;0.995350;0.094370;,
  -0.013600;0.993780;-0.110529;,
  -0.066157;0.952845;-0.296157;,
  -0.456686;0.888694;-0.040761;,
  -0.129366;0.881975;-0.453194;,
  -0.594466;0.700062;0.395630;,
  -0.204533;0.753587;-0.624718;,
  -0.687136;0.654117;0.316190;,
  -0.229692;0.520852;-0.822165;,
  -0.859646;0.484780;0.161238;,
  -0.164989;0.225332;-0.960210;,
  -0.955458;0.291177;-0.048132;,
  -0.078266;-0.024489;-0.996632;,
  -0.976503;0.004832;-0.215450;,
  -0.036711;-0.249975;-0.967556;,
  -0.937301;-0.233912;-0.258363;,
  -0.036544;-0.520298;-0.853202;,
  -0.051936;-0.771077;-0.634620;,
  -0.924225;-0.377696;0.056157;,
  -0.066295;-0.936075;-0.345498;,
  -0.013339;-0.999888;0.006782;,
  0.055068;-0.684537;0.726895;,
  -0.448082;-0.756400;0.476531;,
  0.039028;-0.917437;0.395963;,
  -0.223878;0.875639;-0.427944;,
  -0.220814;0.723025;-0.654580;,
  -0.210244;0.488036;-0.847124;,
  -0.203752;0.174311;-0.963380;,
  -0.204194;-0.070948;-0.976356;,
  -0.198450;-0.350315;-0.915367;,
  -0.209647;-0.726274;-0.654655;,
  -0.246179;-0.908209;-0.338454;,
  -0.286365;-0.951706;-0.110688;,
  -0.290034;-0.930643;0.223123;,
  -0.277343;-0.786008;0.552514;,
  -0.272641;-0.559239;0.782891;,
  -0.258901;-0.264995;0.928842;,
  -0.234356;0.096905;0.967309;,
  -0.219967;0.483195;0.847430;,
  -0.229345;0.772108;0.592663;,
  -0.244119;0.931727;0.268871;,
  -0.233897;0.966991;-0.101094;,
  -0.017310;0.513554;-0.857882;,
  -0.009522;0.168831;-0.985599;,
  -0.011073;-0.065534;-0.997789;,
  -0.001134;-0.336550;-0.941665;,
  -0.005317;-0.783434;-0.621452;,
  -0.053017;-0.964990;-0.256872;,
  -0.101204;-0.990620;-0.091813;,
  -0.103207;-0.969983;0.220183;,
  -0.088603;-0.814282;0.573668;,
  -0.084534;-0.579134;0.810838;,
  -0.069877;-0.300386;0.951255;,
  -0.040983;0.067601;0.996870;,
  -0.024786;0.496120;0.867900;,
  -0.039074;0.808206;0.587602;,
  -0.057810;0.960155;0.273422;,
  -0.045822;0.995090;-0.087734;,
  -0.034141;0.895536;-0.443677;,
  -0.032581;0.745066;-0.666194;,
  1.000000;0.000000;0.000000;,
  0.000000;0.000002;-1.000000;,
  -0.000000;-0.406732;-0.913547;,
  0.000000;-0.743147;-0.669128;,
  -0.000001;-0.951060;-0.309007;,
  -0.000002;-0.994521;0.104532;,
  -0.000001;-0.866028;0.499995;,
  0.000000;-0.587790;0.809014;,
  0.000000;-0.207911;0.978148;,
  0.000000;0.207914;0.978147;,
  0.000000;0.587788;0.809015;,
  0.000001;0.866026;0.499999;,
  0.000002;0.994522;0.104527;,
  0.000001;0.951056;-0.309017;,
  0.000000;0.743146;-0.669129;,
  0.000000;0.406738;-0.913545;,
  -1.000000;0.000000;0.000000;,
  -0.591218;0.474912;-0.651859;,
  -0.645632;0.265737;-0.715921;,
  0.744157;0.536691;-0.397735;,
  0.760090;0.601698;-0.245403;,
  0.731818;0.678773;-0.060905;,
  0.712930;0.689471;0.127909;,
  0.718782;0.590692;0.366653;,
  0.659229;0.414312;0.627505;,
  0.634914;0.158686;0.756111;,
  0.693033;-0.159751;0.702983;,
  0.775268;-0.374290;0.508790;,
  0.800747;-0.499332;0.330866;,
  0.691533;-0.722008;0.022063;,
  0.758147;-0.618854;0.205505;,
  0.624939;-0.745519;-0.231630;,
  0.579123;-0.670374;-0.463913;,
  0.556260;-0.607753;-0.566754;,
  0.502170;-0.546269;-0.670384;,
  0.458838;-0.339763;-0.820992;,
  0.521668;-0.052009;-0.851561;,
  -0.821449;0.440921;-0.361676;,
  0.162179;0.958699;0.233655;,
  -0.853844;0.515657;0.071056;,
  -0.804871;0.568297;0.170942;,
  -0.906774;0.407299;-0.108939;,
  -0.677248;0.194554;0.709567;,
  -0.928832;0.310369;-0.202344;,
  -0.953187;0.199916;-0.226866;,
  -0.961083;0.055477;-0.270631;,
  -0.940499;-0.116745;-0.319111;,
  -0.922615;-0.275654;-0.269807;,
  -0.903477;-0.404548;-0.141665;,
  -0.863647;-0.503694;0.020149;,
  -0.804364;-0.541038;0.245512;,
  -0.751996;-0.475380;0.456636;,
  -0.722983;-0.363177;0.587706;,
  -0.683746;-0.259463;0.682034;,
  -0.657623;-0.080105;0.749076;,
  -0.185630;0.942080;0.279332;,
  -0.236795;0.964498;-0.116930;,
  -0.144809;0.692760;0.706480;,
  -0.256932;0.827476;-0.499269;,
  -0.327867;0.516336;-0.791138;,
  -0.094614;0.303825;0.948018;,
  -0.061989;-0.002976;0.998072;,
  -0.060856;-0.308638;0.949231;,
  -0.079250;-0.607676;0.790221;,
  -0.075871;-0.860673;0.503474;,
  -0.223541;-0.925198;-0.306656;,
  -0.273317;-0.744294;-0.609364;,
  -0.306830;-0.492400;-0.814492;,
  -0.313045;-0.187670;-0.931012;,
  -0.307012;0.125703;-0.943368;,
  -0.217585;0.361083;-0.906794;,
  -0.826745;0.562501;0.009263;,
  -0.942502;0.051112;0.330269;,
  -0.016164;0.832627;0.553598;,
  -0.795968;0.542147;0.269279;,
  -0.977056;0.155966;-0.145040;,
  -0.920106;-0.360448;-0.153240;,
  -0.897191;-0.359205;0.256942;,
  0.000000;0.000000;-1.000000;;
  519;
  4;0,0,0,0;,
  4;0,0,0,0;,
  4;0,0,0,0;,
  4;0,0,0,0;,
  4;1,2,2,1;,
  4;19,20,21,22;,
  4;23,24,24,23;,
  4;25,26,27,28;,
  4;29,30,25,28;,
  4;31,32,33,34;,
  4;35,36,37,38;,
  4;39,40,41,42;,
  4;43,44,45,46;,
  4;47,48,49,50;,
  4;499,51,52,53;,
  4;22,54,55,19;,
  4;56,57,58,59;,
  4;60,61,62,63;,
  4;64,65,66,67;,
  4;68,69,70,71;,
  4;72,73,74,75;,
  4;76,77,78,79;,
  4;79,78,80,81;,
  4;48,43,46,49;,
  4;57,60,63,58;,
  4;82,83,37,36;,
  4;84,85,70,69;,
  4;65,68,71,66;,
  4;40,35,38,41;,
  4;51,56,59,52;,
  4;20,47,50,21;,
  4;80,87,87,81;,
  4;87,500,88,87;,
  4;61,64,67,62;,
  4;44,39,42,45;,
  4;88,53,19,55;,
  4;20,19,53,52;,
  4;47,20,52,59;,
  4;48,47,59,58;,
  4;43,48,58,63;,
  4;44,43,63,62;,
  4;39,44,62,67;,
  4;40,39,67,66;,
  4;35,40,66,71;,
  4;36,35,71,70;,
  4;85,82,36,70;,
  4;32,31,75,74;,
  4;30,76,79,25;,
  4;26,25,79,81;,
  4;89,90,76,30;,
  4;91,89,30,29;,
  4;90,92,77,76;,
  4;3,1,1,3;,
  4;4,3,3,93;,
  4;5,4,93,94;,
  4;95,10,5,94;,
  4;9,8,8,9;,
  4;6,9,9,6;,
  4;7,6,6,7;,
  4;86,86,11,11;,
  4;12,11,11,12;,
  4;13,12,12,13;,
  4;14,13,13,14;,
  4;15,14,14,15;,
  4;16,15,15,16;,
  4;17,16,16,17;,
  4;18,17,17,18;,
  4;2,18,18,2;,
  4;500,499,53,88;,
  4;501,23,23,501;,
  4;502,501,501,502;,
  4;503,502,502,503;,
  4;504,503,503,504;,
  4;505,504,504,505;,
  4;506,505,505,506;,
  4;507,506,506,507;,
  4;508,507,507,508;,
  4;509,508,508,509;,
  4;510,510,509,509;,
  4;511,512,512,511;,
  4;513,511,511,513;,
  4;514,514,515,516;,
  4;516,95,94,517;,
  4;518,517,94,93;,
  4;24,518,93,24;,
  4;10,95,8,8;,
  4;92,90,74,73;,
  4;514,514,513,513;,
  4;90,89,32,74;,
  4;89,91,33,32;,
  4;86,86,7,7;,
  4;510,510,512,512;,
  4;85,84,72,75;,
  4;82,85,75,31;,
  4;83,82,31,34;,
  4;96,99,98,97;,
  4;100,101,97,98;,
  4;99,103,102,98;,
  4;101,100,105,104;,
  4;105,100,107,106;,
  4;107,100,98,102;,
  4;103,99,109,108;,
  4;99,96,110,109;,
  4;111,112,110,96;,
  4;113,111,96,97;,
  4;114,113,97,101;,
  4;115,114,101,104;,
  4;116,117,112,111;,
  4;118,116,111,113;,
  4;119,118,113,114;,
  4;120,119,114,115;,
  4;117,116,122,121;,
  4;116,118,123,122;,
  4;118,119,124,123;,
  4;119,120,125,124;,
  4;108,109,127,126;,
  4;110,128,127,109;,
  4;112,129,128,110;,
  4;130,117,121,131;,
  4;117,130,129,112;,
  4;123,132,121,122;,
  4;132,133,131,121;,
  4;124,134,132,123;,
  4;125,135,134,124;,
  4;132,137,136,133;,
  4;137,139,138,136;,
  4;140,141,134,135;,
  4;139,143,142,138;,
  4;144,147,146,145;,
  4;145,149,148,144;,
  4;150,152,151,148;,
  4;143,154,153,142;,
  4;148,149,155,150;,
  4;154,157,156,153;,
  4;152,159,158,151;,
  4;157,161,160,156;,
  4;159,163,162,158;,
  4;161,165,164,160;,
  4;155,167,166,150;,
  4;166,159,152,150;,
  4;166,168,163,159;,
  4;168,166,167,169;,
  4;165,171,170,164;,
  4;172,162,163,173;,
  4;173,163,168,174;,
  4;174,168,169,175;,
  4;174,176,172,173;,
  4;176,174,175,177;,
  4;171,179,178,170;,
  4;180,172,176,181;,
  4;181,176,177,182;,
  4;179,184,183,178;,
  4;185,184,187,186;,
  4;108,126,188,185;,
  4;184,179,180,187;,
  4;186,103,108,185;,
  4;184,185,188,183;,
  4;179,171,172,180;,
  4;171,165,162,172;,
  4;165,161,158,162;,
  4;161,157,151,158;,
  4;157,154,148,151;,
  4;154,143,144,148;,
  4;143,139,147,144;,
  4;141,137,132,134;,
  4;137,141,147,139;,
  4;141,140,146,147;,
  4;103,190,189,102;,
  4;189,191,107,102;,
  4;191,192,106,107;,
  4;192,191,194,193;,
  4;194,191,189,195;,
  4;195,189,190,196;,
  4;519,197,190,103;,
  4;197,198,196,190;,
  4;197,186,187,199;,
  4;199,187,180,200;,
  4;199,201,198,197;,
  4;201,199,200,202;,
  4;200,180,181,203;,
  4;203,204,202,200;,
  4;205,203,181,182;,
  4;203,205,206,204;,
  4;206,205,208,207;,
  4;208,205,182,209;,
  4;177,210,209,182;,
  4;210,177,175,211;,
  4;207,208,213,212;,
  4;209,214,213,208;,
  4;214,209,210,215;,
  4;211,216,215,210;,
  4;169,217,211,175;,
  4;217,218,216,211;,
  4;217,169,167,219;,
  4;155,220,219,167;,
  4;149,221,220,155;,
  4;219,222,218,217;,
  4;222,219,220,223;,
  4;221,224,223,220;,
  4;145,225,221,149;,
  4;225,226,224,221;,
  4;225,145,146,227;,
  4;227,228,226,225;,
  4;140,229,227,146;,
  4;229,230,228,227;,
  4;229,140,135,231;,
  4;231,135,125,232;,
  4;230,229,231,233;,
  4;233,231,232,234;,
  4;232,125,120,235;,
  4;235,120,115,236;,
  4;234,232,235,237;,
  4;234,239,238,233;,
  4;238,240,230,233;,
  4;104,241,236,115;,
  4;241,243,242,236;,
  4;242,237,235,236;,
  4;237,244,239,234;,
  4;244,237,242,245;,
  4;245,242,243,246;,
  4;246,248,247,245;,
  4;247,249,244,245;,
  4;240,238,251,250;,
  4;251,238,239,252;,
  4;249,252,239,244;,
  4;248,254,253,247;,
  4;253,252,249,247;,
  4;254,248,246,255;,
  4;243,257,256,246;,
  4;256,258,255,246;,
  4;105,259,241,104;,
  4;259,257,243,241;,
  4;106,260,259,105;,
  4;260,261,257,259;,
  4;261,262,256,257;,
  4;262,263,258,256;,
  3;258,263,264;,
  4;260,106,192,265;,
  4;265,192,193,266;,
  4;265,267,261,260;,
  4;267,268,262,261;,
  4;268,269,263,262;,
  4;267,265,266,270;,
  4;270,271,268,267;,
  4;271,272,269,268;,
  4;213,214,274,273;,
  4;215,275,274,214;,
  4;275,215,216,276;,
  4;218,277,276,216;,
  3;277,218,278;,
  3;278,218,223;,
  3;218,222,223;,
  4;278,223,224,279;,
  4;278,281,280,277;,
  4;276,277,280,282;,
  4;275,276,282,283;,
  4;274,275,283,284;,
  4;273,285,212,213;,
  4;204,286,201,202;,
  4;286,287,198,201;,
  4;287,195,196,198;,
  4;286,204,206,288;,
  4;288,206,207,289;,
  4;287,286,288,290;,
  4;290,288,289,291;,
  4;289,207,212,292;,
  4;194,195,287,290;,
  4;193,194,290,291;,
  3;266,193,291;,
  4;270,266,291,293;,
  4;293,291,289,292;,
  4;271,270,293,292;,
  4;271,292,212,285;,
  4;272,271,285,294;,
  4;294,285,273,295;,
  4;295,273,274,296;,
  4;520,274,284,297;,
  4;295,269,272,294;,
  4;297,264,263,520;,
  4;269,295,296,263;,
  4;279,298,281,278;,
  4;226,299,279,224;,
  4;299,300,298,279;,
  4;299,226,228,301;,
  4;301,228,230,240;,
  4;301,240,250,302;,
  4;302,300,299,301;,
  4;521,522,304,303;,
  4;304,297,284,305;,
  4;303,306,523,521;,
  4;305,284,524,307;,
  4;525,523,306,308;,
  4;526,525,308,309;,
  4;527,526,309,310;,
  4;528,527,310,311;,
  4;529,528,311,312;,
  4;530,529,312,313;,
  4;531,530,313,314;,
  4;532,531,314,315;,
  4;533,532,315,316;,
  4;534,533,316,317;,
  4;535,534,317,318;,
  4;536,535,318,319;,
  4;307,524,536,319;,
  4;320,321,307,319;,
  4;322,320,319,318;,
  4;323,322,318,317;,
  4;321,324,305,307;,
  4;325,324,327,326;,
  4;325,328,303,304;,
  4;328,329,306,303;,
  4;329,330,308,306;,
  4;330,331,309,308;,
  4;331,332,310,309;,
  4;332,333,311,310;,
  4;333,334,312,311;,
  4;334,335,313,312;,
  4;335,336,314,313;,
  4;336,337,315,314;,
  4;337,338,316,315;,
  4;338,323,317,316;,
  4;339,342,341,340;,
  4;341,342,344,343;,
  4;343,344,346,345;,
  4;345,346,348,347;,
  4;349,339,340,350;,
  4;350,352,351,349;,
  4;353,351,352,354;,
  4;355,353,354,356;,
  4;357,355,356,358;,
  4;359,357,358,360;,
  4;360,362,361,359;,
  4;363,361,362,364;,
  4;364,366,365,363;,
  4;367,365,366,368;,
  4;327,367,368,369;,
  4;347,348,326,370;,
  4;370,326,327,369;,
  4;537,372,371,538;,
  4;372,537,539,373;,
  4;540,538,371,374;,
  4;374,375,541,540;,
  4;373,539,542,376;,
  4;376,542,543,377;,
  4;377,543,544,378;,
  4;378,544,545,379;,
  4;379,545,546,380;,
  4;381,381,380,546;,
  4;547,382,381,381;,
  4;548,383,382,547;,
  4;383,548,549,384;,
  4;550,385,384,549;,
  4;551,386,385,550;,
  4;376,377,388,387;,
  3;387,373,376;,
  4;373,387,388,389;,
  4;372,373,391,390;,
  4;391,373,389,392;,
  3;390,394,393;,
  4;371,372,390,395;,
  4;395,390,393,396;,
  3;395,396,397;,
  4;374,371,395,398;,
  4;398,395,400,399;,
  3;395,401,400;,
  3;401,395,397;,
  4;394,390,391,392;,
  4;374,398,399,402;,
  4;375,374,402,403;,
  3;375,386,541;,
  3;343,386,552;,
  3;386,551,552;,
  3;386,375,403;,
  4;324,325,304,305;,
  4;328,325,326,348;,
  4;329,328,348,346;,
  4;330,329,346,344;,
  4;331,330,344,342;,
  4;332,331,342,339;,
  4;333,332,339,349;,
  4;334,333,349,351;,
  4;335,334,351,353;,
  4;336,335,353,355;,
  4;337,336,355,357;,
  4;338,337,357,359;,
  4;323,338,359,361;,
  4;322,323,361,363;,
  4;320,322,363,365;,
  4;321,320,365,367;,
  4;324,321,367,327;,
  4;394,405,404,393;,
  4;404,406,396,393;,
  4;406,407,397,396;,
  4;407,408,401,397;,
  4;405,394,392,409;,
  4;409,392,389,410;,
  4;410,389,553,411;,
  4;411,388,412,412;,
  4;412,412,554,413;,
  4;413,378,379,414;,
  4;415,416,416,415;,
  4;417,417,416,416;,
  4;418,415,415,418;,
  4;419,418,418,419;,
  4;555,419,419,420;,
  4;404,405,420,421;,
  4;406,404,421,422;,
  4;407,406,422,423;,
  4;408,407,423,424;,
  4;408,425,400,401;,
  4;425,408,424,426;,
  4;425,427,399,400;,
  4;428,425,426,428;,
  4;402,399,427,429;,
  4;430,428,428,430;,
  4;556,402,429,431;,
  4;430,432,432,430;,
  4;433,403,431,433;,
  4;434,432,432,434;,
  4;557,433,433,435;,
  4;436,434,434,436;,
  4;384,385,435,437;,
  4;438,436,436,438;,
  4;438,439,439,438;,
  4;558,383,384,437;,
  4;382,383,558,440;,
  4;441,439,439,441;,
  4;441,442,442,441;,
  4;559,559,382,440;,
  4;414,443,417,417;,
  4;414,379,380,444;,
  4;443,414,444,445;,
  4;444,442,442,445;,
  4;559,444,380,559;,
  4;127,447,446,126;,
  4;128,448,447,127;,
  4;129,449,448,128;,
  4;131,451,450,130;,
  4;130,450,449,129;,
  4;133,452,451,131;,
  4;136,453,452,133;,
  4;138,454,453,136;,
  4;142,455,454,138;,
  4;153,456,455,142;,
  4;156,457,456,153;,
  4;160,458,457,156;,
  4;164,459,458,160;,
  4;170,460,459,164;,
  4;178,461,460,170;,
  4;183,462,461,178;,
  4;126,446,463,188;,
  4;188,463,462,183;,
  4;449,465,464,448;,
  4;450,466,465,449;,
  4;451,467,466,450;,
  4;452,468,467,451;,
  4;453,469,468,452;,
  4;454,470,469,453;,
  4;455,471,470,454;,
  4;456,472,471,455;,
  4;457,473,472,456;,
  4;458,474,473,457;,
  4;459,475,474,458;,
  4;460,476,475,459;,
  4;461,477,476,460;,
  4;462,478,477,461;,
  4;463,479,478,462;,
  4;446,480,479,463;,
  4;447,481,480,446;,
  4;448,464,481,447;,
  4;483,484,484,483;,
  4;484,485,485,484;,
  4;485,486,486,485;,
  4;486,487,487,486;,
  4;487,488,488,487;,
  4;488,489,489,488;,
  4;489,490,490,489;,
  4;490,491,491,490;,
  4;491,492,492,491;,
  4;492,493,493,492;,
  4;493,494,494,493;,
  4;494,495,495,494;,
  4;495,496,496,495;,
  4;496,497,497,496;,
  4;497,483,483,497;,
  3;482,482,482;,
  3;482,482,482;,
  3;482,482,482;,
  3;482,482,482;,
  3;482,482,482;,
  3;482,482,482;,
  3;482,482,482;,
  3;482,482,482;,
  3;482,482,482;,
  3;482,482,482;,
  3;482,482,482;,
  3;482,482,482;,
  3;482,482,482;,
  3;482,482,482;,
  3;482,482,482;,
  3;498,498,498;,
  3;498,498,498;,
  3;498,498,498;,
  3;498,498,498;,
  3;498,498,498;,
  3;498,498,498;,
  3;498,498,498;,
  3;498,498,498;,
  3;498,498,498;,
  3;498,498,498;,
  3;498,498,498;,
  3;498,498,498;,
  3;498,498,498;,
  3;498,498,498;,
  3;498,498,498;,
  4;560,560,560,560;,
  4;560,560,560,560;,
  4;560,560,560,560;,
  4;560,560,560,560;;
 }
 MeshTextureCoords {
  672;
  0.038200;0.861880;,
  0.038200;0.917210;,
  0.044430;0.917200;,
  0.043730;0.861920;,
  0.038200;0.972530;,
  0.045120;0.972490;,
  0.075060;0.854670;,
  0.075060;0.909960;,
  0.081210;0.909870;,
  0.080450;0.854550;,
  0.075060;0.965240;,
  0.081980;0.965200;,
  0.893480;0.417820;,
  0.891190;0.434560;,
  0.898820;0.432490;,
  0.900010;0.421920;,
  0.156500;0.517010;,
  0.147830;0.529300;,
  0.161540;0.533450;,
  0.171880;0.520040;,
  0.123340;0.504090;,
  0.126520;0.492470;,
  0.121410;0.493480;,
  0.120490;0.501540;,
  0.165740;0.463370;,
  0.159600;0.476450;,
  0.179190;0.470410;,
  0.175160;0.454100;,
  0.167770;0.440860;,
  0.156740;0.442790;,
  0.047320;0.614080;,
  0.028330;0.619520;,
  0.028500;0.628220;,
  0.050300;0.624950;,
  0.081490;0.598230;,
  0.067480;0.604750;,
  0.076560;0.617730;,
  0.091630;0.609970;,
  0.107050;0.583410;,
  0.094700;0.591040;,
  0.106500;0.600420;,
  0.118040;0.590240;,
  0.123510;0.556470;,
  0.117480;0.567680;,
  0.126940;0.576740;,
  0.133500;0.563340;,
  0.137360;0.538610;,
  0.130520;0.547280;,
  0.141380;0.552020;,
  0.149310;0.544290;,
  0.120430;0.510420;,
  0.129400;0.519210;,
  0.132970;0.510740;,
  0.177170;0.510910;,
  0.164090;0.505380;,
  0.116340;0.518690;,
  0.109470;0.528020;,
  0.116610;0.536430;,
  0.125110;0.523910;,
  0.102420;0.535050;,
  0.092180;0.544880;,
  0.101350;0.559010;,
  0.110680;0.544860;,
  0.082220;0.553200;,
  0.073160;0.559950;,
  0.082220;0.571930;,
  0.095790;0.561770;,
  0.059910;0.567700;,
  0.048130;0.573440;,
  0.057190;0.586130;,
  0.070310;0.580880;,
  0.035330;0.577860;,
  0.023730;0.582790;,
  0.027390;0.597880;,
  0.040870;0.594190;,
  0.139060;0.452460;,
  0.124860;0.458880;,
  0.127450;0.470260;,
  0.143750;0.472380;,
  0.128070;0.477780;,
  0.147240;0.482010;,
  0.060570;0.607730;,
  0.066880;0.620650;,
  0.042520;0.575460;,
  0.051430;0.588530;,
  0.127110;0.485850;,
  0.144000;0.487170;,
  0.144970;0.492950;,
  0.151580;0.431230;,
  0.133370;0.437620;,
  0.159940;0.428460;,
  0.121420;0.445370;,
  0.897080;0.401530;,
  0.902300;0.407370;,
  0.902000;0.386900;,
  0.907090;0.392740;,
  0.908920;0.370460;,
  0.914690;0.375030;,
  0.919350;0.367690;,
  0.916070;0.359370;,
  0.936380;0.328820;,
  0.924120;0.348620;,
  0.928740;0.354840;,
  0.944470;0.329750;,
  0.779960;0.507180;,
  0.800790;0.505560;,
  0.796690;0.497950;,
  0.777300;0.501520;,
  0.755100;0.512910;,
  0.754750;0.507190;,
  0.740170;0.513860;,
  0.740320;0.507670;,
  0.730110;0.508400;,
  0.729160;0.515220;,
  0.706230;0.517980;,
  0.706360;0.511720;,
  0.679110;0.519230;,
  0.679040;0.512360;,
  0.660260;0.519410;,
  0.659990;0.512910;,
  0.636400;0.517170;,
  0.636750;0.510580;,
  0.614910;0.515730;,
  0.610450;0.509150;,
  0.590690;0.514870;,
  0.592310;0.506710;,
  0.889320;0.452140;,
  0.887750;0.466100;,
  0.895110;0.468610;,
  0.896850;0.452420;,
  0.118460;0.506820;,
  0.113920;0.517150;,
  0.108350;0.524690;,
  0.100530;0.531400;,
  0.089840;0.541510;,
  0.078980;0.549430;,
  0.070370;0.556520;,
  0.056390;0.563390;,
  0.044640;0.569110;,
  0.039500;0.570930;,
  0.032220;0.572250;,
  0.022060;0.577790;,
  0.014200;0.585850;,
  0.012930;0.581840;,
  0.121630;0.460760;,
  0.123370;0.469530;,
  0.123660;0.474440;,
  0.123030;0.485110;,
  0.019350;0.600220;,
  0.117440;0.445340;,
  0.018350;0.620780;,
  0.017600;0.630100;,
  0.646920;0.791890;,
  0.639330;0.817960;,
  0.652590;0.814130;,
  0.658020;0.796240;,
  0.668690;0.815740;,
  0.680550;0.800860;,
  0.649520;0.834910;,
  0.662770;0.827000;,
  0.708000;0.814030;,
  0.708780;0.804220;,
  0.672260;0.824080;,
  0.701550;0.823680;,
  0.629200;0.819190;,
  0.629310;0.832680;,
  0.628970;0.803760;,
  0.641670;0.786840;,
  0.629940;0.785670;,
  0.658390;0.785350;,
  0.686490;0.787260;,
  0.711750;0.788690;,
  0.641110;0.774240;,
  0.630200;0.777350;,
  0.659360;0.771480;,
  0.688830;0.768560;,
  0.713900;0.771530;,
  0.645580;0.765440;,
  0.629920;0.765470;,
  0.660000;0.755490;,
  0.690130;0.751560;,
  0.716010;0.753250;,
  0.618230;0.818270;,
  0.619030;0.832090;,
  0.617870;0.802530;,
  0.617610;0.792040;,
  0.617250;0.778470;,
  0.615970;0.766350;,
  0.631660;0.748090;,
  0.614960;0.748350;,
  0.669050;0.742520;,
  0.716310;0.743260;,
  0.626230;0.734700;,
  0.614150;0.735670;,
  0.623040;0.718890;,
  0.613260;0.719940;,
  0.715700;0.733220;,
  0.668580;0.733280;,
  0.623530;0.699190;,
  0.612410;0.701080;,
  0.665520;0.699180;,
  0.667760;0.719020;,
  0.714730;0.722620;,
  0.713120;0.709110;,
  0.714950;0.982100;,
  0.717130;0.967880;,
  0.674150;0.968490;,
  0.667810;0.983660;,
  0.684380;0.955340;,
  0.653580;0.945240;,
  0.645470;0.952010;,
  0.627540;0.977770;,
  0.625230;0.962770;,
  0.615380;0.957490;,
  0.616770;0.973900;,
  0.717710;0.955510;,
  0.623760;0.947540;,
  0.615030;0.945030;,
  0.646260;0.932860;,
  0.635000;0.931220;,
  0.624250;0.928260;,
  0.615150;0.925740;,
  0.650920;0.921630;,
  0.639020;0.916000;,
  0.624100;0.912610;,
  0.615080;0.910280;,
  0.715560;0.939690;,
  0.687540;0.941220;,
  0.681680;0.925940;,
  0.709680;0.924460;,
  0.624830;0.896830;,
  0.615540;0.895380;,
  0.647830;0.900830;,
  0.669570;0.914020;,
  0.680710;0.914060;,
  0.706570;0.911150;,
  0.673820;0.902250;,
  0.701360;0.899670;,
  0.626910;0.882310;,
  0.617220;0.881050;,
  0.650790;0.881330;,
  0.667590;0.891330;,
  0.696580;0.893710;,
  0.627580;0.864850;,
  0.618540;0.861770;,
  0.628700;0.846340;,
  0.644410;0.871080;,
  0.642870;0.852760;,
  0.619010;0.843810;,
  0.197690;0.033640;,
  0.204250;0.043000;,
  0.220080;0.030000;,
  0.214260;0.020430;,
  0.235510;0.024750;,
  0.226660;0.015160;,
  0.265080;0.027480;,
  0.262690;0.014810;,
  0.241360;0.035790;,
  0.263940;0.036710;,
  0.227650;0.035790;,
  0.212360;0.047810;,
  0.190460;0.057390;,
  0.200460;0.054320;,
  0.207080;0.059930;,
  0.190410;0.082010;,
  0.198610;0.078240;,
  0.197120;0.097800;,
  0.204060;0.092190;,
  0.206490;0.077410;,
  0.215280;0.088730;,
  0.217770;0.112950;,
  0.222250;0.101890;,
  0.224890;0.093230;,
  0.254990;0.104890;,
  0.254800;0.115910;,
  0.254760;0.094750;,
  0.285010;0.099560;,
  0.282620;0.090210;,
  0.287070;0.109390;,
  0.730440;0.897520;,
  0.724140;0.890610;,
  0.734720;0.908820;,
  0.314190;0.086350;,
  0.308430;0.080740;,
  0.319830;0.095530;,
  0.756450;0.884230;,
  0.762920;0.893850;,
  0.763200;0.911590;,
  0.736380;0.923100;,
  0.761640;0.924990;,
  0.737120;0.939830;,
  0.739370;0.952210;,
  0.738540;0.966330;,
  0.761380;0.933500;,
  0.765580;0.940930;,
  0.768530;0.953830;,
  0.736330;0.975730;,
  0.765790;0.964990;,
  0.735670;0.712500;,
  0.737360;0.725980;,
  0.764530;0.732120;,
  0.767250;0.719680;,
  0.738020;0.734980;,
  0.758650;0.744990;,
  0.737150;0.745760;,
  0.736450;0.758260;,
  0.753140;0.754770;,
  0.746850;0.762970;,
  0.729360;0.773350;,
  0.725790;0.786930;,
  0.741290;0.775630;,
  0.765880;0.779440;,
  0.773850;0.770400;,
  0.775520;0.758240;,
  0.726230;0.805800;,
  0.743410;0.806730;,
  0.741030;0.787900;,
  0.756400;0.783920;,
  0.755060;0.789970;,
  0.757050;0.802120;,
  0.770390;0.798080;,
  0.770900;0.793860;,
  0.772500;0.788330;,
  0.785820;0.773800;,
  0.788350;0.760910;,
  0.784120;0.783910;,
  0.783050;0.805950;,
  0.783210;0.797240;,
  0.783270;0.812430;,
  0.751990;0.822550;,
  0.764960;0.824890;,
  0.784440;0.820830;,
  0.728830;0.818420;,
  0.725940;0.827000;,
  0.749440;0.832070;,
  0.763620;0.836470;,
  0.775660;0.842990;,
  0.786360;0.841100;,
  0.290680;0.020430;,
  0.286400;0.030010;,
  0.285360;0.038260;,
  0.307710;0.037840;,
  0.314670;0.030070;,
  0.320550;0.043800;,
  0.327560;0.038790;,
  0.325890;0.051270;,
  0.335910;0.049990;,
  0.303810;0.043430;,
  0.315680;0.050540;,
  0.321070;0.055170;,
  0.335400;0.082570;,
  0.327490;0.074190;,
  0.776950;0.891970;,
  0.774560;0.877330;,
  0.772170;0.915030;,
  0.773940;0.923310;,
  0.772140;0.934380;,
  0.777850;0.949140;,
  0.791290;0.931090;,
  0.789420;0.920990;,
  0.787610;0.911580;,
  0.786590;0.897680;,
  0.786990;0.878360;,
  0.320250;0.071920;,
  0.224230;0.074470;,
  0.229410;0.050300;,
  0.251220;0.075000;,
  0.280120;0.072700;,
  0.250590;0.053990;,
  0.274690;0.054550;,
  0.298290;0.070110;,
  0.296330;0.055240;,
  0.322540;0.063910;,
  0.328100;0.064500;,
  0.336810;0.066430;,
  0.777860;0.860920;,
  0.787020;0.863120;,
  0.793390;0.943970;,
  0.780240;0.962570;,
  0.796990;0.959730;,
  0.780690;0.726290;,
  0.778340;0.738860;,
  0.791280;0.748550;,
  0.796230;0.734030;,
  0.667960;0.645070;,
  0.686150;0.645030;,
  0.682840;0.638650;,
  0.666920;0.639160;,
  0.698880;0.645500;,
  0.701120;0.639730;,
  0.651500;0.640510;,
  0.649930;0.645650;,
  0.716310;0.647240;,
  0.715850;0.640800;,
  0.641930;0.646750;,
  0.641760;0.641440;,
  0.635700;0.646920;,
  0.635940;0.642360;,
  0.627560;0.646730;,
  0.629810;0.642620;,
  0.615340;0.647080;,
  0.618350;0.641850;,
  0.605820;0.646840;,
  0.604690;0.641640;,
  0.593460;0.647370;,
  0.593730;0.641880;,
  0.581290;0.647870;,
  0.581230;0.642400;,
  0.566790;0.649280;,
  0.565960;0.643730;,
  0.763560;0.648120;,
  0.780190;0.649350;,
  0.782680;0.643810;,
  0.764350;0.641730;,
  0.750150;0.647510;,
  0.752520;0.641420;,
  0.739540;0.647370;,
  0.741030;0.640940;,
  0.729980;0.647350;,
  0.729390;0.641320;,
  0.729560;0.635930;,
  0.715880;0.635620;,
  0.740800;0.635820;,
  0.752110;0.636060;,
  0.700510;0.635030;,
  0.683080;0.634260;,
  0.700360;0.628840;,
  0.683460;0.627890;,
  0.666430;0.634830;,
  0.651430;0.634900;,
  0.641830;0.635560;,
  0.635700;0.636300;,
  0.629360;0.636320;,
  0.617930;0.636140;,
  0.604520;0.636330;,
  0.593520;0.636390;,
  0.581590;0.636880;,
  0.565360;0.637780;,
  0.783550;0.637660;,
  0.764900;0.636600;,
  0.628930;0.627080;,
  0.635400;0.627500;,
  0.635500;0.621470;,
  0.627690;0.621880;,
  0.641870;0.626960;,
  0.643270;0.621550;,
  0.651380;0.626690;,
  0.654280;0.621300;,
  0.667780;0.627490;,
  0.668390;0.621170;,
  0.617290;0.627840;,
  0.614960;0.622240;,
  0.603250;0.622590;,
  0.604150;0.628710;,
  0.593340;0.628460;,
  0.590310;0.623120;,
  0.582420;0.628910;,
  0.581090;0.623670;,
  0.565810;0.629010;,
  0.564620;0.622830;,
  0.765440;0.629100;,
  0.783430;0.628510;,
  0.779440;0.623290;,
  0.764910;0.623610;,
  0.752540;0.622730;,
  0.751430;0.628340;,
  0.740360;0.628430;,
  0.738700;0.622780;,
  0.726920;0.622710;,
  0.729790;0.628130;,
  0.715940;0.628020;,
  0.717530;0.622890;,
  0.702280;0.622990;,
  0.684350;0.621420;,
  0.917850;0.628030;,
  0.920040;0.613960;,
  0.908770;0.613690;,
  0.903810;0.628410;,
  0.933960;0.630680;,
  0.937270;0.617780;,
  0.891750;0.630240;,
  0.894470;0.619160;,
  0.880080;0.628310;,
  0.882870;0.633210;,
  0.946880;0.635780;,
  0.948770;0.629170;,
  0.953980;0.640000;,
  0.959910;0.634860;,
  0.961740;0.646290;,
  0.966630;0.642910;,
  0.969450;0.655300;,
  0.973870;0.652860;,
  0.973960;0.665000;,
  0.978700;0.662680;,
  0.977220;0.676990;,
  0.982070;0.676490;,
  0.840860;0.664910;,
  0.836890;0.662660;,
  0.829470;0.674370;,
  0.833530;0.677420;,
  0.845820;0.658810;,
  0.842780;0.655430;,
  0.853900;0.650680;,
  0.850800;0.646880;,
  0.861850;0.644230;,
  0.857990;0.640090;,
  0.871320;0.638480;,
  0.866840;0.631620;,
  0.950170;0.622050;,
  0.945300;0.622230;,
  0.943110;0.609770;,
  0.933390;0.602720;,
  0.925520;0.597040;,
  0.936180;0.596100;,
  0.931680;0.591730;,
  0.924310;0.587480;,
  0.911780;0.596510;,
  0.917740;0.586410;,
  0.911060;0.587190;,
  0.895090;0.608310;,
  0.895840;0.595210;,
  0.891910;0.600550;,
  0.903660;0.589490;,
  0.887010;0.608800;,
  0.877140;0.619680;,
  0.877090;0.635700;,
  0.932710;0.590170;,
  0.925090;0.585140;,
  0.918660;0.584390;,
  0.910880;0.585140;,
  0.903110;0.587300;,
  0.937740;0.594740;,
  0.944740;0.607720;,
  0.951630;0.619830;,
  0.960790;0.632970;,
  0.967640;0.640910;,
  0.976490;0.652420;,
  0.968920;0.628370;,
  0.959320;0.613980;,
  0.976920;0.638480;,
  0.952300;0.602570;,
  0.944580;0.590420;,
  0.938150;0.582980;,
  0.929380;0.577260;,
  0.919320;0.576250;,
  0.909530;0.576670;,
  0.899610;0.579440;,
  0.895930;0.592400;,
  0.890760;0.585630;,
  0.890700;0.597760;,
  0.884070;0.593650;,
  0.884420;0.607890;,
  0.875750;0.604600;,
  0.876110;0.617600;,
  0.866020;0.616220;,
  0.866200;0.629110;,
  0.857040;0.626590;,
  0.857870;0.637290;,
  0.847440;0.634800;,
  0.849370;0.645060;,
  0.839650;0.642140;,
  0.832020;0.651230;,
  0.841620;0.653370;,
  0.835820;0.661500;,
  0.826610;0.659110;,
  0.820650;0.667810;,
  0.828000;0.672860;,
  0.984400;0.650330;,
  0.981910;0.664570;,
  0.989090;0.661010;,
  0.984180;0.677410;,
  0.993090;0.675450;,
  0.596100;0.819810;,
  0.596630;0.832500;,
  0.595090;0.803910;,
  0.594580;0.793880;,
  0.592910;0.769340;,
  0.594230;0.780710;,
  0.591960;0.751410;,
  0.591140;0.740670;,
  0.589640;0.726100;,
  0.589680;0.709240;,
  0.592970;0.952860;,
  0.593890;0.966080;,
  0.592990;0.942330;,
  0.593790;0.923480;,
  0.593930;0.908760;,
  0.594450;0.893960;,
  0.595970;0.880700;,
  0.596850;0.861570;,
  0.596620;0.843070;,
  0.549010;0.800270;,
  0.549960;0.809670;,
  0.548860;0.787200;,
  0.546500;0.776750;,
  0.545180;0.758650;,
  0.545640;0.750560;,
  0.543780;0.736040;,
  0.540240;0.717760;,
  0.549630;0.942520;,
  0.546440;0.954220;,
  0.550510;0.936060;,
  0.552120;0.918150;,
  0.551850;0.905320;,
  0.551990;0.891350;,
  0.553940;0.880830;,
  0.554040;0.863190;,
  0.553120;0.844680;,
  0.553350;0.836670;,
  0.552440;0.826070;,
  0.000000;0.000000;,
  0.066670;0.000000;,
  0.066670;1.000000;,
  0.000000;1.000000;,
  0.133330;0.000000;,
  0.133330;1.000000;,
  0.200000;0.000000;,
  0.200000;1.000000;,
  0.266670;0.000000;,
  0.266670;1.000000;,
  0.333330;0.000000;,
  0.333330;1.000000;,
  0.400000;0.000000;,
  0.400000;1.000000;,
  0.466670;0.000000;,
  0.466670;1.000000;,
  0.533330;0.000000;,
  0.533330;1.000000;,
  0.600000;0.000000;,
  0.600000;1.000000;,
  0.666670;0.000000;,
  0.666670;1.000000;,
  0.733330;0.000000;,
  0.733330;1.000000;,
  0.800000;0.000000;,
  0.800000;1.000000;,
  0.866670;0.000000;,
  0.866670;1.000000;,
  0.933330;0.000000;,
  0.933330;1.000000;,
  1.000000;0.000000;,
  1.000000;1.000000;,
  0.033330;0.000000;,
  0.100000;0.000000;,
  0.166670;0.000000;,
  0.233330;0.000000;,
  0.300000;0.000000;,
  0.366670;0.000000;,
  0.433330;0.000000;,
  0.500000;0.000000;,
  0.566670;0.000000;,
  0.633330;0.000000;,
  0.700000;0.000000;,
  0.766670;0.000000;,
  0.833330;0.000000;,
  0.900000;0.000000;,
  0.966670;0.000000;,
  0.033330;1.000000;,
  0.100000;1.000000;,
  0.166670;1.000000;,
  0.233330;1.000000;,
  0.300000;1.000000;,
  0.366670;1.000000;,
  0.433330;1.000000;,
  0.500000;1.000000;,
  0.566670;1.000000;,
  0.633330;1.000000;,
  0.700000;1.000000;,
  0.766670;1.000000;,
  0.833330;1.000000;,
  0.900000;1.000000;,
  0.966670;1.000000;;
 }
}
