xof 0302txt 0064
template Header {
 <3D82AB43-62DA-11cf-AB39-0020AF71E433>
 WORD major;
 WORD minor;
 DWORD flags;
}

template Vector {
 <3D82AB5E-62DA-11cf-AB39-0020AF71E433>
 FLOAT x;
 FLOAT y;
 FLOAT z;
}

template Coords2d {
 <F6F23F44-7686-11cf-8F52-0040333594A3>
 FLOAT u;
 FLOAT v;
}

template Matrix4x4 {
 <F6F23F45-7686-11cf-8F52-0040333594A3>
 array FLOAT matrix[16];
}

template ColorRGBA {
 <35FF44E0-6C7C-11cf-8F52-0040333594A3>
 FLOAT red;
 FLOAT green;
 FLOAT blue;
 FLOAT alpha;
}

template ColorRGB {
 <D3E16E81-7835-11cf-8F52-0040333594A3>
 FLOAT red;
 FLOAT green;
 FLOAT blue;
}

template IndexedColor {
 <1630B820-7842-11cf-8F52-0040333594A3>
 DWORD index;
 ColorRGBA indexColor;
}

template Boolean {
 <4885AE61-78E8-11cf-8F52-0040333594A3>
 WORD truefalse;
}

template Boolean2d {
 <4885AE63-78E8-11cf-8F52-0040333594A3>
 Boolean u;
 Boolean v;
}

template MaterialWrap {
 <4885AE60-78E8-11cf-8F52-0040333594A3>
 Boolean u;
 Boolean v;
}

template TextureFilename {
 <A42790E1-7810-11cf-8F52-0040333594A3>
 STRING filename;
}

template Material {
 <3D82AB4D-62DA-11cf-AB39-0020AF71E433>
 ColorRGBA faceColor;
 FLOAT power;
 ColorRGB specularColor;
 ColorRGB emissiveColor;
 [...]
}

template MeshFace {
 <3D82AB5F-62DA-11cf-AB39-0020AF71E433>
 DWORD nFaceVertexIndices;
 array DWORD faceVertexIndices[nFaceVertexIndices];
}

template MeshFaceWraps {
 <4885AE62-78E8-11cf-8F52-0040333594A3>
 DWORD nFaceWrapValues;
 Boolean2d faceWrapValues;
}

template MeshTextureCoords {
 <F6F23F40-7686-11cf-8F52-0040333594A3>
 DWORD nTextureCoords;
 array Coords2d textureCoords[nTextureCoords];
}

template MeshMaterialList {
 <F6F23F42-7686-11cf-8F52-0040333594A3>
 DWORD nMaterials;
 DWORD nFaceIndexes;
 array DWORD faceIndexes[nFaceIndexes];
 [Material]
}

template MeshNormals {
 <F6F23F43-7686-11cf-8F52-0040333594A3>
 DWORD nNormals;
 array Vector normals[nNormals];
 DWORD nFaceNormals;
 array MeshFace faceNormals[nFaceNormals];
}

template MeshVertexColors {
 <1630B821-7842-11cf-8F52-0040333594A3>
 DWORD nVertexColors;
 array IndexedColor vertexColors[nVertexColors];
}

template Mesh {
 <3D82AB44-62DA-11cf-AB39-0020AF71E433>
 DWORD nVertices;
 array Vector vertices[nVertices];
 DWORD nFaces;
 array MeshFace faces[nFaces];
 [...]
}

Header{
1;
0;
1;
}

Mesh {
 562;
 2.65450;69.47139;-0.55761;,
 0.08342;83.43185;-0.53654;,
 0.08342;83.43185;-0.50995;,
 2.65450;69.47138;-0.48889;,
 -0.03629;83.43185;-0.53654;,
 -0.07618;83.43185;-0.53654;,
 -0.07618;83.43185;-0.50995;,
 -0.03629;83.43185;-0.50995;,
 -2.64727;18.38651;-0.55760;,
 -1.56035;17.35797;-0.55760;,
 -1.56035;17.35797;-0.48889;,
 -2.64727;18.38651;-0.48889;,
 0.78560;17.35797;-1.08203;,
 1.56757;17.35797;-0.55760;,
 1.56757;17.35797;-0.48889;,
 0.78560;17.35797;0.03553;,
 -1.32183;69.47139;0.03553;,
 -2.64727;69.47139;-0.48889;,
 1.32905;69.47139;-1.08204;,
 0.04351;83.43185;-0.53654;,
 2.65450;18.38651;-0.55760;,
 2.65450;27.78065;-0.55759;,
 2.65450;27.78065;-0.48889;,
 2.65450;18.38651;-0.48889;,
 2.65450;38.20333;-0.55759;,
 2.65450;38.20333;-0.48888;,
 2.65450;48.62601;-0.55759;,
 2.65450;48.62601;-0.48888;,
 2.65450;59.04869;-0.55759;,
 2.65450;59.04869;-0.48888;,
 -2.64727;69.47138;-0.55761;,
 -2.64727;59.04869;-0.55759;,
 -2.64727;59.04869;-0.48888;,
 -2.64727;48.62601;-0.55759;,
 -2.64727;48.62601;-0.48888;,
 -2.64727;38.20333;-0.55759;,
 -2.64727;38.20333;-0.48888;,
 -2.64727;27.78065;-0.55759;,
 -2.64727;27.78065;-0.48889;,
 -1.32183;18.38651;0.03553;,
 -1.32183;27.78065;0.03553;,
 -1.32183;38.20333;0.03553;,
 -1.32183;48.62601;0.03553;,
 -1.32183;59.04869;0.03553;,
 1.32905;18.38651;-1.08203;,
 1.32905;27.78065;-1.08202;,
 1.32905;38.20333;-1.08202;,
 1.32905;48.62601;-1.08202;,
 1.32905;59.04869;-1.08202;,
 0.04351;83.43185;-0.50995;,
 0.00361;83.43185;-0.53654;,
 0.00361;83.43185;-0.50995;,
 -0.77837;17.35797;-1.08203;,
 -0.77837;17.35797;0.03553;,
 0.00361;17.35797;-0.53264;,
 0.00361;17.35797;-0.50855;,
 1.32905;69.47138;0.03553;,
 0.00361;69.47139;-0.50857;,
 -1.32183;69.47138;-1.08204;,
 0.00361;69.47139;-0.53265;,
 1.32905;27.78065;0.03553;,
 1.32905;18.38651;0.03553;,
 0.00361;27.78065;-0.50857;,
 0.00361;18.38651;-0.50858;,
 1.32905;38.20333;0.03553;,
 0.00361;38.20333;-0.50857;,
 1.32905;48.62601;0.03553;,
 0.00361;48.62601;-0.50857;,
 1.32905;59.04869;0.03553;,
 0.00361;59.04869;-0.50857;,
 -1.32183;27.78065;-1.08202;,
 -1.32183;18.38651;-1.08203;,
 0.00361;27.78065;-0.53266;,
 0.00361;18.38651;-0.53266;,
 -1.32183;38.20333;-1.08202;,
 0.00361;38.20333;-0.53266;,
 -1.32183;48.62601;-1.08202;,
 0.00361;48.62601;-0.53265;,
 -1.32183;59.04869;-1.08202;,
 0.00361;59.04869;-0.53265;,
 8.25043;16.51077;-0.52324;,
 8.25043;16.51077;-0.44575;,
 8.25043;16.46910;-0.44575;,
 8.25043;16.46910;-0.52324;,
 -6.18151;15.40122;0.00004;,
 -8.24321;16.48232;-0.44159;,
 -8.24321;16.44250;-0.44159;,
 -6.18151;15.24199;0.00004;,
 -8.24321;16.48232;-0.52324;,
 -8.24321;16.48232;-0.60491;,
 -8.24321;16.44250;-0.60491;,
 -8.24321;16.44250;-0.52324;,
 6.18873;15.40122;-1.04340;,
 8.25043;16.51077;-0.60075;,
 8.25043;16.46910;-0.60075;,
 6.18873;15.24061;-1.04340;,
 -6.18151;15.24199;-0.52324;,
 6.18873;15.56183;-0.52324;,
 6.18873;15.56183;-0.00309;,
 8.25043;16.55244;-0.44575;,
 8.25043;16.55244;-0.52324;,
 8.25043;16.55244;-0.60075;,
 2.06531;15.40122;0.88221;,
 0.00361;15.40122;1.32487;,
 0.00361;14.88379;1.32487;,
 2.06531;15.00273;0.88221;,
 2.06531;15.79969;0.88221;,
 0.00361;15.91863;1.32487;,
 -6.18151;15.56043;0.00004;,
 -8.24321;16.52214;-0.44159;,
 -8.24321;16.52214;-0.52324;,
 -8.24321;16.52214;-0.60491;,
 -2.05809;15.40122;-1.92974;,
 0.00361;15.40122;-2.37135;,
 0.00361;14.88379;-2.37135;,
 -2.05809;15.00319;-1.92974;,
 -2.05809;15.79924;-1.92974;,
 0.00361;15.91863;-2.37135;,
 6.18873;15.56183;-1.04340;,
 -6.18151;15.24199;-1.04652;,
 2.06531;15.00273;-1.92871;,
 2.06531;15.00273;-0.52324;,
 0.00361;14.88379;-0.52324;,
 -2.05809;15.79924;-0.52324;,
 0.00361;15.91863;-0.52324;,
 -2.05809;15.79924;0.88325;,
 2.06531;15.40122;-1.92871;,
 4.12702;14.56175;-1.48605;,
 4.12702;14.28219;-1.48605;,
 2.06531;15.79969;-0.52324;,
 4.12702;14.84129;0.43956;,
 4.12702;14.84129;-0.52324;,
 6.18873;15.40122;-0.00309;,
 6.18873;15.24060;-0.00309;,
 4.12702;14.56175;0.43956;,
 4.12702;14.28219;0.43956;,
 2.06531;15.79969;-1.92871;,
 4.12702;14.84129;-1.48605;,
 6.18873;15.24060;-0.52324;,
 4.12702;14.28219;-0.52324;,
 -2.05809;15.40122;0.88325;,
 -2.05809;15.00319;0.88325;,
 -4.11979;14.56175;0.44165;,
 -4.11979;14.28312;0.44165;,
 -2.05809;15.00319;-0.52324;,
 -4.11979;14.28312;-0.52324;,
 -4.11979;14.84036;0.44165;,
 -6.18151;15.40122;-1.04652;,
 -4.11979;14.56175;-1.48812;,
 -4.11979;14.28312;-1.48812;,
 -6.18151;15.56043;-1.04652;,
 -4.11979;14.84036;-1.48812;,
 -6.18151;15.56043;-0.52324;,
 -4.11979;14.84036;-0.52324;,
 4.80586;18.32776;-0.52324;,
 4.80586;18.32776;-0.45780;,
 4.80586;18.29257;-0.45780;,
 4.80586;18.29257;-0.52324;,
 -3.59807;17.39056;-0.08125;,
 -4.79861;18.30373;-0.45428;,
 -4.79861;18.27009;-0.45428;,
 -3.59807;17.25606;-0.08125;,
 -4.79861;18.30373;-0.52324;,
 -4.79861;18.30373;-0.59223;,
 -4.79861;18.27009;-0.59223;,
 -4.79861;18.27009;-0.52324;,
 3.60529;17.39057;-0.96261;,
 4.80586;18.32776;-0.58871;,
 4.80586;18.29257;-0.58871;,
 3.60529;17.25490;-0.96261;,
 -3.59807;17.25606;-0.52324;,
 3.60529;17.52623;-0.52324;,
 3.60529;17.52623;-0.08389;,
 4.80586;18.36297;-0.45780;,
 4.80586;18.36297;-0.52324;,
 4.80586;18.36297;-0.58871;,
 1.20418;17.39056;0.66389;,
 0.00361;17.39056;1.03779;,
 0.00361;16.95351;1.03779;,
 1.20418;17.05398;0.66389;,
 1.20418;17.72714;0.66389;,
 0.00361;17.82761;1.03779;,
 -3.59807;17.52505;-0.08125;,
 -4.79861;18.33737;-0.45428;,
 -4.79861;18.33737;-0.52324;,
 -4.79861;18.33737;-0.59223;,
 -1.19694;17.39057;-1.71128;,
 0.00361;17.39057;-2.08429;,
 0.00361;16.95351;-2.08429;,
 -1.19694;17.05437;-1.71128;,
 -1.19694;17.72677;-1.71128;,
 0.00361;17.82761;-2.08429;,
 3.60529;17.52623;-0.96261;,
 -3.59807;17.25606;-0.96524;,
 1.20418;17.05398;-1.71039;,
 1.20418;17.05398;-0.52324;,
 0.00361;16.95351;-0.52324;,
 -1.19694;17.72675;-0.52324;,
 0.00361;17.82761;-0.52324;,
 -1.19694;17.72675;0.66477;,
 1.20418;17.39057;-1.71039;,
 2.40474;16.68148;-1.33650;,
 2.40474;16.44537;-1.33650;,
 1.20418;17.72714;-0.52324;,
 2.40474;16.91761;0.29001;,
 2.40474;16.91761;-0.52324;,
 3.60529;17.39056;-0.08389;,
 3.60529;17.25490;-0.08389;,
 2.40474;16.68148;0.29001;,
 2.40474;16.44537;0.29001;,
 1.20418;17.72714;-1.71038;,
 2.40474;16.91761;-1.33650;,
 3.60529;17.25490;-0.52324;,
 2.40474;16.44537;-0.52324;,
 -1.19694;17.39056;0.66477;,
 -1.19694;17.05437;0.66477;,
 -2.39750;16.68148;0.29177;,
 -2.39750;16.44615;0.29177;,
 -1.19694;17.05437;-0.52324;,
 -2.39750;16.44615;-0.52324;,
 -2.39750;16.91683;0.29177;,
 -3.59807;17.39057;-0.96524;,
 -2.39750;16.68148;-1.33825;,
 -2.39750;16.44615;-1.33825;,
 -3.59807;17.52505;-0.96524;,
 -2.39750;16.91683;-1.33825;,
 -3.59807;17.52505;-0.52324;,
 -2.39750;16.91683;-0.52324;,
 6.96943;17.27222;-0.52324;,
 6.96943;17.27222;-0.45780;,
 6.96943;17.23701;-0.45780;,
 6.96943;17.23701;-0.52324;,
 -5.22073;16.33500;-0.08125;,
 -6.96220;17.24819;-0.45426;,
 -6.96220;17.21454;-0.45426;,
 -5.22073;16.20051;-0.08125;,
 -6.96220;17.24819;-0.52324;,
 -6.96220;17.24819;-0.59222;,
 -6.96220;17.21454;-0.59222;,
 -6.96220;17.21454;-0.52324;,
 5.22798;16.33500;-0.96259;,
 6.96943;17.27222;-0.58869;,
 6.96943;17.23701;-0.58869;,
 5.22798;16.19934;-0.96259;,
 -5.22073;16.20051;-0.52324;,
 5.22798;16.47067;-0.52324;,
 5.22798;16.47067;-0.08389;,
 6.96943;17.30742;-0.45780;,
 6.96943;17.30742;-0.52324;,
 6.96943;17.30742;-0.58869;,
 1.74507;16.33500;0.66389;,
 0.00361;16.33500;1.03779;,
 0.00361;15.89795;1.03779;,
 1.74507;15.99842;0.66389;,
 1.74507;16.67160;0.66389;,
 0.00361;16.77206;1.03779;,
 -5.22073;16.46949;-0.08125;,
 -6.96220;17.28182;-0.45426;,
 -6.96220;17.28182;-0.52324;,
 -6.96220;17.28182;-0.59222;,
 -1.73785;16.33500;-1.71126;,
 0.00361;16.33500;-2.08427;,
 0.00361;15.89795;-2.08427;,
 -1.73785;15.99881;-1.71126;,
 -1.73785;16.67121;-1.71126;,
 0.00361;16.77206;-2.08427;,
 5.22798;16.47067;-0.96259;,
 -5.22073;16.20051;-0.96524;,
 1.74507;15.99842;-1.71039;,
 1.74507;15.99842;-0.52324;,
 0.00361;15.89795;-0.52324;,
 -1.73785;16.67121;-0.52324;,
 0.00361;16.77206;-0.52324;,
 -1.73785;16.67121;0.66477;,
 1.74507;16.33500;-1.71039;,
 3.48652;15.62593;-1.33650;,
 3.48652;15.38981;-1.33650;,
 1.74507;16.67160;-0.52324;,
 3.48652;15.86206;0.29001;,
 3.48652;15.86206;-0.52324;,
 5.22798;16.33500;-0.08389;,
 5.22798;16.19934;-0.08389;,
 3.48652;15.62593;0.29001;,
 3.48652;15.38981;0.29001;,
 1.74507;16.67160;-1.71039;,
 3.48652;15.86206;-1.33650;,
 5.22798;16.19934;-0.52324;,
 3.48652;15.38981;-0.52324;,
 -1.73785;16.33500;0.66477;,
 -1.73785;15.99881;0.66477;,
 -3.47930;15.62593;0.29177;,
 -3.47930;15.39059;0.29177;,
 -1.73785;15.99881;-0.52324;,
 -3.47930;15.39059;-0.52324;,
 -3.47930;15.86127;0.29177;,
 -5.22073;16.33500;-0.96524;,
 -3.47930;15.62593;-1.33825;,
 -3.47930;15.39059;-1.33825;,
 -5.22073;16.46949;-0.96524;,
 -3.47930;15.86127;-1.33825;,
 -5.22073;16.46949;-0.52324;,
 -3.47930;15.86127;-0.52324;,
 3.15460;13.69263;-0.93630;,
 3.65365;13.69263;-0.67402;,
 3.15460;13.44318;-0.75507;,
 3.65365;13.69263;-0.67402;,
 3.15460;13.53846;-0.46182;,
 3.65365;13.69263;-0.67402;,
 3.15460;13.84679;-0.46182;,
 3.65365;13.69263;-0.67402;,
 3.15460;13.94208;-0.75507;,
 3.65365;13.69263;-0.67402;,
 3.15460;13.69263;-0.93630;,
 3.15460;13.69263;-0.67402;,
 3.15460;13.69263;-0.93630;,
 3.15460;13.44318;-0.75507;,
 3.15460;13.53846;-0.46182;,
 3.15460;13.84679;-0.46182;,
 3.15460;13.94208;-0.75507;,
 0.08897;69.43790;-1.15512;,
 0.61142;69.43790;-0.85349;,
 0.61142;18.35782;-0.85349;,
 0.08897;18.35782;-1.15512;,
 0.61142;69.43790;-0.25022;,
 0.61142;18.35782;-0.25022;,
 0.08897;69.43790;0.05141;,
 0.08897;18.35782;0.05141;,
 -0.43347;69.43790;-0.25022;,
 -0.43347;18.35782;-0.25022;,
 -0.43347;69.43790;-0.85349;,
 -0.43347;18.35782;-0.85349;,
 0.08897;69.43790;-1.15512;,
 0.08897;18.35782;-1.15512;,
 0.08897;69.43790;-0.55186;,
 0.08897;69.43790;-0.55186;,
 0.08897;69.43790;-0.55186;,
 0.08897;69.43790;-0.55186;,
 0.08897;69.43790;-0.55186;,
 0.08897;69.43790;-0.55186;,
 0.08897;18.35782;-0.55186;,
 0.08897;18.35782;-0.55186;,
 0.08897;18.35782;-0.55186;,
 0.08897;18.35782;-0.55186;,
 0.08897;18.35782;-0.55186;,
 0.08897;18.35782;-0.55186;,
 -0.00075;15.21046;-1.59603;,
 0.61300;15.21046;-1.39661;,
 0.61300;0.00861;-1.39661;,
 -0.00075;0.00861;-1.59603;,
 0.99232;15.21046;-0.87452;,
 0.99232;0.00861;-0.87452;,
 0.99232;15.21046;-0.22919;,
 0.99232;0.00861;-0.22919;,
 0.61300;15.21046;0.29290;,
 0.61300;0.00861;0.29290;,
 -0.00075;15.21046;0.49232;,
 -0.00075;0.00861;0.49232;,
 -0.61450;15.21046;0.29290;,
 -0.61450;0.00861;0.29290;,
 -0.99382;15.21046;-0.22919;,
 -0.99382;0.00861;-0.22919;,
 -0.99382;15.21046;-0.87452;,
 -0.99382;0.00861;-0.87452;,
 -0.61450;15.21046;-1.39661;,
 -0.61450;0.00861;-1.39661;,
 -0.00075;15.21046;-1.59603;,
 -0.00075;0.00861;-1.59603;,
 -0.00075;15.21046;-0.55186;,
 -0.00075;15.21046;-0.55186;,
 -0.00075;15.21046;-0.55186;,
 -0.00075;15.21046;-0.55186;,
 -0.00075;15.21046;-0.55186;,
 -0.00075;15.21046;-0.55186;,
 -0.00075;15.21046;-0.55186;,
 -0.00075;15.21046;-0.55186;,
 -0.00075;15.21046;-0.55186;,
 -0.00075;15.21046;-0.55186;,
 -0.00075;0.00861;-0.55186;,
 -0.00075;0.00861;-0.55186;,
 -0.00075;0.00861;-0.55186;,
 -0.00075;0.00861;-0.55186;,
 -0.00075;0.00861;-0.55186;,
 -0.00075;0.00861;-0.55186;,
 -0.00075;0.00861;-0.55186;,
 -0.00075;0.00861;-0.55186;,
 -0.00075;0.00861;-0.55186;,
 -0.00075;0.00861;-0.55186;,
 0.08897;14.11324;-3.79130;,
 1.99307;14.11324;-3.17262;,
 1.99307;13.31171;-3.17262;,
 0.08897;13.31171;-3.79130;,
 3.16987;14.11324;-1.55290;,
 3.16987;13.31171;-1.55290;,
 3.16987;14.11324;0.44919;,
 3.16987;13.31171;0.44919;,
 1.99307;14.11324;2.06891;,
 1.99307;13.31171;2.06891;,
 0.08897;14.11324;2.68759;,
 0.08897;13.31171;2.68759;,
 -1.81512;14.11324;2.06891;,
 -1.81512;13.31171;2.06891;,
 -2.99192;14.11324;0.44919;,
 -2.99192;13.31171;0.44919;,
 -2.99192;14.11324;-1.55290;,
 -2.99192;13.31171;-1.55290;,
 -1.81512;14.11324;-3.17262;,
 -1.81512;13.31171;-3.17262;,
 0.08897;14.11324;-3.79130;,
 0.08897;13.31171;-3.79130;,
 0.08897;14.11324;-0.55186;,
 0.08897;14.11324;-0.55186;,
 0.08897;14.11324;-0.55186;,
 0.08897;14.11324;-0.55186;,
 0.08897;14.11324;-0.55186;,
 0.08897;14.11324;-0.55186;,
 0.08897;14.11324;-0.55186;,
 0.08897;14.11324;-0.55186;,
 0.08897;14.11324;-0.55186;,
 0.08897;14.11324;-0.55186;,
 0.08897;13.31171;-0.55186;,
 0.08897;13.31171;-0.55186;,
 0.08897;13.31171;-0.55186;,
 0.08897;13.31171;-0.55186;,
 0.08897;13.31171;-0.55186;,
 0.08897;13.31171;-0.55186;,
 0.08897;13.31171;-0.55186;,
 0.08897;13.31171;-0.55186;,
 0.08897;13.31171;-0.55186;,
 0.08897;13.31171;-0.55186;,
 0.08897;12.72215;-2.55877;,
 1.26861;12.72215;-2.17548;,
 1.26861;12.22558;-2.17548;,
 0.08897;12.22558;-2.55877;,
 1.99766;12.72215;-1.17202;,
 1.99766;12.22558;-1.17202;,
 1.99766;12.72215;0.06831;,
 1.99766;12.22558;0.06831;,
 1.26861;12.72215;1.07177;,
 1.26861;12.22558;1.07177;,
 0.08897;12.72215;1.45505;,
 0.08897;12.22558;1.45505;,
 -1.09066;12.72215;1.07177;,
 -1.09066;12.22558;1.07177;,
 -1.81971;12.72215;0.06831;,
 -1.81971;12.22558;0.06831;,
 -1.81971;12.72215;-1.17203;,
 -1.81971;12.22558;-1.17203;,
 -1.09066;12.72215;-2.17548;,
 -1.09066;12.22558;-2.17548;,
 0.08897;12.72215;-2.55877;,
 0.08897;12.22558;-2.55877;,
 0.08897;12.72215;-0.55186;,
 0.08897;12.72215;-0.55186;,
 0.08897;12.72215;-0.55186;,
 0.08897;12.72215;-0.55186;,
 0.08897;12.72215;-0.55186;,
 0.08897;12.72215;-0.55186;,
 0.08897;12.72215;-0.55186;,
 0.08897;12.72215;-0.55186;,
 0.08897;12.72215;-0.55186;,
 0.08897;12.72215;-0.55186;,
 0.08897;12.22558;-0.55186;,
 0.08897;12.22558;-0.55186;,
 0.08897;12.22558;-0.55186;,
 0.08897;12.22558;-0.55186;,
 0.08897;12.22558;-0.55186;,
 0.08897;12.22558;-0.55186;,
 0.08897;12.22558;-0.55186;,
 0.08897;12.22558;-0.55186;,
 0.08897;12.22558;-0.55186;,
 0.08897;12.22558;-0.55186;,
 0.08898;2.43202;-0.55186;,
 0.94912;2.10930;-1.04846;,
 0.08898;2.10930;-1.54507;,
 0.08898;2.43202;-0.55186;,
 0.94912;2.10930;-0.05525;,
 0.08898;2.43202;-0.55186;,
 0.08897;2.10930;0.44136;,
 0.08898;2.43202;-0.55186;,
 -0.77117;2.10930;-0.05525;,
 0.08898;2.43202;-0.55186;,
 -0.77117;2.10930;-1.04846;,
 0.08898;2.43202;-0.55186;,
 0.08898;2.10930;-1.54507;,
 1.48072;1.26443;-1.35538;,
 0.08898;1.26443;-2.15891;,
 1.48072;1.26443;0.25167;,
 0.08897;1.26443;1.05519;,
 -1.30277;1.26443;0.25167;,
 -1.30277;1.26443;-1.35538;,
 0.08898;1.26443;-2.15891;,
 1.48072;0.22010;-1.35538;,
 0.08898;0.22010;-2.15890;,
 1.48072;0.22010;0.25167;,
 0.08897;0.22010;1.05519;,
 -1.30277;0.22010;0.25167;,
 -1.30277;0.22010;-1.35538;,
 0.08898;0.22010;-2.15890;,
 0.94912;-0.62477;-1.04846;,
 0.08898;-0.62477;-1.54507;,
 0.94912;-0.62477;-0.05525;,
 0.08897;-0.62477;0.44136;,
 -0.77117;-0.62477;-0.05525;,
 -0.77117;-0.62477;-1.04846;,
 0.08898;-0.62477;-1.54507;,
 0.08898;-0.94749;-0.55186;,
 0.08898;-0.94749;-0.55186;,
 0.08898;-0.94749;-0.55186;,
 0.08898;-0.94749;-0.55186;,
 0.08898;-0.94749;-0.55186;,
 0.08898;-0.94749;-0.55186;,
 -2.86121;13.69263;-0.46182;,
 -3.36026;13.69263;-0.72411;,
 -2.86121;13.44318;-0.64306;,
 -3.36026;13.69263;-0.72411;,
 -2.86121;13.53846;-0.93630;,
 -3.36026;13.69263;-0.72411;,
 -2.86121;13.84679;-0.93630;,
 -3.36026;13.69263;-0.72411;,
 -2.86121;13.94208;-0.64306;,
 -3.36026;13.69263;-0.72411;,
 -2.86121;13.69263;-0.46182;,
 -2.86121;13.69263;-0.72411;,
 -2.86121;13.69263;-0.46182;,
 -2.86121;13.44318;-0.64306;,
 -2.86121;13.53846;-0.93630;,
 -2.86121;13.84679;-0.93630;,
 -2.86121;13.94208;-0.64306;,
 -0.19053;13.69263;-3.79404;,
 0.07176;13.69263;-4.29309;,
 -0.00929;13.44318;-3.79404;,
 0.07176;13.69263;-4.29309;,
 0.28395;13.53846;-3.79404;,
 0.07176;13.69263;-4.29309;,
 0.28395;13.84679;-3.79404;,
 0.07176;13.69263;-4.29309;,
 -0.00929;13.94208;-3.79404;,
 0.07176;13.69263;-4.29309;,
 -0.19053;13.69263;-3.79404;,
 0.07176;13.69263;-3.79404;,
 -0.19053;13.69263;-3.79404;,
 -0.00929;13.44318;-3.79404;,
 0.28395;13.53846;-3.79404;,
 0.28395;13.84679;-3.79404;,
 -0.00929;13.94208;-3.79404;,
 0.28395;13.69263;2.68323;,
 0.02167;13.69263;3.18228;,
 0.10272;13.44318;2.68323;,
 0.02167;13.69263;3.18228;,
 -0.19053;13.53846;2.68323;,
 0.02167;13.69263;3.18228;,
 -0.19053;13.84679;2.68323;,
 0.02167;13.69263;3.18228;,
 0.10272;13.94208;2.68323;,
 0.02167;13.69263;3.18228;,
 0.28395;13.69263;2.68323;,
 0.02167;13.69263;2.68323;,
 0.28395;13.69263;2.68323;,
 0.10272;13.44318;2.68323;,
 -0.19053;13.53846;2.68323;,
 -0.19053;13.84679;2.68323;,
 0.10272;13.94208;2.68323;;
 
 472;
 4;0,1,2,3;,
 4;4,5,6,7;,
 4;8,9,10,11;,
 4;12,13,14,15;,
 4;16,7,6,17;,
 4;1,0,18,19;,
 4;20,21,22,23;,
 4;21,24,25,22;,
 4;24,26,27,25;,
 4;26,28,29,27;,
 4;28,0,3,29;,
 4;5,30,17,6;,
 4;30,31,32,17;,
 4;31,33,34,32;,
 4;33,35,36,34;,
 4;35,37,38,36;,
 4;39,40,38,11;,
 4;40,41,36,38;,
 4;41,42,34,36;,
 4;42,43,32,34;,
 4;43,16,17,32;,
 4;44,45,21,20;,
 4;45,46,24,21;,
 4;46,47,26,24;,
 4;47,48,28,26;,
 4;0,28,48,18;,
 4;1,19,49,2;,
 4;19,50,51,49;,
 4;50,4,7,51;,
 4;9,52,53,10;,
 4;52,54,55,53;,
 4;54,12,15,55;,
 4;3,2,49,56;,
 4;56,49,51,57;,
 4;57,51,7,16;,
 4;30,5,4,58;,
 4;58,4,50,59;,
 4;59,50,19,18;,
 4;23,22,60,61;,
 4;61,60,62,63;,
 4;63,62,40,39;,
 4;22,25,64,60;,
 4;60,64,65,62;,
 4;62,65,41,40;,
 4;25,27,66,64;,
 4;64,66,67,65;,
 4;65,67,42,41;,
 4;27,29,68,66;,
 4;66,68,69,67;,
 4;67,69,43,42;,
 4;29,3,56,68;,
 4;68,56,57,69;,
 4;69,57,16,43;,
 4;8,37,70,71;,
 4;71,70,72,73;,
 4;73,72,45,44;,
 4;37,35,74,70;,
 4;70,74,75,72;,
 4;72,75,46,45;,
 4;35,33,76,74;,
 4;74,76,77,75;,
 4;75,77,47,46;,
 4;33,31,78,76;,
 4;76,78,79,77;,
 4;77,79,48,47;,
 4;31,30,58,78;,
 4;78,58,59,79;,
 4;79,59,18,48;,
 4;37,8,11,38;,
 4;13,20,23,14;,
 4;53,39,11,10;,
 4;12,44,20,13;,
 4;14,23,61,15;,
 4;15,61,63,55;,
 4;55,63,39,53;,
 4;9,8,71,52;,
 4;52,71,73,54;,
 4;54,73,44,12;,
 4;80,81,82,83;,
 4;84,85,86,87;,
 4;88,89,90,91;,
 4;92,93,94,95;,
 4;96,87,86,91;,
 4;97,98,99,100;,
 4;93,80,83,94;,
 4;80,93,101,100;,
 4;81,80,100,99;,
 4;102,103,104,105;,
 4;106,107,103,102;,
 4;108,109,85,84;,
 4;85,88,91,86;,
 4;109,110,88,85;,
 4;110,111,89,88;,
 4;112,113,114,115;,
 4;116,117,113,112;,
 4;118,101,93,92;,
 4;119,96,91,90;,
 4;120,121,122,114;,
 4;121,105,104,122;,
 4;118,97,100,101;,
 4;116,123,124,117;,
 4;123,125,107,124;,
 4;113,126,120,114;,
 4;126,127,128,120;,
 4;127,92,95,128;,
 4;124,107,106,129;,
 4;129,106,130,131;,
 4;131,130,98,97;,
 4;81,132,133,82;,
 4;132,134,135,133;,
 4;134,102,105,135;,
 4;99,98,132,81;,
 4;98,130,134,132;,
 4;130,106,102,134;,
 4;117,136,126,113;,
 4;136,137,127,126;,
 4;137,118,92,127;,
 4;94,83,138,95;,
 4;95,138,139,128;,
 4;128,139,121,120;,
 4;83,82,133,138;,
 4;138,133,135,139;,
 4;139,135,105,121;,
 4;117,124,129,136;,
 4;136,129,131,137;,
 4;137,131,97,118;,
 4;103,140,141,104;,
 4;140,142,143,141;,
 4;142,84,87,143;,
 4;122,104,141,144;,
 4;144,141,143,145;,
 4;145,143,87,96;,
 4;107,125,140,103;,
 4;125,146,142,140;,
 4;146,108,84,142;,
 4;89,147,119,90;,
 4;147,148,149,119;,
 4;148,112,115,149;,
 4;111,150,147,89;,
 4;150,151,148,147;,
 4;151,116,112,148;,
 4;114,122,144,115;,
 4;115,144,145,149;,
 4;149,145,96,119;,
 4;111,110,152,150;,
 4;150,152,153,151;,
 4;151,153,123,116;,
 4;110,109,108,152;,
 4;152,108,146,153;,
 4;153,146,125,123;,
 4;154,155,156,157;,
 4;158,159,160,161;,
 4;162,163,164,165;,
 4;166,167,168,169;,
 4;170,161,160,165;,
 4;171,172,173,174;,
 4;167,154,157,168;,
 4;175,174,154,167;,
 4;174,173,155,154;,
 4;176,177,178,179;,
 4;180,181,177,176;,
 4;182,183,159,158;,
 4;159,162,165,160;,
 4;183,184,162,159;,
 4;184,185,163,162;,
 4;186,187,188,189;,
 4;190,191,187,186;,
 4;192,175,167,166;,
 4;193,170,165,164;,
 4;194,195,196,188;,
 4;195,179,178,196;,
 4;192,171,174,175;,
 4;190,197,198,191;,
 4;197,199,181,198;,
 4;187,200,194,188;,
 4;200,201,202,194;,
 4;201,166,169,202;,
 4;198,181,180,203;,
 4;203,180,204,205;,
 4;205,204,172,171;,
 4;155,206,207,156;,
 4;206,208,209,207;,
 4;208,176,179,209;,
 4;173,172,206,155;,
 4;172,204,208,206;,
 4;204,180,176,208;,
 4;191,210,200,187;,
 4;210,211,201,200;,
 4;211,192,166,201;,
 4;168,157,212,169;,
 4;169,212,213,202;,
 4;202,213,195,194;,
 4;157,156,207,212;,
 4;212,207,209,213;,
 4;213,209,179,195;,
 4;191,198,203,210;,
 4;210,203,205,211;,
 4;211,205,171,192;,
 4;177,214,215,178;,
 4;214,216,217,215;,
 4;216,158,161,217;,
 4;196,178,215,218;,
 4;218,215,217,219;,
 4;219,217,161,170;,
 4;181,199,214,177;,
 4;199,220,216,214;,
 4;220,182,158,216;,
 4;163,221,193,164;,
 4;221,222,223,193;,
 4;222,186,189,223;,
 4;185,224,221,163;,
 4;224,225,222,221;,
 4;225,190,186,222;,
 4;188,196,218,189;,
 4;189,218,219,223;,
 4;223,219,170,193;,
 4;185,184,226,224;,
 4;224,226,227,225;,
 4;225,227,197,190;,
 4;184,183,182,226;,
 4;226,182,220,227;,
 4;227,220,199,197;,
 4;228,229,230,231;,
 4;232,233,234,235;,
 4;236,237,238,239;,
 4;240,241,242,243;,
 4;244,235,234,239;,
 4;245,246,247,248;,
 4;241,228,231,242;,
 4;249,248,228,241;,
 4;248,247,229,228;,
 4;250,251,252,253;,
 4;254,255,251,250;,
 4;256,257,233,232;,
 4;233,236,239,234;,
 4;257,258,236,233;,
 4;258,259,237,236;,
 4;260,261,262,263;,
 4;264,265,261,260;,
 4;266,249,241,240;,
 4;267,244,239,238;,
 4;268,269,270,262;,
 4;269,253,252,270;,
 4;266,245,248,249;,
 4;264,271,272,265;,
 4;271,273,255,272;,
 4;261,274,268,262;,
 4;274,275,276,268;,
 4;275,240,243,276;,
 4;272,255,254,277;,
 4;277,254,278,279;,
 4;279,278,246,245;,
 4;229,280,281,230;,
 4;280,282,283,281;,
 4;282,250,253,283;,
 4;247,246,280,229;,
 4;246,278,282,280;,
 4;278,254,250,282;,
 4;265,284,274,261;,
 4;284,285,275,274;,
 4;285,266,240,275;,
 4;242,231,286,243;,
 4;243,286,287,276;,
 4;276,287,269,268;,
 4;231,230,281,286;,
 4;286,281,283,287;,
 4;287,283,253,269;,
 4;265,272,277,284;,
 4;284,277,279,285;,
 4;285,279,245,266;,
 4;251,288,289,252;,
 4;288,290,291,289;,
 4;290,232,235,291;,
 4;270,252,289,292;,
 4;292,289,291,293;,
 4;293,291,235,244;,
 4;255,273,288,251;,
 4;273,294,290,288;,
 4;294,256,232,290;,
 4;237,295,267,238;,
 4;295,296,297,267;,
 4;296,260,263,297;,
 4;259,298,295,237;,
 4;298,299,296,295;,
 4;299,264,260,296;,
 4;262,270,292,263;,
 4;263,292,293,297;,
 4;297,293,244,267;,
 4;259,258,300,298;,
 4;298,300,301,299;,
 4;299,301,271,264;,
 4;258,257,256,300;,
 4;300,256,294,301;,
 4;301,294,273,271;,
 3;302,303,304;,
 3;304,305,306;,
 3;306,307,308;,
 3;308,309,310;,
 3;310,311,312;,
 3;313,314,315;,
 3;313,315,316;,
 3;313,316,317;,
 3;313,317,318;,
 3;313,318,314;,
 4;319,320,321,322;,
 4;320,323,324,321;,
 4;323,325,326,324;,
 4;325,327,328,326;,
 4;327,329,330,328;,
 4;329,331,332,330;,
 3;333,320,319;,
 3;334,323,320;,
 3;335,325,323;,
 3;336,327,325;,
 3;337,329,327;,
 3;338,331,329;,
 3;339,322,321;,
 3;340,321,324;,
 3;341,324,326;,
 3;342,326,328;,
 3;343,328,330;,
 3;344,330,332;,
 4;345,346,347,348;,
 4;346,349,350,347;,
 4;349,351,352,350;,
 4;351,353,354,352;,
 4;353,355,356,354;,
 4;355,357,358,356;,
 4;357,359,360,358;,
 4;359,361,362,360;,
 4;361,363,364,362;,
 4;363,365,366,364;,
 3;367,346,345;,
 3;368,349,346;,
 3;369,351,349;,
 3;370,353,351;,
 3;371,355,353;,
 3;372,357,355;,
 3;373,359,357;,
 3;374,361,359;,
 3;375,363,361;,
 3;376,365,363;,
 3;377,348,347;,
 3;378,347,350;,
 3;379,350,352;,
 3;380,352,354;,
 3;381,354,356;,
 3;382,356,358;,
 3;383,358,360;,
 3;384,360,362;,
 3;385,362,364;,
 3;386,364,366;,
 4;387,388,389,390;,
 4;388,391,392,389;,
 4;391,393,394,392;,
 4;393,395,396,394;,
 4;395,397,398,396;,
 4;397,399,400,398;,
 4;399,401,402,400;,
 4;401,403,404,402;,
 4;403,405,406,404;,
 4;405,407,408,406;,
 3;409,388,387;,
 3;410,391,388;,
 3;411,393,391;,
 3;412,395,393;,
 3;413,397,395;,
 3;414,399,397;,
 3;415,401,399;,
 3;416,403,401;,
 3;417,405,403;,
 3;418,407,405;,
 3;419,390,389;,
 3;420,389,392;,
 3;421,392,394;,
 3;422,394,396;,
 3;423,396,398;,
 3;424,398,400;,
 3;425,400,402;,
 3;426,402,404;,
 3;427,404,406;,
 3;428,406,408;,
 4;429,430,431,432;,
 4;430,433,434,431;,
 4;433,435,436,434;,
 4;435,437,438,436;,
 4;437,439,440,438;,
 4;439,441,442,440;,
 4;441,443,444,442;,
 4;443,445,446,444;,
 4;445,447,448,446;,
 4;447,449,450,448;,
 3;451,430,429;,
 3;452,433,430;,
 3;453,435,433;,
 3;454,437,435;,
 3;455,439,437;,
 3;456,441,439;,
 3;457,443,441;,
 3;458,445,443;,
 3;459,447,445;,
 3;460,449,447;,
 3;461,432,431;,
 3;462,431,434;,
 3;463,434,436;,
 3;464,436,438;,
 3;465,438,440;,
 3;466,440,442;,
 3;467,442,444;,
 3;468,444,446;,
 3;469,446,448;,
 3;470,448,450;,
 3;471,472,473;,
 3;474,475,472;,
 3;476,477,475;,
 3;478,479,477;,
 3;480,481,479;,
 3;482,483,481;,
 4;473,472,484,485;,
 4;472,475,486,484;,
 4;475,477,487,486;,
 4;477,479,488,487;,
 4;479,481,489,488;,
 4;481,483,490,489;,
 4;485,484,491,492;,
 4;484,486,493,491;,
 4;486,487,494,493;,
 4;487,488,495,494;,
 4;488,489,496,495;,
 4;489,490,497,496;,
 4;492,491,498,499;,
 4;491,493,500,498;,
 4;493,494,501,500;,
 4;494,495,502,501;,
 4;495,496,503,502;,
 4;496,497,504,503;,
 3;499,498,505;,
 3;498,500,506;,
 3;500,501,507;,
 3;501,502,508;,
 3;502,503,509;,
 3;503,504,510;,
 3;511,512,513;,
 3;513,514,515;,
 3;515,516,517;,
 3;517,518,519;,
 3;519,520,521;,
 3;522,523,524;,
 3;522,524,525;,
 3;522,525,526;,
 3;522,526,527;,
 3;522,527,523;,
 3;528,529,530;,
 3;530,531,532;,
 3;532,533,534;,
 3;534,535,536;,
 3;536,537,538;,
 3;539,540,541;,
 3;539,541,542;,
 3;539,542,543;,
 3;539,543,544;,
 3;539,544,540;,
 3;545,546,547;,
 3;547,548,549;,
 3;549,550,551;,
 3;551,552,553;,
 3;553,554,555;,
 3;556,557,558;,
 3;556,558,559;,
 3;556,559,560;,
 3;556,560,561;,
 3;556,561,557;;
 
 MeshMaterialList {
  15;
  472;
  9,
  9,
  9,
  9,
  9,
  9,
  9,
  9,
  9,
  9,
  9,
  9,
  9,
  9,
  9,
  9,
  9,
  9,
  9,
  9,
  9,
  9,
  9,
  9,
  9,
  9,
  9,
  9,
  9,
  9,
  9,
  9,
  9,
  9,
  9,
  9,
  9,
  9,
  9,
  9,
  9,
  9,
  9,
  9,
  9,
  9,
  9,
  9,
  9,
  9,
  9,
  9,
  9,
  9,
  9,
  9,
  9,
  9,
  9,
  9,
  9,
  9,
  9,
  9,
  9,
  9,
  9,
  9,
  9,
  9,
  9,
  9,
  9,
  9,
  9,
  9,
  9,
  9,
  13,
  13,
  13,
  13,
  13,
  13,
  13,
  13,
  13,
  13,
  13,
  13,
  13,
  13,
  13,
  13,
  13,
  13,
  13,
  13,
  13,
  13,
  13,
  13,
  13,
  13,
  13,
  13,
  13,
  13,
  13,
  13,
  13,
  13,
  13,
  13,
  13,
  13,
  13,
  13,
  13,
  13,
  13,
  13,
  13,
  13,
  13,
  13,
  13,
  13,
  13,
  13,
  13,
  13,
  13,
  13,
  13,
  13,
  13,
  13,
  13,
  13,
  13,
  13,
  13,
  13,
  13,
  13,
  13,
  13,
  13,
  13,
  13,
  13,
  13,
  13,
  13,
  13,
  13,
  13,
  13,
  13,
  13,
  13,
  13,
  13,
  13,
  13,
  13,
  13,
  13,
  13,
  13,
  13,
  13,
  13,
  13,
  13,
  13,
  13,
  13,
  13,
  13,
  13,
  13,
  13,
  13,
  13,
  13,
  13,
  13,
  13,
  13,
  13,
  13,
  13,
  13,
  13,
  13,
  13,
  13,
  13,
  13,
  13,
  13,
  13,
  13,
  13,
  13,
  13,
  13,
  13,
  13,
  13,
  13,
  13,
  13,
  13,
  13,
  13,
  13,
  13,
  13,
  13,
  5,
  5,
  5,
  5,
  5,
  5,
  5,
  5,
  5,
  5,
  5,
  5,
  5,
  5,
  5,
  5,
  5,
  5,
  5,
  5,
  5,
  5,
  5,
  5,
  5,
  5,
  5,
  5,
  5,
  5,
  5,
  5,
  5,
  5,
  5,
  5,
  5,
  5,
  5,
  5,
  5,
  5,
  5,
  5,
  5,
  5,
  5,
  5,
  5,
  5,
  5,
  5,
  5,
  5,
  5,
  5,
  5,
  5,
  5,
  5,
  5,
  5,
  5,
  5,
  5,
  5,
  5,
  5,
  5,
  5,
  5,
  5,
  12,
  12,
  12,
  12,
  12,
  12,
  12,
  12,
  12,
  12,
  4,
  4,
  4,
  4,
  4,
  4,
  4,
  4,
  4,
  4,
  4,
  4,
  4,
  4,
  4,
  4,
  4,
  4,
  8,
  8,
  8,
  8,
  8,
  8,
  8,
  8,
  8,
  8,
  8,
  8,
  8,
  8,
  8,
  8,
  8,
  8,
  8,
  8,
  8,
  8,
  8,
  8,
  8,
  8,
  8,
  8,
  8,
  8,
  3,
  3,
  3,
  3,
  3,
  3,
  3,
  3,
  3,
  3,
  3,
  3,
  3,
  3,
  3,
  3,
  3,
  3,
  3,
  3,
  3,
  3,
  3,
  3,
  3,
  3,
  3,
  3,
  3,
  3,
  3,
  3,
  3,
  3,
  3,
  3,
  3,
  3,
  3,
  3,
  3,
  3,
  3,
  3,
  3,
  3,
  3,
  3,
  3,
  3,
  3,
  3,
  3,
  3,
  3,
  3,
  3,
  3,
  3,
  3,
  3,
  3,
  3,
  3,
  3,
  3,
  3,
  3,
  3,
  3,
  3,
  3,
  3,
  3,
  3,
  3,
  3,
  3,
  3,
  3,
  3,
  3,
  3,
  3,
  3,
  3,
  3,
  3,
  3,
  3,
  12,
  12,
  12,
  12,
  12,
  12,
  12,
  12,
  12,
  12,
  12,
  12,
  12,
  12,
  12,
  12,
  12,
  12,
  12,
  12,
  12,
  12,
  12,
  12,
  12,
  12,
  12,
  12,
  12,
  12;;
  Material {
   0.765600;0.659200;0.241600;1.000000;;
   5.000000;
   0.000000;0.000000;0.000000;;
   0.000000;0.000000;0.000000;;
  }
  Material {
   0.000000;0.000000;0.000000;1.000000;;
   5.000000;
   0.000000;0.000000;0.000000;;
   0.000000;0.000000;0.000000;;
  }
  Material {
   0.800000;0.800000;0.800000;1.000000;;
   5.000000;
   0.000000;0.000000;0.000000;;
   0.000000;0.000000;0.000000;;
  }
  Material {
   0.800000;0.000000;0.060000;1.000000;;
   5.000000;
   0.000000;0.000000;0.000000;;
   0.000000;0.000000;0.000000;;
  }
  Material {
   0.000000;0.800000;0.310588;1.000000;;
   5.000000;
   0.000000;0.000000;0.000000;;
   0.000000;0.000000;0.000000;;
  }
  Material {
   0.800000;0.768800;0.000000;1.000000;;
   5.000000;
   0.000000;0.000000;0.000000;;
   0.000000;0.000000;0.000000;;
  }
  Material {
   0.000000;0.000000;0.000000;1.000000;;
   5.000000;
   0.000000;0.000000;0.000000;;
   0.000000;0.000000;0.000000;;
  }
  Material {
   0.743200;0.263200;0.094400;1.000000;;
   5.000000;
   0.000000;0.000000;0.000000;;
   0.000000;0.000000;0.000000;;
  }
  Material {
   0.409600;0.409600;0.409600;1.000000;;
   5.000000;
   0.000000;0.000000;0.000000;;
   0.000000;0.000000;0.000000;;
  }
  Material {
   0.409600;0.409600;0.409600;1.000000;;
   5.000000;
   0.000000;0.000000;0.000000;;
   0.000000;0.000000;0.000000;;
  }
  Material {
   0.640000;0.640000;0.640000;1.000000;;
   5.000000;
   0.000000;0.000000;0.000000;;
   0.000000;0.000000;0.000000;;
  }
  Material {
   0.409600;0.409600;0.409600;1.000000;;
   5.000000;
   0.000000;0.000000;0.000000;;
   0.000000;0.000000;0.000000;;
  }
  Material {
   0.380000;0.765000;1.000000;1.000000;;
   10.000000;
   0.200000;0.200000;0.200000;;
   0.076000;0.153000;0.200000;;
  }
  Material {
   0.000000;0.000000;0.000000;1.000000;;
   5.000000;
   0.000000;0.000000;0.000000;;
   0.000000;0.000000;0.000000;;
  }
  Material {
   0.000000;0.016000;0.800000;1.000000;;
   5.000000;
   0.000000;0.000000;0.000000;;
   0.000000;0.000000;0.000000;;
  }
 }
 MeshNormals {
  409;
  0.995857;0.090938;0.000008;,
  0.983460;0.181123;0.000016;,
  0.000000;1.000000;0.000000;,
  -0.845715;-0.417431;-0.332441;,
  -0.369903;-0.929070;0.000000;,
  -0.845715;-0.417430;0.332443;,
  0.000000;-1.000000;-0.000000;,
  0.369900;-0.929071;-0.000000;,
  0.004860;0.014577;0.999882;,
  -0.278709;0.027631;0.959978;,
  -0.006123;0.014487;-0.999876;,
  -0.004268;0.028170;-0.999594;,
  0.845715;-0.417432;-0.332440;,
  1.000000;0.000000;0.000000;,
  0.845714;-0.417431;0.332443;,
  -0.995857;0.090938;-0.000008;,
  -1.000000;0.000000;0.000000;,
  0.013283;-0.062939;0.997929;,
  0.006388;-0.000000;0.999980;,
  0.006389;-0.000000;0.999980;,
  0.006390;0.000000;0.999980;,
  0.006389;0.000000;0.999980;,
  -0.015137;-0.062778;-0.997913;,
  -0.008081;0.000000;-0.999967;,
  -0.008081;0.000000;-0.999967;,
  -0.008082;0.000000;-0.999967;,
  -0.008085;-0.000001;-0.999967;,
  -0.004861;0.014577;0.999882;,
  0.000000;0.000341;1.000000;,
  0.006122;0.014487;-0.999876;,
  0.000000;0.000149;-1.000000;,
  -0.006389;-0.000000;0.999980;,
  -0.013283;-0.062939;0.997929;,
  0.000000;-0.000000;1.000000;,
  0.000001;0.055214;0.998475;,
  -0.006390;-0.000000;0.999980;,
  0.000000;0.000000;1.000000;,
  -0.006391;0.000000;0.999979;,
  -0.006390;0.000000;0.999980;,
  0.008079;0.000000;-0.999967;,
  0.015137;-0.062777;-0.997913;,
  0.000000;0.000000;-1.000000;,
  0.000001;0.055749;-0.998445;,
  0.008080;0.000000;-0.999967;,
  0.000000;0.000000;-1.000000;,
  0.008081;0.000000;-0.999967;,
  0.000000;0.000000;-1.000000;,
  0.008083;-0.000001;-0.999967;,
  0.000000;-0.000000;-1.000000;,
  0.869449;-0.494023;-0.000000;,
  0.869449;-0.494023;-0.000002;,
  -0.209450;0.000000;0.977819;,
  -0.209455;0.000000;0.977818;,
  -0.209455;0.000000;0.977818;,
  -0.209450;0.000000;0.977820;,
  0.209917;0.000000;-0.977719;,
  0.209918;0.000000;-0.977719;,
  -0.462942;-0.886389;0.000000;,
  -0.382097;0.924122;0.000000;,
  -0.433084;0.901354;0.000000;,
  0.209920;0.000000;0.977719;,
  0.000241;0.000000;1.000000;,
  0.000241;0.000000;1.000000;,
  0.209920;0.000000;0.977719;,
  0.000241;0.000000;1.000000;,
  -0.209448;0.000000;-0.977820;,
  0.000239;0.000000;-1.000000;,
  0.000239;0.000000;-1.000000;,
  0.000239;0.000000;-1.000000;,
  0.209917;0.000000;-0.977719;,
  -0.462942;-0.886389;0.000000;,
  -0.138846;-0.990314;0.000000;,
  -0.000111;-1.000000;0.000000;,
  -0.244097;0.969751;0.000000;,
  -0.000109;1.000000;0.000000;,
  -0.244097;0.969751;0.000000;,
  0.209917;0.000000;-0.977719;,
  0.209919;0.000000;-0.977719;,
  0.209919;0.000000;-0.977719;,
  0.243898;0.969801;0.000000;,
  0.049441;0.998777;0.000000;,
  0.049441;0.998777;0.000000;,
  0.209919;0.000000;0.977719;,
  0.209919;0.000000;0.977719;,
  0.209917;0.000000;0.977719;,
  0.467323;-0.884087;-0.000004;,
  0.049444;-0.998777;-0.000002;,
  -0.209446;0.000000;0.977820;,
  -0.209443;0.000000;0.977821;,
  -0.209443;0.000000;0.977821;,
  0.138635;-0.990344;-0.000000;,
  -0.049635;-0.998767;0.000000;,
  -0.209443;0.000000;-0.977821;,
  -0.209445;0.000000;-0.977820;,
  -0.209445;0.000000;-0.977820;,
  0.376705;0.926333;0.000000;,
  -0.049640;0.998767;0.000000;,
  0.909372;-0.415984;-0.000000;,
  0.909372;-0.415984;-0.000000;,
  -0.296718;0.000000;0.954965;,
  -0.296725;0.000000;0.954963;,
  -0.296725;0.000000;0.954963;,
  -0.906992;-0.421147;0.000000;,
  -0.906992;-0.421147;0.000000;,
  0.297347;0.000000;-0.954769;,
  0.297349;0.000000;-0.954769;,
  0.297349;0.000000;-0.954769;,
  0.297347;0.000000;-0.954769;,
  -0.603136;-0.797638;0.000000;,
  -0.513222;0.858256;0.000000;,
  -0.571783;0.820405;0.000000;,
  -0.571783;0.820405;0.000000;,
  0.297343;0.000000;0.954771;,
  0.000332;0.000000;1.000000;,
  0.000332;0.000000;1.000000;,
  0.000332;0.000000;1.000000;,
  -0.296714;0.000000;-0.954966;,
  0.000337;0.000004;-1.000000;,
  0.000336;0.000000;-1.000000;,
  -0.296714;0.000000;-0.954966;,
  -0.296714;0.000000;-0.954966;,
  0.000338;0.000008;-1.000000;,
  -0.191653;-0.981463;0.000000;,
  -0.191653;-0.981463;0.000000;,
  -0.000162;-1.000000;0.000000;,
  -0.332213;0.943204;0.000004;,
  -0.000159;1.000000;0.000002;,
  -0.332215;0.943204;0.000000;,
  0.297349;0.000007;-0.954769;,
  0.297346;0.000004;-0.954770;,
  0.297345;0.000000;-0.954770;,
  0.331957;0.943295;0.000000;,
  0.559070;0.829120;0.000000;,
  0.297355;0.000000;0.954767;,
  0.297345;0.000000;0.954770;,
  0.297351;0.000014;-0.954768;,
  0.297348;0.000007;-0.954769;,
  0.607577;-0.794260;-0.000000;,
  0.559073;-0.829118;-0.000000;,
  -0.296707;0.000000;0.954969;,
  -0.296707;0.000000;0.954969;,
  -0.296705;0.000000;0.954969;,
  -0.296705;0.000000;0.954969;,
  0.191367;-0.981519;-0.000000;,
  0.451927;-0.892055;-0.000000;,
  -0.296707;0.000000;-0.954969;,
  -0.296712;0.000000;-0.954967;,
  0.507167;0.861848;0.000000;,
  0.451924;0.892057;0.000000;,
  0.869449;-0.494023;-0.000000;,
  0.869449;-0.494023;-0.000000;,
  -0.209447;0.000000;0.977820;,
  -0.209442;0.000000;0.977821;,
  -0.209442;0.000000;0.977821;,
  -0.209447;0.000000;0.977820;,
  0.209924;0.000000;-0.977718;,
  0.209922;0.000000;-0.977718;,
  0.209922;0.000000;-0.977718;,
  0.209924;0.000000;-0.977718;,
  -0.462942;-0.886389;0.000000;,
  -0.382099;0.924122;0.000000;,
  -0.433091;0.901350;0.000000;,
  0.209916;0.000000;0.977719;,
  0.000242;0.000000;1.000000;,
  0.209916;0.000000;0.977719;,
  -0.209447;0.000000;0.977820;,
  -0.209442;0.000000;0.977821;,
  -0.209444;0.000000;-0.977821;,
  0.000239;0.000000;-1.000000;,
  0.000239;0.000000;-1.000000;,
  -0.209444;0.000000;-0.977821;,
  -0.209444;0.000000;-0.977821;,
  0.000239;0.000000;-1.000000;,
  0.209924;0.000000;-0.977718;,
  -0.138843;-0.990314;0.000000;,
  -0.000111;-1.000000;0.000000;,
  -0.244100;0.969750;0.000000;,
  -0.000112;1.000000;0.000000;,
  0.209913;0.000000;-0.977720;,
  0.209922;0.000000;-0.977718;,
  0.243900;0.969800;0.000000;,
  0.049447;0.998777;0.000000;,
  0.049447;0.998777;0.000000;,
  0.209924;0.000000;0.977718;,
  0.209916;0.000000;0.977719;,
  0.209913;0.000000;-0.977720;,
  0.467320;-0.884088;-0.000000;,
  0.049442;-0.998777;-0.000000;,
  -0.209444;0.000000;0.977821;,
  -0.209446;0.000000;0.977820;,
  -0.209446;0.000000;0.977820;,
  0.138634;-0.990344;-0.000000;,
  -0.049637;-0.998767;0.000000;,
  -0.209446;0.000000;0.977820;,
  -0.209447;0.000000;-0.977820;,
  -0.209446;0.000000;-0.977820;,
  -0.209446;0.000000;-0.977820;,
  -0.209447;0.000000;-0.977820;,
  0.376708;0.926332;0.000000;,
  -0.049638;0.998767;0.000000;,
  0.391290;-0.540907;-0.744521;,
  0.391298;-0.875225;0.284371;,
  0.391303;0.000000;0.920262;,
  0.391290;0.875219;0.284401;,
  0.003416;0.028351;0.999592;,
  -0.186831;0.054995;0.980851;,
  0.186833;0.054997;-0.980851;,
  0.278713;0.027630;-0.959977;,
  -0.983460;0.181123;-0.000016;,
  -0.367905;-0.000000;0.929863;,
  -0.367907;0.000000;0.929863;,
  -0.367902;-0.000000;0.929865;,
  -0.367901;0.000000;0.929865;,
  -0.367902;0.000000;0.929865;,
  0.367911;0.000000;-0.929861;,
  0.367911;0.000001;-0.929861;,
  0.367911;0.000000;-0.929861;,
  0.367911;-0.000001;-0.929861;,
  0.278707;0.027631;0.959979;,
  0.186830;0.054995;0.980852;,
  -0.003417;0.028351;0.999592;,
  0.000000;0.000663;1.000000;,
  -0.278715;0.027631;-0.959976;,
  -0.186834;0.054997;-0.980851;,
  0.004267;0.028170;-0.999594;,
  0.000000;0.000290;-1.000000;,
  0.367905;0.000000;0.929864;,
  0.367903;-0.000000;0.929864;,
  0.367900;-0.000000;0.929865;,
  0.367898;0.000000;0.929866;,
  0.367900;0.000000;0.929865;,
  -0.367913;0.000001;-0.929860;,
  -0.367913;0.000000;-0.929860;,
  -0.367913;0.000000;-0.929860;,
  -0.367913;0.000000;-0.929860;,
  -0.367913;-0.000001;-0.929860;,
  -0.441263;-0.324294;0.836732;,
  0.441270;-0.324297;-0.836727;,
  0.441264;-0.324293;0.836732;,
  -0.476864;0.099448;0.873333;,
  0.000001;0.113142;0.993579;,
  0.476866;0.099450;0.873332;,
  -0.441269;-0.324298;-0.836727;,
  0.480318;0.100233;-0.871349;,
  0.000001;0.114278;-0.993449;,
  -0.480315;0.100231;-0.871350;,
  -0.462942;-0.886389;0.000000;,
  -0.503199;-0.864171;0.000000;,
  0.869448;-0.494024;-0.000004;,
  -0.503199;-0.864171;0.000000;,
  -0.000111;-1.000000;0.000000;,
  -0.000109;1.000000;0.000000;,
  0.243898;0.969801;0.000000;,
  0.209922;0.000000;0.977718;,
  0.209922;0.000000;0.977718;,
  0.209917;0.000000;0.977719;,
  0.467323;-0.884087;-0.000008;,
  0.049445;-0.998777;-0.000004;,
  0.467322;-0.884087;-0.000000;,
  0.049443;-0.998777;-0.000000;,
  -0.209446;0.000000;-0.977820;,
  0.422736;0.906253;0.000000;,
  0.376705;0.926333;0.000000;,
  -0.049640;0.998767;0.000000;,
  -0.049640;0.998767;0.000000;,
  -0.603136;-0.797638;0.000000;,
  -0.906992;-0.421147;0.000000;,
  -0.000162;-1.000000;0.000000;,
  -0.571783;0.820405;0.000000;,
  -0.332212;0.943205;0.000008;,
  -0.000156;1.000000;0.000004;,
  -0.000162;1.000000;0.000000;,
  0.297346;0.000000;-0.954770;,
  0.331957;0.943295;0.000000;,
  -0.452166;0.891934;0.000000;,
  -0.452166;0.891934;0.000000;,
  0.297356;0.000000;0.954767;,
  0.297356;0.000000;0.954767;,
  -0.452157;-0.891938;0.000000;,
  0.559070;0.829120;0.000000;,
  -0.452166;0.891934;0.000000;,
  0.191367;-0.981519;-0.000000;,
  -0.559247;-0.829001;0.000000;,
  -0.559247;-0.829001;0.000000;,
  -0.296710;0.000000;-0.954968;,
  -0.559247;-0.829001;0.000000;,
  0.560399;0.828223;0.000000;,
  0.560399;0.828223;0.000000;,
  0.507167;0.861848;0.000000;,
  0.451924;0.892056;0.000000;,
  -0.559260;0.828992;0.000007;,
  -0.559258;0.828994;0.000003;,
  0.560399;0.828223;0.000000;,
  -0.559255;0.828995;0.000000;,
  -0.462942;-0.886389;0.000000;,
  -0.503194;-0.864173;0.000000;,
  -0.503194;-0.864173;0.000000;,
  -0.000111;-1.000000;0.000000;,
  -0.000111;-1.000000;0.000000;,
  -0.433091;0.901350;0.000000;,
  -0.000112;1.000000;0.000000;,
  0.243900;0.969800;0.000000;,
  0.209927;0.000000;0.977717;,
  0.209927;0.000000;0.977717;,
  0.209927;0.000000;0.977717;,
  0.209916;0.000000;0.977719;,
  0.049442;-0.998777;-0.000000;,
  0.467320;-0.884088;-0.000000;,
  0.243900;0.969801;0.000000;,
  0.049447;0.998777;0.000000;,
  -0.049637;-0.998767;0.000000;,
  -0.209444;0.000000;0.977821;,
  -0.209447;0.000000;-0.977820;,
  -0.209447;0.000000;-0.977820;,
  -0.209447;0.000000;-0.977820;,
  -0.209447;0.000000;-0.977820;,
  -0.049637;-0.998767;0.000000;,
  0.422734;0.906254;0.000000;,
  0.376708;0.926332;0.000000;,
  0.391290;0.540907;-0.744521;,
  0.000000;1.000000;0.000000;,
  0.499992;0.000000;-0.866030;,
  1.000000;0.000000;0.000000;,
  0.499992;0.000000;0.866030;,
  -0.499999;0.000000;0.866026;,
  -1.000000;0.000000;0.000000;,
  0.000000;-1.000000;-0.000000;,
  0.000000;0.000000;-1.000000;,
  0.587786;0.000000;-0.809017;,
  0.951057;0.000000;-0.309017;,
  0.951057;0.000000;0.309017;,
  0.587786;0.000000;0.809016;,
  0.000000;0.000000;1.000000;,
  -0.587786;0.000000;0.809017;,
  -0.951057;0.000000;0.309017;,
  -0.951057;0.000000;-0.309017;,
  -0.587786;0.000000;-0.809017;,
  -0.000001;0.000000;-1.000000;,
  0.587785;0.000000;-0.809017;,
  0.951056;0.000000;-0.309018;,
  0.951056;0.000000;0.309018;,
  0.587785;0.000000;0.809017;,
  -0.000001;0.000000;1.000000;,
  -0.587785;0.000000;0.809017;,
  -0.951056;0.000000;0.309018;,
  -0.951056;0.000000;-0.309018;,
  -0.587785;0.000000;-0.809017;,
  -0.499999;0.000000;-0.866026;,
  0.000000;1.000000;0.000000;,
  -0.000001;0.000000;-1.000000;,
  0.587787;0.000000;-0.809015;,
  0.951057;0.000000;-0.309015;,
  0.951057;0.000000;0.309015;,
  0.587784;0.000000;0.809018;,
  -0.000001;0.000000;1.000000;,
  -0.587785;0.000000;0.809017;,
  -0.951057;0.000000;0.309015;,
  -0.951056;0.000000;-0.309017;,
  -0.587787;0.000000;-0.809016;,
  0.000000;-1.000000;-0.000000;,
  0.000001;1.000000;-0.000001;,
  0.000001;0.816865;-0.576830;,
  0.499552;0.816863;-0.288414;,
  0.499550;0.816864;0.288415;,
  -0.000001;0.816864;0.576830;,
  -0.499550;0.816864;0.288414;,
  -0.499550;0.816864;-0.288415;,
  0.000002;0.315986;-0.948764;,
  0.821654;0.315987;-0.474380;,
  0.821652;0.315987;0.474383;,
  -0.000002;0.315986;0.948764;,
  -0.821653;0.315987;0.474382;,
  -0.821653;0.315987;-0.474382;,
  0.191422;-0.407771;-0.892794;,
  0.677473;-0.407771;-0.612171;,
  0.868893;-0.407770;0.280623;,
  0.191418;-0.407769;0.892795;,
  -0.677473;-0.407770;0.612172;,
  -0.868893;-0.407770;-0.280623;,
  0.000001;-0.816863;-0.576831;,
  0.499552;-0.816863;-0.288415;,
  0.499551;-0.816863;0.288416;,
  -0.000001;-0.816864;0.576830;,
  -0.499550;-0.816864;0.288414;,
  -0.499550;-0.816864;-0.288416;,
  0.000001;-1.000000;-0.000001;,
  1.000000;0.000000;0.000000;,
  0.499997;0.000000;0.866027;,
  -0.499999;0.000000;0.866026;,
  -1.000000;0.000000;0.000000;,
  -0.499999;-0.000004;-0.866026;,
  -0.391296;-0.540925;0.744505;,
  -0.391296;-0.875223;-0.284380;,
  -0.391287;0.000000;-0.920269;,
  -0.391288;0.875217;-0.284410;,
  1.000000;0.000000;0.000000;,
  -0.391296;0.540925;0.744505;,
  -0.744505;-0.540925;-0.391296;,
  0.284380;-0.875223;-0.391295;,
  0.920269;0.000000;-0.391287;,
  0.284410;0.875217;-0.391287;,
  0.000000;0.000000;1.000000;,
  -0.744505;0.540925;-0.391296;,
  0.744521;-0.540907;0.391290;,
  -0.284371;-0.875225;0.391298;,
  -0.920262;0.000000;0.391303;,
  -0.284401;0.875219;0.391290;,
  0.000000;0.000000;-1.000000;,
  0.744521;0.540907;0.391290;;
  472;
  4;0,1,1,0;,
  4;2,2,2,2;,
  4;3,4,4,5;,
  4;6,7,7,6;,
  4;8,204,205,9;,
  4;206,207,10,11;,
  4;12,13,13,14;,
  4;13,13,13,13;,
  4;13,13,13,13;,
  4;13,13,13,13;,
  4;13,0,0,13;,
  4;208,15,15,208;,
  4;15,16,16,15;,
  4;16,16,16,16;,
  4;16,16,16,16;,
  4;16,16,16,16;,
  4;17,18,209,210;,
  4;18,19,211,209;,
  4;19,20,212,211;,
  4;20,21,213,212;,
  4;21,8,9,213;,
  4;22,23,214,215;,
  4;23,24,216,214;,
  4;24,25,216,216;,
  4;25,26,217,216;,
  4;207,217,26,10;,
  4;2,2,2,2;,
  4;2,2,2,2;,
  4;2,2,2,2;,
  4;4,6,6,4;,
  4;6,6,6,6;,
  4;6,6,6,6;,
  4;218,219,220,27;,
  4;27,220,221,28;,
  4;28,221,204,8;,
  4;222,223,224,29;,
  4;29,224,225,30;,
  4;30,225,11,10;,
  4;226,227,31,32;,
  4;32,31,33,34;,
  4;34,33,18,17;,
  4;227,228,35,31;,
  4;31,35,36,33;,
  4;33,36,19,18;,
  4;228,229,37,35;,
  4;35,37,36,36;,
  4;36,36,20,19;,
  4;229,230,38,37;,
  4;37,38,36,36;,
  4;36,36,21,20;,
  4;230,218,27,38;,
  4;38,27,28,36;,
  4;36,28,8,21;,
  4;231,232,39,40;,
  4;40,39,41,42;,
  4;42,41,23,22;,
  4;232,233,43,39;,
  4;39,43,44,41;,
  4;41,44,24,23;,
  4;233,234,45,43;,
  4;43,45,46,44;,
  4;44,46,25,24;,
  4;234,235,47,45;,
  4;45,47,48,46;,
  4;46,48,26,25;,
  4;235,222,29,47;,
  4;47,29,30,48;,
  4;48,30,10,26;,
  4;16,3,5,16;,
  4;7,12,14,7;,
  4;236,17,5,236;,
  4;237,22,12,237;,
  4;238,14,32,238;,
  4;239,32,34,240;,
  4;240,34,17,241;,
  4;242,3,40,242;,
  4;243,40,42,244;,
  4;244,42,22,245;,
  4;13,13,49,50;,
  4;51,52,53,54;,
  4;16,16,16,16;,
  4;55,56,56,55;,
  4;57,246,247,247;,
  4;58,58,59,59;,
  4;13,13,50,248;,
  4;13,13,13,13;,
  4;13,13,13,13;,
  4;60,61,62,63;,
  4;60,64,61,60;,
  4;51,52,52,51;,
  4;16,16,16,16;,
  4;16,16,16,16;,
  4;16,16,16,16;,
  4;65,66,67,65;,
  4;65,68,66,65;,
  4;69,56,56,55;,
  4;70,57,247,249;,
  4;71,71,72,250;,
  4;71,71,72,72;,
  4;58,58,59,59;,
  4;73,73,74,251;,
  4;73,75,74,74;,
  4;66,76,76,67;,
  4;76,77,78,76;,
  4;77,55,55,78;,
  4;74,74,252,79;,
  4;79,252,80,81;,
  4;81,80,58,58;,
  4;253,82,83,254;,
  4;82,84,84,83;,
  4;84,60,63,84;,
  4;253,82,82,253;,
  4;82,255,84,82;,
  4;255,60,60,84;,
  4;68,69,76,66;,
  4;69,77,77,76;,
  4;77,69,55,77;,
  4;248,50,85,256;,
  4;256,85,86,257;,
  4;257,86,71,71;,
  4;50,49,258,85;,
  4;85,258,259,86;,
  4;86,259,71,71;,
  4;251,74,79,252;,
  4;252,79,81,81;,
  4;81,81,58,58;,
  4;61,87,87,62;,
  4;87,88,89,87;,
  4;88,51,54,89;,
  4;72,72,90,90;,
  4;90,90,91,91;,
  4;91,91,246,57;,
  4;64,87,87,61;,
  4;87,88,88,87;,
  4;88,51,51,88;,
  4;260,92,92,260;,
  4;92,93,94,92;,
  4;93,65,65,94;,
  4;260,92,92,260;,
  4;92,93,93,92;,
  4;93,65,65,93;,
  4;250,72,90,90;,
  4;90,90,91,91;,
  4;91,91,57,70;,
  4;261,261,95,262;,
  4;262,95,96,263;,
  4;263,96,73,73;,
  4;261,261,262,95;,
  4;95,262,264,96;,
  4;96,264,75,73;,
  4;13,13,97,98;,
  4;99,100,101,99;,
  4;16,16,102,103;,
  4;104,105,106,107;,
  4;108,265,266,103;,
  4;109,109,110,111;,
  4;13,13,98,98;,
  4;13,13,13,13;,
  4;13,13,13,13;,
  4;112,113,114,112;,
  4;112,115,113,112;,
  4;99,101,100,99;,
  4;16,16,103,266;,
  4;16,16,16,16;,
  4;16,16,16,16;,
  4;116,117,118,119;,
  4;120,121,117,116;,
  4;107,106,105,104;,
  4;108,108,103,102;,
  4;122,123,124,124;,
  4;123,122,267,124;,
  4;109,109,111,268;,
  4;269,125,126,270;,
  4;125,127,271,126;,
  4;117,128,272,118;,
  4;128,129,130,272;,
  4;129,104,107,130;,
  4;126,271,273,131;,
  4;131,273,132,132;,
  4;274,275,109,109;,
  4;276,133,133,277;,
  4;133,134,134,133;,
  4;134,112,112,134;,
  4;277,133,133,276;,
  4;133,134,134,133;,
  4;134,112,112,134;,
  4;121,135,128,117;,
  4;135,136,129,128;,
  4;136,107,104,129;,
  4;98,98,137,137;,
  4;137,137,138,138;,
  4;278,278,123,122;,
  4;98,97,137,137;,
  4;137,137,138,138;,
  4;278,278,122,123;,
  4;270,126,131,131;,
  4;131,131,132,279;,
  4;280,274,109,109;,
  4;113,139,140,114;,
  4;139,141,142,140;,
  4;141,99,99,142;,
  4;124,267,281,143;,
  4;143,281,144,144;,
  4;282,283,265,108;,
  4;115,139,139,113;,
  4;139,141,141,139;,
  4;141,99,99,141;,
  4;284,145,145,284;,
  4;145,146,146,145;,
  4;146,116,119,146;,
  4;284,145,145,284;,
  4;145,146,146,145;,
  4;146,120,116,146;,
  4;124,124,143,281;,
  4;281,143,144,144;,
  4;285,282,108,108;,
  4;286,287,147,288;,
  4;288,147,148,289;,
  4;290,291,125,269;,
  4;287,292,147,147;,
  4;147,147,289,148;,
  4;291,293,127,125;,
  4;13,13,149,150;,
  4;151,152,153,154;,
  4;16,16,16,16;,
  4;155,156,157,158;,
  4;159,294,295,295;,
  4;160,160,161,161;,
  4;13,13,150,150;,
  4;13,13,13,13;,
  4;13,13,13,13;,
  4;162,163,163,162;,
  4;164,163,163,162;,
  4;165,166,152,151;,
  4;16,16,16,16;,
  4;16,16,16,16;,
  4;16,16,16,16;,
  4;167,168,169,170;,
  4;171,172,168,167;,
  4;173,156,156,155;,
  4;57,159,295,296;,
  4;174,174,175,297;,
  4;174,174,298,175;,
  4;160,160,161,299;,
  4;176,176,177,300;,
  4;176,176,177,177;,
  4;168,178,178,169;,
  4;178,179,179,178;,
  4;179,155,158,179;,
  4;177,177,301,180;,
  4;180,301,181,182;,
  4;182,181,160,160;,
  4;302,183,183,303;,
  4;183,184,184,183;,
  4;184,162,162,184;,
  4;304,183,183,302;,
  4;183,305,184,183;,
  4;305,164,162,184;,
  4;172,185,178,168;,
  4;185,179,179,178;,
  4;179,173,155,179;,
  4;150,150,186,186;,
  4;186,186,187,306;,
  4;306,187,174,174;,
  4;150,149,307,186;,
  4;186,307,306,187;,
  4;187,306,174,174;,
  4;300,177,180,308;,
  4;308,180,182,309;,
  4;309,182,160,160;,
  4;163,188,188,163;,
  4;188,189,190,188;,
  4;189,151,154,190;,
  4;175,298,191,191;,
  4;191,191,310,192;,
  4;192,310,294,159;,
  4;163,311,188,163;,
  4;311,193,189,188;,
  4;193,165,151,189;,
  4;312,194,313,314;,
  4;194,195,196,313;,
  4;195,167,170,196;,
  4;315,197,194,312;,
  4;197,196,195,194;,
  4;196,171,167,195;,
  4;297,175,191,191;,
  4;191,191,192,316;,
  4;316,192,159,57;,
  4;317,317,198,318;,
  4;318,198,199,199;,
  4;199,199,176,176;,
  4;317,317,318,198;,
  4;198,318,199,199;,
  4;199,199,176,176;,
  3;200,200,200;,
  3;201,201,201;,
  3;202,202,202;,
  3;203,203,203;,
  3;319,319,319;,
  3;16,16,16;,
  3;16,16,16;,
  3;16,16,16;,
  3;16,16,16;,
  3;16,16,16;,
  4;321,321,321,321;,
  4;322,322,322,322;,
  4;323,323,323,323;,
  4;324,324,324,324;,
  4;325,325,325,325;,
  4;347,347,347,347;,
  3;320,320,320;,
  3;320,320,320;,
  3;320,320,320;,
  3;320,320,320;,
  3;320,320,320;,
  3;320,320,320;,
  3;326,326,326;,
  3;326,326,326;,
  3;326,326,326;,
  3;326,326,326;,
  3;326,326,326;,
  3;326,326,326;,
  4;327,328,328,327;,
  4;328,329,329,328;,
  4;329,330,330,329;,
  4;330,331,331,330;,
  4;331,332,332,331;,
  4;332,333,333,332;,
  4;333,334,334,333;,
  4;334,335,335,334;,
  4;335,336,336,335;,
  4;336,327,327,336;,
  3;320,320,320;,
  3;320,320,320;,
  3;320,320,320;,
  3;320,320,320;,
  3;320,320,320;,
  3;320,320,320;,
  3;320,320,320;,
  3;320,320,320;,
  3;320,320,320;,
  3;320,320,320;,
  3;326,326,326;,
  3;326,326,326;,
  3;326,326,326;,
  3;326,326,326;,
  3;326,326,326;,
  3;326,326,326;,
  3;326,326,326;,
  3;326,326,326;,
  3;326,326,326;,
  3;326,326,326;,
  4;337,338,338,337;,
  4;338,339,339,338;,
  4;339,340,340,339;,
  4;340,341,341,340;,
  4;341,342,342,341;,
  4;342,343,343,342;,
  4;343,344,344,343;,
  4;344,345,345,344;,
  4;345,346,346,345;,
  4;346,337,337,346;,
  3;320,320,320;,
  3;320,320,320;,
  3;320,320,320;,
  3;320,320,320;,
  3;320,320,320;,
  3;320,320,320;,
  3;320,320,320;,
  3;320,320,320;,
  3;320,320,320;,
  3;320,320,320;,
  3;326,326,326;,
  3;326,326,326;,
  3;326,326,326;,
  3;326,326,326;,
  3;326,326,326;,
  3;326,326,326;,
  3;326,326,326;,
  3;326,326,326;,
  3;326,326,326;,
  3;326,326,326;,
  4;349,350,350,349;,
  4;350,351,351,350;,
  4;351,352,352,351;,
  4;352,353,353,352;,
  4;353,354,354,353;,
  4;354,355,355,354;,
  4;355,356,356,355;,
  4;356,357,357,356;,
  4;357,358,358,357;,
  4;358,349,349,358;,
  3;348,348,348;,
  3;348,348,348;,
  3;348,348,348;,
  3;348,348,348;,
  3;348,348,348;,
  3;348,348,348;,
  3;348,348,348;,
  3;348,348,348;,
  3;348,348,348;,
  3;348,348,348;,
  3;359,359,359;,
  3;359,359,359;,
  3;359,359,359;,
  3;359,359,359;,
  3;359,359,359;,
  3;359,359,359;,
  3;359,359,359;,
  3;359,359,359;,
  3;359,359,359;,
  3;359,359,359;,
  3;360,362,361;,
  3;360,363,362;,
  3;360,364,363;,
  3;360,365,364;,
  3;360,366,365;,
  3;360,361,366;,
  4;361,362,368,367;,
  4;362,363,369,368;,
  4;363,364,370,369;,
  4;364,365,371,370;,
  4;365,366,372,371;,
  4;366,361,367,372;,
  4;367,368,374,373;,
  4;368,369,375,386;,
  4;369,370,376,387;,
  4;370,371,377,388;,
  4;371,372,378,389;,
  4;372,367,390,390;,
  4;373,374,380,379;,
  4;374,375,381,380;,
  4;375,376,382,381;,
  4;376,377,383,382;,
  4;377,378,384,383;,
  4;378,373,379,384;,
  3;379,380,385;,
  3;380,381,385;,
  3;381,382,385;,
  3;382,383,385;,
  3;383,384,385;,
  3;384,379,385;,
  3;391,391,391;,
  3;392,392,392;,
  3;393,393,393;,
  3;394,394,394;,
  3;396,396,396;,
  3;395,395,395;,
  3;395,395,395;,
  3;395,395,395;,
  3;395,395,395;,
  3;395,395,395;,
  3;397,397,397;,
  3;398,398,398;,
  3;399,399,399;,
  3;400,400,400;,
  3;402,402,402;,
  3;401,401,401;,
  3;401,401,401;,
  3;401,401,401;,
  3;401,401,401;,
  3;401,401,401;,
  3;403,403,403;,
  3;404,404,404;,
  3;405,405,405;,
  3;406,406,406;,
  3;408,408,408;,
  3;407,407,407;,
  3;407,407,407;,
  3;407,407,407;,
  3;407,407,407;,
  3;407,407,407;;
 }
 MeshTextureCoords {
  562;
  0.000000;0.000000;,
  0.000000;0.000000;,
  0.000000;0.000000;,
  0.000000;0.000000;,
  0.000000;0.000000;,
  0.000000;0.000000;,
  0.000000;0.000000;,
  0.000000;0.000000;,
  0.000000;0.000000;,
  0.000000;0.000000;,
  0.000000;0.000000;,
  0.000000;0.000000;,
  0.000000;0.000000;,
  0.000000;0.000000;,
  0.000000;0.000000;,
  0.000000;0.000000;,
  0.000000;0.000000;,
  0.000000;0.000000;,
  0.000000;0.000000;,
  0.000000;0.000000;,
  0.000000;0.000000;,
  0.000000;0.000000;,
  0.000000;0.000000;,
  0.000000;0.000000;,
  0.000000;0.000000;,
  0.000000;0.000000;,
  0.000000;0.000000;,
  0.000000;0.000000;,
  0.000000;0.000000;,
  0.000000;0.000000;,
  0.000000;0.000000;,
  0.000000;0.000000;,
  0.000000;0.000000;,
  0.000000;0.000000;,
  0.000000;0.000000;,
  0.000000;0.000000;,
  0.000000;0.000000;,
  0.000000;0.000000;,
  0.000000;0.000000;,
  0.000000;0.000000;,
  0.000000;0.000000;,
  0.000000;0.000000;,
  0.000000;0.000000;,
  0.000000;0.000000;,
  0.000000;0.000000;,
  0.000000;0.000000;,
  0.000000;0.000000;,
  0.000000;0.000000;,
  0.000000;0.000000;,
  0.000000;0.000000;,
  0.000000;0.000000;,
  0.000000;0.000000;,
  0.000000;0.000000;,
  0.000000;0.000000;,
  0.000000;0.000000;,
  0.000000;0.000000;,
  0.000000;0.000000;,
  0.000000;0.000000;,
  0.000000;0.000000;,
  0.000000;0.000000;,
  0.000000;0.000000;,
  0.000000;0.000000;,
  0.000000;0.000000;,
  0.000000;0.000000;,
  0.000000;0.000000;,
  0.000000;0.000000;,
  0.000000;0.000000;,
  0.000000;0.000000;,
  0.000000;0.000000;,
  0.000000;0.000000;,
  0.000000;0.000000;,
  0.000000;0.000000;,
  0.000000;0.000000;,
  0.000000;0.000000;,
  0.000000;0.000000;,
  0.000000;0.000000;,
  0.000000;0.000000;,
  0.000000;0.000000;,
  0.000000;0.000000;,
  0.000000;0.000000;,
  0.000000;0.000000;,
  0.000000;0.000000;,
  0.000000;0.000000;,
  0.000000;0.000000;,
  0.000000;0.000000;,
  0.000000;0.000000;,
  0.000000;0.000000;,
  0.000000;0.000000;,
  0.000000;0.000000;,
  0.000000;0.000000;,
  0.000000;0.000000;,
  0.000000;0.000000;,
  0.000000;0.000000;,
  0.000000;0.000000;,
  0.000000;0.000000;,
  0.000000;0.000000;,
  0.000000;0.000000;,
  0.000000;0.000000;,
  0.000000;0.000000;,
  0.000000;0.000000;,
  0.000000;0.000000;,
  0.000000;0.000000;,
  0.000000;0.000000;,
  0.000000;0.000000;,
  0.000000;0.000000;,
  0.000000;0.000000;,
  0.000000;0.000000;,
  0.000000;0.000000;,
  0.000000;0.000000;,
  0.000000;0.000000;,
  0.000000;0.000000;,
  0.000000;0.000000;,
  0.000000;0.000000;,
  0.000000;0.000000;,
  0.000000;0.000000;,
  0.000000;0.000000;,
  0.000000;0.000000;,
  0.000000;0.000000;,
  0.000000;0.000000;,
  0.000000;0.000000;,
  0.000000;0.000000;,
  0.000000;0.000000;,
  0.000000;0.000000;,
  0.000000;0.000000;,
  0.000000;0.000000;,
  0.000000;0.000000;,
  0.000000;0.000000;,
  0.000000;0.000000;,
  0.000000;0.000000;,
  0.000000;0.000000;,
  0.000000;0.000000;,
  0.000000;0.000000;,
  0.000000;0.000000;,
  0.000000;0.000000;,
  0.000000;0.000000;,
  0.000000;0.000000;,
  0.000000;0.000000;,
  0.000000;0.000000;,
  0.000000;0.000000;,
  0.000000;0.000000;,
  0.000000;0.000000;,
  0.000000;0.000000;,
  0.000000;0.000000;,
  0.000000;0.000000;,
  0.000000;0.000000;,
  0.000000;0.000000;,
  0.000000;0.000000;,
  0.000000;0.000000;,
  0.000000;0.000000;,
  0.000000;0.000000;,
  0.000000;0.000000;,
  0.000000;0.000000;,
  0.000000;0.000000;,
  0.000000;0.000000;,
  0.000000;0.000000;,
  0.000000;0.000000;,
  0.000000;0.000000;,
  0.000000;0.000000;,
  0.000000;0.000000;,
  0.000000;0.000000;,
  0.000000;0.000000;,
  0.000000;0.000000;,
  0.000000;0.000000;,
  0.000000;0.000000;,
  0.000000;0.000000;,
  0.000000;0.000000;,
  0.000000;0.000000;,
  0.000000;0.000000;,
  0.000000;0.000000;,
  0.000000;0.000000;,
  0.000000;0.000000;,
  0.000000;0.000000;,
  0.000000;0.000000;,
  0.000000;0.000000;,
  0.000000;0.000000;,
  0.000000;0.000000;,
  0.000000;0.000000;,
  0.000000;0.000000;,
  0.000000;0.000000;,
  0.000000;0.000000;,
  0.000000;0.000000;,
  0.000000;0.000000;,
  0.000000;0.000000;,
  0.000000;0.000000;,
  0.000000;0.000000;,
  0.000000;0.000000;,
  0.000000;0.000000;,
  0.000000;0.000000;,
  0.000000;0.000000;,
  0.000000;0.000000;,
  0.000000;0.000000;,
  0.000000;0.000000;,
  0.000000;0.000000;,
  0.000000;0.000000;,
  0.000000;0.000000;,
  0.000000;0.000000;,
  0.000000;0.000000;,
  0.000000;0.000000;,
  0.000000;0.000000;,
  0.000000;0.000000;,
  0.000000;0.000000;,
  0.000000;0.000000;,
  0.000000;0.000000;,
  0.000000;0.000000;,
  0.000000;0.000000;,
  0.000000;0.000000;,
  0.000000;0.000000;,
  0.000000;0.000000;,
  0.000000;0.000000;,
  0.000000;0.000000;,
  0.000000;0.000000;,
  0.000000;0.000000;,
  0.000000;0.000000;,
  0.000000;0.000000;,
  0.000000;0.000000;,
  0.000000;0.000000;,
  0.000000;0.000000;,
  0.000000;0.000000;,
  0.000000;0.000000;,
  0.000000;0.000000;,
  0.000000;0.000000;,
  0.000000;0.000000;,
  0.000000;0.000000;,
  0.000000;0.000000;,
  0.000000;0.000000;,
  0.000000;0.000000;,
  0.000000;0.000000;,
  0.000000;0.000000;,
  0.000000;0.000000;,
  0.000000;0.000000;,
  0.000000;0.000000;,
  0.000000;0.000000;,
  0.000000;0.000000;,
  0.000000;0.000000;,
  0.000000;0.000000;,
  0.000000;0.000000;,
  0.000000;0.000000;,
  0.000000;0.000000;,
  0.000000;0.000000;,
  0.000000;0.000000;,
  0.000000;0.000000;,
  0.000000;0.000000;,
  0.000000;0.000000;,
  0.000000;0.000000;,
  0.000000;0.000000;,
  0.000000;0.000000;,
  0.000000;0.000000;,
  0.000000;0.000000;,
  0.000000;0.000000;,
  0.000000;0.000000;,
  0.000000;0.000000;,
  0.000000;0.000000;,
  0.000000;0.000000;,
  0.000000;0.000000;,
  0.000000;0.000000;,
  0.000000;0.000000;,
  0.000000;0.000000;,
  0.000000;0.000000;,
  0.000000;0.000000;,
  0.000000;0.000000;,
  0.000000;0.000000;,
  0.000000;0.000000;,
  0.000000;0.000000;,
  0.000000;0.000000;,
  0.000000;0.000000;,
  0.000000;0.000000;,
  0.000000;0.000000;,
  0.000000;0.000000;,
  0.000000;0.000000;,
  0.000000;0.000000;,
  0.000000;0.000000;,
  0.000000;0.000000;,
  0.000000;0.000000;,
  0.000000;0.000000;,
  0.000000;0.000000;,
  0.000000;0.000000;,
  0.000000;0.000000;,
  0.000000;0.000000;,
  0.000000;0.000000;,
  0.000000;0.000000;,
  0.000000;0.000000;,
  0.000000;0.000000;,
  0.000000;0.000000;,
  0.000000;0.000000;,
  0.000000;0.000000;,
  0.000000;0.000000;,
  0.000000;0.000000;,
  0.000000;0.000000;,
  0.000000;0.000000;,
  0.000000;0.000000;,
  0.000000;0.000000;,
  0.000000;0.000000;,
  0.000000;0.000000;,
  0.000000;0.000000;,
  0.000000;0.000000;,
  0.000000;0.000000;,
  0.000000;0.000000;,
  0.000000;0.000000;,
  0.000000;0.000000;,
  0.000000;0.000000;,
  0.000000;0.000000;,
  0.000000;0.000000;,
  0.000000;1.000000;,
  0.100000;0.000000;,
  0.200000;1.000000;,
  0.200000;0.000000;,
  0.400000;1.000000;,
  0.300000;0.000000;,
  0.600000;1.000000;,
  0.400000;0.000000;,
  0.800000;1.000000;,
  0.500000;0.000000;,
  1.000000;1.000000;,
  0.000000;0.000000;,
  0.000000;0.000000;,
  0.000000;0.000000;,
  0.000000;0.000000;,
  0.000000;0.000000;,
  0.000000;0.000000;,
  0.000000;0.000000;,
  0.166670;0.000000;,
  0.166670;1.000000;,
  0.000000;1.000000;,
  0.333330;0.000000;,
  0.333330;1.000000;,
  0.500000;0.000000;,
  0.500000;1.000000;,
  0.666670;0.000000;,
  0.666670;1.000000;,
  0.833330;0.000000;,
  0.833330;1.000000;,
  1.000000;0.000000;,
  1.000000;1.000000;,
  0.083330;0.000000;,
  0.250000;0.000000;,
  0.416670;0.000000;,
  0.583330;0.000000;,
  0.750000;0.000000;,
  0.916670;0.000000;,
  0.083330;1.000000;,
  0.250000;1.000000;,
  0.416670;1.000000;,
  0.583330;1.000000;,
  0.750000;1.000000;,
  0.916670;1.000000;,
  0.000000;0.000000;,
  0.100000;0.000000;,
  0.100000;1.000000;,
  0.000000;1.000000;,
  0.200000;0.000000;,
  0.200000;1.000000;,
  0.300000;0.000000;,
  0.300000;1.000000;,
  0.400000;0.000000;,
  0.400000;1.000000;,
  0.500000;0.000000;,
  0.500000;1.000000;,
  0.600000;0.000000;,
  0.600000;1.000000;,
  0.700000;0.000000;,
  0.700000;1.000000;,
  0.800000;0.000000;,
  0.800000;1.000000;,
  0.900000;0.000000;,
  0.900000;1.000000;,
  1.000000;0.000000;,
  1.000000;1.000000;,
  0.050000;0.000000;,
  0.150000;0.000000;,
  0.250000;0.000000;,
  0.350000;0.000000;,
  0.450000;0.000000;,
  0.550000;0.000000;,
  0.650000;0.000000;,
  0.750000;0.000000;,
  0.850000;0.000000;,
  0.950000;0.000000;,
  0.050000;1.000000;,
  0.150000;1.000000;,
  0.250000;1.000000;,
  0.350000;1.000000;,
  0.450000;1.000000;,
  0.550000;1.000000;,
  0.650000;1.000000;,
  0.750000;1.000000;,
  0.850000;1.000000;,
  0.950000;1.000000;,
  0.000000;0.000000;,
  0.100000;0.000000;,
  0.100000;1.000000;,
  0.000000;1.000000;,
  0.200000;0.000000;,
  0.200000;1.000000;,
  0.300000;0.000000;,
  0.300000;1.000000;,
  0.400000;0.000000;,
  0.400000;1.000000;,
  0.500000;0.000000;,
  0.500000;1.000000;,
  0.600000;0.000000;,
  0.600000;1.000000;,
  0.700000;0.000000;,
  0.700000;1.000000;,
  0.800000;0.000000;,
  0.800000;1.000000;,
  0.900000;0.000000;,
  0.900000;1.000000;,
  1.000000;0.000000;,
  1.000000;1.000000;,
  0.050000;0.000000;,
  0.150000;0.000000;,
  0.250000;0.000000;,
  0.350000;0.000000;,
  0.450000;0.000000;,
  0.550000;0.000000;,
  0.650000;0.000000;,
  0.750000;0.000000;,
  0.850000;0.000000;,
  0.950000;0.000000;,
  0.050000;1.000000;,
  0.150000;1.000000;,
  0.250000;1.000000;,
  0.350000;1.000000;,
  0.450000;1.000000;,
  0.550000;1.000000;,
  0.650000;1.000000;,
  0.750000;1.000000;,
  0.850000;1.000000;,
  0.950000;1.000000;,
  0.000000;0.000000;,
  0.100000;0.000000;,
  0.100000;1.000000;,
  0.000000;1.000000;,
  0.200000;0.000000;,
  0.200000;1.000000;,
  0.300000;0.000000;,
  0.300000;1.000000;,
  0.400000;0.000000;,
  0.400000;1.000000;,
  0.500000;0.000000;,
  0.500000;1.000000;,
  0.600000;0.000000;,
  0.600000;1.000000;,
  0.700000;0.000000;,
  0.700000;1.000000;,
  0.800000;0.000000;,
  0.800000;1.000000;,
  0.900000;0.000000;,
  0.900000;1.000000;,
  1.000000;0.000000;,
  1.000000;1.000000;,
  0.050000;0.000000;,
  0.150000;0.000000;,
  0.250000;0.000000;,
  0.350000;0.000000;,
  0.450000;0.000000;,
  0.550000;0.000000;,
  0.650000;0.000000;,
  0.750000;0.000000;,
  0.850000;0.000000;,
  0.950000;0.000000;,
  0.050000;1.000000;,
  0.150000;1.000000;,
  0.250000;1.000000;,
  0.350000;1.000000;,
  0.450000;1.000000;,
  0.550000;1.000000;,
  0.650000;1.000000;,
  0.750000;1.000000;,
  0.850000;1.000000;,
  0.950000;1.000000;,
  0.083330;0.000000;,
  0.166670;0.200000;,
  0.000000;0.200000;,
  0.250000;0.000000;,
  0.333330;0.200000;,
  0.416670;0.000000;,
  0.500000;0.200000;,
  0.583330;0.000000;,
  0.666670;0.200000;,
  0.750000;0.000000;,
  0.833330;0.200000;,
  0.916670;0.000000;,
  1.000000;0.200000;,
  0.166670;0.400000;,
  0.000000;0.400000;,
  0.333330;0.400000;,
  0.500000;0.400000;,
  0.666670;0.400000;,
  0.833330;0.400000;,
  1.000000;0.400000;,
  0.166670;0.600000;,
  0.000000;0.600000;,
  0.333330;0.600000;,
  0.500000;0.600000;,
  0.666670;0.600000;,
  0.833330;0.600000;,
  1.000000;0.600000;,
  0.166670;0.800000;,
  0.000000;0.800000;,
  0.333330;0.800000;,
  0.500000;0.800000;,
  0.666670;0.800000;,
  0.833330;0.800000;,
  1.000000;0.800000;,
  0.083330;1.000000;,
  0.250000;1.000000;,
  0.416670;1.000000;,
  0.583330;1.000000;,
  0.750000;1.000000;,
  0.916670;1.000000;,
  0.000000;1.000000;,
  0.100000;0.000000;,
  0.200000;1.000000;,
  0.200000;0.000000;,
  0.400000;1.000000;,
  0.300000;0.000000;,
  0.600000;1.000000;,
  0.400000;0.000000;,
  0.800000;1.000000;,
  0.500000;0.000000;,
  1.000000;1.000000;,
  0.000000;0.000000;,
  0.000000;0.000000;,
  0.000000;0.000000;,
  0.000000;0.000000;,
  0.000000;0.000000;,
  0.000000;0.000000;,
  0.000000;1.000000;,
  0.100000;0.000000;,
  0.200000;1.000000;,
  0.200000;0.000000;,
  0.400000;1.000000;,
  0.300000;0.000000;,
  0.600000;1.000000;,
  0.400000;0.000000;,
  0.800000;1.000000;,
  0.500000;0.000000;,
  1.000000;1.000000;,
  0.000000;0.000000;,
  0.000000;0.000000;,
  0.000000;0.000000;,
  0.000000;0.000000;,
  0.000000;0.000000;,
  0.000000;0.000000;,
  0.000000;1.000000;,
  0.100000;0.000000;,
  0.200000;1.000000;,
  0.200000;0.000000;,
  0.400000;1.000000;,
  0.300000;0.000000;,
  0.600000;1.000000;,
  0.400000;0.000000;,
  0.800000;1.000000;,
  0.500000;0.000000;,
  1.000000;1.000000;,
  0.000000;0.000000;,
  0.000000;0.000000;,
  0.000000;0.000000;,
  0.000000;0.000000;,
  0.000000;0.000000;,
  0.000000;0.000000;;
 }
}
